PWM pins:

Counter	Arduino		Pin	
0	 4 *13		25 *32				Used for millis() , micros() and  delay() 
1	*11 12		*12 26		
2	 *9 *10		*29 *30		PWM1 SPDT1 
3	 *3  *5  2	*18 *31 19 	SCL
4	 *6  7  8	*27  1 28	PWM2 SPDT2