EESchema Schematic File Version 4
EELAYER 26 0
EELAYER END
$Descr A4 11693 8268
encoding utf-8
Sheet 1 1
Title ""
Date ""
Rev ""
Comp ""
Comment1 ""
Comment2 ""
Comment3 ""
Comment4 ""
$EndDescr
$Comp
L Device:LED D0
U 1 1 5BB83A1D
P 5375 975
F 0 "D0" H 5375 875 50  0000 C CNN
F 1 "LED_G" H 5375 1050 50  0000 C CNN
F 2 "LEDs:LED_0805" H 5375 975 50  0001 C CNN
F 3 "~" H 5375 975 50  0001 C CNN
	1    5375 975 
	-1   0    0    1   
$EndComp
$Comp
L Device:R_Small Rd0
U 1 1 5BB83B46
P 5650 975
F 0 "Rd0" V 5575 925 50  0000 L CNN
F 1 "1k" V 5650 925 50  0000 L CNN
F 2 "Resistors_SMD:R_0603" H 5650 975 50  0001 C CNN
F 3 "~" H 5650 975 50  0001 C CNN
	1    5650 975 
	0    1    1    0   
$EndComp
Text GLabel 4800 975  0    39   Input ~ 0
En
$Comp
L Device:R R1
U 1 1 5BB84CE3
P 3750 2850
F 0 "R1" H 3850 2850 50  0000 L CNN
F 1 "2" H 3725 2850 50  0000 L CNN
F 2 "Resistors_SMD:R_1206" V 3680 2850 50  0001 C CNN
F 3 "~" H 3750 2850 50  0001 C CNN
	1    3750 2850
	1    0    0    -1  
$EndComp
Text GLabel 4000 1475 0    39   Input ~ 0
Ud
$Comp
L Connector_Generic:Conn_02x10_Counter_Clockwise J0
U 1 1 5BB87B53
P 6625 2000
F 0 "J0" H 6675 2617 50  0000 C CNN
F 1 "Conn_02x10" H 6675 2526 50  0000 C CNN
F 2 ".pretty:2x10_LED_IMS_conn" H 6625 2000 50  0001 C CNN
F 3 "~" H 6625 2000 50  0001 C CNN
	1    6625 2000
	-1   0    0    -1  
$EndComp
Text GLabel 6125 1600 0    39   Input ~ 0
D1+
Wire Wire Line
	6125 1600 6225 1600
Text GLabel 6125 1700 0    39   Input ~ 0
D2+
Wire Wire Line
	6125 1700 6225 1700
$Comp
L dual_aop:Dual_AOP U2
U 1 1 5BB8C221
P 4600 2225
F 0 "U2" H 4875 2526 39  0000 C CNN
F 1 "Dual_AOP" H 4875 2451 39  0000 C CNN
F 2 "Housings_SSOP:MSOP-8_3x3mm_Pitch0.65mm" H 4600 2225 39  0001 C CNN
F 3 "" H 4600 2225 39  0001 C CNN
	1    4600 2225
	1    0    0    -1  
$EndComp
$Comp
L Device:R_Small R22
U 1 1 5BB8C375
P 4175 2175
F 0 "R22" H 4116 2129 50  0000 R CNN
F 1 "25" H 4116 2220 50  0000 R CNN
F 2 "Resistors_SMD:R_0603" H 4175 2175 50  0001 C CNN
F 3 "~" H 4175 2175 50  0001 C CNN
	1    4175 2175
	-1   0    0    1   
$EndComp
Wire Wire Line
	4175 2275 4400 2275
Wire Wire Line
	4400 2275 4400 2225
Wire Wire Line
	4175 2075 4400 2075
Wire Wire Line
	4400 2075 4400 2125
$Comp
L Device:R_Small R21
U 1 1 5BB8D375
P 5625 2275
F 0 "R21" H 5566 2229 50  0000 R CNN
F 1 "25" H 5566 2320 50  0000 R CNN
F 2 "Resistors_SMD:R_0603" H 5625 2275 50  0001 C CNN
F 3 "~" H 5625 2275 50  0001 C CNN
	1    5625 2275
	1    0    0    1   
$EndComp
Wire Wire Line
	5625 2375 5350 2375
Wire Wire Line
	5625 2175 5350 2175
Wire Wire Line
	5350 2175 5350 2225
Wire Wire Line
	5350 2325 5350 2375
Text GLabel 4350 2425 0    39   Input ~ 0
GND
Wire Wire Line
	4350 2425 4400 2425
Text GLabel 5425 2125 2    39   Input ~ 0
Vcc
Wire Wire Line
	5350 2125 5400 2125
$Comp
L Device:C_Small C2
U 1 1 5BB936FB
P 5400 1975
F 0 "C2" H 5492 2021 50  0000 L CNN
F 1 "100n" H 5492 1930 50  0000 L CNN
F 2 "Capacitors_SMD:C_0603" H 5400 1975 50  0001 C CNN
F 3 "~" H 5400 1975 50  0001 C CNN
	1    5400 1975
	1    0    0    -1  
$EndComp
Wire Wire Line
	5400 2075 5400 2125
Connection ~ 5400 2125
Wire Wire Line
	5400 2125 5425 2125
Text GLabel 5550 1825 2    39   Input ~ 0
GND
Wire Wire Line
	5550 1825 5400 1875
Text GLabel 4050 2075 0    39   Input ~ 0
U+
Wire Wire Line
	4175 2075 4050 2075
Connection ~ 4175 2075
$Comp
L TLV41:TLV4110 U1
U 1 1 5BB98CEB
P 4000 1225
F 0 "U1" H 4900 1275 50  0000 C CNN
F 1 "TLV4110" H 4375 1275 50  0000 C CNN
F 2 ".pretty:TVL4110-idDGN" H 4000 1225 50  0001 C CNN
F 3 "" H 4000 1225 50  0001 C CNN
F 4 "X" H 4000 1225 50  0001 C CNN "Spice_Primitive"
F 5 "TLV411xA" H 4000 1225 50  0001 C CNN "Spice_Model"
F 6 "Y" H 4000 1225 50  0001 C CNN "Spice_Netlist_Enabled"
F 7 "Spice\\sloj022.txt" H 4000 1225 50  0001 C CNN "Spice_Lib_File"
	1    4000 1225
	1    0    0    -1  
$EndComp
Wire Wire Line
	5150 1275 5175 1275
Wire Wire Line
	5525 975  5550 975 
Wire Wire Line
	5175 975  5175 1275
Text GLabel 5785 1375 2    39   Input ~ 0
PVcc
$Comp
L Device:C_Small C1
U 1 1 5BB9D58B
P 5275 1225
F 0 "C1" H 5367 1271 50  0000 L CNN
F 1 "100n" H 5367 1180 50  0000 L CNN
F 2 "Capacitors_SMD:C_0603" H 5275 1225 50  0001 C CNN
F 3 "~" H 5275 1225 50  0001 C CNN
	1    5275 1225
	1    0    0    -1  
$EndComp
Wire Wire Line
	5275 1325 5275 1375
Connection ~ 5275 1375
Wire Wire Line
	5275 1375 5625 1375
Text GLabel 5825 1125 2    39   Input ~ 0
GND
Wire Wire Line
	5825 1125 5775 1125
Wire Wire Line
	5175 975  5225 975 
Connection ~ 5175 975 
Wire Wire Line
	5150 1375 5275 1375
Wire Wire Line
	5750 975  5775 975 
Wire Wire Line
	5775 975  5775 1125
Connection ~ 5775 1125
Wire Wire Line
	5775 1125 5625 1125
NoConn ~ 4000 1275
NoConn ~ 5150 1575
Wire Wire Line
	4000 1575 4000 1925
Wire Wire Line
	4000 1925 4600 1925
Text GLabel 3450 3025 0    39   Input ~ 0
GND
Text GLabel 5725 2175 2    39   Input ~ 0
U-
Wire Wire Line
	5625 2175 5725 2175
Connection ~ 5625 2175
Wire Wire Line
	4000 1375 3750 1375
Text GLabel 7350 3150 0    39   Input ~ 0
Q8
Wire Wire Line
	6825 1700 9650 1700
$Comp
L Device:Q_NMOS_GSD Q2
U 1 1 5BBC07F7
P 9750 1900
F 0 "Q2" H 9600 1950 50  0000 L CNN
F 1 "NMOS" H 9525 2025 50  0000 L CNN
F 2 ".pretty:SOT523" H 9950 2000 50  0001 C CNN
F 3 "~" H 9750 1900 50  0001 C CNN
	1    9750 1900
	-1   0    0    -1  
$EndComp
$Comp
L Device:Q_NMOS_GSD Q3
U 1 1 5BBC08AB
P 9325 2000
F 0 "Q3" H 9175 2050 50  0000 L CNN
F 1 "NMOS" H 9100 2125 50  0000 L CNN
F 2 ".pretty:SOT523" H 9525 2100 50  0001 C CNN
F 3 "~" H 9325 2000 50  0001 C CNN
	1    9325 2000
	-1   0    0    -1  
$EndComp
Wire Wire Line
	9225 1800 6825 1800
$Comp
L Device:Q_NMOS_GSD Q4
U 1 1 5BBC1876
P 8900 2100
F 0 "Q4" H 8750 2150 50  0000 L CNN
F 1 "NMOS" H 8675 2225 50  0000 L CNN
F 2 ".pretty:SOT523" H 9100 2200 50  0001 C CNN
F 3 "~" H 8900 2100 50  0001 C CNN
F 4 "M" H 8900 2100 50  0001 C CNN "Spice_Primitive"
F 5 "NMOS" H 8900 2100 50  0001 C CNN "Spice_Model"
F 6 "Y" H 8900 2100 50  0001 C CNN "Spice_Netlist_Enabled"
	1    8900 2100
	-1   0    0    -1  
$EndComp
Wire Wire Line
	8800 1900 6825 1900
$Comp
L Device:Q_NMOS_GSD Q5
U 1 1 5BBC288B
P 8475 2200
F 0 "Q5" H 8325 2250 50  0000 L CNN
F 1 "NMOS" H 8250 2325 50  0000 L CNN
F 2 ".pretty:SOT523" H 8675 2300 50  0001 C CNN
F 3 "~" H 8475 2200 50  0001 C CNN
F 4 "M" H 8475 2200 50  0001 C CNN "Spice_Primitive"
F 5 "NMOS" H 8475 2200 50  0001 C CNN "Spice_Model"
F 6 "Y" H 8475 2200 50  0001 C CNN "Spice_Netlist_Enabled"
	1    8475 2200
	-1   0    0    -1  
$EndComp
Wire Wire Line
	8375 2000 6825 2000
Wire Wire Line
	6825 2100 7950 2100
Wire Wire Line
	6825 2300 7100 2300
$Comp
L Device:Q_NMOS_GSD Q6
U 1 1 5BBC39D9
P 8050 2300
F 0 "Q6" H 7900 2350 50  0000 L CNN
F 1 "NMOS" H 7825 2425 50  0000 L CNN
F 2 ".pretty:SOT523" H 8250 2400 50  0001 C CNN
F 3 "~" H 8050 2300 50  0001 C CNN
F 4 "M" H 8050 2300 50  0001 C CNN "Spice_Primitive"
F 5 "NMOS" H 8050 2300 50  0001 C CNN "Spice_Model"
F 6 "Y" H 8050 2300 50  0001 C CNN "Spice_Netlist_Enabled"
	1    8050 2300
	-1   0    0    -1  
$EndComp
$Comp
L Device:Q_NMOS_GSD Q7
U 1 1 5BBC48AA
P 7625 2400
F 0 "Q7" H 7475 2450 50  0000 L CNN
F 1 "NMOS" H 7400 2525 50  0000 L CNN
F 2 ".pretty:SOT523" H 7825 2500 50  0001 C CNN
F 3 "~" H 7625 2400 50  0001 C CNN
F 4 "M" H 7625 2400 50  0001 C CNN "Spice_Primitive"
F 5 "NMOS" H 7625 2400 50  0001 C CNN "Spice_Model"
F 6 "Y" H 7625 2400 50  0001 C CNN "Spice_Netlist_Enabled"
	1    7625 2400
	-1   0    0    -1  
$EndComp
Wire Wire Line
	6825 2200 7525 2200
$Comp
L Device:Q_NMOS_GSD Q8
U 1 1 5BBD4B18
P 7200 2500
F 0 "Q8" H 7050 2550 50  0000 L CNN
F 1 "NMOS" H 6975 2625 50  0000 L CNN
F 2 ".pretty:SOT523" H 7400 2600 50  0001 C CNN
F 3 "~" H 7200 2500 50  0001 C CNN
F 4 "M" H 7200 2500 50  0001 C CNN "Spice_Primitive"
F 5 "NMOS" H 7200 2500 50  0001 C CNN "Spice_Model"
F 6 "Y" H 7200 2500 50  0001 C CNN "Spice_Netlist_Enabled"
	1    7200 2500
	-1   0    0    -1  
$EndComp
Text GLabel 6125 1800 0    39   Input ~ 0
D3+
Text GLabel 6125 1900 0    39   Input ~ 0
D4+
Text GLabel 6125 2000 0    39   Input ~ 0
D5+
Text GLabel 6125 2100 0    39   Input ~ 0
D6+
Text GLabel 6125 2200 0    39   Input ~ 0
D7+
Text GLabel 6125 2300 0    39   Input ~ 0
D8+
Wire Wire Line
	7100 2700 7525 2700
Wire Wire Line
	7525 2700 7525 2600
Wire Wire Line
	7525 2700 7950 2700
Wire Wire Line
	7950 2700 7950 2500
Connection ~ 7525 2700
Wire Wire Line
	7950 2700 8375 2700
Wire Wire Line
	8375 2700 8375 2400
Connection ~ 7950 2700
Wire Wire Line
	8800 2300 8800 2700
Wire Wire Line
	8800 2700 8375 2700
Connection ~ 8375 2700
Wire Wire Line
	9225 2200 9225 2700
Wire Wire Line
	9225 2700 8800 2700
Connection ~ 8800 2700
Wire Wire Line
	9650 2100 9650 2700
Wire Wire Line
	9650 2700 9225 2700
Connection ~ 9225 2700
Wire Wire Line
	10075 2000 10075 2700
Wire Wire Line
	10075 2700 9650 2700
Connection ~ 9650 2700
Connection ~ 6225 1600
Wire Wire Line
	6225 1600 6325 1600
Connection ~ 6225 1700
Wire Wire Line
	6225 1700 6325 1700
Wire Wire Line
	6225 1475 6225 1600
Connection ~ 7100 2700
Text GLabel 6300 2400 0    39   Input ~ 0
GND
Text GLabel 6300 2500 0    39   Input ~ 0
SCL
Wire Wire Line
	6300 2400 6325 2400
Wire Wire Line
	6325 2500 6300 2500
Text GLabel 6850 2400 2    39   Input ~ 0
V3
Text GLabel 6850 2500 2    39   Input ~ 0
SDA
Wire Wire Line
	6850 2400 6825 2400
Wire Wire Line
	6825 2500 6850 2500
$Comp
L CD74HC237:CD74HC237 U3
U 1 1 5BC13B16
P 2450 4550
F 0 "U3" H 3125 3700 60  0000 R CNN
F 1 "CD74HC237" H 3150 4700 60  0000 R CNN
F 2 "Housings_SSOP:TSSOP-16_4.4x5mm_Pitch0.65mm" H 2450 4550 60  0001 C CNN
F 3 "" H 2450 4550 60  0001 C CNN
	1    2450 4550
	1    0    0    -1  
$EndComp
Wire Wire Line
	10375 1800 10375 2250
Wire Wire Line
	9100 2100 9100 2825
Wire Wire Line
	8250 2300 8250 2825
Wire Wire Line
	7400 2500 7400 2825
Text GLabel 3375 4550 2    39   Input ~ 0
Vcc
$Comp
L Device:C_Small C3
U 1 1 5BC35C45
P 3350 4400
F 0 "C3" V 3275 4450 50  0000 L CNN
F 1 "100n" V 3450 4350 50  0000 L CNN
F 2 "Capacitors_SMD:C_0603" H 3350 4400 50  0001 C CNN
F 3 "~" H 3350 4400 50  0001 C CNN
	1    3350 4400
	1    0    0    -1  
$EndComp
Wire Wire Line
	3350 4550 3375 4550
Text GLabel 3350 4225 1    39   Input ~ 0
GND
Wire Wire Line
	3350 4500 3350 4550
Wire Wire Line
	3350 4225 3350 4300
Text GLabel 2225 5250 0    39   Input ~ 0
GND
Text Label 5650 1475 0    79   ~ 0
D+
Wire Wire Line
	3750 2700 5900 2700
Text Label 5625 2700 0    79   ~ 0
D-
Connection ~ 3750 2700
Wire Wire Line
	3450 3025 3750 3025
Wire Wire Line
	3750 3025 3750 3000
Text GLabel 3975 1925 0    39   Input ~ 0
GND
Wire Wire Line
	3975 1925 4000 1925
Connection ~ 4000 1925
$Comp
L Device:LED D8
U 1 1 5BC8FD6D
P 7600 2825
F 0 "D8" H 7600 2750 50  0000 C CNN
F 1 "LED" H 7725 2775 50  0000 C CNN
F 2 "LEDs:LED_0805" H 7600 2825 50  0001 C CNN
F 3 "~" H 7600 2825 50  0001 C CNN
	1    7600 2825
	-1   0    0    1   
$EndComp
$Comp
L Device:R_Small Rd8
U 1 1 5BC8FD73
P 7700 2950
F 0 "Rd8" V 7625 2900 50  0000 L CNN
F 1 "1k" V 7700 2900 50  0000 L CNN
F 2 "Resistors_SMD:R_0603" H 7700 2950 50  0001 C CNN
F 3 "~" H 7700 2950 50  0001 C CNN
	1    7700 2950
	0    1    1    0   
$EndComp
Text GLabel 7575 2950 0    39   Input ~ 0
GND
Wire Wire Line
	7575 2950 7600 2950
Wire Wire Line
	7750 2825 7800 2825
Wire Wire Line
	7800 2825 7800 2950
$Comp
L Device:LED D1
U 1 1 5BCA156B
P 10575 2250
F 0 "D1" H 10575 2175 50  0000 C CNN
F 1 "LED" H 10700 2200 50  0000 C CNN
F 2 "LEDs:LED_0805" H 10575 2250 50  0001 C CNN
F 3 "~" H 10575 2250 50  0001 C CNN
	1    10575 2250
	-1   0    0    1   
$EndComp
$Comp
L Device:R_Small Rd1
U 1 1 5BCA1571
P 10675 2375
F 0 "Rd1" V 10600 2325 50  0000 L CNN
F 1 "1k" V 10675 2325 50  0000 L CNN
F 2 "Resistors_SMD:R_0603" H 10675 2375 50  0001 C CNN
F 3 "~" H 10675 2375 50  0001 C CNN
	1    10675 2375
	0    1    1    0   
$EndComp
Text GLabel 10550 2375 0    39   Input ~ 0
GND
Wire Wire Line
	10550 2375 10575 2375
Wire Wire Line
	10725 2250 10775 2250
Wire Wire Line
	10775 2250 10775 2375
Wire Wire Line
	7450 2825 7400 2825
$Comp
L Device:LED D2
U 1 1 5BCAAF18
P 10150 2825
F 0 "D2" H 10150 2750 50  0000 C CNN
F 1 "LED" H 10275 2775 50  0000 C CNN
F 2 "LEDs:LED_0805" H 10150 2825 50  0001 C CNN
F 3 "~" H 10150 2825 50  0001 C CNN
	1    10150 2825
	-1   0    0    1   
$EndComp
$Comp
L Device:R_Small Rd2
U 1 1 5BCAAF1E
P 10250 2950
F 0 "Rd2" V 10175 2900 50  0000 L CNN
F 1 "1k" V 10250 2900 50  0000 L CNN
F 2 "Resistors_SMD:R_0603" H 10250 2950 50  0001 C CNN
F 3 "~" H 10250 2950 50  0001 C CNN
	1    10250 2950
	0    1    1    0   
$EndComp
Text GLabel 10125 2950 0    39   Input ~ 0
GND
Wire Wire Line
	10125 2950 10150 2950
Wire Wire Line
	10300 2825 10350 2825
$Comp
L Device:LED D3
U 1 1 5BCB0132
P 9725 2825
F 0 "D3" H 9725 2750 50  0000 C CNN
F 1 "LED" H 9850 2775 50  0000 C CNN
F 2 "LEDs:LED_0805" H 9725 2825 50  0001 C CNN
F 3 "~" H 9725 2825 50  0001 C CNN
	1    9725 2825
	-1   0    0    1   
$EndComp
$Comp
L Device:R_Small Rd3
U 1 1 5BCB0138
P 9825 2950
F 0 "Rd3" V 9750 2900 50  0000 L CNN
F 1 "1k" V 9825 2900 50  0000 L CNN
F 2 "Resistors_SMD:R_0603" H 9825 2950 50  0001 C CNN
F 3 "~" H 9825 2950 50  0001 C CNN
	1    9825 2950
	0    1    1    0   
$EndComp
Text GLabel 9700 2950 0    39   Input ~ 0
GND
Wire Wire Line
	9700 2950 9725 2950
Wire Wire Line
	9875 2825 9925 2825
Wire Wire Line
	9925 2825 9925 2950
Wire Wire Line
	9575 2825 9525 2825
Wire Wire Line
	9525 2825 9525 2000
Wire Wire Line
	9950 1900 9950 2825
Wire Wire Line
	10000 2825 9950 2825
Wire Wire Line
	10350 2950 10350 2825
$Comp
L Device:LED D4
U 1 1 5BCC4FC8
P 9300 2825
F 0 "D4" H 9300 2750 50  0000 C CNN
F 1 "LED" H 9425 2775 50  0000 C CNN
F 2 "LEDs:LED_0805" H 9300 2825 50  0001 C CNN
F 3 "~" H 9300 2825 50  0001 C CNN
	1    9300 2825
	-1   0    0    1   
$EndComp
$Comp
L Device:R_Small Rd4
U 1 1 5BCC4FCE
P 9400 2950
F 0 "Rd4" V 9325 2900 50  0000 L CNN
F 1 "1k" V 9400 2900 50  0000 L CNN
F 2 "Resistors_SMD:R_0603" H 9400 2950 50  0001 C CNN
F 3 "~" H 9400 2950 50  0001 C CNN
	1    9400 2950
	0    1    1    0   
$EndComp
Text GLabel 9275 2950 0    39   Input ~ 0
GND
Wire Wire Line
	9275 2950 9300 2950
Wire Wire Line
	9450 2825 9500 2825
Wire Wire Line
	9500 2825 9500 2950
Wire Wire Line
	9150 2825 9100 2825
$Comp
L Device:LED D5
U 1 1 5BCCA784
P 8875 2825
F 0 "D5" H 8875 2750 50  0000 C CNN
F 1 "LED" H 9000 2775 50  0000 C CNN
F 2 "LEDs:LED_0805" H 8875 2825 50  0001 C CNN
F 3 "~" H 8875 2825 50  0001 C CNN
	1    8875 2825
	-1   0    0    1   
$EndComp
$Comp
L Device:R_Small Rd5
U 1 1 5BCCA78A
P 8975 2950
F 0 "Rd5" V 8900 2900 50  0000 L CNN
F 1 "1k" V 8975 2900 50  0000 L CNN
F 2 "Resistors_SMD:R_0603" H 8975 2950 50  0001 C CNN
F 3 "~" H 8975 2950 50  0001 C CNN
	1    8975 2950
	0    1    1    0   
$EndComp
Text GLabel 8850 2950 0    39   Input ~ 0
GND
Wire Wire Line
	8850 2950 8875 2950
Wire Wire Line
	9025 2825 9075 2825
Wire Wire Line
	9075 2825 9075 2950
Wire Wire Line
	8725 2825 8675 2825
Wire Wire Line
	8675 2825 8675 2200
$Comp
L Device:LED D6
U 1 1 5BCD04D2
P 8450 2825
F 0 "D6" H 8450 2750 50  0000 C CNN
F 1 "LED" H 8575 2775 50  0000 C CNN
F 2 "LEDs:LED_0805" H 8450 2825 50  0001 C CNN
F 3 "~" H 8450 2825 50  0001 C CNN
	1    8450 2825
	-1   0    0    1   
$EndComp
$Comp
L Device:R_Small Rd6
U 1 1 5BCD04D8
P 8550 2950
F 0 "Rd6" V 8475 2900 50  0000 L CNN
F 1 "1k" V 8550 2900 50  0000 L CNN
F 2 "Resistors_SMD:R_0603" H 8550 2950 50  0001 C CNN
F 3 "~" H 8550 2950 50  0001 C CNN
	1    8550 2950
	0    1    1    0   
$EndComp
Text GLabel 8425 2950 0    39   Input ~ 0
GND
Wire Wire Line
	8425 2950 8450 2950
Wire Wire Line
	8600 2825 8650 2825
Wire Wire Line
	8650 2825 8650 2950
Wire Wire Line
	8300 2825 8250 2825
$Comp
L Device:LED D7
U 1 1 5BCD687F
P 8025 2825
F 0 "D7" H 8025 2750 50  0000 C CNN
F 1 "LED" H 8150 2775 50  0000 C CNN
F 2 "LEDs:LED_0805" H 8025 2825 50  0001 C CNN
F 3 "~" H 8025 2825 50  0001 C CNN
	1    8025 2825
	-1   0    0    1   
$EndComp
$Comp
L Device:R_Small Rd7
U 1 1 5BCD6885
P 8125 2950
F 0 "Rd7" V 8050 2900 50  0000 L CNN
F 1 "1k" V 8125 2900 50  0000 L CNN
F 2 "Resistors_SMD:R_0603" H 8125 2950 50  0001 C CNN
F 3 "~" H 8125 2950 50  0001 C CNN
	1    8125 2950
	0    1    1    0   
$EndComp
Text GLabel 8000 2950 0    39   Input ~ 0
GND
Wire Wire Line
	8000 2950 8025 2950
Wire Wire Line
	8175 2825 8225 2825
Wire Wire Line
	8225 2825 8225 2950
Wire Wire Line
	7875 2825 7825 2825
Wire Wire Line
	7825 2825 7825 2400
Connection ~ 7400 2825
Wire Wire Line
	7400 2825 7400 3150
Wire Wire Line
	10425 2250 10375 2250
Text GLabel 1700 4850 0    39   Input ~ 0
GND
Text GLabel 1700 4550 0    39   Input ~ 0
SCL
Text GLabel 1700 4750 0    39   Input ~ 0
V3
Text GLabel 1700 4650 0    39   Input ~ 0
SDA
Text GLabel 2325 4350 2    39   Input ~ 0
U-
Text GLabel 2325 3950 2    39   Input ~ 0
U+
Text GLabel 2325 4250 2    39   Input ~ 0
Ud
Wire Wire Line
	2250 4250 2325 4250
Wire Wire Line
	2325 4350 2250 4350
Wire Wire Line
	2250 3950 2325 3950
Wire Wire Line
	6225 1600 6225 1700
Wire Wire Line
	6125 1800 6225 1800
Wire Wire Line
	6125 1900 6225 1900
Wire Wire Line
	6125 2000 6225 2000
Wire Wire Line
	6125 2100 6225 2100
Wire Wire Line
	6125 2200 6225 2200
Wire Wire Line
	6125 2300 6225 2300
Wire Wire Line
	6225 1700 6225 1800
Connection ~ 6225 1800
Wire Wire Line
	6225 1800 6325 1800
Wire Wire Line
	6225 1800 6225 1900
Connection ~ 6225 1900
Wire Wire Line
	6225 1900 6325 1900
Wire Wire Line
	6225 1900 6225 2000
Connection ~ 6225 2000
Wire Wire Line
	6225 2000 6325 2000
Wire Wire Line
	6225 2000 6225 2100
Connection ~ 6225 2100
Wire Wire Line
	6225 2100 6325 2100
Wire Wire Line
	6225 2100 6225 2200
Connection ~ 6225 2200
Wire Wire Line
	6225 2200 6325 2200
Wire Wire Line
	6225 2200 6225 2300
Connection ~ 6225 2300
Wire Wire Line
	6225 2300 6325 2300
Text GLabel 1075 850  0    39   Input ~ 0
GND
$Comp
L Device:R R100
U 1 1 5BDDE241
P 1275 850
F 0 "R100" V 1200 850 50  0000 C CNN
F 1 "0" V 1275 850 50  0000 C CNN
F 2 "Resistors_SMD:R_0603" V 1205 850 50  0001 C CNN
F 3 "~" H 1275 850 50  0001 C CNN
	1    1275 850 
	0    1    1    0   
$EndComp
Text GLabel 1475 850  2    39   Input ~ 0
GND
Wire Wire Line
	1075 850  1125 850 
Wire Wire Line
	1425 850  1475 850 
Text GLabel 1075 1025 0    39   Input ~ 0
GND
$Comp
L Device:R R101
U 1 1 5BDF0CF1
P 1275 1025
F 0 "R101" V 1200 1025 50  0000 C CNN
F 1 "0" V 1275 1025 50  0000 C CNN
F 2 "Resistors_SMD:R_0603" V 1205 1025 50  0001 C CNN
F 3 "~" H 1275 1025 50  0001 C CNN
	1    1275 1025
	0    1    1    0   
$EndComp
Text GLabel 1475 1025 2    39   Input ~ 0
GND
Wire Wire Line
	1075 1025 1125 1025
Wire Wire Line
	1425 1025 1475 1025
Text GLabel 1075 1200 0    39   Input ~ 0
GND
$Comp
L Device:R R102
U 1 1 5BDFA693
P 1275 1200
F 0 "R102" V 1200 1200 50  0000 C CNN
F 1 "0" V 1275 1200 50  0000 C CNN
F 2 "Resistors_SMD:R_0603" V 1205 1200 50  0001 C CNN
F 3 "~" H 1275 1200 50  0001 C CNN
	1    1275 1200
	0    1    1    0   
$EndComp
Text GLabel 1475 1200 2    39   Input ~ 0
GND
Wire Wire Line
	1075 1200 1125 1200
Wire Wire Line
	1425 1200 1475 1200
Wire Wire Line
	2225 5250 2280 5250
Wire Wire Line
	10075 1600 6825 1600
$Comp
L Device:Q_NMOS_GSD Q1
U 1 1 5BBBDB72
P 10175 1800
F 0 "Q1" H 10025 1850 50  0000 L CNN
F 1 "NMOS" H 9950 1925 50  0000 L CNN
F 2 ".pretty:SOT523" H 10375 1900 50  0001 C CNN
F 3 "~" H 10175 1800 50  0001 C CNN
	1    10175 1800
	-1   0    0    -1  
$EndComp
Wire Wire Line
	7350 3150 7400 3150
Text GLabel 7775 3150 0    39   Input ~ 0
Q7
Wire Wire Line
	7825 2825 7825 3150
Wire Wire Line
	7775 3150 7825 3150
Connection ~ 7825 2825
Text GLabel 8200 3150 0    39   Input ~ 0
Q6
Wire Wire Line
	8250 2825 8250 3150
Wire Wire Line
	8200 3150 8250 3150
Text GLabel 8625 3150 0    39   Input ~ 0
Q5
Wire Wire Line
	8675 2825 8675 3150
Wire Wire Line
	8625 3150 8675 3150
Connection ~ 8250 2825
Connection ~ 8675 2825
Text GLabel 9050 3150 0    39   Input ~ 0
Q4
Wire Wire Line
	9100 2825 9100 3150
Wire Wire Line
	9050 3150 9100 3150
Text GLabel 9475 3150 0    39   Input ~ 0
Q3
Wire Wire Line
	9525 2825 9525 3150
Wire Wire Line
	9475 3150 9525 3150
Text GLabel 9900 3150 0    39   Input ~ 0
Q2
Wire Wire Line
	9950 2825 9950 3150
Wire Wire Line
	9900 3150 9950 3150
Text GLabel 10325 3150 0    39   Input ~ 0
Q1
Wire Wire Line
	10325 3150 10375 3150
Connection ~ 9100 2825
Connection ~ 9525 2825
Connection ~ 9950 2825
Wire Wire Line
	10375 2250 10375 3150
Connection ~ 10375 2250
Text GLabel 2450 5150 0    39   Input ~ 0
Q8
Text GLabel 3350 5250 2    39   Input ~ 0
Q7
Text GLabel 3350 5150 2    39   Input ~ 0
Q6
Text GLabel 3350 5050 2    39   Input ~ 0
Q5
Text GLabel 3350 4950 2    39   Input ~ 0
Q4
Text GLabel 3350 4850 2    39   Input ~ 0
Q3
Text GLabel 3350 4750 2    39   Input ~ 0
Q2
Text GLabel 3350 4650 2    39   Input ~ 0
Q1
Text GLabel 1675 3950 0    39   Input ~ 0
En
$Comp
L Device:R R104
U 1 1 5BF03FF2
P 1275 1400
F 0 "R104" V 1200 1375 50  0000 C CNN
F 1 "0" V 1275 1400 50  0000 C CNN
F 2 "Resistors_SMD:R_0603" V 1205 1400 50  0001 C CNN
F 3 "~" H 1275 1400 50  0001 C CNN
	1    1275 1400
	0    1    1    0   
$EndComp
Text GLabel 1675 4250 0    39   Input ~ 0
Vcc
Wire Wire Line
	1675 3950 1750 3950
Wire Wire Line
	1700 4550 1750 4550
Wire Wire Line
	1700 4650 1750 4650
Wire Wire Line
	1700 4750 1750 4750
Wire Wire Line
	1700 4850 1750 4850
Wire Wire Line
	2250 4550 2450 4550
Wire Wire Line
	2450 4650 2250 4650
Wire Wire Line
	2250 4750 2450 4750
Wire Wire Line
	2250 4850 2375 4850
Wire Wire Line
	2375 4850 2375 5050
Wire Wire Line
	2375 5050 2450 5050
Text Label 2300 4550 0    50   ~ 0
A0
Text Label 2300 4650 0    50   ~ 0
A1
Text Label 2300 4750 0    50   ~ 0
A2
Text Label 2250 4850 0    50   ~ 0
Enable
$Comp
L Connector_Generic:Conn_02x10_Odd_Even J1
U 1 1 5C041D6A
P 1950 4350
F 0 "J1" H 2000 4967 50  0000 C CNN
F 1 "Conn_02x10_Odd_Even" H 2000 4876 50  0000 C CNN
F 2 "Pin_Headers:Pin_Header_Straight_2x10_Pitch2.54mm_SMD" H 1950 4350 50  0001 C CNN
F 3 "~" H 1950 4350 50  0001 C CNN
	1    1950 4350
	1    0    0    -1  
$EndComp
Wire Wire Line
	4800 975  5175 975 
Text GLabel 1075 1400 0    39   Input ~ 0
GND
Text GLabel 1475 1400 2    39   Input ~ 0
GND
Wire Wire Line
	1075 1400 1125 1400
Wire Wire Line
	1425 1400 1475 1400
NoConn ~ 1750 4350
$Comp
L Transistor_BJT:MMBT3904 QT2
U 1 1 5BB6F612
P 5275 4475
F 0 "QT2" H 5466 4521 50  0000 L CNN
F 1 "MMBT3904" H 5466 4430 50  0000 L CNN
F 2 ".pretty:SOT523" H 5475 4400 50  0001 L CIN
F 3 "https://www.fairchildsemi.com/datasheets/2N/2N3904.pdf" H 5275 4475 50  0001 L CNN
	1    5275 4475
	1    0    0    -1  
$EndComp
$Comp
L Transistor_BJT:MMBT3904 QT3
U 1 1 5BB6F7AF
P 6225 4500
F 0 "QT3" H 6416 4454 50  0000 L CNN
F 1 "MMBT3904" H 6416 4545 50  0000 L CNN
F 2 ".pretty:SOT523" H 6425 4425 50  0001 L CIN
F 3 "https://www.fairchildsemi.com/datasheets/2N/2N3904.pdf" H 6225 4500 50  0001 L CNN
	1    6225 4500
	1    0    0    1   
$EndComp
Wire Wire Line
	6025 4500 6025 4700
Wire Wire Line
	6025 4700 6325 4700
Wire Wire Line
	5075 4475 5075 4275
Wire Wire Line
	5075 4275 5375 4275
Wire Wire Line
	5375 4275 6325 4275
Wire Wire Line
	6325 4275 6325 4300
Connection ~ 5375 4275
Wire Wire Line
	6025 4700 5375 4700
Wire Wire Line
	5375 4700 5375 4675
Connection ~ 6025 4700
Connection ~ 5375 4700
Connection ~ 5075 4275
Text GLabel 4725 4700 0    39   Input ~ 0
DN
Text GLabel 4725 4275 0    39   Input ~ 0
DP
Wire Wire Line
	4725 4275 5075 4275
Wire Wire Line
	4725 4700 5375 4700
Text GLabel 2300 4450 2    39   Input ~ 0
DN
Text GLabel 1675 4450 0    39   Input ~ 0
DP
Wire Wire Line
	2250 4450 2300 4450
Wire Wire Line
	1675 4450 1750 4450
Wire Wire Line
	1675 4250 1750 4250
Text GLabel 1675 4150 0    39   Input ~ 0
PVcc
Wire Wire Line
	1675 4150 1750 4150
$Comp
L Device:C_Small C11
U 1 1 5BD0F57B
P 5625 1245
F 0 "C11" H 5717 1291 50  0000 L CNN
F 1 "10u" H 5717 1200 50  0000 L CNN
F 2 "Capacitors_SMD:C_0603" H 5625 1245 50  0001 C CNN
F 3 "~" H 5625 1245 50  0001 C CNN
	1    5625 1245
	1    0    0    -1  
$EndComp
Wire Wire Line
	5625 1145 5625 1125
Connection ~ 5625 1125
Wire Wire Line
	5625 1125 5275 1125
Wire Wire Line
	5625 1345 5625 1375
Connection ~ 5625 1375
Wire Wire Line
	5625 1375 5785 1375
$Comp
L Device:R_Small R23
U 1 1 5BD2B45B
P 4020 2325
F 0 "R23" V 4080 2355 50  0000 R CNN
F 1 "0" V 4015 2350 50  0000 R CNN
F 2 "Resistors_SMD:R_0603" H 4020 2325 50  0001 C CNN
F 3 "~" H 4020 2325 50  0001 C CNN
	1    4020 2325
	0    -1   -1   0   
$EndComp
Wire Wire Line
	4400 2325 4140 2325
Wire Wire Line
	3920 2325 3905 2325
$Comp
L Device:R_Small R20
U 1 1 5BD466F0
P 5740 2425
F 0 "R20" V 5800 2455 50  0000 R CNN
F 1 "0" V 5735 2450 50  0000 R CNN
F 2 "Resistors_SMD:R_0603" H 5740 2425 50  0001 C CNN
F 3 "~" H 5740 2425 50  0001 C CNN
	1    5740 2425
	0    -1   -1   0   
$EndComp
Wire Wire Line
	5840 2425 5865 2425
Wire Wire Line
	5640 2425 5615 2425
Wire Wire Line
	3905 2325 3905 2330
Wire Wire Line
	3905 2375 4140 2375
Wire Wire Line
	4140 2375 4140 2325
Connection ~ 4140 2325
Wire Wire Line
	4140 2325 4120 2325
Wire Wire Line
	5615 2425 5615 2485
Wire Wire Line
	5615 2485 5865 2485
Wire Wire Line
	5865 2485 5865 2425
Connection ~ 5615 2425
Wire Wire Line
	5615 2425 5350 2425
Connection ~ 5865 2425
Wire Wire Line
	5865 2425 5900 2425
Wire Wire Line
	3750 1375 3750 2700
Wire Wire Line
	5150 1475 5390 1475
Wire Wire Line
	5900 2425 5900 2700
Connection ~ 5900 2700
Wire Wire Line
	5900 2700 7100 2700
Wire Wire Line
	3905 2330 3885 2330
Wire Wire Line
	3885 2330 3885 2010
Wire Wire Line
	3885 2010 4700 2010
Wire Wire Line
	4700 2010 4700 1805
Wire Wire Line
	4700 1805 5390 1805
Wire Wire Line
	5390 1805 5390 1475
Connection ~ 3905 2330
Wire Wire Line
	3905 2330 3905 2375
Connection ~ 5390 1475
Wire Wire Line
	5390 1475 6225 1475
Text GLabel 1750 4050 0    39   Input ~ 0
GND
NoConn ~ 4000 1550
Text GLabel 2320 4150 2    39   Input ~ 0
GND
Wire Wire Line
	2250 4050 2250 4150
Wire Wire Line
	2250 4150 2320 4150
Connection ~ 2250 4150
Wire Wire Line
	2450 4850 2450 4900
Wire Wire Line
	2450 4900 2280 4900
Wire Wire Line
	2280 4900 2280 5250
Connection ~ 2450 4900
Wire Wire Line
	2450 4900 2450 4950
Connection ~ 2280 5250
Wire Wire Line
	2280 5250 2450 5250
$EndSCHEMATC
