G04 #@! TF.GenerationSoftware,KiCad,Pcbnew,(5.0.0)*
G04 #@! TF.CreationDate,2018-10-23T06:20:43+02:00*
G04 #@! TF.ProjectId,Driver_IMS_TLV_v2,4472697665725F494D535F544C565F76,rev?*
G04 #@! TF.SameCoordinates,Original*
G04 #@! TF.FileFunction,Profile,NP*
%FSLAX46Y46*%
G04 Gerber Fmt 4.6, Leading zero omitted, Abs format (unit mm)*
G04 Created by KiCad (PCBNEW (5.0.0)) date 10/23/18 06:20:43*
%MOMM*%
%LPD*%
G01*
G04 APERTURE LIST*
%ADD10C,0.150000*%
%ADD11C,0.200000*%
G04 APERTURE END LIST*
D10*
X108000000Y-40575001D02*
G75*
G02X110000000Y-38575001I2000000J0D01*
G01*
X110000000Y-68575001D02*
G75*
G02X108000000Y-66575001I0J2000000D01*
G01*
X153000000Y-38575001D02*
G75*
G02X155000000Y-40575001I0J-2000000D01*
G01*
X155000000Y-66575001D02*
G75*
G02X153000000Y-68575001I-2000000J0D01*
G01*
D11*
X153000000Y-38575001D02*
X110000000Y-38575001D01*
X155000000Y-66575001D02*
X155000000Y-40575001D01*
X110000000Y-68575001D02*
X153000000Y-68575001D01*
X108000000Y-40575001D02*
X108000000Y-66575001D01*
M02*
