G04 #@! TF.GenerationSoftware,KiCad,Pcbnew,(5.0.0)*
G04 #@! TF.CreationDate,2018-10-24T19:13:24+02:00*
G04 #@! TF.ProjectId,Interface PCB,496E74657266616365205043422E6B69,rev?*
G04 #@! TF.SameCoordinates,Original*
G04 #@! TF.FileFunction,Soldermask,Top*
G04 #@! TF.FilePolarity,Negative*
%FSLAX46Y46*%
G04 Gerber Fmt 4.6, Leading zero omitted, Abs format (unit mm)*
G04 Created by KiCad (PCBNEW (5.0.0)) date 10/24/18 19:13:24*
%MOMM*%
%LPD*%
G01*
G04 APERTURE LIST*
%ADD10R,1.600000X2.300000*%
%ADD11R,0.900000X0.400000*%
%ADD12R,0.800000X1.400000*%
%ADD13R,0.600000X0.500000*%
%ADD14R,1.300000X1.300000*%
%ADD15R,0.900000X0.850000*%
%ADD16R,0.850000X0.900000*%
%ADD17R,1.400000X0.800000*%
%ADD18R,0.650000X1.600000*%
%ADD19R,1.600000X0.650000*%
%ADD20R,1.500000X0.400000*%
%ADD21R,0.350000X1.200000*%
%ADD22R,1.160000X0.750000*%
%ADD23R,1.600000X2.000000*%
%ADD24C,1.550000*%
%ADD25R,0.500000X1.450000*%
%ADD26O,1.300000X2.000000*%
%ADD27R,1.300000X2.000000*%
%ADD28R,1.100000X3.250000*%
%ADD29R,3.250000X1.100000*%
%ADD30R,1.400000X1.600000*%
%ADD31R,1.600000X0.550000*%
%ADD32R,0.950000X1.050000*%
%ADD33R,1.100000X1.350000*%
%ADD34R,1.600000X1.700000*%
%ADD35R,2.300000X1.300000*%
%ADD36R,6.500000X5.900000*%
%ADD37R,1.350000X1.100000*%
%ADD38R,1.000000X0.600000*%
%ADD39R,0.600000X1.000000*%
G04 APERTURE END LIST*
D10*
G04 #@! TO.C,U12*
X115250000Y5110000D03*
D11*
X113750000Y4110000D03*
X113750000Y4610000D03*
X113750000Y5110000D03*
X113750000Y5610000D03*
X113750000Y6110000D03*
X116750000Y6110000D03*
X116750000Y5610000D03*
X116750000Y5110000D03*
X116750000Y4610000D03*
X116750000Y4110000D03*
G04 #@! TD*
D12*
G04 #@! TO.C,R12*
X114200000Y2710000D03*
X116100000Y2710000D03*
G04 #@! TD*
D13*
G04 #@! TO.C,Q12*
X112490000Y5660000D03*
X111190000Y5160000D03*
X111190000Y6160000D03*
G04 #@! TD*
D14*
G04 #@! TO.C,D12*
X120250000Y4610000D03*
X120250000Y2410000D03*
G04 #@! TD*
D15*
G04 #@! TO.C,C12*
X113800000Y7210000D03*
X115300000Y7210000D03*
G04 #@! TD*
G04 #@! TO.C,C1*
X21500000Y30660000D03*
X23000000Y30660000D03*
G04 #@! TD*
G04 #@! TO.C,C2*
X25600000Y31560000D03*
X27100000Y31560000D03*
G04 #@! TD*
G04 #@! TO.C,C3*
X119450000Y10460000D03*
X117950000Y10460000D03*
G04 #@! TD*
G04 #@! TO.C,C4*
X7224881Y17419597D03*
X5724881Y17419597D03*
G04 #@! TD*
D16*
G04 #@! TO.C,C6*
X14640000Y42935000D03*
X14640000Y41435000D03*
G04 #@! TD*
D15*
G04 #@! TO.C,C9*
X7224881Y13419597D03*
X5724881Y13419597D03*
G04 #@! TD*
D16*
G04 #@! TO.C,C10*
X25400000Y39060000D03*
X25400000Y37560000D03*
G04 #@! TD*
D15*
G04 #@! TO.C,C11*
X23850000Y7110000D03*
X22350000Y7110000D03*
G04 #@! TD*
D16*
G04 #@! TO.C,C15*
X7550000Y19210000D03*
X7550000Y20710000D03*
G04 #@! TD*
D14*
G04 #@! TO.C,D0*
X102800000Y28360000D03*
X105000000Y28360000D03*
G04 #@! TD*
G04 #@! TO.C,D1*
X111100000Y28460000D03*
X113300000Y28460000D03*
G04 #@! TD*
G04 #@! TO.C,D2*
X27540000Y18365000D03*
X25340000Y18365000D03*
G04 #@! TD*
G04 #@! TO.C,D3*
X14950000Y5960000D03*
X14950000Y3760000D03*
G04 #@! TD*
G04 #@! TO.C,D11*
X28340000Y2310000D03*
X28340000Y4510000D03*
G04 #@! TD*
D13*
G04 #@! TO.C,Q11*
X19990000Y6010000D03*
X19990000Y5010000D03*
X21290000Y5510000D03*
G04 #@! TD*
D12*
G04 #@! TO.C,R1*
X6150000Y19910000D03*
X4250000Y19910000D03*
G04 #@! TD*
D17*
G04 #@! TO.C,R2*
X19700000Y36510000D03*
X19700000Y38410000D03*
G04 #@! TD*
G04 #@! TO.C,R3*
X21700000Y38410000D03*
X21700000Y36510000D03*
G04 #@! TD*
G04 #@! TO.C,R5*
X18950000Y9310000D03*
X18950000Y7410000D03*
G04 #@! TD*
D12*
G04 #@! TO.C,R11*
X24650000Y2610000D03*
X22750000Y2610000D03*
G04 #@! TD*
D18*
G04 #@! TO.C,U0*
X18950000Y22460000D03*
X18150000Y22460000D03*
X17350000Y22460000D03*
X16550000Y22460000D03*
X15750000Y22460000D03*
X14950000Y22460000D03*
X14150000Y22460000D03*
X13350000Y22460000D03*
X12550000Y22460000D03*
X11750000Y22460000D03*
X10950000Y22460000D03*
D19*
X9250000Y20760000D03*
X9250000Y19960000D03*
X9250000Y19160000D03*
X9250000Y18360000D03*
X9250000Y17560000D03*
X9250000Y16760000D03*
X9250000Y15960000D03*
X9250000Y15160000D03*
X9250000Y14360000D03*
X9250000Y13560000D03*
X9250000Y12760000D03*
D18*
X10950000Y11060000D03*
X11750000Y11060000D03*
X12550000Y11060000D03*
X13350000Y11060000D03*
X14150000Y11060000D03*
X14950000Y11060000D03*
X15750000Y11060000D03*
X16550000Y11060000D03*
X17350000Y11060000D03*
X18150000Y11060000D03*
X18950000Y11060000D03*
D19*
X20650000Y12760000D03*
X20650000Y13560000D03*
X20650000Y14360000D03*
X20650000Y15160000D03*
X20650000Y15960000D03*
X20650000Y16760000D03*
X20650000Y17560000D03*
X20650000Y18360000D03*
X20650000Y19160000D03*
X20650000Y19960000D03*
X20650000Y20760000D03*
G04 #@! TD*
D20*
G04 #@! TO.C,U1*
X19950000Y29060000D03*
X19950000Y28560000D03*
X19950000Y28060000D03*
X19950000Y27560000D03*
X19950000Y27060000D03*
X24350000Y27060000D03*
X24350000Y27560000D03*
X24350000Y28060000D03*
X24350000Y28560000D03*
X24350000Y29060000D03*
G04 #@! TD*
D21*
G04 #@! TO.C,U2*
X26350000Y25810000D03*
X26850000Y25810000D03*
X27350000Y25810000D03*
X27850000Y25810000D03*
X28350000Y25810000D03*
X28350000Y30110000D03*
X27850000Y30110000D03*
X27350000Y30110000D03*
X26850000Y30110000D03*
X26350000Y30110000D03*
G04 #@! TD*
D22*
G04 #@! TO.C,U6*
X106900000Y31910000D03*
X106900000Y30960000D03*
X106900000Y30010000D03*
X109100000Y30010000D03*
X109100000Y31910000D03*
G04 #@! TD*
D11*
G04 #@! TO.C,U11*
X25300000Y4010000D03*
X25300000Y4510000D03*
X25300000Y5010000D03*
X25300000Y5510000D03*
X25300000Y6010000D03*
X22300000Y6010000D03*
X22300000Y5510000D03*
X22300000Y5010000D03*
X22300000Y4510000D03*
X22300000Y4010000D03*
D10*
X23800000Y5010000D03*
G04 #@! TD*
D16*
G04 #@! TO.C,C13*
X14950000Y25810000D03*
X14950000Y24310000D03*
G04 #@! TD*
D15*
G04 #@! TO.C,C14*
X24100000Y20060000D03*
X22600000Y20060000D03*
G04 #@! TD*
G04 #@! TO.C,C16*
X6050000Y4210000D03*
X4550000Y4210000D03*
G04 #@! TD*
D23*
G04 #@! TO.C,J0*
X20850000Y43610000D03*
D24*
X24350000Y40910000D03*
D25*
X22500000Y40910000D03*
X23150000Y40910000D03*
X20550000Y40910000D03*
X21200000Y40910000D03*
X21850000Y40910000D03*
D24*
X19350000Y40910000D03*
D23*
X22850000Y43610000D03*
D26*
X25350000Y43610000D03*
X18350000Y43610000D03*
D27*
X18950000Y43610000D03*
X24750000Y43610000D03*
G04 #@! TD*
D28*
G04 #@! TO.C,J3*
X4340000Y37485000D03*
X4340000Y42535000D03*
X6880000Y37485000D03*
X6880000Y42535000D03*
X9420000Y37485000D03*
X9420000Y42535000D03*
X11960000Y37485000D03*
X11960000Y42535000D03*
G04 #@! TD*
G04 #@! TO.C,J5*
X113490000Y37735000D03*
X113490000Y42785000D03*
X116030000Y37735000D03*
X116030000Y42785000D03*
X118570000Y37735000D03*
X118570000Y42785000D03*
X121110000Y37735000D03*
X121110000Y42785000D03*
G04 #@! TD*
D29*
G04 #@! TO.C,J6*
X97153735Y9531342D03*
X102203735Y9531342D03*
X97153735Y6991342D03*
X102203735Y6991342D03*
X97153735Y4451342D03*
X102203735Y4451342D03*
X97153735Y1911342D03*
X102203735Y1911342D03*
G04 #@! TD*
G04 #@! TO.C,J8*
X97715000Y43495000D03*
X102765000Y43495000D03*
X97715000Y40955000D03*
X102765000Y40955000D03*
X97715000Y38415000D03*
X102765000Y38415000D03*
X97715000Y35875000D03*
X102765000Y35875000D03*
G04 #@! TD*
D13*
G04 #@! TO.C,Q1*
X104440000Y6985000D03*
X105740000Y7485000D03*
X105740000Y6485000D03*
G04 #@! TD*
G04 #@! TO.C,Q2*
X105740000Y8985000D03*
X105740000Y9985000D03*
X104440000Y9485000D03*
G04 #@! TD*
D30*
G04 #@! TO.C,R6*
X121100000Y32260000D03*
X121100000Y29560000D03*
G04 #@! TD*
G04 #@! TO.C,R7*
X118500000Y29510000D03*
X118500000Y32210000D03*
G04 #@! TD*
G04 #@! TO.C,R100*
X23700000Y36010000D03*
X23700000Y38710000D03*
G04 #@! TD*
D31*
G04 #@! TO.C,U4*
X121150000Y11885000D03*
X121150000Y12535000D03*
X121150000Y13185000D03*
X121150000Y13835000D03*
X121150000Y14485000D03*
X121150000Y15135000D03*
X121150000Y15785000D03*
X121150000Y16435000D03*
X115250000Y16435000D03*
X115250000Y15785000D03*
X115250000Y15135000D03*
X115250000Y14485000D03*
X115250000Y13835000D03*
X115250000Y13185000D03*
X115250000Y12535000D03*
X115250000Y11885000D03*
G04 #@! TD*
G04 #@! TO.C,U5*
X2250000Y5685000D03*
X2250000Y6335000D03*
X2250000Y6985000D03*
X2250000Y7635000D03*
X2250000Y8285000D03*
X2250000Y8935000D03*
X2250000Y9585000D03*
X2250000Y10235000D03*
X8150000Y10235000D03*
X8150000Y9585000D03*
X8150000Y8935000D03*
X8150000Y8285000D03*
X8150000Y7635000D03*
X8150000Y6985000D03*
X8150000Y6335000D03*
X8150000Y5685000D03*
G04 #@! TD*
D32*
G04 #@! TO.C,Y1*
X5904881Y14689597D03*
X7054881Y14689597D03*
X5904881Y16139597D03*
X7054881Y16139597D03*
G04 #@! TD*
D29*
G04 #@! TO.C,J4*
X5773735Y32891342D03*
X10823735Y32891342D03*
X5773735Y30351342D03*
X10823735Y30351342D03*
X5773735Y27811342D03*
X10823735Y27811342D03*
X5773735Y25271342D03*
X10823735Y25271342D03*
G04 #@! TD*
D33*
G04 #@! TO.C,C17*
X97840000Y13485000D03*
X95840000Y13485000D03*
G04 #@! TD*
D15*
G04 #@! TO.C,C18*
X97790000Y15785000D03*
X96290000Y15785000D03*
G04 #@! TD*
D16*
G04 #@! TO.C,C19*
X111315000Y40885000D03*
X111315000Y39385000D03*
G04 #@! TD*
D14*
G04 #@! TO.C,D4*
X101340000Y20385000D03*
X99140000Y20385000D03*
G04 #@! TD*
G04 #@! TO.C,RV1*
X97440000Y17885000D03*
X97440000Y20685000D03*
D34*
X94190000Y19285000D03*
G04 #@! TD*
D35*
G04 #@! TO.C,U3*
X100140000Y18065000D03*
X100140000Y15785000D03*
X100140000Y13505000D03*
D36*
X106440000Y15785000D03*
G04 #@! TD*
D21*
G04 #@! TO.C,U7*
X107815000Y37785000D03*
X108315000Y37785000D03*
X108815000Y37785000D03*
X109315000Y37785000D03*
X109815000Y37785000D03*
X109815000Y42085000D03*
X109315000Y42085000D03*
X108815000Y42085000D03*
X108315000Y42085000D03*
X107815000Y42085000D03*
G04 #@! TD*
D37*
G04 #@! TO.C,C5*
X93940000Y5785000D03*
X93940000Y3785000D03*
G04 #@! TD*
D16*
G04 #@! TO.C,C7*
X105000000Y30110000D03*
X105000000Y31610000D03*
G04 #@! TD*
G04 #@! TO.C,C8*
X111100000Y31710000D03*
X111100000Y30210000D03*
G04 #@! TD*
G04 #@! TO.C,C66*
X95140000Y37935000D03*
X95140000Y36435000D03*
G04 #@! TD*
D15*
G04 #@! TO.C,C67*
X20820000Y35095000D03*
X22320000Y35095000D03*
G04 #@! TD*
D38*
G04 #@! TO.C,Rd0*
X102900000Y30110000D03*
X102900000Y31610000D03*
G04 #@! TD*
G04 #@! TO.C,Rd1*
X113200000Y30210000D03*
X113200000Y31710000D03*
G04 #@! TD*
D39*
G04 #@! TO.C,Rd2*
X24100000Y18360000D03*
X22600000Y18360000D03*
G04 #@! TD*
D38*
G04 #@! TO.C,Rd3*
X14950000Y9110000D03*
X14950000Y7610000D03*
G04 #@! TD*
D39*
G04 #@! TO.C,Rd4*
X104490000Y20385000D03*
X102990000Y20385000D03*
G04 #@! TD*
D38*
G04 #@! TO.C,Rd11*
X26715000Y4710000D03*
X26715000Y3210000D03*
G04 #@! TD*
G04 #@! TO.C,Rd12*
X118513000Y4834000D03*
X118513000Y3334000D03*
G04 #@! TD*
M02*
