G04 #@! TF.GenerationSoftware,KiCad,Pcbnew,(5.0.0)*
G04 #@! TF.CreationDate,2018-10-24T19:13:24+02:00*
G04 #@! TF.ProjectId,Interface PCB,496E74657266616365205043422E6B69,rev?*
G04 #@! TF.SameCoordinates,Original*
G04 #@! TF.FileFunction,Legend,Bot*
G04 #@! TF.FilePolarity,Positive*
%FSLAX46Y46*%
G04 Gerber Fmt 4.6, Leading zero omitted, Abs format (unit mm)*
G04 Created by KiCad (PCBNEW (5.0.0)) date 10/24/18 19:13:24*
%MOMM*%
%LPD*%
G01*
G04 APERTURE LIST*
%ADD10C,0.200000*%
%ADD11C,0.300000*%
%ADD12C,0.010000*%
%ADD13C,0.120000*%
G04 APERTURE END LIST*
D10*
X53326190Y44292619D02*
X53213095Y43292619D01*
X52933333Y44006904D01*
X52832142Y43292619D01*
X52469047Y44292619D01*
X52213095Y43292619D02*
X52088095Y44292619D01*
X51784523Y43292619D02*
X51719047Y43816428D01*
X51754761Y43911666D01*
X51844047Y43959285D01*
X51986904Y43959285D01*
X52088095Y43911666D01*
X52141666Y43864047D01*
X50921428Y43340238D02*
X51022619Y43292619D01*
X51213095Y43292619D01*
X51302380Y43340238D01*
X51338095Y43435476D01*
X51290476Y43816428D01*
X51230952Y43911666D01*
X51129761Y43959285D01*
X50939285Y43959285D01*
X50850000Y43911666D01*
X50814285Y43816428D01*
X50826190Y43721190D01*
X51314285Y43625952D01*
X50367857Y43959285D02*
X50451190Y43292619D01*
X50379761Y43864047D02*
X50326190Y43911666D01*
X50225000Y43959285D01*
X50082142Y43959285D01*
X49992857Y43911666D01*
X49957142Y43816428D01*
X50022619Y43292619D01*
X48844047Y43959285D02*
X48463095Y43959285D01*
X48659523Y44292619D02*
X48766666Y43435476D01*
X48730952Y43340238D01*
X48641666Y43292619D01*
X48546428Y43292619D01*
X48213095Y43292619D02*
X48088095Y44292619D01*
X47784523Y43292619D02*
X47719047Y43816428D01*
X47754761Y43911666D01*
X47844047Y43959285D01*
X47986904Y43959285D01*
X48088095Y43911666D01*
X48141666Y43864047D01*
X46921428Y43340238D02*
X47022619Y43292619D01*
X47213095Y43292619D01*
X47302380Y43340238D01*
X47338095Y43435476D01*
X47290476Y43816428D01*
X47230952Y43911666D01*
X47129761Y43959285D01*
X46939285Y43959285D01*
X46850000Y43911666D01*
X46814285Y43816428D01*
X46826190Y43721190D01*
X47314285Y43625952D01*
X46451190Y43292619D02*
X46367857Y43959285D01*
X46391666Y43768809D02*
X46332142Y43864047D01*
X46278571Y43911666D01*
X46177380Y43959285D01*
X46082142Y43959285D01*
X45445238Y43340238D02*
X45546428Y43292619D01*
X45736904Y43292619D01*
X45826190Y43340238D01*
X45861904Y43435476D01*
X45814285Y43816428D01*
X45754761Y43911666D01*
X45653571Y43959285D01*
X45463095Y43959285D01*
X45373809Y43911666D01*
X45338095Y43816428D01*
X45350000Y43721190D01*
X45838095Y43625952D01*
X44213095Y43292619D02*
X44129761Y43959285D01*
X44088095Y44292619D02*
X44141666Y44245000D01*
X44100000Y44197380D01*
X44046428Y44245000D01*
X44088095Y44292619D01*
X44100000Y44197380D01*
X43778571Y43340238D02*
X43689285Y43292619D01*
X43498809Y43292619D01*
X43397619Y43340238D01*
X43338095Y43435476D01*
X43332142Y43483095D01*
X43367857Y43578333D01*
X43457142Y43625952D01*
X43600000Y43625952D01*
X43689285Y43673571D01*
X43725000Y43768809D01*
X43719047Y43816428D01*
X43659523Y43911666D01*
X43558333Y43959285D01*
X43415476Y43959285D01*
X43326190Y43911666D01*
X41736904Y43292619D02*
X41671428Y43816428D01*
X41707142Y43911666D01*
X41796428Y43959285D01*
X41986904Y43959285D01*
X42088095Y43911666D01*
X41730952Y43340238D02*
X41832142Y43292619D01*
X42070238Y43292619D01*
X42159523Y43340238D01*
X42195238Y43435476D01*
X42183333Y43530714D01*
X42123809Y43625952D01*
X42022619Y43673571D01*
X41784523Y43673571D01*
X41683333Y43721190D01*
X40022619Y43292619D02*
X40498809Y43292619D01*
X40373809Y44292619D01*
X39689285Y43292619D02*
X39605952Y43959285D01*
X39564285Y44292619D02*
X39617857Y44245000D01*
X39576190Y44197380D01*
X39522619Y44245000D01*
X39564285Y44292619D01*
X39576190Y44197380D01*
X38701190Y43959285D02*
X38802380Y43149761D01*
X38861904Y43054523D01*
X38915476Y43006904D01*
X39016666Y42959285D01*
X39159523Y42959285D01*
X39248809Y43006904D01*
X38778571Y43340238D02*
X38879761Y43292619D01*
X39070238Y43292619D01*
X39159523Y43340238D01*
X39201190Y43387857D01*
X39236904Y43483095D01*
X39201190Y43768809D01*
X39141666Y43864047D01*
X39088095Y43911666D01*
X38986904Y43959285D01*
X38796428Y43959285D01*
X38707142Y43911666D01*
X38308333Y43292619D02*
X38183333Y44292619D01*
X37879761Y43292619D02*
X37814285Y43816428D01*
X37850000Y43911666D01*
X37939285Y43959285D01*
X38082142Y43959285D01*
X38183333Y43911666D01*
X38236904Y43864047D01*
X37463095Y43959285D02*
X37082142Y43959285D01*
X37278571Y44292619D02*
X37385714Y43435476D01*
X37350000Y43340238D01*
X37260714Y43292619D01*
X37165476Y43292619D01*
X36778571Y43340238D02*
X36784523Y43292619D01*
X36844047Y43197380D01*
X36897619Y43149761D01*
X50653571Y42259285D02*
X50272619Y42259285D01*
X50469047Y42592619D02*
X50576190Y41735476D01*
X50540476Y41640238D01*
X50451190Y41592619D01*
X50355952Y41592619D01*
X50022619Y41592619D02*
X49897619Y42592619D01*
X49594047Y41592619D02*
X49528571Y42116428D01*
X49564285Y42211666D01*
X49653571Y42259285D01*
X49796428Y42259285D01*
X49897619Y42211666D01*
X49951190Y42164047D01*
X48730952Y41640238D02*
X48832142Y41592619D01*
X49022619Y41592619D01*
X49111904Y41640238D01*
X49147619Y41735476D01*
X49100000Y42116428D01*
X49040476Y42211666D01*
X48939285Y42259285D01*
X48748809Y42259285D01*
X48659523Y42211666D01*
X48623809Y42116428D01*
X48635714Y42021190D01*
X49123809Y41925952D01*
X48260714Y41592619D02*
X48177380Y42259285D01*
X48201190Y42068809D02*
X48141666Y42164047D01*
X48088095Y42211666D01*
X47986904Y42259285D01*
X47891666Y42259285D01*
X47254761Y41640238D02*
X47355952Y41592619D01*
X47546428Y41592619D01*
X47635714Y41640238D01*
X47671428Y41735476D01*
X47623809Y42116428D01*
X47564285Y42211666D01*
X47463095Y42259285D01*
X47272619Y42259285D01*
X47183333Y42211666D01*
X47147619Y42116428D01*
X47159523Y42021190D01*
X47647619Y41925952D01*
X46022619Y41592619D02*
X45939285Y42259285D01*
X45897619Y42592619D02*
X45951190Y42545000D01*
X45909523Y42497380D01*
X45855952Y42545000D01*
X45897619Y42592619D01*
X45909523Y42497380D01*
X45588095Y41640238D02*
X45498809Y41592619D01*
X45308333Y41592619D01*
X45207142Y41640238D01*
X45147619Y41735476D01*
X45141666Y41783095D01*
X45177380Y41878333D01*
X45266666Y41925952D01*
X45409523Y41925952D01*
X45498809Y41973571D01*
X45534523Y42068809D01*
X45528571Y42116428D01*
X45469047Y42211666D01*
X45367857Y42259285D01*
X45225000Y42259285D01*
X45135714Y42211666D01*
X43546428Y41592619D02*
X43480952Y42116428D01*
X43516666Y42211666D01*
X43605952Y42259285D01*
X43796428Y42259285D01*
X43897619Y42211666D01*
X43540476Y41640238D02*
X43641666Y41592619D01*
X43879761Y41592619D01*
X43969047Y41640238D01*
X44004761Y41735476D01*
X43992857Y41830714D01*
X43933333Y41925952D01*
X43832142Y41973571D01*
X43594047Y41973571D01*
X43492857Y42021190D01*
X42320238Y42259285D02*
X42213095Y41592619D01*
X41963095Y42068809D01*
X41832142Y41592619D01*
X41558333Y42259285D01*
X40832142Y41592619D02*
X40766666Y42116428D01*
X40802380Y42211666D01*
X40891666Y42259285D01*
X41082142Y42259285D01*
X41183333Y42211666D01*
X40826190Y41640238D02*
X40927380Y41592619D01*
X41165476Y41592619D01*
X41254761Y41640238D01*
X41290476Y41735476D01*
X41278571Y41830714D01*
X41219047Y41925952D01*
X41117857Y41973571D01*
X40879761Y41973571D01*
X40778571Y42021190D01*
X40367857Y42259285D02*
X40213095Y41592619D01*
X39891666Y42259285D02*
X40213095Y41592619D01*
X40338095Y41354523D01*
X40391666Y41306904D01*
X40492857Y41259285D01*
X39582142Y41687857D02*
X39540476Y41640238D01*
X39594047Y41592619D01*
X39635714Y41640238D01*
X39582142Y41687857D01*
X39594047Y41592619D01*
X108243174Y27160386D02*
X108243174Y28160386D01*
X108243174Y27208005D02*
X108338412Y27160386D01*
X108528888Y27160386D01*
X108624126Y27208005D01*
X108671745Y27255624D01*
X108719364Y27350862D01*
X108719364Y27636576D01*
X108671745Y27731814D01*
X108624126Y27779433D01*
X108528888Y27827052D01*
X108338412Y27827052D01*
X108243174Y27779433D01*
X107766983Y27827052D02*
X107766983Y26827052D01*
X107766983Y27779433D02*
X107671745Y27827052D01*
X107481269Y27827052D01*
X107386031Y27779433D01*
X107338412Y27731814D01*
X107290793Y27636576D01*
X107290793Y27350862D01*
X107338412Y27255624D01*
X107386031Y27208005D01*
X107481269Y27160386D01*
X107671745Y27160386D01*
X107766983Y27208005D01*
X118605079Y27250862D02*
X118652698Y27155624D01*
X118652698Y27012767D01*
X118605079Y26869909D01*
X118509840Y26774671D01*
X118414602Y26727052D01*
X118224126Y26679433D01*
X118081269Y26679433D01*
X117890793Y26727052D01*
X117795555Y26774671D01*
X117700317Y26869909D01*
X117652698Y27012767D01*
X117652698Y27108005D01*
X117700317Y27250862D01*
X117747936Y27298481D01*
X118081269Y27298481D01*
X118081269Y27108005D01*
X117652698Y27727052D02*
X118652698Y27727052D01*
X117652698Y28298481D01*
X118652698Y28298481D01*
X117652698Y28774671D02*
X118652698Y28774671D01*
X118652698Y29012767D01*
X118605079Y29155624D01*
X118509840Y29250862D01*
X118414602Y29298481D01*
X118224126Y29346100D01*
X118081269Y29346100D01*
X117890793Y29298481D01*
X117795555Y29250862D01*
X117700317Y29155624D01*
X117652698Y29012767D01*
X117652698Y28774671D01*
X107766983Y17265147D02*
X107766983Y16265147D01*
X107766983Y17217528D02*
X107671745Y17265147D01*
X107481269Y17265147D01*
X107386031Y17217528D01*
X107338412Y17169909D01*
X107290793Y17074671D01*
X107290793Y16788957D01*
X107338412Y16693719D01*
X107386031Y16646100D01*
X107481269Y16598481D01*
X107671745Y16598481D01*
X107766983Y16646100D01*
X108243174Y16598481D02*
X108243174Y17265147D01*
X108243174Y16693719D02*
X108290793Y16646100D01*
X108386031Y16598481D01*
X108528888Y16598481D01*
X108624126Y16646100D01*
X108671745Y16741338D01*
X108671745Y17265147D01*
X113652698Y16095171D02*
X112843174Y16095171D01*
X112747936Y16142790D01*
X112700317Y16190409D01*
X112652698Y16285647D01*
X112652698Y16476124D01*
X112700317Y16571362D01*
X112747936Y16618981D01*
X112843174Y16666600D01*
X113652698Y16666600D01*
X112652698Y17571362D02*
X113652698Y17571362D01*
X112700317Y17571362D02*
X112652698Y17476124D01*
X112652698Y17285647D01*
X112700317Y17190409D01*
X112747936Y17142790D01*
X112843174Y17095171D01*
X113128888Y17095171D01*
X113224126Y17142790D01*
X113271745Y17190409D01*
X113319364Y17285647D01*
X113319364Y17476124D01*
X113271745Y17571362D01*
X98205079Y27250862D02*
X98252698Y27155624D01*
X98252698Y27012767D01*
X98205079Y26869909D01*
X98109840Y26774671D01*
X98014602Y26727052D01*
X97824126Y26679433D01*
X97681269Y26679433D01*
X97490793Y26727052D01*
X97395555Y26774671D01*
X97300317Y26869909D01*
X97252698Y27012767D01*
X97252698Y27108005D01*
X97300317Y27250862D01*
X97347936Y27298481D01*
X97681269Y27298481D01*
X97681269Y27108005D01*
X97252698Y27727052D02*
X98252698Y27727052D01*
X97252698Y28298481D01*
X98252698Y28298481D01*
X97252698Y28774671D02*
X98252698Y28774671D01*
X98252698Y29012767D01*
X98205079Y29155624D01*
X98109840Y29250862D01*
X98014602Y29298481D01*
X97824126Y29346100D01*
X97681269Y29346100D01*
X97490793Y29298481D01*
X97395555Y29250862D01*
X97300317Y29155624D01*
X97252698Y29012767D01*
X97252698Y28774671D01*
X102500317Y26698481D02*
X102452698Y26841338D01*
X102452698Y27079433D01*
X102500317Y27174671D01*
X102547936Y27222290D01*
X102643174Y27269909D01*
X102738412Y27269909D01*
X102833650Y27222290D01*
X102881269Y27174671D01*
X102928888Y27079433D01*
X102976507Y26888957D01*
X103024126Y26793719D01*
X103071745Y26746100D01*
X103166983Y26698481D01*
X103262221Y26698481D01*
X103357459Y26746100D01*
X103405079Y26793719D01*
X103452698Y26888957D01*
X103452698Y27127052D01*
X103405079Y27269909D01*
X102452698Y27698481D02*
X103452698Y27698481D01*
X103452698Y27936576D01*
X103405079Y28079433D01*
X103309840Y28174671D01*
X103214602Y28222290D01*
X103024126Y28269909D01*
X102881269Y28269909D01*
X102690793Y28222290D01*
X102595555Y28174671D01*
X102500317Y28079433D01*
X102452698Y27936576D01*
X102452698Y27698481D01*
X102738412Y28650862D02*
X102738412Y29127052D01*
X102452698Y28555624D02*
X103452698Y28888957D01*
X102452698Y29222290D01*
X116105079Y15650862D02*
X116152698Y15555624D01*
X116152698Y15412767D01*
X116105079Y15269909D01*
X116009840Y15174671D01*
X115914602Y15127052D01*
X115724126Y15079433D01*
X115581269Y15079433D01*
X115390793Y15127052D01*
X115295555Y15174671D01*
X115200317Y15269909D01*
X115152698Y15412767D01*
X115152698Y15508005D01*
X115200317Y15650862D01*
X115247936Y15698481D01*
X115581269Y15698481D01*
X115581269Y15508005D01*
X115152698Y16127052D02*
X116152698Y16127052D01*
X115152698Y16698481D01*
X116152698Y16698481D01*
X115152698Y17174671D02*
X116152698Y17174671D01*
X116152698Y17412767D01*
X116105079Y17555624D01*
X116009840Y17650862D01*
X115914602Y17698481D01*
X115724126Y17746100D01*
X115581269Y17746100D01*
X115390793Y17698481D01*
X115295555Y17650862D01*
X115200317Y17555624D01*
X115152698Y17412767D01*
X115152698Y17174671D01*
X115052698Y26665147D02*
X116052698Y26665147D01*
X116052698Y27046100D01*
X116005079Y27141338D01*
X115957459Y27188957D01*
X115862221Y27236576D01*
X115719364Y27236576D01*
X115624126Y27188957D01*
X115576507Y27141338D01*
X115528888Y27046100D01*
X115528888Y26665147D01*
X116052698Y27522290D02*
X115052698Y27855624D01*
X116052698Y28188957D01*
X115100317Y28950862D02*
X115052698Y28855624D01*
X115052698Y28665147D01*
X115100317Y28569909D01*
X115147936Y28522290D01*
X115243174Y28474671D01*
X115528888Y28474671D01*
X115624126Y28522290D01*
X115671745Y28569909D01*
X115719364Y28665147D01*
X115719364Y28855624D01*
X115671745Y28950862D01*
X115100317Y29808005D02*
X115052698Y29712767D01*
X115052698Y29522290D01*
X115100317Y29427052D01*
X115147936Y29379433D01*
X115243174Y29331814D01*
X115528888Y29331814D01*
X115624126Y29379433D01*
X115671745Y29427052D01*
X115719364Y29522290D01*
X115719364Y29712767D01*
X115671745Y29808005D01*
X101055198Y26945743D02*
X100055198Y27279076D01*
X101055198Y27612409D01*
X101055198Y27850505D02*
X101055198Y28469552D01*
X100674245Y28136219D01*
X100674245Y28279076D01*
X100626626Y28374314D01*
X100579007Y28421933D01*
X100483769Y28469552D01*
X100245674Y28469552D01*
X100150436Y28421933D01*
X100102817Y28374314D01*
X100055198Y28279076D01*
X100055198Y27993362D01*
X100102817Y27898124D01*
X100150436Y27850505D01*
X120776507Y26946100D02*
X120776507Y27279433D01*
X120252698Y27422290D02*
X120252698Y26946100D01*
X121252698Y26946100D01*
X121252698Y27422290D01*
X120919364Y27850862D02*
X120252698Y27850862D01*
X120824126Y27850862D02*
X120871745Y27898481D01*
X120919364Y27993719D01*
X120919364Y28136576D01*
X120871745Y28231814D01*
X120776507Y28279433D01*
X120252698Y28279433D01*
X118605079Y15650862D02*
X118652698Y15555624D01*
X118652698Y15412767D01*
X118605079Y15269909D01*
X118509840Y15174671D01*
X118414602Y15127052D01*
X118224126Y15079433D01*
X118081269Y15079433D01*
X117890793Y15127052D01*
X117795555Y15174671D01*
X117700317Y15269909D01*
X117652698Y15412767D01*
X117652698Y15508005D01*
X117700317Y15650862D01*
X117747936Y15698481D01*
X118081269Y15698481D01*
X118081269Y15508005D01*
X117652698Y16127052D02*
X118652698Y16127052D01*
X117652698Y16698481D01*
X118652698Y16698481D01*
X117652698Y17174671D02*
X118652698Y17174671D01*
X118652698Y17412767D01*
X118605079Y17555624D01*
X118509840Y17650862D01*
X118414602Y17698481D01*
X118224126Y17746100D01*
X118081269Y17746100D01*
X117890793Y17698481D01*
X117795555Y17650862D01*
X117700317Y17555624D01*
X117652698Y17412767D01*
X117652698Y17174671D01*
X113552698Y27103243D02*
X112552698Y27436576D01*
X113552698Y27769909D01*
X113552698Y28579433D02*
X113552698Y28103243D01*
X113076507Y28055624D01*
X113124126Y28103243D01*
X113171745Y28198481D01*
X113171745Y28436576D01*
X113124126Y28531814D01*
X113076507Y28579433D01*
X112981269Y28627052D01*
X112743174Y28627052D01*
X112647936Y28579433D01*
X112600317Y28531814D01*
X112552698Y28436576D01*
X112552698Y28198481D01*
X112600317Y28103243D01*
X112647936Y28055624D01*
X97388198Y14984005D02*
X98388198Y14984005D01*
X98388198Y15364957D01*
X98340579Y15460195D01*
X98292959Y15507814D01*
X98197721Y15555433D01*
X98054864Y15555433D01*
X97959626Y15507814D01*
X97912007Y15460195D01*
X97864388Y15364957D01*
X97864388Y14984005D01*
X98388198Y15888767D02*
X97388198Y16126862D01*
X98102483Y16317338D01*
X97388198Y16507814D01*
X98388198Y16745909D01*
X97388198Y17126862D02*
X98388198Y17126862D01*
X97673912Y17460195D01*
X98388198Y17793528D01*
X97388198Y17793528D01*
X111405698Y15928505D02*
X110596174Y15928505D01*
X110500936Y15976124D01*
X110453317Y16023743D01*
X110405698Y16118981D01*
X110405698Y16309457D01*
X110453317Y16404695D01*
X110500936Y16452314D01*
X110596174Y16499933D01*
X111405698Y16499933D01*
X110786650Y16976124D02*
X110786650Y17738028D01*
X100213912Y16245981D02*
X100213912Y16722171D01*
X99928198Y16150743D02*
X100928198Y16484076D01*
X99928198Y16817409D01*
X100832959Y17103124D02*
X100880579Y17150743D01*
X100928198Y17245981D01*
X100928198Y17484076D01*
X100880579Y17579314D01*
X100832959Y17626933D01*
X100737721Y17674552D01*
X100642483Y17674552D01*
X100499626Y17626933D01*
X99928198Y17055505D01*
X99928198Y17674552D01*
X121311698Y15674505D02*
X120502174Y15674505D01*
X120406936Y15722124D01*
X120359317Y15769743D01*
X120311698Y15864981D01*
X120311698Y16055457D01*
X120359317Y16150695D01*
X120406936Y16198314D01*
X120502174Y16245933D01*
X121311698Y16245933D01*
X120692650Y16722124D02*
X120692650Y17484028D01*
X120311698Y17103076D02*
X121073602Y17103076D01*
X105293912Y16309481D02*
X105293912Y16785671D01*
X105008198Y16214243D02*
X106008198Y16547576D01*
X105008198Y16880909D01*
X106008198Y17404719D02*
X106008198Y17499957D01*
X105960579Y17595195D01*
X105912959Y17642814D01*
X105817721Y17690433D01*
X105627245Y17738052D01*
X105389150Y17738052D01*
X105198674Y17690433D01*
X105103436Y17642814D01*
X105055817Y17595195D01*
X105008198Y17499957D01*
X105008198Y17404719D01*
X105055817Y17309481D01*
X105103436Y17261862D01*
X105198674Y17214243D01*
X105389150Y17166624D01*
X105627245Y17166624D01*
X105817721Y17214243D01*
X105912959Y17261862D01*
X105960579Y17309481D01*
X106008198Y17404719D01*
X102753912Y16245981D02*
X102753912Y16722171D01*
X102468198Y16150743D02*
X103468198Y16484076D01*
X102468198Y16817409D01*
X102468198Y17674552D02*
X102468198Y17103124D01*
X102468198Y17388838D02*
X103468198Y17388838D01*
X103325340Y17293600D01*
X103230102Y17198362D01*
X103182483Y17103124D01*
X105000317Y26691790D02*
X104952698Y26834647D01*
X104952698Y27072743D01*
X105000317Y27167981D01*
X105047936Y27215600D01*
X105143174Y27263219D01*
X105238412Y27263219D01*
X105333650Y27215600D01*
X105381269Y27167981D01*
X105428888Y27072743D01*
X105476507Y26882267D01*
X105524126Y26787028D01*
X105571745Y26739409D01*
X105666983Y26691790D01*
X105762221Y26691790D01*
X105857459Y26739409D01*
X105905079Y26787028D01*
X105952698Y26882267D01*
X105952698Y27120362D01*
X105905079Y27263219D01*
X105047936Y28263219D02*
X105000317Y28215600D01*
X104952698Y28072743D01*
X104952698Y27977505D01*
X105000317Y27834647D01*
X105095555Y27739409D01*
X105190793Y27691790D01*
X105381269Y27644171D01*
X105524126Y27644171D01*
X105714602Y27691790D01*
X105809840Y27739409D01*
X105905079Y27834647D01*
X105952698Y27977505D01*
X105952698Y28072743D01*
X105905079Y28215600D01*
X105857459Y28263219D01*
X104952698Y29167981D02*
X104952698Y28691790D01*
X105952698Y28691790D01*
X14701904Y2837380D02*
X14701904Y1837380D01*
X14701904Y2789761D02*
X14606666Y2837380D01*
X14416190Y2837380D01*
X14320952Y2789761D01*
X14273333Y2742142D01*
X14225714Y2646904D01*
X14225714Y2361190D01*
X14273333Y2265952D01*
X14320952Y2218333D01*
X14416190Y2170714D01*
X14606666Y2170714D01*
X14701904Y2218333D01*
X15178095Y2170714D02*
X15178095Y3170714D01*
X15178095Y2218333D02*
X15273333Y2170714D01*
X15463809Y2170714D01*
X15559047Y2218333D01*
X15606666Y2265952D01*
X15654285Y2361190D01*
X15654285Y2646904D01*
X15606666Y2742142D01*
X15559047Y2789761D01*
X15463809Y2837380D01*
X15273333Y2837380D01*
X15178095Y2789761D01*
X15178095Y12732619D02*
X15178095Y13732619D01*
X15178095Y12780238D02*
X15273333Y12732619D01*
X15463809Y12732619D01*
X15559047Y12780238D01*
X15606666Y12827857D01*
X15654285Y12923095D01*
X15654285Y13208809D01*
X15606666Y13304047D01*
X15559047Y13351666D01*
X15463809Y13399285D01*
X15273333Y13399285D01*
X15178095Y13351666D01*
X14701904Y13399285D02*
X14701904Y12732619D01*
X14701904Y13304047D02*
X14654285Y13351666D01*
X14559047Y13399285D01*
X14416190Y13399285D01*
X14320952Y13351666D01*
X14273333Y13256428D01*
X14273333Y12732619D01*
X9292380Y13902595D02*
X10101904Y13902595D01*
X10197142Y13854976D01*
X10244761Y13807357D01*
X10292380Y13712119D01*
X10292380Y13521642D01*
X10244761Y13426404D01*
X10197142Y13378785D01*
X10101904Y13331166D01*
X9292380Y13331166D01*
X10292380Y12426404D02*
X9292380Y12426404D01*
X10244761Y12426404D02*
X10292380Y12521642D01*
X10292380Y12712119D01*
X10244761Y12807357D01*
X10197142Y12854976D01*
X10101904Y12902595D01*
X9816190Y12902595D01*
X9720952Y12854976D01*
X9673333Y12807357D01*
X9625714Y12712119D01*
X9625714Y12521642D01*
X9673333Y12426404D01*
X4340000Y2746904D02*
X4292380Y2842142D01*
X4292380Y2985000D01*
X4340000Y3127857D01*
X4435238Y3223095D01*
X4530476Y3270714D01*
X4720952Y3318333D01*
X4863809Y3318333D01*
X5054285Y3270714D01*
X5149523Y3223095D01*
X5244761Y3127857D01*
X5292380Y2985000D01*
X5292380Y2889761D01*
X5244761Y2746904D01*
X5197142Y2699285D01*
X4863809Y2699285D01*
X4863809Y2889761D01*
X5292380Y2270714D02*
X4292380Y2270714D01*
X5292380Y1699285D01*
X4292380Y1699285D01*
X5292380Y1223095D02*
X4292380Y1223095D01*
X4292380Y985000D01*
X4340000Y842142D01*
X4435238Y746904D01*
X4530476Y699285D01*
X4720952Y651666D01*
X4863809Y651666D01*
X5054285Y699285D01*
X5149523Y746904D01*
X5244761Y842142D01*
X5292380Y985000D01*
X5292380Y1223095D01*
X7892380Y3332619D02*
X6892380Y3332619D01*
X6892380Y2951666D01*
X6940000Y2856428D01*
X6987619Y2808809D01*
X7082857Y2761190D01*
X7225714Y2761190D01*
X7320952Y2808809D01*
X7368571Y2856428D01*
X7416190Y2951666D01*
X7416190Y3332619D01*
X6892380Y2475476D02*
X7892380Y2142142D01*
X6892380Y1808809D01*
X7844761Y1046904D02*
X7892380Y1142142D01*
X7892380Y1332619D01*
X7844761Y1427857D01*
X7797142Y1475476D01*
X7701904Y1523095D01*
X7416190Y1523095D01*
X7320952Y1475476D01*
X7273333Y1427857D01*
X7225714Y1332619D01*
X7225714Y1142142D01*
X7273333Y1046904D01*
X7844761Y189761D02*
X7892380Y285000D01*
X7892380Y475476D01*
X7844761Y570714D01*
X7797142Y618333D01*
X7701904Y665952D01*
X7416190Y665952D01*
X7320952Y618333D01*
X7273333Y570714D01*
X7225714Y475476D01*
X7225714Y285000D01*
X7273333Y189761D01*
X24740000Y2746904D02*
X24692380Y2842142D01*
X24692380Y2985000D01*
X24740000Y3127857D01*
X24835238Y3223095D01*
X24930476Y3270714D01*
X25120952Y3318333D01*
X25263809Y3318333D01*
X25454285Y3270714D01*
X25549523Y3223095D01*
X25644761Y3127857D01*
X25692380Y2985000D01*
X25692380Y2889761D01*
X25644761Y2746904D01*
X25597142Y2699285D01*
X25263809Y2699285D01*
X25263809Y2889761D01*
X25692380Y2270714D02*
X24692380Y2270714D01*
X25692380Y1699285D01*
X24692380Y1699285D01*
X25692380Y1223095D02*
X24692380Y1223095D01*
X24692380Y985000D01*
X24740000Y842142D01*
X24835238Y746904D01*
X24930476Y699285D01*
X25120952Y651666D01*
X25263809Y651666D01*
X25454285Y699285D01*
X25549523Y746904D01*
X25644761Y842142D01*
X25692380Y985000D01*
X25692380Y1223095D01*
X6840000Y14346904D02*
X6792380Y14442142D01*
X6792380Y14585000D01*
X6840000Y14727857D01*
X6935238Y14823095D01*
X7030476Y14870714D01*
X7220952Y14918333D01*
X7363809Y14918333D01*
X7554285Y14870714D01*
X7649523Y14823095D01*
X7744761Y14727857D01*
X7792380Y14585000D01*
X7792380Y14489761D01*
X7744761Y14346904D01*
X7697142Y14299285D01*
X7363809Y14299285D01*
X7363809Y14489761D01*
X7792380Y13870714D02*
X6792380Y13870714D01*
X7792380Y13299285D01*
X6792380Y13299285D01*
X7792380Y12823095D02*
X6792380Y12823095D01*
X6792380Y12585000D01*
X6840000Y12442142D01*
X6935238Y12346904D01*
X7030476Y12299285D01*
X7220952Y12251666D01*
X7363809Y12251666D01*
X7554285Y12299285D01*
X7649523Y12346904D01*
X7744761Y12442142D01*
X7792380Y12585000D01*
X7792380Y12823095D01*
X20444761Y3299285D02*
X20492380Y3156428D01*
X20492380Y2918333D01*
X20444761Y2823095D01*
X20397142Y2775476D01*
X20301904Y2727857D01*
X20206666Y2727857D01*
X20111428Y2775476D01*
X20063809Y2823095D01*
X20016190Y2918333D01*
X19968571Y3108809D01*
X19920952Y3204047D01*
X19873333Y3251666D01*
X19778095Y3299285D01*
X19682857Y3299285D01*
X19587619Y3251666D01*
X19540000Y3204047D01*
X19492380Y3108809D01*
X19492380Y2870714D01*
X19540000Y2727857D01*
X20492380Y2299285D02*
X19492380Y2299285D01*
X19492380Y2061190D01*
X19540000Y1918333D01*
X19635238Y1823095D01*
X19730476Y1775476D01*
X19920952Y1727857D01*
X20063809Y1727857D01*
X20254285Y1775476D01*
X20349523Y1823095D01*
X20444761Y1918333D01*
X20492380Y2061190D01*
X20492380Y2299285D01*
X20206666Y1346904D02*
X20206666Y870714D01*
X20492380Y1442142D02*
X19492380Y1108809D01*
X20492380Y775476D01*
D11*
X116787857Y42881428D02*
X116787857Y44381428D01*
X116073571Y43881428D02*
X116073571Y42881428D01*
X116073571Y43738571D02*
X116002142Y43810000D01*
X115859285Y43881428D01*
X115645000Y43881428D01*
X115502142Y43810000D01*
X115430714Y43667142D01*
X115430714Y42881428D01*
X114930714Y43881428D02*
X114359285Y43881428D01*
X114716428Y44381428D02*
X114716428Y43095714D01*
X114645000Y42952857D01*
X114502142Y42881428D01*
X114359285Y42881428D01*
X113287857Y42952857D02*
X113430714Y42881428D01*
X113716428Y42881428D01*
X113859285Y42952857D01*
X113930714Y43095714D01*
X113930714Y43667142D01*
X113859285Y43810000D01*
X113716428Y43881428D01*
X113430714Y43881428D01*
X113287857Y43810000D01*
X113216428Y43667142D01*
X113216428Y43524285D01*
X113930714Y43381428D01*
X112573571Y42881428D02*
X112573571Y43881428D01*
X112573571Y43595714D02*
X112502142Y43738571D01*
X112430714Y43810000D01*
X112287857Y43881428D01*
X112145000Y43881428D01*
X111859285Y43881428D02*
X111287857Y43881428D01*
X111645000Y42881428D02*
X111645000Y44167142D01*
X111573571Y44310000D01*
X111430714Y44381428D01*
X111287857Y44381428D01*
X110145000Y42881428D02*
X110145000Y43667142D01*
X110216428Y43810000D01*
X110359285Y43881428D01*
X110645000Y43881428D01*
X110787857Y43810000D01*
X110145000Y42952857D02*
X110287857Y42881428D01*
X110645000Y42881428D01*
X110787857Y42952857D01*
X110859285Y43095714D01*
X110859285Y43238571D01*
X110787857Y43381428D01*
X110645000Y43452857D01*
X110287857Y43452857D01*
X110145000Y43524285D01*
X108787857Y42952857D02*
X108930714Y42881428D01*
X109216428Y42881428D01*
X109359285Y42952857D01*
X109430714Y43024285D01*
X109502142Y43167142D01*
X109502142Y43595714D01*
X109430714Y43738571D01*
X109359285Y43810000D01*
X109216428Y43881428D01*
X108930714Y43881428D01*
X108787857Y43810000D01*
X107573571Y42952857D02*
X107716428Y42881428D01*
X108002142Y42881428D01*
X108145000Y42952857D01*
X108216428Y43095714D01*
X108216428Y43667142D01*
X108145000Y43810000D01*
X108002142Y43881428D01*
X107716428Y43881428D01*
X107573571Y43810000D01*
X107502142Y43667142D01*
X107502142Y43524285D01*
X108216428Y43381428D01*
X105716428Y42881428D02*
X105716428Y44381428D01*
X105145000Y44381428D01*
X105002142Y44310000D01*
X104930714Y44238571D01*
X104859285Y44095714D01*
X104859285Y43881428D01*
X104930714Y43738571D01*
X105002142Y43667142D01*
X105145000Y43595714D01*
X105716428Y43595714D01*
X103359285Y43024285D02*
X103430714Y42952857D01*
X103645000Y42881428D01*
X103787857Y42881428D01*
X104002142Y42952857D01*
X104145000Y43095714D01*
X104216428Y43238571D01*
X104287857Y43524285D01*
X104287857Y43738571D01*
X104216428Y44024285D01*
X104145000Y44167142D01*
X104002142Y44310000D01*
X103787857Y44381428D01*
X103645000Y44381428D01*
X103430714Y44310000D01*
X103359285Y44238571D01*
X102216428Y43667142D02*
X102002142Y43595714D01*
X101930714Y43524285D01*
X101859285Y43381428D01*
X101859285Y43167142D01*
X101930714Y43024285D01*
X102002142Y42952857D01*
X102145000Y42881428D01*
X102716428Y42881428D01*
X102716428Y44381428D01*
X102216428Y44381428D01*
X102073571Y44310000D01*
X102002142Y44238571D01*
X101930714Y44095714D01*
X101930714Y43952857D01*
X102002142Y43810000D01*
X102073571Y43738571D01*
X102216428Y43667142D01*
X102716428Y43667142D01*
X100216428Y43881428D02*
X99859285Y42881428D01*
X99502142Y43881428D01*
X99002142Y44238571D02*
X98930714Y44310000D01*
X98787857Y44381428D01*
X98430714Y44381428D01*
X98287857Y44310000D01*
X98216428Y44238571D01*
X98145000Y44095714D01*
X98145000Y43952857D01*
X98216428Y43738571D01*
X99073571Y42881428D01*
X98145000Y42881428D01*
X96359285Y43452857D02*
X95216428Y43452857D01*
X93430714Y44238571D02*
X93359285Y44310000D01*
X93216428Y44381428D01*
X92859285Y44381428D01*
X92716428Y44310000D01*
X92645000Y44238571D01*
X92573571Y44095714D01*
X92573571Y43952857D01*
X92645000Y43738571D01*
X93502142Y42881428D01*
X92573571Y42881428D01*
X91645000Y44381428D02*
X91502142Y44381428D01*
X91359285Y44310000D01*
X91287857Y44238571D01*
X91216428Y44095714D01*
X91145000Y43810000D01*
X91145000Y43452857D01*
X91216428Y43167142D01*
X91287857Y43024285D01*
X91359285Y42952857D01*
X91502142Y42881428D01*
X91645000Y42881428D01*
X91787857Y42952857D01*
X91859285Y43024285D01*
X91930714Y43167142D01*
X92002142Y43452857D01*
X92002142Y43810000D01*
X91930714Y44095714D01*
X91859285Y44238571D01*
X91787857Y44310000D01*
X91645000Y44381428D01*
X89716428Y42881428D02*
X90573571Y42881428D01*
X90145000Y42881428D02*
X90145000Y44381428D01*
X90287857Y44167142D01*
X90430714Y44024285D01*
X90573571Y43952857D01*
X88859285Y43738571D02*
X89002142Y43810000D01*
X89073571Y43881428D01*
X89145000Y44024285D01*
X89145000Y44095714D01*
X89073571Y44238571D01*
X89002142Y44310000D01*
X88859285Y44381428D01*
X88573571Y44381428D01*
X88430714Y44310000D01*
X88359285Y44238571D01*
X88287857Y44095714D01*
X88287857Y44024285D01*
X88359285Y43881428D01*
X88430714Y43810000D01*
X88573571Y43738571D01*
X88859285Y43738571D01*
X89002142Y43667142D01*
X89073571Y43595714D01*
X89145000Y43452857D01*
X89145000Y43167142D01*
X89073571Y43024285D01*
X89002142Y42952857D01*
X88859285Y42881428D01*
X88573571Y42881428D01*
X88430714Y42952857D01*
X88359285Y43024285D01*
X88287857Y43167142D01*
X88287857Y43452857D01*
X88359285Y43595714D01*
X88430714Y43667142D01*
X88573571Y43738571D01*
X86573571Y44452857D02*
X87859285Y42524285D01*
X85287857Y42881428D02*
X86145000Y42881428D01*
X85716428Y42881428D02*
X85716428Y44381428D01*
X85859285Y44167142D01*
X86002142Y44024285D01*
X86145000Y43952857D01*
X84359285Y44381428D02*
X84216428Y44381428D01*
X84073571Y44310000D01*
X84002142Y44238571D01*
X83930714Y44095714D01*
X83859285Y43810000D01*
X83859285Y43452857D01*
X83930714Y43167142D01*
X84002142Y43024285D01*
X84073571Y42952857D01*
X84216428Y42881428D01*
X84359285Y42881428D01*
X84502142Y42952857D01*
X84573571Y43024285D01*
X84645000Y43167142D01*
X84716428Y43452857D01*
X84716428Y43810000D01*
X84645000Y44095714D01*
X84573571Y44238571D01*
X84502142Y44310000D01*
X84359285Y44381428D01*
X82145000Y44452857D02*
X83430714Y42524285D01*
X81716428Y44238571D02*
X81645000Y44310000D01*
X81502142Y44381428D01*
X81145000Y44381428D01*
X81002142Y44310000D01*
X80930714Y44238571D01*
X80859285Y44095714D01*
X80859285Y43952857D01*
X80930714Y43738571D01*
X81787857Y42881428D01*
X80859285Y42881428D01*
X79573571Y43881428D02*
X79573571Y42881428D01*
X79930714Y44452857D02*
X80287857Y43381428D01*
X79359285Y43381428D01*
X116787857Y40331428D02*
X116787857Y41831428D01*
X116787857Y41260000D02*
X116645000Y41331428D01*
X116359285Y41331428D01*
X116216428Y41260000D01*
X116145000Y41188571D01*
X116073571Y41045714D01*
X116073571Y40617142D01*
X116145000Y40474285D01*
X116216428Y40402857D01*
X116359285Y40331428D01*
X116645000Y40331428D01*
X116787857Y40402857D01*
X115573571Y41331428D02*
X115216428Y40331428D01*
X114859285Y41331428D02*
X115216428Y40331428D01*
X115359285Y39974285D01*
X115430714Y39902857D01*
X115573571Y39831428D01*
X113145000Y40331428D02*
X113145000Y41831428D01*
X112645000Y40760000D01*
X112145000Y41831428D01*
X112145000Y40331428D01*
X110859285Y40402857D02*
X111002142Y40331428D01*
X111287857Y40331428D01*
X111430714Y40402857D01*
X111502142Y40545714D01*
X111502142Y41117142D01*
X111430714Y41260000D01*
X111287857Y41331428D01*
X111002142Y41331428D01*
X110859285Y41260000D01*
X110787857Y41117142D01*
X110787857Y40974285D01*
X111502142Y40831428D01*
X110145000Y41331428D02*
X110145000Y40045714D01*
X110216428Y39902857D01*
X110359285Y39831428D01*
X110430714Y39831428D01*
X110145000Y41831428D02*
X110216428Y41760000D01*
X110145000Y41688571D01*
X110073571Y41760000D01*
X110145000Y41831428D01*
X110145000Y41688571D01*
X108502142Y41331428D02*
X107930714Y41331428D01*
X108287857Y40331428D02*
X108287857Y41617142D01*
X108216428Y41760000D01*
X108073571Y41831428D01*
X107930714Y41831428D01*
X107216428Y40331428D02*
X107359285Y40402857D01*
X107430714Y40474285D01*
X107502142Y40617142D01*
X107502142Y41045714D01*
X107430714Y41188571D01*
X107359285Y41260000D01*
X107216428Y41331428D01*
X107002142Y41331428D01*
X106859285Y41260000D01*
X106787857Y41188571D01*
X106716428Y41045714D01*
X106716428Y40617142D01*
X106787857Y40474285D01*
X106859285Y40402857D01*
X107002142Y40331428D01*
X107216428Y40331428D01*
X106073571Y40331428D02*
X106073571Y41331428D01*
X106073571Y41045714D02*
X106002142Y41188571D01*
X105930714Y41260000D01*
X105787857Y41331428D01*
X105645000Y41331428D01*
X104002142Y40331428D02*
X104002142Y41831428D01*
X103287857Y40331428D02*
X103287857Y41331428D01*
X103287857Y41188571D02*
X103216428Y41260000D01*
X103073571Y41331428D01*
X102859285Y41331428D01*
X102716428Y41260000D01*
X102645000Y41117142D01*
X102645000Y40331428D01*
X102645000Y41117142D02*
X102573571Y41260000D01*
X102430714Y41331428D01*
X102216428Y41331428D01*
X102073571Y41260000D01*
X102002142Y41117142D01*
X102002142Y40331428D01*
X101287857Y41331428D02*
X101287857Y39831428D01*
X101287857Y41260000D02*
X101145000Y41331428D01*
X100859285Y41331428D01*
X100716428Y41260000D01*
X100645000Y41188571D01*
X100573571Y41045714D01*
X100573571Y40617142D01*
X100645000Y40474285D01*
X100716428Y40402857D01*
X100859285Y40331428D01*
X101145000Y40331428D01*
X101287857Y40402857D01*
X99287857Y40331428D02*
X99287857Y41117142D01*
X99359285Y41260000D01*
X99502142Y41331428D01*
X99787857Y41331428D01*
X99930714Y41260000D01*
X99287857Y40402857D02*
X99430714Y40331428D01*
X99787857Y40331428D01*
X99930714Y40402857D01*
X100002142Y40545714D01*
X100002142Y40688571D01*
X99930714Y40831428D01*
X99787857Y40902857D01*
X99430714Y40902857D01*
X99287857Y40974285D01*
X97930714Y40402857D02*
X98073571Y40331428D01*
X98359285Y40331428D01*
X98502142Y40402857D01*
X98573571Y40474285D01*
X98645000Y40617142D01*
X98645000Y41045714D01*
X98573571Y41188571D01*
X98502142Y41260000D01*
X98359285Y41331428D01*
X98073571Y41331428D01*
X97930714Y41260000D01*
X97502142Y41331428D02*
X96930714Y41331428D01*
X97287857Y41831428D02*
X97287857Y40545714D01*
X97216428Y40402857D01*
X97073571Y40331428D01*
X96930714Y40331428D01*
X95287857Y40331428D02*
X95287857Y41831428D01*
X94716428Y41831428D01*
X94573571Y41760000D01*
X94502142Y41688571D01*
X94430714Y41545714D01*
X94430714Y41331428D01*
X94502142Y41188571D01*
X94573571Y41117142D01*
X94716428Y41045714D01*
X95287857Y41045714D01*
X93787857Y40331428D02*
X93787857Y41831428D01*
X93145000Y40331428D02*
X93145000Y41117142D01*
X93216428Y41260000D01*
X93359285Y41331428D01*
X93573571Y41331428D01*
X93716428Y41260000D01*
X93787857Y41188571D01*
X92216428Y40331428D02*
X92359285Y40402857D01*
X92430714Y40474285D01*
X92502142Y40617142D01*
X92502142Y41045714D01*
X92430714Y41188571D01*
X92359285Y41260000D01*
X92216428Y41331428D01*
X92002142Y41331428D01*
X91859285Y41260000D01*
X91787857Y41188571D01*
X91716428Y41045714D01*
X91716428Y40617142D01*
X91787857Y40474285D01*
X91859285Y40402857D01*
X92002142Y40331428D01*
X92216428Y40331428D01*
X91287857Y41331428D02*
X90716428Y41331428D01*
X91073571Y41831428D02*
X91073571Y40545714D01*
X91002142Y40402857D01*
X90859285Y40331428D01*
X90716428Y40331428D01*
X90002142Y40331428D02*
X90145000Y40402857D01*
X90216428Y40474285D01*
X90287857Y40617142D01*
X90287857Y41045714D01*
X90216428Y41188571D01*
X90145000Y41260000D01*
X90002142Y41331428D01*
X89787857Y41331428D01*
X89645000Y41260000D01*
X89573571Y41188571D01*
X89502142Y41045714D01*
X89502142Y40617142D01*
X89573571Y40474285D01*
X89645000Y40402857D01*
X89787857Y40331428D01*
X90002142Y40331428D01*
X88859285Y41331428D02*
X88859285Y40331428D01*
X88859285Y41188571D02*
X88787857Y41260000D01*
X88645000Y41331428D01*
X88430714Y41331428D01*
X88287857Y41260000D01*
X88216428Y41117142D01*
X88216428Y40331428D01*
X87502142Y40331428D02*
X87502142Y41331428D01*
X87502142Y41831428D02*
X87573571Y41760000D01*
X87502142Y41688571D01*
X87430714Y41760000D01*
X87502142Y41831428D01*
X87502142Y41688571D01*
X86145000Y40402857D02*
X86287857Y40331428D01*
X86573571Y40331428D01*
X86716428Y40402857D01*
X86787857Y40474285D01*
X86859285Y40617142D01*
X86859285Y41045714D01*
X86787857Y41188571D01*
X86716428Y41260000D01*
X86573571Y41331428D01*
X86287857Y41331428D01*
X86145000Y41260000D01*
X85573571Y40402857D02*
X85430714Y40331428D01*
X85145000Y40331428D01*
X85002142Y40402857D01*
X84930714Y40545714D01*
X84930714Y40617142D01*
X85002142Y40760000D01*
X85145000Y40831428D01*
X85359285Y40831428D01*
X85502142Y40902857D01*
X85573571Y41045714D01*
X85573571Y41117142D01*
X85502142Y41260000D01*
X85359285Y41331428D01*
X85145000Y41331428D01*
X85002142Y41260000D01*
D10*
X9392380Y2894523D02*
X10392380Y2561190D01*
X9392380Y2227857D01*
X9392380Y1418333D02*
X9392380Y1894523D01*
X9868571Y1942142D01*
X9820952Y1894523D01*
X9773333Y1799285D01*
X9773333Y1561190D01*
X9820952Y1465952D01*
X9868571Y1418333D01*
X9963809Y1370714D01*
X10201904Y1370714D01*
X10297142Y1418333D01*
X10344761Y1465952D01*
X10392380Y1561190D01*
X10392380Y1799285D01*
X10344761Y1894523D01*
X10297142Y1942142D01*
X4340000Y14346904D02*
X4292380Y14442142D01*
X4292380Y14585000D01*
X4340000Y14727857D01*
X4435238Y14823095D01*
X4530476Y14870714D01*
X4720952Y14918333D01*
X4863809Y14918333D01*
X5054285Y14870714D01*
X5149523Y14823095D01*
X5244761Y14727857D01*
X5292380Y14585000D01*
X5292380Y14489761D01*
X5244761Y14346904D01*
X5197142Y14299285D01*
X4863809Y14299285D01*
X4863809Y14489761D01*
X5292380Y13870714D02*
X4292380Y13870714D01*
X5292380Y13299285D01*
X4292380Y13299285D01*
X5292380Y12823095D02*
X4292380Y12823095D01*
X4292380Y12585000D01*
X4340000Y12442142D01*
X4435238Y12346904D01*
X4530476Y12299285D01*
X4720952Y12251666D01*
X4863809Y12251666D01*
X5054285Y12299285D01*
X5149523Y12346904D01*
X5244761Y12442142D01*
X5292380Y12585000D01*
X5292380Y12823095D01*
X11539380Y14069261D02*
X12348904Y14069261D01*
X12444142Y14021642D01*
X12491761Y13974023D01*
X12539380Y13878785D01*
X12539380Y13688309D01*
X12491761Y13593071D01*
X12444142Y13545452D01*
X12348904Y13497833D01*
X11539380Y13497833D01*
X12158428Y13021642D02*
X12158428Y12259738D01*
X20191166Y13751785D02*
X20191166Y13275595D01*
X20476880Y13847023D02*
X19476880Y13513690D01*
X20476880Y13180357D01*
X20476880Y12323214D02*
X20476880Y12894642D01*
X20476880Y12608928D02*
X19476880Y12608928D01*
X19619738Y12704166D01*
X19714976Y12799404D01*
X19762595Y12894642D01*
X21889880Y3052023D02*
X22889880Y2718690D01*
X21889880Y2385357D01*
X21889880Y2147261D02*
X21889880Y1528214D01*
X22270833Y1861547D01*
X22270833Y1718690D01*
X22318452Y1623452D01*
X22366071Y1575833D01*
X22461309Y1528214D01*
X22699404Y1528214D01*
X22794642Y1575833D01*
X22842261Y1623452D01*
X22889880Y1718690D01*
X22889880Y2004404D01*
X22842261Y2099642D01*
X22794642Y2147261D01*
X17651166Y13688285D02*
X17651166Y13212095D01*
X17936880Y13783523D02*
X16936880Y13450190D01*
X17936880Y13116857D01*
X16936880Y12593047D02*
X16936880Y12497809D01*
X16984500Y12402571D01*
X17032119Y12354952D01*
X17127357Y12307333D01*
X17317833Y12259714D01*
X17555928Y12259714D01*
X17746404Y12307333D01*
X17841642Y12354952D01*
X17889261Y12402571D01*
X17936880Y12497809D01*
X17936880Y12593047D01*
X17889261Y12688285D01*
X17841642Y12735904D01*
X17746404Y12783523D01*
X17555928Y12831142D01*
X17317833Y12831142D01*
X17127357Y12783523D01*
X17032119Y12735904D01*
X16984500Y12688285D01*
X16936880Y12593047D01*
X25556880Y15013761D02*
X24556880Y15013761D01*
X24556880Y14632809D01*
X24604500Y14537571D01*
X24652119Y14489952D01*
X24747357Y14442333D01*
X24890214Y14442333D01*
X24985452Y14489952D01*
X25033071Y14537571D01*
X25080690Y14632809D01*
X25080690Y15013761D01*
X24556880Y14109000D02*
X25556880Y13870904D01*
X24842595Y13680428D01*
X25556880Y13489952D01*
X24556880Y13251857D01*
X25556880Y12870904D02*
X24556880Y12870904D01*
X25271166Y12537571D01*
X24556880Y12204238D01*
X25556880Y12204238D01*
X1633380Y14323261D02*
X2442904Y14323261D01*
X2538142Y14275642D01*
X2585761Y14228023D01*
X2633380Y14132785D01*
X2633380Y13942309D01*
X2585761Y13847071D01*
X2538142Y13799452D01*
X2442904Y13751833D01*
X1633380Y13751833D01*
X2252428Y13275642D02*
X2252428Y12513738D01*
X2633380Y12894690D02*
X1871476Y12894690D01*
X17944761Y3305976D02*
X17992380Y3163119D01*
X17992380Y2925023D01*
X17944761Y2829785D01*
X17897142Y2782166D01*
X17801904Y2734547D01*
X17706666Y2734547D01*
X17611428Y2782166D01*
X17563809Y2829785D01*
X17516190Y2925023D01*
X17468571Y3115500D01*
X17420952Y3210738D01*
X17373333Y3258357D01*
X17278095Y3305976D01*
X17182857Y3305976D01*
X17087619Y3258357D01*
X17040000Y3210738D01*
X16992380Y3115500D01*
X16992380Y2877404D01*
X17040000Y2734547D01*
X17897142Y1734547D02*
X17944761Y1782166D01*
X17992380Y1925023D01*
X17992380Y2020261D01*
X17944761Y2163119D01*
X17849523Y2258357D01*
X17754285Y2305976D01*
X17563809Y2353595D01*
X17420952Y2353595D01*
X17230476Y2305976D01*
X17135238Y2258357D01*
X17040000Y2163119D01*
X16992380Y2020261D01*
X16992380Y1925023D01*
X17040000Y1782166D01*
X17087619Y1734547D01*
X17992380Y829785D02*
X17992380Y1305976D01*
X16992380Y1305976D01*
X2168571Y3051666D02*
X2168571Y2718333D01*
X2692380Y2575476D02*
X2692380Y3051666D01*
X1692380Y3051666D01*
X1692380Y2575476D01*
X2025714Y2146904D02*
X2692380Y2146904D01*
X2120952Y2146904D02*
X2073333Y2099285D01*
X2025714Y2004047D01*
X2025714Y1861190D01*
X2073333Y1765952D01*
X2168571Y1718333D01*
X2692380Y1718333D01*
X22731166Y13751785D02*
X22731166Y13275595D01*
X23016880Y13847023D02*
X22016880Y13513690D01*
X23016880Y13180357D01*
X22112119Y12894642D02*
X22064500Y12847023D01*
X22016880Y12751785D01*
X22016880Y12513690D01*
X22064500Y12418452D01*
X22112119Y12370833D01*
X22207357Y12323214D01*
X22302595Y12323214D01*
X22445452Y12370833D01*
X23016880Y12942261D01*
X23016880Y12323214D01*
D12*
G04 #@! TO.C,G\002A\002A\002A*
G36*
X120063291Y44696070D02*
X119994856Y44695553D01*
X119933434Y44694759D01*
X119880919Y44693727D01*
X119839203Y44692496D01*
X119810178Y44691105D01*
X119795737Y44689593D01*
X119794649Y44689214D01*
X119790354Y44679214D01*
X119783462Y44653687D01*
X119774222Y44613798D01*
X119762885Y44560711D01*
X119749702Y44495592D01*
X119734921Y44419605D01*
X119721831Y44350250D01*
X119708081Y44277331D01*
X119694998Y44209558D01*
X119682958Y44148752D01*
X119672335Y44096737D01*
X119663503Y44055335D01*
X119656838Y44026371D01*
X119652712Y44011666D01*
X119651997Y44010277D01*
X119641586Y44004381D01*
X119618081Y43993473D01*
X119583872Y43978518D01*
X119541350Y43960482D01*
X119492903Y43940333D01*
X119440923Y43919035D01*
X119387799Y43897557D01*
X119335921Y43876863D01*
X119287680Y43857920D01*
X119245465Y43841695D01*
X119211667Y43829153D01*
X119188676Y43821262D01*
X119178881Y43818987D01*
X119178869Y43818992D01*
X119170020Y43824444D01*
X119148793Y43838452D01*
X119116752Y43859958D01*
X119075459Y43887904D01*
X119026476Y43921232D01*
X118971365Y43958884D01*
X118911689Y43999801D01*
X118897239Y44009730D01*
X118836524Y44051205D01*
X118779752Y44089489D01*
X118728523Y44123542D01*
X118684434Y44152322D01*
X118649084Y44174789D01*
X118624073Y44189902D01*
X118610997Y44196619D01*
X118609856Y44196867D01*
X118600320Y44191014D01*
X118580663Y44174512D01*
X118552467Y44148947D01*
X118517318Y44115903D01*
X118476800Y44076966D01*
X118432499Y44033722D01*
X118385999Y43987755D01*
X118338885Y43940651D01*
X118292741Y43893995D01*
X118249152Y43849372D01*
X118209703Y43808369D01*
X118175979Y43772569D01*
X118149564Y43743559D01*
X118132043Y43722923D01*
X118125001Y43712248D01*
X118124933Y43711769D01*
X118129594Y43701570D01*
X118142867Y43679116D01*
X118163685Y43646046D01*
X118190983Y43604002D01*
X118223695Y43554623D01*
X118260755Y43499551D01*
X118301097Y43440425D01*
X118303685Y43436658D01*
X118344510Y43377123D01*
X118382500Y43321434D01*
X118416533Y43271260D01*
X118445485Y43228269D01*
X118468233Y43194130D01*
X118483654Y43170512D01*
X118490623Y43159083D01*
X118490719Y43158883D01*
X118492026Y43151014D01*
X118490146Y43137948D01*
X118484501Y43118094D01*
X118474512Y43089860D01*
X118459598Y43051655D01*
X118439181Y43001888D01*
X118412682Y42938967D01*
X118398751Y42906247D01*
X118371636Y42843579D01*
X118346647Y42787483D01*
X118324615Y42739719D01*
X118306374Y42702047D01*
X118292756Y42676224D01*
X118284594Y42664012D01*
X118283816Y42663420D01*
X118272399Y42660119D01*
X118246253Y42654163D01*
X118207306Y42645942D01*
X118157486Y42635847D01*
X118098721Y42624267D01*
X118032940Y42611593D01*
X117962070Y42598214D01*
X117954317Y42596766D01*
X117873090Y42581365D01*
X117801578Y42567297D01*
X117741015Y42554829D01*
X117692635Y42544228D01*
X117657672Y42535760D01*
X117637358Y42529693D01*
X117632581Y42527143D01*
X117631047Y42516506D01*
X117629624Y42490828D01*
X117628352Y42452003D01*
X117627269Y42401921D01*
X117626414Y42342477D01*
X117625827Y42275561D01*
X117625547Y42203068D01*
X117625530Y42184954D01*
X117625584Y42099087D01*
X117625856Y42028665D01*
X117626395Y41972200D01*
X117627255Y41928205D01*
X117628486Y41895192D01*
X117630140Y41871673D01*
X117632268Y41856161D01*
X117634922Y41847168D01*
X117637341Y41843764D01*
X117648174Y41840001D01*
X117673728Y41833667D01*
X117712058Y41825170D01*
X117761214Y41814916D01*
X117819249Y41803311D01*
X117884215Y41790762D01*
X117952724Y41777940D01*
X118029649Y41763504D01*
X118098669Y41750031D01*
X118158229Y41737857D01*
X118206772Y41727314D01*
X118242742Y41718736D01*
X118264584Y41712458D01*
X118270456Y41709778D01*
X118277159Y41699024D01*
X118288810Y41675021D01*
X118304476Y41640085D01*
X118323228Y41596529D01*
X118344135Y41546666D01*
X118366266Y41492811D01*
X118388691Y41437275D01*
X118410479Y41382374D01*
X118430700Y41330420D01*
X118448423Y41283728D01*
X118462718Y41244610D01*
X118472653Y41215381D01*
X118477299Y41198354D01*
X118477406Y41195263D01*
X118471831Y41186069D01*
X118457753Y41164563D01*
X118436272Y41132377D01*
X118408489Y41091146D01*
X118375505Y41042502D01*
X118338420Y40988080D01*
X118299147Y40930696D01*
X118259188Y40872005D01*
X118222456Y40817230D01*
X118190029Y40768042D01*
X118162985Y40726114D01*
X118142403Y40693116D01*
X118129361Y40670719D01*
X118124933Y40660686D01*
X118130771Y40651237D01*
X118147229Y40631638D01*
X118172727Y40603475D01*
X118205683Y40568337D01*
X118244515Y40527809D01*
X118287643Y40483480D01*
X118333486Y40436935D01*
X118380461Y40389763D01*
X118426987Y40343549D01*
X118471484Y40299881D01*
X118512370Y40260346D01*
X118548063Y40226532D01*
X118576983Y40200024D01*
X118597548Y40182410D01*
X118608176Y40175277D01*
X118608679Y40175200D01*
X118618471Y40179852D01*
X118640517Y40193086D01*
X118673162Y40213825D01*
X118714755Y40240989D01*
X118763642Y40273499D01*
X118818170Y40310275D01*
X118874542Y40348767D01*
X118933013Y40388654D01*
X118987510Y40425311D01*
X119036368Y40457658D01*
X119077921Y40484613D01*
X119110505Y40505097D01*
X119132455Y40518028D01*
X119141979Y40522333D01*
X119154356Y40518466D01*
X119178509Y40507824D01*
X119211405Y40491849D01*
X119250014Y40471982D01*
X119267750Y40462530D01*
X119310333Y40440421D01*
X119347477Y40422708D01*
X119376380Y40410630D01*
X119394239Y40405426D01*
X119396961Y40405380D01*
X119401274Y40407705D01*
X119406875Y40414246D01*
X119414222Y40426032D01*
X119423770Y40444088D01*
X119435976Y40469443D01*
X119451299Y40503124D01*
X119470193Y40546158D01*
X119493117Y40599571D01*
X119520527Y40664392D01*
X119552880Y40741647D01*
X119590632Y40832363D01*
X119634242Y40937567D01*
X119641899Y40956068D01*
X119679571Y41047453D01*
X119715147Y41134429D01*
X119748119Y41215708D01*
X119777977Y41290003D01*
X119804212Y41356023D01*
X119826313Y41412483D01*
X119843772Y41458094D01*
X119856080Y41491567D01*
X119862726Y41511614D01*
X119863732Y41516984D01*
X119855085Y41526838D01*
X119835461Y41543621D01*
X119807943Y41564829D01*
X119781378Y41583951D01*
X119711120Y41635715D01*
X119653745Y41684615D01*
X119606328Y41733862D01*
X119565946Y41786671D01*
X119529675Y41846255D01*
X119511894Y41880136D01*
X119472073Y41977519D01*
X119448206Y42078069D01*
X119440034Y42180078D01*
X119447295Y42281836D01*
X119469728Y42381634D01*
X119507073Y42477763D01*
X119559068Y42568515D01*
X119625454Y42652179D01*
X119630559Y42657647D01*
X119709970Y42730277D01*
X119798653Y42789297D01*
X119897743Y42835408D01*
X119945565Y42851988D01*
X119973444Y42860042D01*
X119999724Y42865613D01*
X120028576Y42869135D01*
X120064170Y42871044D01*
X120110677Y42871774D01*
X120135767Y42871833D01*
X120188474Y42871483D01*
X120228440Y42870140D01*
X120259845Y42867370D01*
X120286872Y42862737D01*
X120313703Y42855806D01*
X120326267Y42851996D01*
X120429590Y42811324D01*
X120523398Y42757183D01*
X120606717Y42690394D01*
X120678575Y42611777D01*
X120737998Y42522154D01*
X120754452Y42490833D01*
X120788739Y42412738D01*
X120811276Y42338789D01*
X120823567Y42262594D01*
X120827121Y42181800D01*
X120819023Y42073351D01*
X120795013Y41969891D01*
X120755520Y41872483D01*
X120700973Y41782187D01*
X120633407Y41701708D01*
X120603099Y41673382D01*
X120563729Y41640347D01*
X120520419Y41606579D01*
X120478294Y41576053D01*
X120442476Y41552743D01*
X120438102Y41550194D01*
X120418613Y41535358D01*
X120406880Y41519560D01*
X120406125Y41517252D01*
X120408546Y41506130D01*
X120417265Y41480278D01*
X120431946Y41440548D01*
X120452254Y41387789D01*
X120477854Y41322855D01*
X120508411Y41246594D01*
X120543590Y41159858D01*
X120583055Y41063498D01*
X120622120Y40968868D01*
X120659500Y40878698D01*
X120695143Y40792856D01*
X120728495Y40712668D01*
X120759001Y40639458D01*
X120786109Y40574552D01*
X120809263Y40519277D01*
X120827910Y40474957D01*
X120841497Y40442917D01*
X120849468Y40424484D01*
X120851244Y40420651D01*
X120864966Y40407139D01*
X120876315Y40403800D01*
X120889169Y40407676D01*
X120913758Y40418341D01*
X120947017Y40434354D01*
X120985882Y40454272D01*
X121003929Y40463879D01*
X121053610Y40489680D01*
X121092806Y40508017D01*
X121120207Y40518321D01*
X121133629Y40520271D01*
X121145533Y40514551D01*
X121169103Y40500500D01*
X121202152Y40479523D01*
X121242490Y40453026D01*
X121287931Y40422414D01*
X121316867Y40402565D01*
X121395062Y40348629D01*
X121460529Y40303641D01*
X121514413Y40266846D01*
X121557865Y40237490D01*
X121592031Y40214818D01*
X121618061Y40198074D01*
X121637102Y40186504D01*
X121650302Y40179353D01*
X121658809Y40175866D01*
X121662687Y40175200D01*
X121671465Y40181001D01*
X121690774Y40197537D01*
X121719233Y40223505D01*
X121755464Y40257604D01*
X121798086Y40298533D01*
X121845720Y40344989D01*
X121896984Y40395671D01*
X121907115Y40405764D01*
X121958773Y40457550D01*
X122006649Y40506029D01*
X122049405Y40549813D01*
X122085705Y40587509D01*
X122114212Y40617728D01*
X122133588Y40639080D01*
X122142498Y40650173D01*
X122142889Y40650978D01*
X122144388Y40655940D01*
X122144912Y40661011D01*
X122143608Y40667566D01*
X122139623Y40676979D01*
X122132105Y40690625D01*
X122120200Y40709879D01*
X122103058Y40736115D01*
X122079824Y40770708D01*
X122049647Y40815033D01*
X122011673Y40870465D01*
X121965051Y40938377D01*
X121960807Y40944557D01*
X121921397Y41002291D01*
X121885224Y41055936D01*
X121853377Y41103823D01*
X121826947Y41144286D01*
X121807024Y41175657D01*
X121794698Y41196270D01*
X121791000Y41204217D01*
X121794048Y41214882D01*
X121802683Y41239240D01*
X121816142Y41275289D01*
X121833662Y41321025D01*
X121854480Y41374444D01*
X121877832Y41433543D01*
X121889509Y41462821D01*
X121919071Y41536143D01*
X121943324Y41594915D01*
X121962873Y41640455D01*
X121978323Y41674080D01*
X121990278Y41697109D01*
X121999342Y41710858D01*
X122005926Y41716568D01*
X122018191Y41719798D01*
X122045106Y41725651D01*
X122084662Y41733729D01*
X122134847Y41743634D01*
X122193651Y41754970D01*
X122259062Y41767338D01*
X122323465Y41779310D01*
X122392865Y41792306D01*
X122457217Y41804742D01*
X122514565Y41816211D01*
X122562950Y41826304D01*
X122600415Y41834613D01*
X122625002Y41840732D01*
X122634615Y41844114D01*
X122637611Y41849399D01*
X122640064Y41860765D01*
X122642024Y41879648D01*
X122643538Y41907485D01*
X122644655Y41945714D01*
X122645423Y41995773D01*
X122645890Y42059098D01*
X122646105Y42137127D01*
X122646133Y42186875D01*
X122646133Y42520076D01*
X122627083Y42531829D01*
X122614604Y42535999D01*
X122587439Y42542713D01*
X122547574Y42551556D01*
X122496996Y42562113D01*
X122437693Y42573971D01*
X122371651Y42586714D01*
X122300857Y42599929D01*
X122299000Y42600269D01*
X122228540Y42613416D01*
X122163153Y42626043D01*
X122104758Y42637746D01*
X122055273Y42648123D01*
X122016616Y42656772D01*
X121990706Y42663289D01*
X121979461Y42667271D01*
X121979325Y42667389D01*
X121973183Y42677831D01*
X121961630Y42701489D01*
X121945704Y42735952D01*
X121926443Y42778812D01*
X121904882Y42827656D01*
X121882060Y42880077D01*
X121859014Y42933663D01*
X121836781Y42986004D01*
X121816397Y43034691D01*
X121798900Y43077314D01*
X121785328Y43111461D01*
X121776717Y43134725D01*
X121774067Y43144343D01*
X121778721Y43154041D01*
X121791982Y43176046D01*
X121812800Y43208751D01*
X121840126Y43250555D01*
X121872910Y43299852D01*
X121910100Y43355039D01*
X121950648Y43414511D01*
X121957096Y43423908D01*
X121998253Y43484103D01*
X122036408Y43540416D01*
X122070477Y43591210D01*
X122099380Y43634852D01*
X122122035Y43669707D01*
X122137361Y43694140D01*
X122144276Y43706516D01*
X122144511Y43707192D01*
X122143243Y43714034D01*
X122136309Y43725553D01*
X122122804Y43742741D01*
X122101824Y43766585D01*
X122072465Y43798076D01*
X122033820Y43838203D01*
X121984986Y43887956D01*
X121925059Y43948324D01*
X121913001Y43960417D01*
X121852970Y44020185D01*
X121799406Y44072702D01*
X121753219Y44117114D01*
X121715323Y44152564D01*
X121686627Y44178197D01*
X121668043Y44193157D01*
X121661124Y44196867D01*
X121650733Y44192212D01*
X121628072Y44178954D01*
X121594777Y44158149D01*
X121552485Y44130855D01*
X121502833Y44098129D01*
X121447456Y44061030D01*
X121387991Y44020614D01*
X121381523Y44016184D01*
X121321499Y43975119D01*
X121265296Y43936809D01*
X121214578Y43902378D01*
X121171008Y43872950D01*
X121136252Y43849648D01*
X121111974Y43833598D01*
X121099839Y43825922D01*
X121099413Y43825688D01*
X121091991Y43823431D01*
X121081101Y43823759D01*
X121064901Y43827281D01*
X121041553Y43834609D01*
X121009214Y43846354D01*
X120966045Y43863127D01*
X120910205Y43885537D01*
X120870813Y43901552D01*
X120801056Y43930031D01*
X120745353Y43952928D01*
X120702066Y43971030D01*
X120669560Y43985123D01*
X120646197Y43995995D01*
X120630341Y44004433D01*
X120620357Y44011223D01*
X120614606Y44017153D01*
X120611453Y44023010D01*
X120610091Y44026932D01*
X120607400Y44038773D01*
X120602011Y44065324D01*
X120594299Y44104642D01*
X120584639Y44154785D01*
X120573403Y44213810D01*
X120560966Y44279775D01*
X120547702Y44350736D01*
X120546341Y44358052D01*
X120532913Y44429198D01*
X120520053Y44495335D01*
X120508160Y44554556D01*
X120497633Y44604953D01*
X120488873Y44644620D01*
X120482278Y44671646D01*
X120478249Y44684126D01*
X120477980Y44684528D01*
X120472930Y44687605D01*
X120462395Y44690119D01*
X120444894Y44692122D01*
X120418945Y44693664D01*
X120383067Y44694797D01*
X120335780Y44695572D01*
X120275601Y44696039D01*
X120201050Y44696249D01*
X120136847Y44696271D01*
X120063291Y44696070D01*
X120063291Y44696070D01*
G37*
X120063291Y44696070D02*
X119994856Y44695553D01*
X119933434Y44694759D01*
X119880919Y44693727D01*
X119839203Y44692496D01*
X119810178Y44691105D01*
X119795737Y44689593D01*
X119794649Y44689214D01*
X119790354Y44679214D01*
X119783462Y44653687D01*
X119774222Y44613798D01*
X119762885Y44560711D01*
X119749702Y44495592D01*
X119734921Y44419605D01*
X119721831Y44350250D01*
X119708081Y44277331D01*
X119694998Y44209558D01*
X119682958Y44148752D01*
X119672335Y44096737D01*
X119663503Y44055335D01*
X119656838Y44026371D01*
X119652712Y44011666D01*
X119651997Y44010277D01*
X119641586Y44004381D01*
X119618081Y43993473D01*
X119583872Y43978518D01*
X119541350Y43960482D01*
X119492903Y43940333D01*
X119440923Y43919035D01*
X119387799Y43897557D01*
X119335921Y43876863D01*
X119287680Y43857920D01*
X119245465Y43841695D01*
X119211667Y43829153D01*
X119188676Y43821262D01*
X119178881Y43818987D01*
X119178869Y43818992D01*
X119170020Y43824444D01*
X119148793Y43838452D01*
X119116752Y43859958D01*
X119075459Y43887904D01*
X119026476Y43921232D01*
X118971365Y43958884D01*
X118911689Y43999801D01*
X118897239Y44009730D01*
X118836524Y44051205D01*
X118779752Y44089489D01*
X118728523Y44123542D01*
X118684434Y44152322D01*
X118649084Y44174789D01*
X118624073Y44189902D01*
X118610997Y44196619D01*
X118609856Y44196867D01*
X118600320Y44191014D01*
X118580663Y44174512D01*
X118552467Y44148947D01*
X118517318Y44115903D01*
X118476800Y44076966D01*
X118432499Y44033722D01*
X118385999Y43987755D01*
X118338885Y43940651D01*
X118292741Y43893995D01*
X118249152Y43849372D01*
X118209703Y43808369D01*
X118175979Y43772569D01*
X118149564Y43743559D01*
X118132043Y43722923D01*
X118125001Y43712248D01*
X118124933Y43711769D01*
X118129594Y43701570D01*
X118142867Y43679116D01*
X118163685Y43646046D01*
X118190983Y43604002D01*
X118223695Y43554623D01*
X118260755Y43499551D01*
X118301097Y43440425D01*
X118303685Y43436658D01*
X118344510Y43377123D01*
X118382500Y43321434D01*
X118416533Y43271260D01*
X118445485Y43228269D01*
X118468233Y43194130D01*
X118483654Y43170512D01*
X118490623Y43159083D01*
X118490719Y43158883D01*
X118492026Y43151014D01*
X118490146Y43137948D01*
X118484501Y43118094D01*
X118474512Y43089860D01*
X118459598Y43051655D01*
X118439181Y43001888D01*
X118412682Y42938967D01*
X118398751Y42906247D01*
X118371636Y42843579D01*
X118346647Y42787483D01*
X118324615Y42739719D01*
X118306374Y42702047D01*
X118292756Y42676224D01*
X118284594Y42664012D01*
X118283816Y42663420D01*
X118272399Y42660119D01*
X118246253Y42654163D01*
X118207306Y42645942D01*
X118157486Y42635847D01*
X118098721Y42624267D01*
X118032940Y42611593D01*
X117962070Y42598214D01*
X117954317Y42596766D01*
X117873090Y42581365D01*
X117801578Y42567297D01*
X117741015Y42554829D01*
X117692635Y42544228D01*
X117657672Y42535760D01*
X117637358Y42529693D01*
X117632581Y42527143D01*
X117631047Y42516506D01*
X117629624Y42490828D01*
X117628352Y42452003D01*
X117627269Y42401921D01*
X117626414Y42342477D01*
X117625827Y42275561D01*
X117625547Y42203068D01*
X117625530Y42184954D01*
X117625584Y42099087D01*
X117625856Y42028665D01*
X117626395Y41972200D01*
X117627255Y41928205D01*
X117628486Y41895192D01*
X117630140Y41871673D01*
X117632268Y41856161D01*
X117634922Y41847168D01*
X117637341Y41843764D01*
X117648174Y41840001D01*
X117673728Y41833667D01*
X117712058Y41825170D01*
X117761214Y41814916D01*
X117819249Y41803311D01*
X117884215Y41790762D01*
X117952724Y41777940D01*
X118029649Y41763504D01*
X118098669Y41750031D01*
X118158229Y41737857D01*
X118206772Y41727314D01*
X118242742Y41718736D01*
X118264584Y41712458D01*
X118270456Y41709778D01*
X118277159Y41699024D01*
X118288810Y41675021D01*
X118304476Y41640085D01*
X118323228Y41596529D01*
X118344135Y41546666D01*
X118366266Y41492811D01*
X118388691Y41437275D01*
X118410479Y41382374D01*
X118430700Y41330420D01*
X118448423Y41283728D01*
X118462718Y41244610D01*
X118472653Y41215381D01*
X118477299Y41198354D01*
X118477406Y41195263D01*
X118471831Y41186069D01*
X118457753Y41164563D01*
X118436272Y41132377D01*
X118408489Y41091146D01*
X118375505Y41042502D01*
X118338420Y40988080D01*
X118299147Y40930696D01*
X118259188Y40872005D01*
X118222456Y40817230D01*
X118190029Y40768042D01*
X118162985Y40726114D01*
X118142403Y40693116D01*
X118129361Y40670719D01*
X118124933Y40660686D01*
X118130771Y40651237D01*
X118147229Y40631638D01*
X118172727Y40603475D01*
X118205683Y40568337D01*
X118244515Y40527809D01*
X118287643Y40483480D01*
X118333486Y40436935D01*
X118380461Y40389763D01*
X118426987Y40343549D01*
X118471484Y40299881D01*
X118512370Y40260346D01*
X118548063Y40226532D01*
X118576983Y40200024D01*
X118597548Y40182410D01*
X118608176Y40175277D01*
X118608679Y40175200D01*
X118618471Y40179852D01*
X118640517Y40193086D01*
X118673162Y40213825D01*
X118714755Y40240989D01*
X118763642Y40273499D01*
X118818170Y40310275D01*
X118874542Y40348767D01*
X118933013Y40388654D01*
X118987510Y40425311D01*
X119036368Y40457658D01*
X119077921Y40484613D01*
X119110505Y40505097D01*
X119132455Y40518028D01*
X119141979Y40522333D01*
X119154356Y40518466D01*
X119178509Y40507824D01*
X119211405Y40491849D01*
X119250014Y40471982D01*
X119267750Y40462530D01*
X119310333Y40440421D01*
X119347477Y40422708D01*
X119376380Y40410630D01*
X119394239Y40405426D01*
X119396961Y40405380D01*
X119401274Y40407705D01*
X119406875Y40414246D01*
X119414222Y40426032D01*
X119423770Y40444088D01*
X119435976Y40469443D01*
X119451299Y40503124D01*
X119470193Y40546158D01*
X119493117Y40599571D01*
X119520527Y40664392D01*
X119552880Y40741647D01*
X119590632Y40832363D01*
X119634242Y40937567D01*
X119641899Y40956068D01*
X119679571Y41047453D01*
X119715147Y41134429D01*
X119748119Y41215708D01*
X119777977Y41290003D01*
X119804212Y41356023D01*
X119826313Y41412483D01*
X119843772Y41458094D01*
X119856080Y41491567D01*
X119862726Y41511614D01*
X119863732Y41516984D01*
X119855085Y41526838D01*
X119835461Y41543621D01*
X119807943Y41564829D01*
X119781378Y41583951D01*
X119711120Y41635715D01*
X119653745Y41684615D01*
X119606328Y41733862D01*
X119565946Y41786671D01*
X119529675Y41846255D01*
X119511894Y41880136D01*
X119472073Y41977519D01*
X119448206Y42078069D01*
X119440034Y42180078D01*
X119447295Y42281836D01*
X119469728Y42381634D01*
X119507073Y42477763D01*
X119559068Y42568515D01*
X119625454Y42652179D01*
X119630559Y42657647D01*
X119709970Y42730277D01*
X119798653Y42789297D01*
X119897743Y42835408D01*
X119945565Y42851988D01*
X119973444Y42860042D01*
X119999724Y42865613D01*
X120028576Y42869135D01*
X120064170Y42871044D01*
X120110677Y42871774D01*
X120135767Y42871833D01*
X120188474Y42871483D01*
X120228440Y42870140D01*
X120259845Y42867370D01*
X120286872Y42862737D01*
X120313703Y42855806D01*
X120326267Y42851996D01*
X120429590Y42811324D01*
X120523398Y42757183D01*
X120606717Y42690394D01*
X120678575Y42611777D01*
X120737998Y42522154D01*
X120754452Y42490833D01*
X120788739Y42412738D01*
X120811276Y42338789D01*
X120823567Y42262594D01*
X120827121Y42181800D01*
X120819023Y42073351D01*
X120795013Y41969891D01*
X120755520Y41872483D01*
X120700973Y41782187D01*
X120633407Y41701708D01*
X120603099Y41673382D01*
X120563729Y41640347D01*
X120520419Y41606579D01*
X120478294Y41576053D01*
X120442476Y41552743D01*
X120438102Y41550194D01*
X120418613Y41535358D01*
X120406880Y41519560D01*
X120406125Y41517252D01*
X120408546Y41506130D01*
X120417265Y41480278D01*
X120431946Y41440548D01*
X120452254Y41387789D01*
X120477854Y41322855D01*
X120508411Y41246594D01*
X120543590Y41159858D01*
X120583055Y41063498D01*
X120622120Y40968868D01*
X120659500Y40878698D01*
X120695143Y40792856D01*
X120728495Y40712668D01*
X120759001Y40639458D01*
X120786109Y40574552D01*
X120809263Y40519277D01*
X120827910Y40474957D01*
X120841497Y40442917D01*
X120849468Y40424484D01*
X120851244Y40420651D01*
X120864966Y40407139D01*
X120876315Y40403800D01*
X120889169Y40407676D01*
X120913758Y40418341D01*
X120947017Y40434354D01*
X120985882Y40454272D01*
X121003929Y40463879D01*
X121053610Y40489680D01*
X121092806Y40508017D01*
X121120207Y40518321D01*
X121133629Y40520271D01*
X121145533Y40514551D01*
X121169103Y40500500D01*
X121202152Y40479523D01*
X121242490Y40453026D01*
X121287931Y40422414D01*
X121316867Y40402565D01*
X121395062Y40348629D01*
X121460529Y40303641D01*
X121514413Y40266846D01*
X121557865Y40237490D01*
X121592031Y40214818D01*
X121618061Y40198074D01*
X121637102Y40186504D01*
X121650302Y40179353D01*
X121658809Y40175866D01*
X121662687Y40175200D01*
X121671465Y40181001D01*
X121690774Y40197537D01*
X121719233Y40223505D01*
X121755464Y40257604D01*
X121798086Y40298533D01*
X121845720Y40344989D01*
X121896984Y40395671D01*
X121907115Y40405764D01*
X121958773Y40457550D01*
X122006649Y40506029D01*
X122049405Y40549813D01*
X122085705Y40587509D01*
X122114212Y40617728D01*
X122133588Y40639080D01*
X122142498Y40650173D01*
X122142889Y40650978D01*
X122144388Y40655940D01*
X122144912Y40661011D01*
X122143608Y40667566D01*
X122139623Y40676979D01*
X122132105Y40690625D01*
X122120200Y40709879D01*
X122103058Y40736115D01*
X122079824Y40770708D01*
X122049647Y40815033D01*
X122011673Y40870465D01*
X121965051Y40938377D01*
X121960807Y40944557D01*
X121921397Y41002291D01*
X121885224Y41055936D01*
X121853377Y41103823D01*
X121826947Y41144286D01*
X121807024Y41175657D01*
X121794698Y41196270D01*
X121791000Y41204217D01*
X121794048Y41214882D01*
X121802683Y41239240D01*
X121816142Y41275289D01*
X121833662Y41321025D01*
X121854480Y41374444D01*
X121877832Y41433543D01*
X121889509Y41462821D01*
X121919071Y41536143D01*
X121943324Y41594915D01*
X121962873Y41640455D01*
X121978323Y41674080D01*
X121990278Y41697109D01*
X121999342Y41710858D01*
X122005926Y41716568D01*
X122018191Y41719798D01*
X122045106Y41725651D01*
X122084662Y41733729D01*
X122134847Y41743634D01*
X122193651Y41754970D01*
X122259062Y41767338D01*
X122323465Y41779310D01*
X122392865Y41792306D01*
X122457217Y41804742D01*
X122514565Y41816211D01*
X122562950Y41826304D01*
X122600415Y41834613D01*
X122625002Y41840732D01*
X122634615Y41844114D01*
X122637611Y41849399D01*
X122640064Y41860765D01*
X122642024Y41879648D01*
X122643538Y41907485D01*
X122644655Y41945714D01*
X122645423Y41995773D01*
X122645890Y42059098D01*
X122646105Y42137127D01*
X122646133Y42186875D01*
X122646133Y42520076D01*
X122627083Y42531829D01*
X122614604Y42535999D01*
X122587439Y42542713D01*
X122547574Y42551556D01*
X122496996Y42562113D01*
X122437693Y42573971D01*
X122371651Y42586714D01*
X122300857Y42599929D01*
X122299000Y42600269D01*
X122228540Y42613416D01*
X122163153Y42626043D01*
X122104758Y42637746D01*
X122055273Y42648123D01*
X122016616Y42656772D01*
X121990706Y42663289D01*
X121979461Y42667271D01*
X121979325Y42667389D01*
X121973183Y42677831D01*
X121961630Y42701489D01*
X121945704Y42735952D01*
X121926443Y42778812D01*
X121904882Y42827656D01*
X121882060Y42880077D01*
X121859014Y42933663D01*
X121836781Y42986004D01*
X121816397Y43034691D01*
X121798900Y43077314D01*
X121785328Y43111461D01*
X121776717Y43134725D01*
X121774067Y43144343D01*
X121778721Y43154041D01*
X121791982Y43176046D01*
X121812800Y43208751D01*
X121840126Y43250555D01*
X121872910Y43299852D01*
X121910100Y43355039D01*
X121950648Y43414511D01*
X121957096Y43423908D01*
X121998253Y43484103D01*
X122036408Y43540416D01*
X122070477Y43591210D01*
X122099380Y43634852D01*
X122122035Y43669707D01*
X122137361Y43694140D01*
X122144276Y43706516D01*
X122144511Y43707192D01*
X122143243Y43714034D01*
X122136309Y43725553D01*
X122122804Y43742741D01*
X122101824Y43766585D01*
X122072465Y43798076D01*
X122033820Y43838203D01*
X121984986Y43887956D01*
X121925059Y43948324D01*
X121913001Y43960417D01*
X121852970Y44020185D01*
X121799406Y44072702D01*
X121753219Y44117114D01*
X121715323Y44152564D01*
X121686627Y44178197D01*
X121668043Y44193157D01*
X121661124Y44196867D01*
X121650733Y44192212D01*
X121628072Y44178954D01*
X121594777Y44158149D01*
X121552485Y44130855D01*
X121502833Y44098129D01*
X121447456Y44061030D01*
X121387991Y44020614D01*
X121381523Y44016184D01*
X121321499Y43975119D01*
X121265296Y43936809D01*
X121214578Y43902378D01*
X121171008Y43872950D01*
X121136252Y43849648D01*
X121111974Y43833598D01*
X121099839Y43825922D01*
X121099413Y43825688D01*
X121091991Y43823431D01*
X121081101Y43823759D01*
X121064901Y43827281D01*
X121041553Y43834609D01*
X121009214Y43846354D01*
X120966045Y43863127D01*
X120910205Y43885537D01*
X120870813Y43901552D01*
X120801056Y43930031D01*
X120745353Y43952928D01*
X120702066Y43971030D01*
X120669560Y43985123D01*
X120646197Y43995995D01*
X120630341Y44004433D01*
X120620357Y44011223D01*
X120614606Y44017153D01*
X120611453Y44023010D01*
X120610091Y44026932D01*
X120607400Y44038773D01*
X120602011Y44065324D01*
X120594299Y44104642D01*
X120584639Y44154785D01*
X120573403Y44213810D01*
X120560966Y44279775D01*
X120547702Y44350736D01*
X120546341Y44358052D01*
X120532913Y44429198D01*
X120520053Y44495335D01*
X120508160Y44554556D01*
X120497633Y44604953D01*
X120488873Y44644620D01*
X120482278Y44671646D01*
X120478249Y44684126D01*
X120477980Y44684528D01*
X120472930Y44687605D01*
X120462395Y44690119D01*
X120444894Y44692122D01*
X120418945Y44693664D01*
X120383067Y44694797D01*
X120335780Y44695572D01*
X120275601Y44696039D01*
X120201050Y44696249D01*
X120136847Y44696271D01*
X120063291Y44696070D01*
D13*
G04 #@! TO.C,J2*
X121530000Y26280000D02*
X121530000Y24860000D01*
X96540000Y24860000D02*
X97070000Y24860000D01*
X96540000Y19660000D02*
X96540000Y24860000D01*
X97070000Y19660000D02*
X96540000Y19660000D01*
X122060000Y24860000D02*
X121530000Y24860000D01*
X122060000Y19660000D02*
X122060000Y24860000D01*
X121530000Y19660000D02*
X122060000Y19660000D01*
G04 #@! TO.C,J1*
X1470000Y10340000D02*
X940000Y10340000D01*
X940000Y10340000D02*
X940000Y5140000D01*
X940000Y5140000D02*
X1470000Y5140000D01*
X25930000Y10340000D02*
X26460000Y10340000D01*
X26460000Y10340000D02*
X26460000Y5140000D01*
X26460000Y5140000D02*
X25930000Y5140000D01*
X1470000Y3720000D02*
X1470000Y5140000D01*
G04 #@! TD*
M02*
