G04 #@! TF.FileFunction,Soldermask,Top*
%FSLAX46Y46*%
G04 Gerber Fmt 4.6, Leading zero omitted, Abs format (unit mm)*
G04 Created by KiCad (PCBNEW 4.0.7) date 09/17/18 22:29:30*
%MOMM*%
%LPD*%
G01*
G04 APERTURE LIST*
%ADD10C,0.050000*%
G04 APERTURE END LIST*
D10*
G36*
X74025000Y-79725000D02*
X73425000Y-79725000D01*
X73425000Y-79225000D01*
X74025000Y-79225000D01*
X74025000Y-79725000D01*
X74025000Y-79725000D01*
G37*
G36*
X79550000Y-79550000D02*
X78650000Y-79550000D01*
X78650000Y-77150000D01*
X79550000Y-77150000D01*
X79550000Y-79550000D01*
X79550000Y-79550000D01*
G37*
G36*
X76550000Y-79550000D02*
X75650000Y-79550000D01*
X75650000Y-77150000D01*
X76550000Y-77150000D01*
X76550000Y-79550000D01*
X76550000Y-79550000D01*
G37*
G36*
X78400000Y-79500000D02*
X76800000Y-79500000D01*
X76800000Y-77200000D01*
X78400000Y-77200000D01*
X78400000Y-79500000D01*
X78400000Y-79500000D01*
G37*
G36*
X75325000Y-79225000D02*
X74725000Y-79225000D01*
X74725000Y-78725000D01*
X75325000Y-78725000D01*
X75325000Y-79225000D01*
X75325000Y-79225000D01*
G37*
G36*
X81850000Y-78900000D02*
X81050000Y-78900000D01*
X81050000Y-77500000D01*
X81850000Y-77500000D01*
X81850000Y-78900000D01*
X81850000Y-78900000D01*
G37*
G36*
X83750000Y-78900000D02*
X82950000Y-78900000D01*
X82950000Y-77500000D01*
X83750000Y-77500000D01*
X83750000Y-78900000D01*
X83750000Y-78900000D01*
G37*
G36*
X74025000Y-78725000D02*
X73425000Y-78725000D01*
X73425000Y-78225000D01*
X74025000Y-78225000D01*
X74025000Y-78725000D01*
X74025000Y-78725000D01*
G37*
G36*
X83750000Y-77000000D02*
X82950000Y-77000000D01*
X82950000Y-75600000D01*
X83750000Y-75600000D01*
X83750000Y-77000000D01*
X83750000Y-77000000D01*
G37*
G36*
X81850000Y-77000000D02*
X81050000Y-77000000D01*
X81050000Y-75600000D01*
X81850000Y-75600000D01*
X81850000Y-77000000D01*
X81850000Y-77000000D01*
G37*
G36*
X59165000Y-76980000D02*
X55915000Y-76980000D01*
X55915000Y-75880000D01*
X59165000Y-75880000D01*
X59165000Y-76980000D01*
X59165000Y-76980000D01*
G37*
G36*
X94085000Y-76980000D02*
X90835000Y-76980000D01*
X90835000Y-75880000D01*
X94085000Y-75880000D01*
X94085000Y-76980000D01*
X94085000Y-76980000D01*
G37*
G36*
X99165000Y-76980000D02*
X95915000Y-76980000D01*
X95915000Y-75880000D01*
X99165000Y-75880000D01*
X99165000Y-76980000D01*
X99165000Y-76980000D01*
G37*
G36*
X54085000Y-76980000D02*
X50835000Y-76980000D01*
X50835000Y-75880000D01*
X54085000Y-75880000D01*
X54085000Y-76980000D01*
X54085000Y-76980000D01*
G37*
G36*
X87850000Y-76950000D02*
X86550000Y-76950000D01*
X86550000Y-75650000D01*
X87850000Y-75650000D01*
X87850000Y-76950000D01*
X87850000Y-76950000D01*
G37*
G36*
X85650000Y-76950000D02*
X84350000Y-76950000D01*
X84350000Y-75650000D01*
X85650000Y-75650000D01*
X85650000Y-76950000D01*
X85650000Y-76950000D01*
G37*
G36*
X79000000Y-76625000D02*
X78100000Y-76625000D01*
X78100000Y-75775000D01*
X79000000Y-75775000D01*
X79000000Y-76625000D01*
X79000000Y-76625000D01*
G37*
G36*
X77500000Y-76625000D02*
X76600000Y-76625000D01*
X76600000Y-75775000D01*
X77500000Y-75775000D01*
X77500000Y-76625000D01*
X77500000Y-76625000D01*
G37*
G36*
X84550000Y-75100000D02*
X83750000Y-75100000D01*
X83750000Y-73700000D01*
X84550000Y-73700000D01*
X84550000Y-75100000D01*
X84550000Y-75100000D01*
G37*
G36*
X86450000Y-75100000D02*
X85650000Y-75100000D01*
X85650000Y-73700000D01*
X86450000Y-73700000D01*
X86450000Y-75100000D01*
X86450000Y-75100000D01*
G37*
G36*
X54085000Y-74440000D02*
X50835000Y-74440000D01*
X50835000Y-73340000D01*
X54085000Y-73340000D01*
X54085000Y-74440000D01*
X54085000Y-74440000D01*
G37*
G36*
X94085000Y-74440000D02*
X90835000Y-74440000D01*
X90835000Y-73340000D01*
X94085000Y-73340000D01*
X94085000Y-74440000D01*
X94085000Y-74440000D01*
G37*
G36*
X99165000Y-74440000D02*
X95915000Y-74440000D01*
X95915000Y-73340000D01*
X99165000Y-73340000D01*
X99165000Y-74440000D01*
X99165000Y-74440000D01*
G37*
G36*
X59165000Y-74440000D02*
X55915000Y-74440000D01*
X55915000Y-73340000D01*
X59165000Y-73340000D01*
X59165000Y-74440000D01*
X59165000Y-74440000D01*
G37*
G36*
X65646306Y-68851097D02*
X65963281Y-68916163D01*
X66261577Y-69041554D01*
X66529839Y-69222499D01*
X66757848Y-69452106D01*
X66936916Y-69721623D01*
X67060222Y-70020787D01*
X67123005Y-70337865D01*
X67123005Y-70337875D01*
X67123071Y-70338209D01*
X67117910Y-70707800D01*
X67117834Y-70708134D01*
X67117834Y-70708146D01*
X67046225Y-71023340D01*
X66914611Y-71318948D01*
X66728089Y-71583361D01*
X66493755Y-71806513D01*
X66220550Y-71979894D01*
X65918865Y-72096911D01*
X65600201Y-72153099D01*
X65276690Y-72146323D01*
X64960650Y-72076837D01*
X64664135Y-71947293D01*
X64398427Y-71762621D01*
X64173645Y-71529853D01*
X63998361Y-71257865D01*
X63879242Y-70957005D01*
X63820828Y-70638734D01*
X63825347Y-70315185D01*
X63892622Y-69998677D01*
X64020096Y-69701259D01*
X64202909Y-69434267D01*
X64434101Y-69207867D01*
X64704862Y-69030686D01*
X65004882Y-68909470D01*
X65322729Y-68848837D01*
X65646306Y-68851097D01*
X65646306Y-68851097D01*
G37*
G36*
X84699306Y-68851097D02*
X85016281Y-68916163D01*
X85314577Y-69041554D01*
X85582839Y-69222499D01*
X85810848Y-69452106D01*
X85989916Y-69721623D01*
X86113222Y-70020787D01*
X86176005Y-70337865D01*
X86176005Y-70337875D01*
X86176071Y-70338209D01*
X86170910Y-70707800D01*
X86170834Y-70708134D01*
X86170834Y-70708146D01*
X86099225Y-71023340D01*
X85967611Y-71318948D01*
X85781089Y-71583361D01*
X85546755Y-71806513D01*
X85273550Y-71979894D01*
X84971865Y-72096911D01*
X84653201Y-72153099D01*
X84329690Y-72146323D01*
X84013650Y-72076837D01*
X83717135Y-71947293D01*
X83451427Y-71762621D01*
X83226645Y-71529853D01*
X83051361Y-71257865D01*
X82932242Y-70957005D01*
X82873828Y-70638734D01*
X82878347Y-70315185D01*
X82945622Y-69998677D01*
X83073096Y-69701259D01*
X83255909Y-69434267D01*
X83487101Y-69207867D01*
X83757862Y-69030686D01*
X84057882Y-68909470D01*
X84375729Y-68848837D01*
X84699306Y-68851097D01*
X84699306Y-68851097D01*
G37*
G36*
X54085000Y-71900000D02*
X50835000Y-71900000D01*
X50835000Y-70800000D01*
X54085000Y-70800000D01*
X54085000Y-71900000D01*
X54085000Y-71900000D01*
G37*
G36*
X94085000Y-71900000D02*
X90835000Y-71900000D01*
X90835000Y-70800000D01*
X94085000Y-70800000D01*
X94085000Y-71900000D01*
X94085000Y-71900000D01*
G37*
G36*
X99165000Y-71900000D02*
X95915000Y-71900000D01*
X95915000Y-70800000D01*
X99165000Y-70800000D01*
X99165000Y-71900000D01*
X99165000Y-71900000D01*
G37*
G36*
X59165000Y-71900000D02*
X55915000Y-71900000D01*
X55915000Y-70800000D01*
X59165000Y-70800000D01*
X59165000Y-71900000D01*
X59165000Y-71900000D01*
G37*
G36*
X74600000Y-69500000D02*
X73400000Y-69500000D01*
X73400000Y-67900000D01*
X74600000Y-67900000D01*
X74600000Y-69500000D01*
X74600000Y-69500000D01*
G37*
G36*
X76600000Y-69500000D02*
X75400000Y-69500000D01*
X75400000Y-67900000D01*
X76600000Y-67900000D01*
X76600000Y-69500000D01*
X76600000Y-69500000D01*
G37*
G36*
X54085000Y-69360000D02*
X50835000Y-69360000D01*
X50835000Y-68260000D01*
X54085000Y-68260000D01*
X54085000Y-69360000D01*
X54085000Y-69360000D01*
G37*
G36*
X94085000Y-69360000D02*
X90835000Y-69360000D01*
X90835000Y-68260000D01*
X94085000Y-68260000D01*
X94085000Y-69360000D01*
X94085000Y-69360000D01*
G37*
G36*
X99165000Y-69360000D02*
X95915000Y-69360000D01*
X95915000Y-68260000D01*
X99165000Y-68260000D01*
X99165000Y-69360000D01*
X99165000Y-69360000D01*
G37*
G36*
X59165000Y-69360000D02*
X55915000Y-69360000D01*
X55915000Y-68260000D01*
X59165000Y-68260000D01*
X59165000Y-69360000D01*
X59165000Y-69360000D01*
G37*
G36*
X68216117Y-68930330D02*
X67791853Y-69354594D01*
X67438299Y-69001040D01*
X67862563Y-68576776D01*
X68216117Y-68930330D01*
X68216117Y-68930330D01*
G37*
G36*
X69488909Y-68364645D02*
X69064645Y-68788909D01*
X68711091Y-68435355D01*
X69135355Y-68011091D01*
X69488909Y-68364645D01*
X69488909Y-68364645D01*
G37*
G36*
X68781802Y-67657538D02*
X68357538Y-68081802D01*
X68003984Y-67728248D01*
X68428248Y-67303984D01*
X68781802Y-67657538D01*
X68781802Y-67657538D01*
G37*
G36*
X77931371Y-67082843D02*
X77082843Y-67931371D01*
X75951472Y-66800000D01*
X76800000Y-65951472D01*
X77931371Y-67082843D01*
X77931371Y-67082843D01*
G37*
G36*
X74048528Y-66800000D02*
X72917157Y-67931371D01*
X72068629Y-67082843D01*
X73200000Y-65951472D01*
X74048528Y-66800000D01*
X74048528Y-66800000D01*
G37*
G36*
X75600000Y-67500000D02*
X74400000Y-67500000D01*
X74400000Y-65900000D01*
X75600000Y-65900000D01*
X75600000Y-67500000D01*
X75600000Y-67500000D01*
G37*
G36*
X94085000Y-66820000D02*
X90835000Y-66820000D01*
X90835000Y-65720000D01*
X94085000Y-65720000D01*
X94085000Y-66820000D01*
X94085000Y-66820000D01*
G37*
G36*
X59165000Y-66820000D02*
X55915000Y-66820000D01*
X55915000Y-65720000D01*
X59165000Y-65720000D01*
X59165000Y-66820000D01*
X59165000Y-66820000D01*
G37*
G36*
X54085000Y-66820000D02*
X50835000Y-66820000D01*
X50835000Y-65720000D01*
X54085000Y-65720000D01*
X54085000Y-66820000D01*
X54085000Y-66820000D01*
G37*
G36*
X99165000Y-66820000D02*
X95915000Y-66820000D01*
X95915000Y-65720000D01*
X99165000Y-65720000D01*
X99165000Y-66820000D01*
X99165000Y-66820000D01*
G37*
G36*
X72100000Y-66600000D02*
X70500000Y-66600000D01*
X70500000Y-65400000D01*
X72100000Y-65400000D01*
X72100000Y-66600000D01*
X72100000Y-66600000D01*
G37*
G36*
X79500000Y-66600000D02*
X77900000Y-66600000D01*
X77900000Y-65400000D01*
X79500000Y-65400000D01*
X79500000Y-66600000D01*
X79500000Y-66600000D01*
G37*
G36*
X74100000Y-65600000D02*
X72500000Y-65600000D01*
X72500000Y-64400000D01*
X74100000Y-64400000D01*
X74100000Y-65600000D01*
X74100000Y-65600000D01*
G37*
G36*
X77500000Y-65600000D02*
X75900000Y-65600000D01*
X75900000Y-64400000D01*
X77500000Y-64400000D01*
X77500000Y-65600000D01*
X77500000Y-65600000D01*
G37*
G36*
X79500000Y-64600000D02*
X77900000Y-64600000D01*
X77900000Y-63400000D01*
X79500000Y-63400000D01*
X79500000Y-64600000D01*
X79500000Y-64600000D01*
G37*
G36*
X72100000Y-64600000D02*
X70500000Y-64600000D01*
X70500000Y-63400000D01*
X72100000Y-63400000D01*
X72100000Y-64600000D01*
X72100000Y-64600000D01*
G37*
G36*
X94085000Y-64280000D02*
X90835000Y-64280000D01*
X90835000Y-63180000D01*
X94085000Y-63180000D01*
X94085000Y-64280000D01*
X94085000Y-64280000D01*
G37*
G36*
X54085000Y-64280000D02*
X50835000Y-64280000D01*
X50835000Y-63180000D01*
X54085000Y-63180000D01*
X54085000Y-64280000D01*
X54085000Y-64280000D01*
G37*
G36*
X59165000Y-64280000D02*
X55915000Y-64280000D01*
X55915000Y-63180000D01*
X59165000Y-63180000D01*
X59165000Y-64280000D01*
X59165000Y-64280000D01*
G37*
G36*
X99165000Y-64280000D02*
X95915000Y-64280000D01*
X95915000Y-63180000D01*
X99165000Y-63180000D01*
X99165000Y-64280000D01*
X99165000Y-64280000D01*
G37*
G36*
X75600000Y-64100000D02*
X74400000Y-64100000D01*
X74400000Y-62500000D01*
X75600000Y-62500000D01*
X75600000Y-64100000D01*
X75600000Y-64100000D01*
G37*
G36*
X77931371Y-62917157D02*
X76800000Y-64048528D01*
X75951472Y-63200000D01*
X77082843Y-62068629D01*
X77931371Y-62917157D01*
X77931371Y-62917157D01*
G37*
G36*
X74048528Y-63200000D02*
X73200000Y-64048528D01*
X72068629Y-62917157D01*
X72917157Y-62068629D01*
X74048528Y-63200000D01*
X74048528Y-63200000D01*
G37*
G36*
X76600000Y-62100000D02*
X75400000Y-62100000D01*
X75400000Y-60500000D01*
X76600000Y-60500000D01*
X76600000Y-62100000D01*
X76600000Y-62100000D01*
G37*
G36*
X74600000Y-62100000D02*
X73400000Y-62100000D01*
X73400000Y-60500000D01*
X74600000Y-60500000D01*
X74600000Y-62100000D01*
X74600000Y-62100000D01*
G37*
G36*
X99165000Y-61740000D02*
X95915000Y-61740000D01*
X95915000Y-60640000D01*
X99165000Y-60640000D01*
X99165000Y-61740000D01*
X99165000Y-61740000D01*
G37*
G36*
X94085000Y-61740000D02*
X90835000Y-61740000D01*
X90835000Y-60640000D01*
X94085000Y-60640000D01*
X94085000Y-61740000D01*
X94085000Y-61740000D01*
G37*
G36*
X59165000Y-61740000D02*
X55915000Y-61740000D01*
X55915000Y-60640000D01*
X59165000Y-60640000D01*
X59165000Y-61740000D01*
X59165000Y-61740000D01*
G37*
G36*
X54085000Y-61740000D02*
X50835000Y-61740000D01*
X50835000Y-60640000D01*
X54085000Y-60640000D01*
X54085000Y-61740000D01*
X54085000Y-61740000D01*
G37*
G36*
X59165000Y-59200000D02*
X55915000Y-59200000D01*
X55915000Y-58100000D01*
X59165000Y-58100000D01*
X59165000Y-59200000D01*
X59165000Y-59200000D01*
G37*
G36*
X99165000Y-59200000D02*
X95915000Y-59200000D01*
X95915000Y-58100000D01*
X99165000Y-58100000D01*
X99165000Y-59200000D01*
X99165000Y-59200000D01*
G37*
G36*
X54085000Y-59200000D02*
X50835000Y-59200000D01*
X50835000Y-58100000D01*
X54085000Y-58100000D01*
X54085000Y-59200000D01*
X54085000Y-59200000D01*
G37*
G36*
X94085000Y-59200000D02*
X90835000Y-59200000D01*
X90835000Y-58100000D01*
X94085000Y-58100000D01*
X94085000Y-59200000D01*
X94085000Y-59200000D01*
G37*
G36*
X73800000Y-58525000D02*
X73300000Y-58525000D01*
X73300000Y-57925000D01*
X73800000Y-57925000D01*
X73800000Y-58525000D01*
X73800000Y-58525000D01*
G37*
G36*
X74300000Y-57225000D02*
X73800000Y-57225000D01*
X73800000Y-56625000D01*
X74300000Y-56625000D01*
X74300000Y-57225000D01*
X74300000Y-57225000D01*
G37*
G36*
X73300000Y-57225000D02*
X72800000Y-57225000D01*
X72800000Y-56625000D01*
X73300000Y-56625000D01*
X73300000Y-57225000D01*
X73300000Y-57225000D01*
G37*
G36*
X59165000Y-56660000D02*
X55915000Y-56660000D01*
X55915000Y-55560000D01*
X59165000Y-55560000D01*
X59165000Y-56660000D01*
X59165000Y-56660000D01*
G37*
G36*
X99165000Y-56660000D02*
X95915000Y-56660000D01*
X95915000Y-55560000D01*
X99165000Y-55560000D01*
X99165000Y-56660000D01*
X99165000Y-56660000D01*
G37*
G36*
X94085000Y-56660000D02*
X90835000Y-56660000D01*
X90835000Y-55560000D01*
X94085000Y-55560000D01*
X94085000Y-56660000D01*
X94085000Y-56660000D01*
G37*
G36*
X54085000Y-56660000D02*
X50835000Y-56660000D01*
X50835000Y-55560000D01*
X54085000Y-55560000D01*
X54085000Y-56660000D01*
X54085000Y-56660000D01*
G37*
G36*
X75173306Y-52351097D02*
X75490281Y-52416163D01*
X75788577Y-52541554D01*
X76056839Y-52722499D01*
X76284848Y-52952106D01*
X76463916Y-53221623D01*
X76587222Y-53520787D01*
X76650005Y-53837865D01*
X76650005Y-53837875D01*
X76650071Y-53838209D01*
X76644910Y-54207800D01*
X76644834Y-54208134D01*
X76644834Y-54208146D01*
X76573225Y-54523340D01*
X76441611Y-54818948D01*
X76255089Y-55083361D01*
X76020755Y-55306513D01*
X75747550Y-55479894D01*
X75445865Y-55596911D01*
X75127201Y-55653099D01*
X74803690Y-55646323D01*
X74487650Y-55576837D01*
X74191135Y-55447293D01*
X73925427Y-55262621D01*
X73700645Y-55029853D01*
X73525361Y-54757865D01*
X73406242Y-54457005D01*
X73347828Y-54138734D01*
X73352347Y-53815185D01*
X73419622Y-53498677D01*
X73547096Y-53201259D01*
X73729909Y-52934267D01*
X73961101Y-52707867D01*
X74231862Y-52530686D01*
X74531882Y-52409470D01*
X74849729Y-52348837D01*
X75173306Y-52351097D01*
X75173306Y-52351097D01*
G37*
G36*
X99165000Y-54120000D02*
X95915000Y-54120000D01*
X95915000Y-53020000D01*
X99165000Y-53020000D01*
X99165000Y-54120000D01*
X99165000Y-54120000D01*
G37*
G36*
X94085000Y-54120000D02*
X90835000Y-54120000D01*
X90835000Y-53020000D01*
X94085000Y-53020000D01*
X94085000Y-54120000D01*
X94085000Y-54120000D01*
G37*
G36*
X59165000Y-54120000D02*
X55915000Y-54120000D01*
X55915000Y-53020000D01*
X59165000Y-53020000D01*
X59165000Y-54120000D01*
X59165000Y-54120000D01*
G37*
G36*
X54085000Y-54120000D02*
X50835000Y-54120000D01*
X50835000Y-53020000D01*
X54085000Y-53020000D01*
X54085000Y-54120000D01*
X54085000Y-54120000D01*
G37*
M02*
