G04 #@! TF.GenerationSoftware,KiCad,Pcbnew,(5.0.0)*
G04 #@! TF.CreationDate,2018-10-12T08:26:41+02:00*
G04 #@! TF.ProjectId,Peltier_IMS,50656C746965725F494D532E6B696361,rev?*
G04 #@! TF.SameCoordinates,Original*
G04 #@! TF.FileFunction,Profile,NP*
%FSLAX46Y46*%
G04 Gerber Fmt 4.6, Leading zero omitted, Abs format (unit mm)*
G04 Created by KiCad (PCBNEW (5.0.0)) date 10/12/18 08:26:41*
%MOMM*%
%LPD*%
G01*
G04 APERTURE LIST*
%ADD10C,0.200000*%
G04 APERTURE END LIST*
D10*
X49000000Y-32000000D02*
G75*
G02X51000000Y-30000000I2000000J0D01*
G01*
X107000000Y-30000000D02*
G75*
G02X109000000Y-32000000I0J-2000000D01*
G01*
X109000000Y-61000000D02*
G75*
G02X107000000Y-63000000I-2000000J0D01*
G01*
X51000000Y-63000000D02*
G75*
G02X49000000Y-61000000I0J2000000D01*
G01*
X107000000Y-30000000D02*
X51000000Y-30000000D01*
X109000000Y-61000000D02*
X109000000Y-32000000D01*
X51000000Y-63000000D02*
X107000000Y-63000000D01*
X49000000Y-32000000D02*
X49000000Y-61000000D01*
M02*
