G04 #@! TF.GenerationSoftware,KiCad,Pcbnew,(5.0.0)*
G04 #@! TF.CreationDate,2018-10-12T08:26:41+02:00*
G04 #@! TF.ProjectId,Peltier_IMS,50656C746965725F494D532E6B696361,rev?*
G04 #@! TF.SameCoordinates,Original*
G04 #@! TF.FileFunction,Copper,L1,Top,Signal*
G04 #@! TF.FilePolarity,Positive*
%FSLAX46Y46*%
G04 Gerber Fmt 4.6, Leading zero omitted, Abs format (unit mm)*
G04 Created by KiCad (PCBNEW (5.0.0)) date 10/12/18 08:26:41*
%MOMM*%
%LPD*%
G01*
G04 APERTURE LIST*
G04 #@! TA.AperFunction,WasherPad*
%ADD10C,3.500000*%
G04 #@! TD*
G04 #@! TA.AperFunction,SMDPad,CuDef*
%ADD11R,3.150000X1.000000*%
G04 #@! TD*
G04 #@! TA.AperFunction,SMDPad,CuDef*
%ADD12R,0.700000X1.300000*%
G04 #@! TD*
G04 #@! TA.AperFunction,SMDPad,CuDef*
%ADD13R,1.450000X1.100000*%
G04 #@! TD*
G04 #@! TA.AperFunction,SMDPad,CuDef*
%ADD14R,1.200000X1.542500*%
G04 #@! TD*
G04 #@! TA.AperFunction,SMDPad,CuDef*
%ADD15R,1.100000X0.400000*%
G04 #@! TD*
G04 #@! TA.AperFunction,SMDPad,CuDef*
%ADD16R,0.750000X0.800000*%
G04 #@! TD*
G04 #@! TA.AperFunction,SMDPad,CuDef*
%ADD17R,0.800000X0.750000*%
G04 #@! TD*
G04 #@! TA.AperFunction,SMDPad,CuDef*
%ADD18R,0.500000X0.900000*%
G04 #@! TD*
G04 #@! TA.AperFunction,SMDPad,CuDef*
%ADD19R,1.000000X3.150000*%
G04 #@! TD*
G04 #@! TA.AperFunction,SMDPad,CuDef*
%ADD20R,1.250000X1.000000*%
G04 #@! TD*
G04 #@! TA.AperFunction,SMDPad,CuDef*
%ADD21R,6.000000X2.000000*%
G04 #@! TD*
G04 #@! TA.AperFunction,SMDPad,CuDef*
%ADD22R,3.500000X2.000000*%
G04 #@! TD*
G04 #@! TA.AperFunction,SMDPad,CuDef*
%ADD23R,1.300000X0.700000*%
G04 #@! TD*
G04 #@! TA.AperFunction,SMDPad,CuDef*
%ADD24C,0.700000*%
G04 #@! TD*
G04 #@! TA.AperFunction,Conductor*
%ADD25C,0.050000*%
G04 #@! TD*
G04 #@! TA.AperFunction,SMDPad,CuDef*
%ADD26R,0.300000X1.400000*%
G04 #@! TD*
G04 #@! TA.AperFunction,SMDPad,CuDef*
%ADD27R,1.600000X2.600000*%
G04 #@! TD*
G04 #@! TA.AperFunction,SMDPad,CuDef*
%ADD28R,1.600000X1.000000*%
G04 #@! TD*
G04 #@! TA.AperFunction,SMDPad,CuDef*
%ADD29R,1.200000X1.200000*%
G04 #@! TD*
G04 #@! TA.AperFunction,SMDPad,CuDef*
%ADD30R,0.500000X0.400000*%
G04 #@! TD*
G04 #@! TA.AperFunction,SMDPad,CuDef*
%ADD31R,0.900000X0.500000*%
G04 #@! TD*
G04 #@! TA.AperFunction,Conductor*
%ADD32C,0.150000*%
G04 #@! TD*
G04 #@! TA.AperFunction,Conductor*
%ADD33C,0.400000*%
G04 #@! TD*
G04 #@! TA.AperFunction,Conductor*
%ADD34C,1.000000*%
G04 #@! TD*
G04 #@! TA.AperFunction,Conductor*
%ADD35C,0.800000*%
G04 #@! TD*
G04 #@! TA.AperFunction,Conductor*
%ADD36C,0.350000*%
G04 #@! TD*
G04 #@! TA.AperFunction,Conductor*
%ADD37C,0.200000*%
G04 #@! TD*
G04 APERTURE END LIST*
D10*
G04 #@! TO.P,REF\002A\002A,*
G04 #@! TO.N,*
X69000000Y-58000000D03*
G04 #@! TD*
G04 #@! TO.P,REF\002A\002A,*
G04 #@! TO.N,*
X94000000Y-35000000D03*
G04 #@! TD*
D11*
G04 #@! TO.P,J1,1*
G04 #@! TO.N,SCL*
X54650400Y-50571400D03*
G04 #@! TO.P,J1,2*
G04 #@! TO.N,LDAC*
X59700400Y-50571400D03*
G04 #@! TO.P,J1,3*
G04 #@! TO.N,SDA*
X54650400Y-53111400D03*
G04 #@! TO.P,J1,4*
G04 #@! TO.N,N/C*
X59700400Y-53111400D03*
G04 #@! TO.P,J1,5*
G04 #@! TO.N,V3*
X54650400Y-55651400D03*
G04 #@! TO.P,J1,6*
G04 #@! TO.N,En_2*
X59700400Y-55651400D03*
G04 #@! TO.P,J1,7*
G04 #@! TO.N,GND*
X54650400Y-58191400D03*
G04 #@! TO.P,J1,8*
G04 #@! TO.N,En_1*
X59700400Y-58191400D03*
G04 #@! TD*
D12*
G04 #@! TO.P,R111,1*
G04 #@! TO.N,V_2*
X62899999Y-41730000D03*
G04 #@! TO.P,R111,2*
G04 #@! TO.N,Net-(R111-Pad2)*
X61000001Y-41730000D03*
G04 #@! TD*
D13*
G04 #@! TO.P,L12,2*
G04 #@! TO.N,Net-(L12-Pad2)*
X79883000Y-46531400D03*
G04 #@! TO.P,L12,1*
G04 #@! TO.N,Net-(C17-Pad1)*
X79883000Y-49531400D03*
G04 #@! TD*
D14*
G04 #@! TO.P,U11,29*
G04 #@! TO.N,PGND*
X70736800Y-43311650D03*
X70736800Y-44854150D03*
X70736800Y-46396650D03*
X70736800Y-47939150D03*
X71936800Y-43311650D03*
X71936800Y-44854150D03*
X71936800Y-46396650D03*
X71936800Y-47939150D03*
D15*
G04 #@! TO.P,U11,28*
G04 #@! TO.N,Net-(Ra11-Pad2)*
X74186800Y-41400400D03*
G04 #@! TO.P,U11,27*
G04 #@! TO.N,/Ref2*
X74186800Y-42050400D03*
G04 #@! TO.P,U11,26*
X74186800Y-42700400D03*
G04 #@! TO.P,U11,25*
G04 #@! TO.N,Net-(C15-Pad2)*
X74186800Y-43350400D03*
G04 #@! TO.P,U11,24*
G04 #@! TO.N,PGND*
X74186800Y-44000400D03*
G04 #@! TO.P,U11,23*
G04 #@! TO.N,Net-(L12-Pad2)*
X74186800Y-44650400D03*
G04 #@! TO.P,U11,22*
G04 #@! TO.N,PGND*
X74186800Y-45300400D03*
G04 #@! TO.P,U11,21*
G04 #@! TO.N,Net-(L12-Pad2)*
X74186800Y-45950400D03*
G04 #@! TO.P,U11,20*
G04 #@! TO.N,PVDD*
X74186800Y-46600400D03*
G04 #@! TO.P,U11,19*
G04 #@! TO.N,Net-(L12-Pad2)*
X74186800Y-47250400D03*
G04 #@! TO.P,U11,18*
G04 #@! TO.N,PVDD*
X74186800Y-47900400D03*
G04 #@! TO.P,U11,17*
G04 #@! TO.N,En_2*
X74186800Y-48550400D03*
G04 #@! TO.P,U11,16*
G04 #@! TO.N,Net-(C17-Pad1)*
X74186800Y-49200400D03*
G04 #@! TO.P,U11,15*
G04 #@! TO.N,/P+2*
X74186800Y-49850400D03*
G04 #@! TO.P,U11,14*
G04 #@! TO.N,/P-2*
X68486800Y-49850400D03*
G04 #@! TO.P,U11,13*
G04 #@! TO.N,Net-(Rr11-Pad1)*
X68486800Y-49200400D03*
G04 #@! TO.P,U11,12*
G04 #@! TO.N,PVDD*
X68486800Y-48550400D03*
G04 #@! TO.P,U11,11*
X68486800Y-47900400D03*
G04 #@! TO.P,U11,10*
G04 #@! TO.N,Net-(L11-Pad1)*
X68486800Y-47250400D03*
G04 #@! TO.P,U11,9*
G04 #@! TO.N,PVDD*
X68486800Y-46600400D03*
G04 #@! TO.P,U11,8*
G04 #@! TO.N,Net-(L11-Pad1)*
X68486800Y-45950400D03*
G04 #@! TO.P,U11,7*
G04 #@! TO.N,PGND*
X68486800Y-45300400D03*
G04 #@! TO.P,U11,6*
G04 #@! TO.N,Net-(L11-Pad1)*
X68486800Y-44650400D03*
G04 #@! TO.P,U11,5*
G04 #@! TO.N,PGND*
X68486800Y-44000400D03*
G04 #@! TO.P,U11,4*
G04 #@! TO.N,/Ref2*
X68486800Y-43350400D03*
G04 #@! TO.P,U11,3*
G04 #@! TO.N,V_2*
X68486800Y-42700400D03*
G04 #@! TO.P,U11,2*
G04 #@! TO.N,GND*
X68486800Y-42050400D03*
G04 #@! TO.P,U11,1*
G04 #@! TO.N,PVDD*
X68486800Y-41400400D03*
G04 #@! TD*
D12*
G04 #@! TO.P,Rsense11,2*
G04 #@! TO.N,Net-(C17-Pad1)*
X77556400Y-49860200D03*
G04 #@! TO.P,Rsense11,1*
G04 #@! TO.N,/P+2*
X75656400Y-49860200D03*
G04 #@! TD*
D16*
G04 #@! TO.P,C12,1*
G04 #@! TO.N,PVDD*
X66725800Y-46698600D03*
G04 #@! TO.P,C12,2*
G04 #@! TO.N,PGND*
X66725800Y-45198600D03*
G04 #@! TD*
D17*
G04 #@! TO.P,C14,2*
G04 #@! TO.N,/Ref2*
X66904300Y-43395900D03*
G04 #@! TO.P,C14,1*
G04 #@! TO.N,GND*
X65404300Y-43395900D03*
G04 #@! TD*
D12*
G04 #@! TO.P,Ra11,2*
G04 #@! TO.N,Net-(Ra11-Pad2)*
X75618300Y-39585900D03*
G04 #@! TO.P,Ra11,1*
G04 #@! TO.N,GND*
X77518300Y-39585900D03*
G04 #@! TD*
G04 #@! TO.P,Ra12,1*
G04 #@! TO.N,/Ref2*
X77518300Y-41554400D03*
G04 #@! TO.P,Ra12,2*
G04 #@! TO.N,Net-(Ra11-Pad2)*
X75618300Y-41554400D03*
G04 #@! TD*
D17*
G04 #@! TO.P,C18,2*
G04 #@! TO.N,/P-2*
X70624000Y-51511200D03*
G04 #@! TO.P,C18,1*
G04 #@! TO.N,Net-(C17-Pad1)*
X72124000Y-51511200D03*
G04 #@! TD*
G04 #@! TO.P,C15,2*
G04 #@! TO.N,Net-(C15-Pad2)*
X75691300Y-43332400D03*
G04 #@! TO.P,C15,1*
G04 #@! TO.N,GND*
X77191300Y-43332400D03*
G04 #@! TD*
G04 #@! TO.P,C13,1*
G04 #@! TO.N,PVDD*
X66904300Y-41427400D03*
G04 #@! TO.P,C13,2*
G04 #@! TO.N,GND*
X65404300Y-41427400D03*
G04 #@! TD*
D16*
G04 #@! TO.P,C16,2*
G04 #@! TO.N,PVDD*
X75869800Y-46698600D03*
G04 #@! TO.P,C16,1*
G04 #@! TO.N,PGND*
X75869800Y-45198600D03*
G04 #@! TD*
D18*
G04 #@! TO.P,Rr11,1*
G04 #@! TO.N,Net-(Rr11-Pad1)*
X67158300Y-49174400D03*
G04 #@! TO.P,Rr11,2*
G04 #@! TO.N,N/C*
X65658300Y-49174400D03*
G04 #@! TD*
D13*
G04 #@! TO.P,L11,1*
G04 #@! TO.N,Net-(L11-Pad1)*
X63449200Y-46390000D03*
G04 #@! TO.P,L11,2*
G04 #@! TO.N,/P-2*
X63449200Y-49390000D03*
G04 #@! TD*
D19*
G04 #@! TO.P,J2,8*
G04 #@! TO.N,/P-2*
X80899000Y-57998600D03*
G04 #@! TO.P,J2,7*
X80899000Y-52948600D03*
G04 #@! TO.P,J2,6*
G04 #@! TO.N,/P+2*
X83439000Y-57998600D03*
G04 #@! TO.P,J2,5*
X83439000Y-52948600D03*
G04 #@! TO.P,J2,4*
G04 #@! TO.N,/P-1*
X85979000Y-57998600D03*
G04 #@! TO.P,J2,3*
X85979000Y-52948600D03*
G04 #@! TO.P,J2,2*
G04 #@! TO.N,/P+1*
X88519000Y-57998600D03*
G04 #@! TO.P,J2,1*
X88519000Y-52948600D03*
G04 #@! TD*
D16*
G04 #@! TO.P,C0,2*
G04 #@! TO.N,V3*
X54454448Y-46537138D03*
G04 #@! TO.P,C0,1*
G04 #@! TO.N,GND*
X54454448Y-45037138D03*
G04 #@! TD*
D17*
G04 #@! TO.P,C1,1*
G04 #@! TO.N,/P-1*
X86702200Y-44932600D03*
G04 #@! TO.P,C1,2*
G04 #@! TO.N,PGND*
X88202200Y-44932600D03*
G04 #@! TD*
D16*
G04 #@! TO.P,C2,2*
G04 #@! TO.N,PGND*
X89687400Y-45198600D03*
G04 #@! TO.P,C2,1*
G04 #@! TO.N,PVDD*
X89687400Y-46698600D03*
G04 #@! TD*
D17*
G04 #@! TO.P,C3,2*
G04 #@! TO.N,GND*
X88365900Y-41427400D03*
G04 #@! TO.P,C3,1*
G04 #@! TO.N,PVDD*
X89865900Y-41427400D03*
G04 #@! TD*
G04 #@! TO.P,C4,1*
G04 #@! TO.N,GND*
X88365900Y-43395900D03*
G04 #@! TO.P,C4,2*
G04 #@! TO.N,/Ref1=1.50V*
X89865900Y-43395900D03*
G04 #@! TD*
G04 #@! TO.P,C5,1*
G04 #@! TO.N,GND*
X100152900Y-43332400D03*
G04 #@! TO.P,C5,2*
G04 #@! TO.N,Net-(C5-Pad2)*
X98652900Y-43332400D03*
G04 #@! TD*
D16*
G04 #@! TO.P,C6,1*
G04 #@! TO.N,PGND*
X98831400Y-45198600D03*
G04 #@! TO.P,C6,2*
G04 #@! TO.N,PVDD*
X98831400Y-46698600D03*
G04 #@! TD*
D17*
G04 #@! TO.P,C8,1*
G04 #@! TO.N,Net-(C7-Pad1)*
X95085600Y-51511200D03*
G04 #@! TO.P,C8,2*
G04 #@! TO.N,/P-1*
X93585600Y-51511200D03*
G04 #@! TD*
D20*
G04 #@! TO.P,Cc1,2*
G04 #@! TO.N,PGND*
X71272400Y-33290000D03*
G04 #@! TO.P,Cc1,1*
G04 #@! TO.N,PVDD*
X71272400Y-35290000D03*
G04 #@! TD*
D16*
G04 #@! TO.P,Cc2,2*
G04 #@! TO.N,PGND*
X73736200Y-33540000D03*
G04 #@! TO.P,Cc2,1*
G04 #@! TO.N,PVDD*
X73736200Y-35040000D03*
G04 #@! TD*
G04 #@! TO.P,Cc3,1*
G04 #@! TO.N,V3*
X52250000Y-55650000D03*
G04 #@! TO.P,Cc3,2*
G04 #@! TO.N,GND*
X52250000Y-57150000D03*
G04 #@! TD*
D21*
G04 #@! TO.P,J0,2*
G04 #@! TO.N,PGND*
X53716600Y-32322000D03*
G04 #@! TO.P,J0,1*
G04 #@! TO.N,PVDD*
X53716600Y-36322000D03*
D22*
X62966600Y-36322000D03*
G04 #@! TO.P,J0,2*
G04 #@! TO.N,PGND*
X62966600Y-32322000D03*
G04 #@! TD*
D23*
G04 #@! TO.P,R100,2*
G04 #@! TO.N,GND*
X105003600Y-39588400D03*
G04 #@! TO.P,R100,1*
G04 #@! TO.N,PGND*
X105003600Y-41488400D03*
G04 #@! TD*
D24*
G04 #@! TO.P,R101,2*
G04 #@! TO.N,Net-(R101-Pad2)*
X85422898Y-41277698D03*
D25*
G04 #@! TD*
G04 #@! TO.N,Net-(R101-Pad2)*
G04 #@! TO.C,R101*
G36*
X86130005Y-41065566D02*
X85210766Y-41984805D01*
X84715791Y-41489830D01*
X85635030Y-40570591D01*
X86130005Y-41065566D01*
X86130005Y-41065566D01*
G37*
D24*
G04 #@! TO.P,R101,1*
G04 #@! TO.N,V_1*
X86766400Y-42621200D03*
D25*
G04 #@! TD*
G04 #@! TO.N,V_1*
G04 #@! TO.C,R101*
G36*
X87473507Y-42409068D02*
X86554268Y-43328307D01*
X86059293Y-42833332D01*
X86978532Y-41914093D01*
X87473507Y-42409068D01*
X87473507Y-42409068D01*
G37*
D12*
G04 #@! TO.P,Ra1,1*
G04 #@! TO.N,GND*
X100479900Y-39585900D03*
G04 #@! TO.P,Ra1,2*
G04 #@! TO.N,Net-(Ra1-Pad2)*
X98579900Y-39585900D03*
G04 #@! TD*
G04 #@! TO.P,Ra2,2*
G04 #@! TO.N,Net-(Ra1-Pad2)*
X98579900Y-41554400D03*
G04 #@! TO.P,Ra2,1*
G04 #@! TO.N,/Ref1=1.50V*
X100479900Y-41554400D03*
G04 #@! TD*
D18*
G04 #@! TO.P,Rr1,2*
G04 #@! TO.N,N/C*
X88619900Y-49174400D03*
G04 #@! TO.P,Rr1,1*
G04 #@! TO.N,Net-(Rr1-Pad1)*
X90119900Y-49174400D03*
G04 #@! TD*
D12*
G04 #@! TO.P,Rsense1,1*
G04 #@! TO.N,/P+1*
X98618000Y-49860200D03*
G04 #@! TO.P,Rsense1,2*
G04 #@! TO.N,Net-(C7-Pad1)*
X100518000Y-49860200D03*
G04 #@! TD*
D26*
G04 #@! TO.P,U0,10*
G04 #@! TO.N,GND*
X56052448Y-41848138D03*
G04 #@! TO.P,U0,9*
G04 #@! TO.N,N/C*
X56552448Y-41848138D03*
G04 #@! TO.P,U0,8*
X57052448Y-41848138D03*
G04 #@! TO.P,U0,7*
G04 #@! TO.N,Net-(R111-Pad2)*
X57552448Y-41848138D03*
G04 #@! TO.P,U0,6*
G04 #@! TO.N,Net-(R101-Pad2)*
X58052448Y-41848138D03*
G04 #@! TO.P,U0,5*
G04 #@! TO.N,N/C*
X58052448Y-46248138D03*
G04 #@! TO.P,U0,4*
G04 #@! TO.N,LDAC*
X57552448Y-46248138D03*
G04 #@! TO.P,U0,3*
G04 #@! TO.N,SDA*
X57052448Y-46248138D03*
G04 #@! TO.P,U0,2*
G04 #@! TO.N,SCL*
X56552448Y-46248138D03*
G04 #@! TO.P,U0,1*
G04 #@! TO.N,V3*
X56052448Y-46248138D03*
G04 #@! TD*
D27*
G04 #@! TO.P,Cc0,1*
G04 #@! TO.N,PVDD*
X67437000Y-36064600D03*
G04 #@! TO.P,Cc0,2*
G04 #@! TO.N,PGND*
X67437000Y-32464600D03*
G04 #@! TD*
D13*
G04 #@! TO.P,L1,2*
G04 #@! TO.N,/P-1*
X86410800Y-49887000D03*
G04 #@! TO.P,L1,1*
G04 #@! TO.N,Net-(L1-Pad1)*
X86410800Y-46887000D03*
G04 #@! TD*
G04 #@! TO.P,L2,1*
G04 #@! TO.N,Net-(C7-Pad1)*
X102844600Y-49531400D03*
G04 #@! TO.P,L2,2*
G04 #@! TO.N,Net-(L2-Pad2)*
X102844600Y-46531400D03*
G04 #@! TD*
D15*
G04 #@! TO.P,U1,1*
G04 #@! TO.N,PVDD*
X91448400Y-41400400D03*
G04 #@! TO.P,U1,2*
G04 #@! TO.N,GND*
X91448400Y-42050400D03*
G04 #@! TO.P,U1,3*
G04 #@! TO.N,V_1*
X91448400Y-42700400D03*
G04 #@! TO.P,U1,4*
G04 #@! TO.N,/Ref1=1.50V*
X91448400Y-43350400D03*
G04 #@! TO.P,U1,5*
G04 #@! TO.N,PGND*
X91448400Y-44000400D03*
G04 #@! TO.P,U1,6*
G04 #@! TO.N,Net-(L1-Pad1)*
X91448400Y-44650400D03*
G04 #@! TO.P,U1,7*
G04 #@! TO.N,PGND*
X91448400Y-45300400D03*
G04 #@! TO.P,U1,8*
G04 #@! TO.N,Net-(L1-Pad1)*
X91448400Y-45950400D03*
G04 #@! TO.P,U1,9*
G04 #@! TO.N,PVDD*
X91448400Y-46600400D03*
G04 #@! TO.P,U1,10*
G04 #@! TO.N,Net-(L1-Pad1)*
X91448400Y-47250400D03*
G04 #@! TO.P,U1,11*
G04 #@! TO.N,PVDD*
X91448400Y-47900400D03*
G04 #@! TO.P,U1,12*
X91448400Y-48550400D03*
G04 #@! TO.P,U1,13*
G04 #@! TO.N,Net-(Rr1-Pad1)*
X91448400Y-49200400D03*
G04 #@! TO.P,U1,14*
G04 #@! TO.N,/P-1*
X91448400Y-49850400D03*
G04 #@! TO.P,U1,15*
G04 #@! TO.N,/P+1*
X97148400Y-49850400D03*
G04 #@! TO.P,U1,16*
G04 #@! TO.N,Net-(C7-Pad1)*
X97148400Y-49200400D03*
G04 #@! TO.P,U1,17*
G04 #@! TO.N,En_1*
X97148400Y-48550400D03*
G04 #@! TO.P,U1,18*
G04 #@! TO.N,PVDD*
X97148400Y-47900400D03*
G04 #@! TO.P,U1,19*
G04 #@! TO.N,Net-(L2-Pad2)*
X97148400Y-47250400D03*
G04 #@! TO.P,U1,20*
G04 #@! TO.N,PVDD*
X97148400Y-46600400D03*
G04 #@! TO.P,U1,21*
G04 #@! TO.N,Net-(L2-Pad2)*
X97148400Y-45950400D03*
G04 #@! TO.P,U1,22*
G04 #@! TO.N,PGND*
X97148400Y-45300400D03*
G04 #@! TO.P,U1,23*
G04 #@! TO.N,Net-(L2-Pad2)*
X97148400Y-44650400D03*
G04 #@! TO.P,U1,24*
G04 #@! TO.N,PGND*
X97148400Y-44000400D03*
G04 #@! TO.P,U1,25*
G04 #@! TO.N,Net-(C5-Pad2)*
X97148400Y-43350400D03*
G04 #@! TO.P,U1,26*
G04 #@! TO.N,/Ref1=1.50V*
X97148400Y-42700400D03*
G04 #@! TO.P,U1,27*
X97148400Y-42050400D03*
G04 #@! TO.P,U1,28*
G04 #@! TO.N,Net-(Ra1-Pad2)*
X97148400Y-41400400D03*
D14*
G04 #@! TO.P,U1,29*
G04 #@! TO.N,PGND*
X94898400Y-47939150D03*
X94898400Y-46396650D03*
X94898400Y-44854150D03*
X94898400Y-43311650D03*
X93698400Y-47939150D03*
X93698400Y-46396650D03*
X93698400Y-44854150D03*
X93698400Y-43311650D03*
G04 #@! TD*
D28*
G04 #@! TO.P,C7,1*
G04 #@! TO.N,Net-(C7-Pad1)*
X105613200Y-49506000D03*
G04 #@! TO.P,C7,2*
G04 #@! TO.N,PGND*
X105613200Y-46506000D03*
G04 #@! TD*
G04 #@! TO.P,C11,1*
G04 #@! TO.N,/P-2*
X60710000Y-49250000D03*
G04 #@! TO.P,C11,2*
G04 #@! TO.N,PGND*
X60710000Y-46250000D03*
G04 #@! TD*
D16*
G04 #@! TO.P,C17,2*
G04 #@! TO.N,PGND*
X82400000Y-46950000D03*
G04 #@! TO.P,C17,1*
G04 #@! TO.N,Net-(C17-Pad1)*
X82400000Y-48450000D03*
G04 #@! TD*
D12*
G04 #@! TO.P,R200,1*
G04 #@! TO.N,GND*
X81450000Y-43500000D03*
G04 #@! TO.P,R200,2*
X83350000Y-43500000D03*
G04 #@! TD*
D29*
G04 #@! TO.P,D0,2*
G04 #@! TO.N,PVDD*
X71500000Y-37200000D03*
G04 #@! TO.P,D0,1*
G04 #@! TO.N,Net-(D0-Pad1)*
X73700000Y-37200000D03*
G04 #@! TD*
D12*
G04 #@! TO.P,Rd0,2*
G04 #@! TO.N,PGND*
X77250000Y-37200000D03*
G04 #@! TO.P,Rd0,1*
G04 #@! TO.N,Net-(D0-Pad1)*
X75350000Y-37200000D03*
G04 #@! TD*
D30*
G04 #@! TO.P,Q2,3*
G04 #@! TO.N,Net-(Q2-Pad1)*
X78700000Y-53400000D03*
G04 #@! TO.P,Q2,2*
G04 #@! TO.N,Net-(Q2-Pad2)*
X77400000Y-53900000D03*
G04 #@! TO.P,Q2,1*
G04 #@! TO.N,Net-(Q2-Pad1)*
X77400000Y-52900000D03*
G04 #@! TD*
G04 #@! TO.P,Q3,1*
G04 #@! TO.N,Net-(Q2-Pad2)*
X64700000Y-60000000D03*
G04 #@! TO.P,Q3,2*
G04 #@! TO.N,Net-(Q2-Pad1)*
X64700000Y-59000000D03*
G04 #@! TO.P,Q3,3*
G04 #@! TO.N,Net-(Q2-Pad2)*
X63400000Y-59500000D03*
G04 #@! TD*
D31*
G04 #@! TO.P,Rr2,1*
G04 #@! TO.N,Net-(Q2-Pad1)*
X64700000Y-57450000D03*
G04 #@! TO.P,Rr2,2*
G04 #@! TO.N,N/C*
X64700000Y-55950000D03*
G04 #@! TD*
G04 #@! TO.P,Rr3,2*
G04 #@! TO.N,N/C*
X73800000Y-55950000D03*
G04 #@! TO.P,Rr3,1*
G04 #@! TO.N,Net-(Q2-Pad2)*
X73800000Y-57450000D03*
G04 #@! TD*
D10*
G04 #@! TO.P,REF\002A\002A,*
G04 #@! TO.N,*
X94000000Y-58000000D03*
G04 #@! TD*
D32*
G04 #@! TO.N,V3*
X54743448Y-46248138D02*
X54454448Y-46537138D01*
X56052448Y-46248138D02*
X54743448Y-46248138D01*
G04 #@! TO.N,GND*
X88365900Y-41952400D02*
X88365900Y-41427400D01*
X88463900Y-42050400D02*
X88365900Y-41952400D01*
X91448400Y-42050400D02*
X88463900Y-42050400D01*
X100177900Y-43332400D02*
X100152900Y-43332400D01*
X101244400Y-42265900D02*
X100177900Y-43332400D01*
X101244400Y-39850400D02*
X101244400Y-42265900D01*
X100979900Y-39585900D02*
X101244400Y-39850400D01*
X100479900Y-39585900D02*
X100979900Y-39585900D01*
X100479900Y-38785900D02*
X100225800Y-38531800D01*
X100479900Y-39585900D02*
X100479900Y-38785900D01*
X100225800Y-38531800D02*
X95859600Y-38531800D01*
X92341000Y-42050400D02*
X91448400Y-42050400D01*
X95859600Y-38531800D02*
X92341000Y-42050400D01*
X105001100Y-39585900D02*
X105003600Y-39588400D01*
X100479900Y-39585900D02*
X105001100Y-39585900D01*
X68486800Y-42050400D02*
X65502300Y-42050400D01*
X65404300Y-41952400D02*
X65404300Y-41427400D01*
X65502300Y-42050400D02*
X65404300Y-41952400D01*
X72898000Y-38531800D02*
X69379400Y-42050400D01*
X77518300Y-38785900D02*
X77264200Y-38531800D01*
X77518300Y-39585900D02*
X77518300Y-38785900D01*
X69379400Y-42050400D02*
X68486800Y-42050400D01*
X77264200Y-38531800D02*
X72898000Y-38531800D01*
X77216300Y-43332400D02*
X77191300Y-43332400D01*
X77518300Y-39585900D02*
X78018300Y-39585900D01*
X78282800Y-42265900D02*
X77216300Y-43332400D01*
X78282800Y-39850400D02*
X78282800Y-42265900D01*
X78018300Y-39585900D02*
X78282800Y-39850400D01*
X79516900Y-43500000D02*
X78282800Y-42265900D01*
X81450000Y-43500000D02*
X79516900Y-43500000D01*
X79570217Y-43553317D02*
X78282800Y-42265900D01*
X88201800Y-43560000D02*
X88365900Y-43395900D01*
X83350000Y-43500000D02*
X83410000Y-43560000D01*
X84550000Y-43560000D02*
X84180000Y-43560000D01*
X86682600Y-41427400D02*
X84550000Y-43560000D01*
X88365900Y-41427400D02*
X86682600Y-41427400D01*
X83410000Y-43560000D02*
X84180000Y-43560000D01*
X84180000Y-43560000D02*
X88201800Y-43560000D01*
X65404300Y-43395900D02*
X65404300Y-41427400D01*
X56052448Y-42698138D02*
X56052448Y-41848138D01*
X56052448Y-43964138D02*
X56052448Y-42698138D01*
X54979448Y-45037138D02*
X56052448Y-43964138D01*
X54454448Y-45037138D02*
X54979448Y-45037138D01*
X56052448Y-41848138D02*
X56052448Y-38677552D01*
X56052448Y-38677552D02*
X57350000Y-37380000D01*
X57350000Y-37380000D02*
X57350000Y-35260000D01*
X57350000Y-35260000D02*
X56710000Y-34620000D01*
X50310000Y-34620000D02*
X49360000Y-35570000D01*
X56710000Y-34620000D02*
X50310000Y-34620000D01*
X49360000Y-35570000D02*
X49360000Y-56700000D01*
X88988300Y-40280000D02*
X88365900Y-40902400D01*
X91920000Y-40280000D02*
X88988300Y-40280000D01*
X95650000Y-36550000D02*
X91920000Y-40280000D01*
X106270000Y-36550000D02*
X95650000Y-36550000D01*
X107690000Y-47840000D02*
X107690000Y-37970000D01*
X107690000Y-37970000D02*
X106270000Y-36550000D01*
X49360000Y-57960000D02*
X53300000Y-61900000D01*
X49360000Y-56700000D02*
X49360000Y-57960000D01*
X53300000Y-61900000D02*
X99090000Y-61900000D01*
X99090000Y-61900000D02*
X108080000Y-52910000D01*
X108080000Y-52910000D02*
X108080000Y-48230000D01*
X88365900Y-40902400D02*
X88365900Y-41427400D01*
X108080000Y-48230000D02*
X107690000Y-47840000D01*
D33*
G04 #@! TO.N,PGND*
X93252150Y-45300400D02*
X93698400Y-44854150D01*
X91448400Y-45300400D02*
X93252150Y-45300400D01*
X95344650Y-45300400D02*
X94898400Y-44854150D01*
X97148400Y-45300400D02*
X95344650Y-45300400D01*
X94387150Y-44000400D02*
X93698400Y-43311650D01*
X97148400Y-44000400D02*
X94387150Y-44000400D01*
X94209650Y-44000400D02*
X94898400Y-43311650D01*
X91448400Y-44000400D02*
X94209650Y-44000400D01*
X93698400Y-43311650D02*
X93698400Y-47939150D01*
X93698400Y-47939150D02*
X94898400Y-47939150D01*
X94898400Y-47939150D02*
X94898400Y-43311650D01*
X94898400Y-43311650D02*
X93698400Y-43311650D01*
X67294400Y-32322000D02*
X67437000Y-32464600D01*
D34*
X62966600Y-32322000D02*
X67294400Y-32322000D01*
X70447000Y-32464600D02*
X71272400Y-33290000D01*
X67437000Y-32464600D02*
X70447000Y-32464600D01*
D33*
X73486200Y-33290000D02*
X73736200Y-33540000D01*
D34*
X71272400Y-33290000D02*
X73486200Y-33290000D01*
D33*
X89687400Y-45031398D02*
X89687400Y-45198600D01*
X90718398Y-44000400D02*
X89687400Y-45031398D01*
X91448400Y-44000400D02*
X90718398Y-44000400D01*
X98831400Y-45032346D02*
X98831400Y-45198600D01*
X97799454Y-44000400D02*
X98831400Y-45032346D01*
X97148400Y-44000400D02*
X97799454Y-44000400D01*
X89421400Y-44932600D02*
X89687400Y-45198600D01*
X88202200Y-44932600D02*
X89421400Y-44932600D01*
D32*
X105613200Y-45856000D02*
X105613200Y-46506000D01*
X104955800Y-45198600D02*
X105613200Y-45856000D01*
D33*
X99606400Y-45198600D02*
X100533200Y-45198600D01*
X98831400Y-45198600D02*
X99606400Y-45198600D01*
D32*
X100533200Y-45198600D02*
X104955800Y-45198600D01*
D33*
X104703600Y-41488400D02*
X105003600Y-41488400D01*
X100993400Y-45198600D02*
X104703600Y-41488400D01*
X100533200Y-45198600D02*
X100993400Y-45198600D01*
X71425550Y-44000400D02*
X70736800Y-43311650D01*
X74186800Y-44000400D02*
X71425550Y-44000400D01*
X70290550Y-45300400D02*
X70736800Y-44854150D01*
X68486800Y-45300400D02*
X70290550Y-45300400D01*
X68486800Y-44000400D02*
X71248050Y-44000400D01*
X71248050Y-44000400D02*
X71936800Y-43311650D01*
X70736800Y-47939150D02*
X71936800Y-47939150D01*
X71936800Y-47939150D02*
X71936800Y-43311650D01*
X66725800Y-45031398D02*
X66725800Y-45198600D01*
X67756798Y-44000400D02*
X66725800Y-45031398D01*
X68486800Y-44000400D02*
X67756798Y-44000400D01*
X72383050Y-45300400D02*
X71936800Y-44854150D01*
X74186800Y-45300400D02*
X72383050Y-45300400D01*
X74186800Y-44000400D02*
X74837854Y-44000400D01*
X75869800Y-45032346D02*
X75869800Y-45198600D01*
X74837854Y-44000400D02*
X75869800Y-45032346D01*
X70736800Y-43311650D02*
X70736800Y-47939150D01*
X71936800Y-43311650D02*
X70736800Y-43311650D01*
X75869800Y-45198600D02*
X76644800Y-45198600D01*
X76644800Y-45198600D02*
X77571600Y-45198600D01*
X76644800Y-45198600D02*
X76646200Y-45200000D01*
X84000000Y-45200000D02*
X85200000Y-44000000D01*
X88177200Y-44932600D02*
X88202200Y-44932600D01*
X87244600Y-44000000D02*
X88177200Y-44932600D01*
X85200000Y-44000000D02*
X87244600Y-44000000D01*
D34*
X73736200Y-33540000D02*
X76540000Y-33540000D01*
D32*
X83600000Y-45200000D02*
X84000000Y-45200000D01*
X82400000Y-46400000D02*
X83600000Y-45200000D01*
X82400000Y-46950000D02*
X82400000Y-46400000D01*
D33*
X82400000Y-44700000D02*
X82900000Y-45200000D01*
D35*
X82400000Y-41500000D02*
X82400000Y-44700000D01*
D33*
X82900000Y-45200000D02*
X84000000Y-45200000D01*
X82400000Y-41500000D02*
X82400000Y-42200000D01*
D34*
X82400000Y-39400000D02*
X82400000Y-41500000D01*
D32*
X66200800Y-45198600D02*
X66725800Y-45198600D01*
X61111400Y-45198600D02*
X66200800Y-45198600D01*
X60710000Y-45600000D02*
X61111400Y-45198600D01*
X60710000Y-46250000D02*
X60710000Y-45600000D01*
D33*
X82400000Y-44700000D02*
X81900000Y-45200000D01*
X76646200Y-45200000D02*
X81900000Y-45200000D01*
X81900000Y-45200000D02*
X82900000Y-45200000D01*
D32*
X77750000Y-37200000D02*
X80200000Y-37200000D01*
X77250000Y-37200000D02*
X77750000Y-37200000D01*
D34*
X76540000Y-33540000D02*
X80200000Y-37200000D01*
X80200000Y-37200000D02*
X82400000Y-39400000D01*
D33*
G04 #@! TO.N,PVDD*
X92398400Y-46600400D02*
X92608400Y-46810400D01*
X91448400Y-46600400D02*
X92398400Y-46600400D01*
X92398400Y-47900400D02*
X91448400Y-47900400D01*
X92608400Y-47690400D02*
X92398400Y-47900400D01*
X92608400Y-46810400D02*
X92608400Y-47690400D01*
X96198400Y-47900400D02*
X95973900Y-47675900D01*
X97148400Y-47900400D02*
X96198400Y-47900400D01*
X96198400Y-46600400D02*
X97148400Y-46600400D01*
X95973900Y-46824900D02*
X96198400Y-46600400D01*
X95973900Y-47675900D02*
X95973900Y-46824900D01*
X92178402Y-47900400D02*
X92544900Y-48266898D01*
X91448400Y-47900400D02*
X92178402Y-47900400D01*
X92544900Y-48266898D02*
X92544900Y-48856900D01*
X92544900Y-48856900D02*
X92862400Y-49174400D01*
X92862400Y-49174400D02*
X95719900Y-49174400D01*
X95719900Y-49174400D02*
X95973900Y-48920400D01*
X95973900Y-48124900D02*
X96198400Y-47900400D01*
X95973900Y-48920400D02*
X95973900Y-48124900D01*
X89892900Y-41400400D02*
X89865900Y-41427400D01*
X91448400Y-41400400D02*
X89892900Y-41400400D01*
X90498400Y-47900400D02*
X91448400Y-47900400D01*
X90089200Y-47900400D02*
X90498400Y-47900400D01*
X89687400Y-47498600D02*
X90089200Y-47900400D01*
X89687400Y-46698600D02*
X89687400Y-47498600D01*
X98098400Y-47900400D02*
X97148400Y-47900400D01*
X98429600Y-47900400D02*
X98098400Y-47900400D01*
X98831400Y-47498600D02*
X98429600Y-47900400D01*
X98831400Y-46698600D02*
X98831400Y-47498600D01*
D32*
X91448400Y-48550400D02*
X91448400Y-47900400D01*
D33*
X67179600Y-36322000D02*
X67437000Y-36064600D01*
X62966600Y-36322000D02*
X67179600Y-36322000D01*
X70497800Y-36064600D02*
X71272400Y-35290000D01*
X67437000Y-36064600D02*
X70497800Y-36064600D01*
X73486200Y-35290000D02*
X73736200Y-35040000D01*
X71272400Y-35290000D02*
X73486200Y-35290000D01*
X106303000Y-47900400D02*
X107035600Y-47167800D01*
X68486800Y-41400400D02*
X66931300Y-41400400D01*
X66931300Y-41400400D02*
X66904300Y-41427400D01*
X69646800Y-46810400D02*
X69646800Y-47690400D01*
X69436800Y-47900400D02*
X68486800Y-47900400D01*
X69646800Y-47690400D02*
X69436800Y-47900400D01*
X67536800Y-47900400D02*
X68486800Y-47900400D01*
X67127600Y-47900400D02*
X67536800Y-47900400D01*
X66725800Y-47498600D02*
X67127600Y-47900400D01*
X66725800Y-46698600D02*
X66725800Y-47498600D01*
X72758300Y-49174400D02*
X73012300Y-48920400D01*
X69216802Y-47900400D02*
X69583300Y-48266898D01*
X68486800Y-47900400D02*
X69216802Y-47900400D01*
D32*
X68486800Y-48550400D02*
X68486800Y-47900400D01*
D33*
X73012300Y-48124900D02*
X73236800Y-47900400D01*
X69583300Y-48266898D02*
X69583300Y-48856900D01*
X73012300Y-48920400D02*
X73012300Y-48124900D01*
X69900800Y-49174400D02*
X72758300Y-49174400D01*
X75136800Y-47900400D02*
X74186800Y-47900400D01*
X75468000Y-47900400D02*
X75136800Y-47900400D01*
X69436800Y-46600400D02*
X69646800Y-46810400D01*
X68486800Y-46600400D02*
X69436800Y-46600400D01*
X75869800Y-46698600D02*
X75869800Y-47498600D01*
X75869800Y-47498600D02*
X75468000Y-47900400D01*
X73012300Y-46824900D02*
X73236800Y-46600400D01*
X73236800Y-47900400D02*
X73012300Y-47675900D01*
X74186800Y-47900400D02*
X73236800Y-47900400D01*
X73012300Y-47675900D02*
X73012300Y-46824900D01*
X73236800Y-46600400D02*
X74186800Y-46600400D01*
X69583300Y-48856900D02*
X69900800Y-49174400D01*
X107035600Y-44500800D02*
X107035600Y-38506400D01*
X107035600Y-44500800D02*
X107035600Y-42011600D01*
X107035600Y-47167800D02*
X107035600Y-44500800D01*
X107035600Y-38506400D02*
X105740200Y-37211000D01*
X91798400Y-41400400D02*
X91448400Y-41400400D01*
X95987800Y-37211000D02*
X91798400Y-41400400D01*
X104000000Y-37211000D02*
X95987800Y-37211000D01*
X104000000Y-37211000D02*
X101092000Y-37211000D01*
X105740200Y-37211000D02*
X104000000Y-37211000D01*
X105000000Y-47900400D02*
X106303000Y-47900400D01*
X97148400Y-47900400D02*
X105000000Y-47900400D01*
X50316600Y-36322000D02*
X53716600Y-36322000D01*
X49800000Y-36838600D02*
X50316600Y-36322000D01*
X49800000Y-57200000D02*
X49800000Y-36838600D01*
X105000000Y-47900400D02*
X106900400Y-47900400D01*
X106900400Y-47900400D02*
X107600000Y-48600000D01*
X107600000Y-48600000D02*
X107600000Y-52600000D01*
X107600000Y-52600000D02*
X98800000Y-61400000D01*
X98800000Y-61400000D02*
X54000000Y-61400000D01*
X54000000Y-61400000D02*
X49800000Y-57200000D01*
X66904300Y-36597300D02*
X67437000Y-36064600D01*
X66904300Y-41427400D02*
X66904300Y-36597300D01*
X68486800Y-47900400D02*
X60120400Y-47900400D01*
X60120400Y-47900400D02*
X59290000Y-47070000D01*
X59290000Y-47070000D02*
X59290000Y-45280000D01*
X59540000Y-45030000D02*
X60160000Y-44410000D01*
X59290000Y-45280000D02*
X59540000Y-45030000D01*
X61960000Y-37328600D02*
X62966600Y-36322000D01*
X59540000Y-45030000D02*
X61960000Y-42610000D01*
X61960000Y-42610000D02*
X61960000Y-37328600D01*
X62966600Y-36322000D02*
X61078000Y-36322000D01*
D32*
X71500000Y-36450000D02*
X71500000Y-37200000D01*
X71114600Y-36064600D02*
X71500000Y-36450000D01*
X70497800Y-36064600D02*
X71114600Y-36064600D01*
G04 #@! TO.N,/Ref1=1.50V*
X89911400Y-43350400D02*
X89865900Y-43395900D01*
X91448400Y-43350400D02*
X89911400Y-43350400D01*
X97148400Y-42700400D02*
X97148400Y-42050400D01*
X97278400Y-42570400D02*
X97148400Y-42700400D01*
X100263900Y-42570400D02*
X97278400Y-42570400D01*
X100479900Y-41554400D02*
X100479900Y-42354400D01*
X100479900Y-42354400D02*
X100263900Y-42570400D01*
X91448400Y-43350400D02*
X91953402Y-43350400D01*
X93103000Y-42050400D02*
X92811600Y-42341800D01*
X97148400Y-42050400D02*
X93103000Y-42050400D01*
X92735400Y-42763400D02*
X92735400Y-42418000D01*
X92148400Y-43350400D02*
X92735400Y-42763400D01*
X91448400Y-43350400D02*
X92148400Y-43350400D01*
X92735400Y-42418000D02*
X92811600Y-42341800D01*
G04 #@! TO.N,Net-(C5-Pad2)*
X98634900Y-43350400D02*
X98652900Y-43332400D01*
X97148400Y-43350400D02*
X98634900Y-43350400D01*
G04 #@! TO.N,LDAC*
X59129000Y-50000000D02*
X59700400Y-50571400D01*
X59100000Y-50000000D02*
X59129000Y-50000000D01*
X59100000Y-48645690D02*
X59100000Y-50000000D01*
X57552448Y-46248138D02*
X57552448Y-47098138D01*
X57552448Y-47098138D02*
X59100000Y-48645690D01*
G04 #@! TO.N,En_2*
X59700400Y-55651400D02*
X60775400Y-55651400D01*
G04 #@! TO.N,Net-(L1-Pad1)*
X90748400Y-45950400D02*
X91448400Y-45950400D01*
X90748400Y-45950400D02*
X90449400Y-46249400D01*
X90748400Y-47250400D02*
X91448400Y-47250400D01*
X90449400Y-46951400D02*
X90748400Y-47250400D01*
X90449400Y-46249400D02*
X90449400Y-46951400D01*
X90748400Y-45950400D02*
X90449400Y-45651400D01*
X90748400Y-44650400D02*
X91448400Y-44650400D01*
X90449400Y-44949400D02*
X90748400Y-44650400D01*
X90449400Y-45651400D02*
X90449400Y-44949400D01*
D33*
X86410800Y-46763200D02*
X87223600Y-45950400D01*
X86410800Y-46887000D02*
X86410800Y-46763200D01*
D36*
X91448400Y-45950400D02*
X87223600Y-45950400D01*
D32*
G04 #@! TO.N,Net-(L2-Pad2)*
X97848400Y-44650400D02*
X98069400Y-44871400D01*
X97148400Y-44650400D02*
X97848400Y-44650400D01*
X97848400Y-45950400D02*
X97148400Y-45950400D01*
X98069400Y-45729400D02*
X97848400Y-45950400D01*
X98069400Y-44871400D02*
X98069400Y-45729400D01*
X97848400Y-45950400D02*
X98069400Y-46171400D01*
X97848400Y-47250400D02*
X97148400Y-47250400D01*
X98069400Y-47029400D02*
X97848400Y-47250400D01*
X98069400Y-46171400D02*
X98069400Y-47029400D01*
D33*
X102663600Y-46531400D02*
X102082600Y-45950400D01*
X102844600Y-46531400D02*
X102663600Y-46531400D01*
D36*
X97148400Y-45950400D02*
X102082600Y-45950400D01*
D32*
G04 #@! TO.N,Net-(R101-Pad2)*
X58052448Y-41848138D02*
X58052448Y-32947552D01*
X58052448Y-32947552D02*
X60400000Y-30600000D01*
X74745200Y-30600000D02*
X85422898Y-41277698D01*
X60400000Y-30600000D02*
X74745200Y-30600000D01*
G04 #@! TO.N,V_1*
X91448400Y-42700400D02*
X86451900Y-42700400D01*
G04 #@! TO.N,Net-(Ra1-Pad2)*
X98425900Y-41400400D02*
X98579900Y-41554400D01*
X97148400Y-41400400D02*
X98425900Y-41400400D01*
X98579900Y-40754400D02*
X98579900Y-39585900D01*
X98579900Y-41554400D02*
X98579900Y-40754400D01*
G04 #@! TO.N,Net-(Rr1-Pad1)*
X90145900Y-49200400D02*
X90119900Y-49174400D01*
X91448400Y-49200400D02*
X90145900Y-49200400D01*
D33*
G04 #@! TO.N,/P-1*
X85902200Y-44932600D02*
X86702200Y-44932600D01*
X85115400Y-45719400D02*
X85902200Y-44932600D01*
X85115400Y-49047400D02*
X85115400Y-45719400D01*
X85955000Y-49887000D02*
X85115400Y-49047400D01*
X86410800Y-49887000D02*
X85955000Y-49887000D01*
X85979000Y-56023600D02*
X85979000Y-52948600D01*
X85979000Y-57998600D02*
X85979000Y-56023600D01*
X85979000Y-50318800D02*
X86410800Y-49887000D01*
X85979000Y-52948600D02*
X85979000Y-50318800D01*
D32*
X86869400Y-49887000D02*
X86410800Y-49887000D01*
X90383000Y-50215800D02*
X87198200Y-50215800D01*
X87198200Y-50215800D02*
X86869400Y-49887000D01*
X91448400Y-49850400D02*
X90748400Y-49850400D01*
X90748400Y-49850400D02*
X90383000Y-50215800D01*
X93459200Y-51511200D02*
X93585600Y-51511200D01*
X91798400Y-49850400D02*
X93459200Y-51511200D01*
X91448400Y-49850400D02*
X91798400Y-49850400D01*
D33*
G04 #@! TO.N,/P+1*
X98608200Y-49850400D02*
X98618000Y-49860200D01*
X97148400Y-49850400D02*
X98608200Y-49850400D01*
X88519000Y-57998600D02*
X88519000Y-52948600D01*
X88519000Y-52948600D02*
X97495600Y-52948600D01*
X98618000Y-51826200D02*
X98618000Y-49860200D01*
X97495600Y-52948600D02*
X98618000Y-51826200D01*
D32*
G04 #@! TO.N,/P-2*
X67786800Y-49850400D02*
X67421400Y-50215800D01*
X68486800Y-49850400D02*
X67786800Y-49850400D01*
X64236600Y-50215800D02*
X63907800Y-49887000D01*
X67421400Y-50215800D02*
X64236600Y-50215800D01*
X63907800Y-49887000D02*
X63449200Y-49887000D01*
X68486800Y-49850400D02*
X68836800Y-49850400D01*
X68836800Y-49850400D02*
X70497600Y-51511200D01*
X70497600Y-51511200D02*
X70624000Y-51511200D01*
D33*
X80899000Y-56023600D02*
X80899000Y-52948600D01*
X80899000Y-57998600D02*
X80899000Y-56023600D01*
D32*
X63309200Y-49250000D02*
X63449200Y-49390000D01*
X60710000Y-49250000D02*
X63309200Y-49250000D01*
G04 #@! TO.N,Net-(C15-Pad2)*
X74186800Y-43350400D02*
X75673300Y-43350400D01*
X75673300Y-43350400D02*
X75691300Y-43332400D01*
D33*
G04 #@! TO.N,/P+2*
X75646600Y-49850400D02*
X75656400Y-49860200D01*
X74186800Y-49850400D02*
X75646600Y-49850400D01*
X83439000Y-56023600D02*
X83439000Y-52948600D01*
X83439000Y-57998600D02*
X83439000Y-56023600D01*
X75656400Y-50910200D02*
X75724000Y-50977800D01*
X75656400Y-49860200D02*
X75656400Y-50910200D01*
X83439000Y-51873600D02*
X83439000Y-52948600D01*
X82539000Y-50973600D02*
X83439000Y-51873600D01*
X75728200Y-50973600D02*
X82539000Y-50973600D01*
X75724000Y-50977800D02*
X75728200Y-50973600D01*
D32*
G04 #@! TO.N,Net-(L11-Pad1)*
X67786800Y-45950400D02*
X67487800Y-46249400D01*
X67487800Y-44949400D02*
X67786800Y-44650400D01*
X67786800Y-44650400D02*
X68486800Y-44650400D01*
X67786800Y-45950400D02*
X67487800Y-45651400D01*
X67487800Y-45651400D02*
X67487800Y-44949400D01*
X67786800Y-47250400D02*
X68486800Y-47250400D01*
X67487800Y-46951400D02*
X67786800Y-47250400D01*
X67487800Y-46249400D02*
X67487800Y-46951400D01*
X67786800Y-45950400D02*
X68486800Y-45950400D01*
D36*
X63888800Y-45950400D02*
X63449200Y-46390000D01*
X68486800Y-45950400D02*
X63888800Y-45950400D01*
D32*
G04 #@! TO.N,Net-(L12-Pad2)*
X75107800Y-45729400D02*
X74886800Y-45950400D01*
X75107800Y-44871400D02*
X75107800Y-45729400D01*
X74886800Y-45950400D02*
X74186800Y-45950400D01*
X74886800Y-44650400D02*
X75107800Y-44871400D01*
X74186800Y-44650400D02*
X74886800Y-44650400D01*
X74886800Y-45950400D02*
X75107800Y-46171400D01*
X75107800Y-46171400D02*
X75107800Y-47029400D01*
X74886800Y-47250400D02*
X74186800Y-47250400D01*
X75107800Y-47029400D02*
X74886800Y-47250400D01*
D33*
X79702000Y-46531400D02*
X79121000Y-45950400D01*
X79883000Y-46531400D02*
X79702000Y-46531400D01*
D36*
X74186800Y-45950400D02*
X79121000Y-45950400D01*
D32*
G04 #@! TO.N,Net-(Ra11-Pad2)*
X75618300Y-40754400D02*
X75618300Y-39585900D01*
X75618300Y-41554400D02*
X75618300Y-40754400D01*
X75464300Y-41400400D02*
X75618300Y-41554400D01*
X74186800Y-41400400D02*
X75464300Y-41400400D01*
G04 #@! TO.N,Net-(Rr11-Pad1)*
X68486800Y-49200400D02*
X67184300Y-49200400D01*
X67184300Y-49200400D02*
X67158300Y-49174400D01*
G04 #@! TO.N,V_2*
X67786800Y-42700400D02*
X67786400Y-42700000D01*
X68486800Y-42700400D02*
X67786800Y-42700400D01*
X67786400Y-42700000D02*
X66470000Y-42700000D01*
X66470000Y-42700000D02*
X66410000Y-42700000D01*
X66410000Y-42700000D02*
X66150000Y-42960000D01*
X66150000Y-42960000D02*
X66150000Y-43950000D01*
X66150000Y-43950000D02*
X65670000Y-44430000D01*
X63399999Y-41730000D02*
X64300000Y-42630001D01*
X62899999Y-41730000D02*
X63399999Y-41730000D01*
X64300000Y-43700000D02*
X65030000Y-44430000D01*
X64300000Y-42630001D02*
X64300000Y-43700000D01*
X65670000Y-44430000D02*
X65030000Y-44430000D01*
G04 #@! TO.N,Net-(R111-Pad2)*
X57552448Y-42698138D02*
X57914310Y-43060000D01*
X57552448Y-41848138D02*
X57552448Y-42698138D01*
X57914310Y-43060000D02*
X58440000Y-43060000D01*
X59770000Y-41730000D02*
X61000001Y-41730000D01*
X58440000Y-43060000D02*
X59770000Y-41730000D01*
G04 #@! TO.N,*
X59700400Y-53111400D02*
X60775400Y-53111400D01*
G04 #@! TO.N,V3*
X54650400Y-55651400D02*
X53598600Y-55651400D01*
X54649000Y-55650000D02*
X54650400Y-55651400D01*
X52250000Y-55650000D02*
X54649000Y-55650000D01*
X54454448Y-47087138D02*
X54454448Y-46537138D01*
X52250000Y-49291586D02*
X54454448Y-47087138D01*
X52250000Y-55650000D02*
X52250000Y-49291586D01*
G04 #@! TO.N,GND*
X52250000Y-57175000D02*
X52250000Y-57150000D01*
X53266400Y-58191400D02*
X52250000Y-57175000D01*
X54650400Y-58191400D02*
X53266400Y-58191400D01*
X53929448Y-45037138D02*
X51110000Y-47856586D01*
X54454448Y-45037138D02*
X53929448Y-45037138D01*
X52250000Y-57125000D02*
X52250000Y-57150000D01*
X51110000Y-55985000D02*
X52250000Y-57125000D01*
X51110000Y-47856586D02*
X51110000Y-55985000D01*
G04 #@! TO.N,SCL*
X55725400Y-50571400D02*
X54650400Y-50571400D01*
X56552448Y-49744352D02*
X55725400Y-50571400D01*
X56552448Y-46248138D02*
X56552448Y-49744352D01*
G04 #@! TO.N,En_1*
X106550400Y-48550400D02*
X97148400Y-48550400D01*
X59700400Y-58191400D02*
X59700400Y-60200400D01*
X60400000Y-60900000D02*
X97900000Y-60900000D01*
X59700400Y-60200400D02*
X60400000Y-60900000D01*
X97900000Y-60900000D02*
X107100000Y-51700000D01*
X107100000Y-51700000D02*
X107100000Y-49100000D01*
X107100000Y-49100000D02*
X106550400Y-48550400D01*
G04 #@! TO.N,SDA*
X57052448Y-46248138D02*
X57052448Y-52557552D01*
X56498600Y-53111400D02*
X54650400Y-53111400D01*
X57052448Y-52557552D02*
X56498600Y-53111400D01*
D33*
G04 #@! TO.N,/P-2*
X80011400Y-52570000D02*
X80390000Y-52948600D01*
X80010000Y-52570000D02*
X80011400Y-52570000D01*
X63449200Y-49390000D02*
X63449200Y-50340000D01*
X63449200Y-50340000D02*
X65399200Y-52290000D01*
X65399200Y-52290000D02*
X79730000Y-52290000D01*
X79730000Y-52290000D02*
X80010000Y-52570000D01*
X80390000Y-52948600D02*
X80899000Y-52948600D01*
D32*
G04 #@! TO.N,En_2*
X81400000Y-47700000D02*
X80549600Y-48550400D01*
X83100000Y-47700000D02*
X81400000Y-47700000D01*
X84683600Y-49283600D02*
X83100000Y-47700000D01*
X84683600Y-59234002D02*
X84683600Y-49283600D01*
X60761400Y-55651400D02*
X61580000Y-56470000D01*
X59700400Y-55651400D02*
X60761400Y-55651400D01*
X61580000Y-56470000D02*
X61580000Y-60180000D01*
X61580000Y-60180000D02*
X61900000Y-60500000D01*
X61900000Y-60500000D02*
X83417602Y-60500000D01*
X80549600Y-48550400D02*
X74186800Y-48550400D01*
X83417602Y-60500000D02*
X84683600Y-59234002D01*
D33*
G04 #@! TO.N,Net-(C7-Pad1)*
X102515800Y-49860200D02*
X102844600Y-49531400D01*
X100518000Y-49860200D02*
X102515800Y-49860200D01*
D32*
X95085600Y-50986200D02*
X95085600Y-51511200D01*
X95085600Y-50563200D02*
X95085600Y-50986200D01*
X96448400Y-49200400D02*
X95085600Y-50563200D01*
X97148400Y-49200400D02*
X96448400Y-49200400D01*
X102870000Y-49506000D02*
X102844600Y-49531400D01*
X105613200Y-49506000D02*
X102870000Y-49506000D01*
X97848400Y-49200400D02*
X98128400Y-48920400D01*
X97148400Y-49200400D02*
X97848400Y-49200400D01*
X100018000Y-49860200D02*
X100518000Y-49860200D01*
X99078200Y-48920400D02*
X100018000Y-49860200D01*
X98128400Y-48920400D02*
X99078200Y-48920400D01*
G04 #@! TO.N,/Ref2*
X74316800Y-42570400D02*
X74186800Y-42700400D01*
X77302300Y-42570400D02*
X74316800Y-42570400D01*
X77518300Y-41554400D02*
X77518300Y-42354400D01*
X77518300Y-42354400D02*
X77302300Y-42570400D01*
X68486800Y-43350400D02*
X68991802Y-43350400D01*
X68486800Y-43350400D02*
X66949800Y-43350400D01*
X66949800Y-43350400D02*
X66904300Y-43395900D01*
X70141400Y-42050400D02*
X69850000Y-42341800D01*
X74186800Y-42050400D02*
X70141400Y-42050400D01*
X69186800Y-43350400D02*
X69773800Y-42763400D01*
X68486800Y-43350400D02*
X69186800Y-43350400D01*
X69773800Y-42763400D02*
X69773800Y-42418000D01*
X69773800Y-42418000D02*
X69850000Y-42341800D01*
X74186800Y-42700400D02*
X74186800Y-42050400D01*
G04 #@! TO.N,Net-(C17-Pad1)*
X77056400Y-49860200D02*
X77556400Y-49860200D01*
X76116600Y-48920400D02*
X77056400Y-49860200D01*
X74186800Y-49200400D02*
X74886800Y-49200400D01*
X74886800Y-49200400D02*
X75166800Y-48920400D01*
X75166800Y-48920400D02*
X76116600Y-48920400D01*
D33*
X77556400Y-49860200D02*
X79554200Y-49860200D01*
X79554200Y-49860200D02*
X79883000Y-49531400D01*
D32*
X72124000Y-50563200D02*
X72124000Y-50986200D01*
X73486800Y-49200400D02*
X72124000Y-50563200D01*
X74186800Y-49200400D02*
X73486800Y-49200400D01*
X72124000Y-50986200D02*
X72124000Y-51511200D01*
X82400000Y-48475000D02*
X82400000Y-48450000D01*
X81343600Y-49531400D02*
X82400000Y-48475000D01*
X79883000Y-49531400D02*
X81343600Y-49531400D01*
G04 #@! TO.N,Net-(D0-Pad1)*
X74450000Y-37200000D02*
X75350000Y-37200000D01*
X73700000Y-37200000D02*
X74450000Y-37200000D01*
G04 #@! TO.N,Net-(Q2-Pad1)*
X78300000Y-53400000D02*
X78700000Y-53400000D01*
X77800000Y-52900000D02*
X78300000Y-53400000D01*
X77400000Y-52900000D02*
X77800000Y-52900000D01*
X77000000Y-52900000D02*
X77400000Y-52900000D01*
X70850000Y-52900000D02*
X77000000Y-52900000D01*
X64750000Y-59000000D02*
X70850000Y-52900000D01*
X64700000Y-59000000D02*
X64750000Y-59000000D01*
X64700000Y-59000000D02*
X64700000Y-57450000D01*
G04 #@! TO.N,Net-(Q2-Pad2)*
X63800000Y-59500000D02*
X63400000Y-59500000D01*
X64300000Y-60000000D02*
X63800000Y-59500000D01*
X64700000Y-60000000D02*
X64300000Y-60000000D01*
X64700000Y-60000000D02*
X75100000Y-60000000D01*
X77400000Y-57700000D02*
X77400000Y-53900000D01*
X75100000Y-60000000D02*
X77400000Y-57700000D01*
X77400000Y-54050000D02*
X77400000Y-53900000D01*
X74000000Y-57450000D02*
X77400000Y-54050000D01*
X73800000Y-57450000D02*
X74000000Y-57450000D01*
G04 #@! TD*
D37*
G04 #@! TO.N,PVDD*
G36*
X104405364Y-47006000D02*
X104436409Y-47162072D01*
X104524816Y-47294384D01*
X104657128Y-47382791D01*
X104813200Y-47413836D01*
X105600000Y-47413836D01*
X105600000Y-48075400D01*
X97995727Y-48075400D01*
X97986784Y-48062016D01*
X97854472Y-47973609D01*
X97698400Y-47942564D01*
X96598400Y-47942564D01*
X96442328Y-47973609D01*
X96310016Y-48062016D01*
X96221609Y-48194328D01*
X96190564Y-48350400D01*
X96190564Y-48750400D01*
X96199519Y-48795421D01*
X96145601Y-48831447D01*
X96145599Y-48831449D01*
X96105945Y-48857945D01*
X96079449Y-48897599D01*
X94782804Y-50194245D01*
X94743145Y-50220745D01*
X94638161Y-50377866D01*
X94626454Y-50436721D01*
X93047449Y-50427698D01*
X92406236Y-49786486D01*
X92406236Y-49650400D01*
X92381372Y-49525400D01*
X92406236Y-49400400D01*
X92406236Y-49000400D01*
X92375191Y-48844328D01*
X92286784Y-48712016D01*
X92154472Y-48623609D01*
X91998400Y-48592564D01*
X90898400Y-48592564D01*
X90757103Y-48620670D01*
X90746691Y-48568328D01*
X90658284Y-48436016D01*
X90525972Y-48347609D01*
X90369900Y-48316564D01*
X89869900Y-48316564D01*
X89713828Y-48347609D01*
X89581516Y-48436016D01*
X89493109Y-48568328D01*
X89462064Y-48724400D01*
X89462064Y-49624400D01*
X89485218Y-49740800D01*
X89254582Y-49740800D01*
X89277736Y-49624400D01*
X89277736Y-48724400D01*
X89246691Y-48568328D01*
X89158284Y-48436016D01*
X89025972Y-48347609D01*
X88869900Y-48316564D01*
X88369900Y-48316564D01*
X88300000Y-48330468D01*
X88300000Y-46599430D01*
X89974400Y-46589862D01*
X89974401Y-46904622D01*
X89965096Y-46951400D01*
X89974401Y-46998179D01*
X90001962Y-47136735D01*
X90106946Y-47293855D01*
X90146603Y-47320353D01*
X90379445Y-47553195D01*
X90405945Y-47592855D01*
X90563065Y-47697839D01*
X90585661Y-47702334D01*
X90610016Y-47738784D01*
X90742328Y-47827191D01*
X90898400Y-47858236D01*
X91998400Y-47858236D01*
X92154472Y-47827191D01*
X92286784Y-47738784D01*
X92375191Y-47606472D01*
X92406236Y-47450400D01*
X92406236Y-47050400D01*
X92375191Y-46894328D01*
X92286784Y-46762016D01*
X92154472Y-46673609D01*
X91998400Y-46642564D01*
X90924400Y-46642564D01*
X90924400Y-46584433D01*
X92690564Y-46574341D01*
X92690564Y-48710400D01*
X92721609Y-48866472D01*
X92810016Y-48998784D01*
X92942328Y-49087191D01*
X93098400Y-49118236D01*
X95498400Y-49118236D01*
X95654472Y-49087191D01*
X95786784Y-48998784D01*
X95875191Y-48866472D01*
X95906236Y-48710400D01*
X95906236Y-46555966D01*
X96567977Y-46552184D01*
X96598400Y-46558236D01*
X97594400Y-46558236D01*
X97594401Y-46642564D01*
X96598400Y-46642564D01*
X96442328Y-46673609D01*
X96310016Y-46762016D01*
X96221609Y-46894328D01*
X96190564Y-47050400D01*
X96190564Y-47450400D01*
X96221609Y-47606472D01*
X96310016Y-47738784D01*
X96442328Y-47827191D01*
X96598400Y-47858236D01*
X97698400Y-47858236D01*
X97854472Y-47827191D01*
X97986784Y-47738784D01*
X98011139Y-47702334D01*
X98033735Y-47697839D01*
X98190855Y-47592855D01*
X98217354Y-47553196D01*
X98372198Y-47398353D01*
X98411855Y-47371855D01*
X98516839Y-47214735D01*
X98544400Y-47076179D01*
X98544400Y-47076175D01*
X98553704Y-47029401D01*
X98544400Y-46982627D01*
X98544400Y-46540891D01*
X101255269Y-46525400D01*
X101711764Y-46525400D01*
X101711764Y-47081400D01*
X101742809Y-47237472D01*
X101831216Y-47369784D01*
X101963528Y-47458191D01*
X102119600Y-47489236D01*
X103569600Y-47489236D01*
X103725672Y-47458191D01*
X103857984Y-47369784D01*
X103946391Y-47237472D01*
X103977436Y-47081400D01*
X103977436Y-46509845D01*
X104405364Y-46507399D01*
X104405364Y-47006000D01*
X104405364Y-47006000D01*
G37*
X104405364Y-47006000D02*
X104436409Y-47162072D01*
X104524816Y-47294384D01*
X104657128Y-47382791D01*
X104813200Y-47413836D01*
X105600000Y-47413836D01*
X105600000Y-48075400D01*
X97995727Y-48075400D01*
X97986784Y-48062016D01*
X97854472Y-47973609D01*
X97698400Y-47942564D01*
X96598400Y-47942564D01*
X96442328Y-47973609D01*
X96310016Y-48062016D01*
X96221609Y-48194328D01*
X96190564Y-48350400D01*
X96190564Y-48750400D01*
X96199519Y-48795421D01*
X96145601Y-48831447D01*
X96145599Y-48831449D01*
X96105945Y-48857945D01*
X96079449Y-48897599D01*
X94782804Y-50194245D01*
X94743145Y-50220745D01*
X94638161Y-50377866D01*
X94626454Y-50436721D01*
X93047449Y-50427698D01*
X92406236Y-49786486D01*
X92406236Y-49650400D01*
X92381372Y-49525400D01*
X92406236Y-49400400D01*
X92406236Y-49000400D01*
X92375191Y-48844328D01*
X92286784Y-48712016D01*
X92154472Y-48623609D01*
X91998400Y-48592564D01*
X90898400Y-48592564D01*
X90757103Y-48620670D01*
X90746691Y-48568328D01*
X90658284Y-48436016D01*
X90525972Y-48347609D01*
X90369900Y-48316564D01*
X89869900Y-48316564D01*
X89713828Y-48347609D01*
X89581516Y-48436016D01*
X89493109Y-48568328D01*
X89462064Y-48724400D01*
X89462064Y-49624400D01*
X89485218Y-49740800D01*
X89254582Y-49740800D01*
X89277736Y-49624400D01*
X89277736Y-48724400D01*
X89246691Y-48568328D01*
X89158284Y-48436016D01*
X89025972Y-48347609D01*
X88869900Y-48316564D01*
X88369900Y-48316564D01*
X88300000Y-48330468D01*
X88300000Y-46599430D01*
X89974400Y-46589862D01*
X89974401Y-46904622D01*
X89965096Y-46951400D01*
X89974401Y-46998179D01*
X90001962Y-47136735D01*
X90106946Y-47293855D01*
X90146603Y-47320353D01*
X90379445Y-47553195D01*
X90405945Y-47592855D01*
X90563065Y-47697839D01*
X90585661Y-47702334D01*
X90610016Y-47738784D01*
X90742328Y-47827191D01*
X90898400Y-47858236D01*
X91998400Y-47858236D01*
X92154472Y-47827191D01*
X92286784Y-47738784D01*
X92375191Y-47606472D01*
X92406236Y-47450400D01*
X92406236Y-47050400D01*
X92375191Y-46894328D01*
X92286784Y-46762016D01*
X92154472Y-46673609D01*
X91998400Y-46642564D01*
X90924400Y-46642564D01*
X90924400Y-46584433D01*
X92690564Y-46574341D01*
X92690564Y-48710400D01*
X92721609Y-48866472D01*
X92810016Y-48998784D01*
X92942328Y-49087191D01*
X93098400Y-49118236D01*
X95498400Y-49118236D01*
X95654472Y-49087191D01*
X95786784Y-48998784D01*
X95875191Y-48866472D01*
X95906236Y-48710400D01*
X95906236Y-46555966D01*
X96567977Y-46552184D01*
X96598400Y-46558236D01*
X97594400Y-46558236D01*
X97594401Y-46642564D01*
X96598400Y-46642564D01*
X96442328Y-46673609D01*
X96310016Y-46762016D01*
X96221609Y-46894328D01*
X96190564Y-47050400D01*
X96190564Y-47450400D01*
X96221609Y-47606472D01*
X96310016Y-47738784D01*
X96442328Y-47827191D01*
X96598400Y-47858236D01*
X97698400Y-47858236D01*
X97854472Y-47827191D01*
X97986784Y-47738784D01*
X98011139Y-47702334D01*
X98033735Y-47697839D01*
X98190855Y-47592855D01*
X98217354Y-47553196D01*
X98372198Y-47398353D01*
X98411855Y-47371855D01*
X98516839Y-47214735D01*
X98544400Y-47076179D01*
X98544400Y-47076175D01*
X98553704Y-47029401D01*
X98544400Y-46982627D01*
X98544400Y-46540891D01*
X101255269Y-46525400D01*
X101711764Y-46525400D01*
X101711764Y-47081400D01*
X101742809Y-47237472D01*
X101831216Y-47369784D01*
X101963528Y-47458191D01*
X102119600Y-47489236D01*
X103569600Y-47489236D01*
X103725672Y-47458191D01*
X103857984Y-47369784D01*
X103946391Y-47237472D01*
X103977436Y-47081400D01*
X103977436Y-46509845D01*
X104405364Y-46507399D01*
X104405364Y-47006000D01*
G04 #@! TO.N,PGND*
G36*
X106435600Y-44559890D02*
X106435601Y-44559895D01*
X106435600Y-45900000D01*
X103961244Y-45900000D01*
X103946391Y-45825328D01*
X103857984Y-45693016D01*
X103725672Y-45604609D01*
X103569600Y-45573564D01*
X102554291Y-45573564D01*
X102465080Y-45484353D01*
X102316708Y-45385214D01*
X102082600Y-45338647D01*
X101897830Y-45375400D01*
X98544400Y-45375400D01*
X98544400Y-44918173D01*
X98553704Y-44871399D01*
X98544400Y-44824625D01*
X98544400Y-44824621D01*
X98516839Y-44686065D01*
X98411855Y-44528945D01*
X98372198Y-44502447D01*
X98217354Y-44347604D01*
X98190855Y-44307945D01*
X98033735Y-44202961D01*
X98011139Y-44198466D01*
X97986784Y-44162016D01*
X97854472Y-44073609D01*
X97698400Y-44042564D01*
X96598400Y-44042564D01*
X96442328Y-44073609D01*
X96310016Y-44162016D01*
X96221609Y-44294328D01*
X96190564Y-44450400D01*
X96190564Y-44850400D01*
X96221609Y-45006472D01*
X96310016Y-45138784D01*
X96442328Y-45227191D01*
X96598400Y-45258236D01*
X97594400Y-45258236D01*
X97594401Y-45342564D01*
X96598400Y-45342564D01*
X96442328Y-45373609D01*
X96310016Y-45462016D01*
X96221609Y-45594328D01*
X96190564Y-45750400D01*
X96190564Y-45900000D01*
X92406236Y-45900000D01*
X92406236Y-45750400D01*
X92375191Y-45594328D01*
X92286784Y-45462016D01*
X92154472Y-45373609D01*
X91998400Y-45342564D01*
X90924400Y-45342564D01*
X90924400Y-45258236D01*
X91998400Y-45258236D01*
X92154472Y-45227191D01*
X92286784Y-45138784D01*
X92375191Y-45006472D01*
X92406236Y-44850400D01*
X92406236Y-44450400D01*
X92375191Y-44294328D01*
X92286784Y-44162016D01*
X92154472Y-44073609D01*
X91998400Y-44042564D01*
X90898400Y-44042564D01*
X90742328Y-44073609D01*
X90610016Y-44162016D01*
X90585661Y-44198466D01*
X90563065Y-44202961D01*
X90405945Y-44307945D01*
X90379445Y-44347605D01*
X90146603Y-44580447D01*
X90106946Y-44606945D01*
X90001962Y-44764065D01*
X89987706Y-44835736D01*
X89965096Y-44949400D01*
X89974401Y-44996178D01*
X89974400Y-45375400D01*
X87800000Y-45375400D01*
X87800000Y-44141124D01*
X87809828Y-44147691D01*
X87965900Y-44178736D01*
X88765900Y-44178736D01*
X88921972Y-44147691D01*
X89054284Y-44059284D01*
X89115900Y-43967068D01*
X89177516Y-44059284D01*
X89309828Y-44147691D01*
X89465900Y-44178736D01*
X90265900Y-44178736D01*
X90421972Y-44147691D01*
X90554284Y-44059284D01*
X90642691Y-43926972D01*
X90654342Y-43868401D01*
X90742328Y-43927191D01*
X90898400Y-43958236D01*
X91998400Y-43958236D01*
X92154472Y-43927191D01*
X92286784Y-43838784D01*
X92311139Y-43802334D01*
X92333735Y-43797839D01*
X92490855Y-43692855D01*
X92517354Y-43653196D01*
X93038201Y-43132351D01*
X93077855Y-43105855D01*
X93104351Y-43066201D01*
X93104353Y-43066199D01*
X93182838Y-42948736D01*
X93182839Y-42948735D01*
X93210400Y-42810179D01*
X93210400Y-42810175D01*
X93219704Y-42763401D01*
X93210400Y-42716627D01*
X93210400Y-42614750D01*
X93299750Y-42525400D01*
X96190564Y-42525400D01*
X96190564Y-42900400D01*
X96215428Y-43025400D01*
X96190564Y-43150400D01*
X96190564Y-43550400D01*
X96221609Y-43706472D01*
X96310016Y-43838784D01*
X96442328Y-43927191D01*
X96598400Y-43958236D01*
X97698400Y-43958236D01*
X97854472Y-43927191D01*
X97898865Y-43897529D01*
X97964516Y-43995784D01*
X98096828Y-44084191D01*
X98252900Y-44115236D01*
X99052900Y-44115236D01*
X99208972Y-44084191D01*
X99341284Y-43995784D01*
X99402900Y-43903568D01*
X99464516Y-43995784D01*
X99596828Y-44084191D01*
X99752900Y-44115236D01*
X100552900Y-44115236D01*
X100708972Y-44084191D01*
X100841284Y-43995784D01*
X100929691Y-43863472D01*
X100960736Y-43707400D01*
X100960736Y-43221314D01*
X101547198Y-42634853D01*
X101586855Y-42608355D01*
X101691839Y-42451235D01*
X101719400Y-42312679D01*
X101719400Y-42312674D01*
X101728704Y-42265900D01*
X101719400Y-42219126D01*
X101719400Y-40800000D01*
X106435601Y-40800000D01*
X106435600Y-44559890D01*
X106435600Y-44559890D01*
G37*
X106435600Y-44559890D02*
X106435601Y-44559895D01*
X106435600Y-45900000D01*
X103961244Y-45900000D01*
X103946391Y-45825328D01*
X103857984Y-45693016D01*
X103725672Y-45604609D01*
X103569600Y-45573564D01*
X102554291Y-45573564D01*
X102465080Y-45484353D01*
X102316708Y-45385214D01*
X102082600Y-45338647D01*
X101897830Y-45375400D01*
X98544400Y-45375400D01*
X98544400Y-44918173D01*
X98553704Y-44871399D01*
X98544400Y-44824625D01*
X98544400Y-44824621D01*
X98516839Y-44686065D01*
X98411855Y-44528945D01*
X98372198Y-44502447D01*
X98217354Y-44347604D01*
X98190855Y-44307945D01*
X98033735Y-44202961D01*
X98011139Y-44198466D01*
X97986784Y-44162016D01*
X97854472Y-44073609D01*
X97698400Y-44042564D01*
X96598400Y-44042564D01*
X96442328Y-44073609D01*
X96310016Y-44162016D01*
X96221609Y-44294328D01*
X96190564Y-44450400D01*
X96190564Y-44850400D01*
X96221609Y-45006472D01*
X96310016Y-45138784D01*
X96442328Y-45227191D01*
X96598400Y-45258236D01*
X97594400Y-45258236D01*
X97594401Y-45342564D01*
X96598400Y-45342564D01*
X96442328Y-45373609D01*
X96310016Y-45462016D01*
X96221609Y-45594328D01*
X96190564Y-45750400D01*
X96190564Y-45900000D01*
X92406236Y-45900000D01*
X92406236Y-45750400D01*
X92375191Y-45594328D01*
X92286784Y-45462016D01*
X92154472Y-45373609D01*
X91998400Y-45342564D01*
X90924400Y-45342564D01*
X90924400Y-45258236D01*
X91998400Y-45258236D01*
X92154472Y-45227191D01*
X92286784Y-45138784D01*
X92375191Y-45006472D01*
X92406236Y-44850400D01*
X92406236Y-44450400D01*
X92375191Y-44294328D01*
X92286784Y-44162016D01*
X92154472Y-44073609D01*
X91998400Y-44042564D01*
X90898400Y-44042564D01*
X90742328Y-44073609D01*
X90610016Y-44162016D01*
X90585661Y-44198466D01*
X90563065Y-44202961D01*
X90405945Y-44307945D01*
X90379445Y-44347605D01*
X90146603Y-44580447D01*
X90106946Y-44606945D01*
X90001962Y-44764065D01*
X89987706Y-44835736D01*
X89965096Y-44949400D01*
X89974401Y-44996178D01*
X89974400Y-45375400D01*
X87800000Y-45375400D01*
X87800000Y-44141124D01*
X87809828Y-44147691D01*
X87965900Y-44178736D01*
X88765900Y-44178736D01*
X88921972Y-44147691D01*
X89054284Y-44059284D01*
X89115900Y-43967068D01*
X89177516Y-44059284D01*
X89309828Y-44147691D01*
X89465900Y-44178736D01*
X90265900Y-44178736D01*
X90421972Y-44147691D01*
X90554284Y-44059284D01*
X90642691Y-43926972D01*
X90654342Y-43868401D01*
X90742328Y-43927191D01*
X90898400Y-43958236D01*
X91998400Y-43958236D01*
X92154472Y-43927191D01*
X92286784Y-43838784D01*
X92311139Y-43802334D01*
X92333735Y-43797839D01*
X92490855Y-43692855D01*
X92517354Y-43653196D01*
X93038201Y-43132351D01*
X93077855Y-43105855D01*
X93104351Y-43066201D01*
X93104353Y-43066199D01*
X93182838Y-42948736D01*
X93182839Y-42948735D01*
X93210400Y-42810179D01*
X93210400Y-42810175D01*
X93219704Y-42763401D01*
X93210400Y-42716627D01*
X93210400Y-42614750D01*
X93299750Y-42525400D01*
X96190564Y-42525400D01*
X96190564Y-42900400D01*
X96215428Y-43025400D01*
X96190564Y-43150400D01*
X96190564Y-43550400D01*
X96221609Y-43706472D01*
X96310016Y-43838784D01*
X96442328Y-43927191D01*
X96598400Y-43958236D01*
X97698400Y-43958236D01*
X97854472Y-43927191D01*
X97898865Y-43897529D01*
X97964516Y-43995784D01*
X98096828Y-44084191D01*
X98252900Y-44115236D01*
X99052900Y-44115236D01*
X99208972Y-44084191D01*
X99341284Y-43995784D01*
X99402900Y-43903568D01*
X99464516Y-43995784D01*
X99596828Y-44084191D01*
X99752900Y-44115236D01*
X100552900Y-44115236D01*
X100708972Y-44084191D01*
X100841284Y-43995784D01*
X100929691Y-43863472D01*
X100960736Y-43707400D01*
X100960736Y-43221314D01*
X101547198Y-42634853D01*
X101586855Y-42608355D01*
X101691839Y-42451235D01*
X101719400Y-42312679D01*
X101719400Y-42312674D01*
X101728704Y-42265900D01*
X101719400Y-42219126D01*
X101719400Y-40800000D01*
X106435601Y-40800000D01*
X106435600Y-44559890D01*
G36*
X83300000Y-42442164D02*
X83000000Y-42442164D01*
X82843928Y-42473209D01*
X82711616Y-42561616D01*
X82623209Y-42693928D01*
X82592164Y-42850000D01*
X82592164Y-44150000D01*
X82623209Y-44306072D01*
X82711616Y-44438384D01*
X82843928Y-44526791D01*
X83000000Y-44557836D01*
X83300000Y-44557836D01*
X83300000Y-46100000D01*
X81015836Y-46100000D01*
X81015836Y-45981400D01*
X80984791Y-45825328D01*
X80896384Y-45693016D01*
X80764072Y-45604609D01*
X80608000Y-45573564D01*
X79592691Y-45573564D01*
X79503480Y-45484353D01*
X79355108Y-45385214D01*
X79121000Y-45338647D01*
X78936230Y-45375400D01*
X75582800Y-45375400D01*
X75582800Y-44918173D01*
X75592104Y-44871399D01*
X75582800Y-44824625D01*
X75582800Y-44824621D01*
X75555239Y-44686065D01*
X75450255Y-44528945D01*
X75410598Y-44502447D01*
X75255754Y-44347604D01*
X75229255Y-44307945D01*
X75072135Y-44202961D01*
X75049539Y-44198466D01*
X75025184Y-44162016D01*
X74892872Y-44073609D01*
X74736800Y-44042564D01*
X73636800Y-44042564D01*
X73480728Y-44073609D01*
X73348416Y-44162016D01*
X73260009Y-44294328D01*
X73228964Y-44450400D01*
X73228964Y-44850400D01*
X73260009Y-45006472D01*
X73348416Y-45138784D01*
X73480728Y-45227191D01*
X73636800Y-45258236D01*
X74632800Y-45258236D01*
X74632801Y-45342564D01*
X73636800Y-45342564D01*
X73480728Y-45373609D01*
X73348416Y-45462016D01*
X73260009Y-45594328D01*
X73228964Y-45750400D01*
X73228964Y-45990206D01*
X73177714Y-46000400D01*
X73177709Y-46000400D01*
X73002692Y-46035213D01*
X72905732Y-46100000D01*
X69767868Y-46100000D01*
X69670908Y-46035213D01*
X69495891Y-46000400D01*
X69495886Y-46000400D01*
X69444636Y-45990206D01*
X69444636Y-45750400D01*
X69413591Y-45594328D01*
X69325184Y-45462016D01*
X69192872Y-45373609D01*
X69036800Y-45342564D01*
X67962800Y-45342564D01*
X67962800Y-45258236D01*
X69036800Y-45258236D01*
X69192872Y-45227191D01*
X69325184Y-45138784D01*
X69413591Y-45006472D01*
X69444636Y-44850400D01*
X69444636Y-44450400D01*
X69413591Y-44294328D01*
X69325184Y-44162016D01*
X69192872Y-44073609D01*
X69036800Y-44042564D01*
X67936800Y-44042564D01*
X67780728Y-44073609D01*
X67648416Y-44162016D01*
X67624061Y-44198466D01*
X67601465Y-44202961D01*
X67444345Y-44307945D01*
X67417845Y-44347605D01*
X67185003Y-44580447D01*
X67145346Y-44606945D01*
X67040362Y-44764065D01*
X67026106Y-44835736D01*
X67003496Y-44949400D01*
X67012801Y-44996178D01*
X67012800Y-45375400D01*
X64400000Y-45375400D01*
X64400000Y-44471751D01*
X64661047Y-44732798D01*
X64687545Y-44772455D01*
X64844665Y-44877439D01*
X64983221Y-44905000D01*
X64983226Y-44905000D01*
X65030000Y-44914304D01*
X65076774Y-44905000D01*
X65623226Y-44905000D01*
X65670000Y-44914304D01*
X65716774Y-44905000D01*
X65716779Y-44905000D01*
X65855335Y-44877439D01*
X66012455Y-44772455D01*
X66038954Y-44732796D01*
X66452798Y-44318953D01*
X66492455Y-44292455D01*
X66524388Y-44244664D01*
X66568440Y-44178736D01*
X67304300Y-44178736D01*
X67460372Y-44147691D01*
X67592684Y-44059284D01*
X67681091Y-43926972D01*
X67692742Y-43868401D01*
X67780728Y-43927191D01*
X67936800Y-43958236D01*
X69036800Y-43958236D01*
X69192872Y-43927191D01*
X69325184Y-43838784D01*
X69349539Y-43802334D01*
X69372135Y-43797839D01*
X69529255Y-43692855D01*
X69555754Y-43653196D01*
X70076601Y-43132351D01*
X70116255Y-43105855D01*
X70142751Y-43066201D01*
X70142753Y-43066199D01*
X70221238Y-42948736D01*
X70221239Y-42948735D01*
X70248800Y-42810179D01*
X70248800Y-42810175D01*
X70258104Y-42763401D01*
X70248800Y-42716627D01*
X70248800Y-42614750D01*
X70338150Y-42525400D01*
X73228964Y-42525400D01*
X73228964Y-42900400D01*
X73253828Y-43025400D01*
X73228964Y-43150400D01*
X73228964Y-43550400D01*
X73260009Y-43706472D01*
X73348416Y-43838784D01*
X73480728Y-43927191D01*
X73636800Y-43958236D01*
X74736800Y-43958236D01*
X74892872Y-43927191D01*
X74937265Y-43897529D01*
X75002916Y-43995784D01*
X75135228Y-44084191D01*
X75291300Y-44115236D01*
X76091300Y-44115236D01*
X76247372Y-44084191D01*
X76379684Y-43995784D01*
X76441300Y-43903568D01*
X76502916Y-43995784D01*
X76635228Y-44084191D01*
X76791300Y-44115236D01*
X77591300Y-44115236D01*
X77747372Y-44084191D01*
X77879684Y-43995784D01*
X77968091Y-43863472D01*
X77999136Y-43707400D01*
X77999136Y-43221314D01*
X78282800Y-42937650D01*
X79147946Y-43802797D01*
X79174445Y-43842455D01*
X79214102Y-43868953D01*
X79267419Y-43922270D01*
X79384881Y-44000756D01*
X79570217Y-44037621D01*
X79755552Y-44000756D01*
X79794099Y-43975000D01*
X80692164Y-43975000D01*
X80692164Y-44150000D01*
X80723209Y-44306072D01*
X80811616Y-44438384D01*
X80943928Y-44526791D01*
X81100000Y-44557836D01*
X81800000Y-44557836D01*
X81956072Y-44526791D01*
X82088384Y-44438384D01*
X82176791Y-44306072D01*
X82207836Y-44150000D01*
X82207836Y-42850000D01*
X82176791Y-42693928D01*
X82088384Y-42561616D01*
X81956072Y-42473209D01*
X81800000Y-42442164D01*
X81100000Y-42442164D01*
X80943928Y-42473209D01*
X80811616Y-42561616D01*
X80723209Y-42693928D01*
X80692164Y-42850000D01*
X80692164Y-43025000D01*
X79713651Y-43025000D01*
X79259051Y-42570400D01*
X78757800Y-42069150D01*
X78757800Y-40800000D01*
X83300000Y-40800000D01*
X83300000Y-42442164D01*
X83300000Y-42442164D01*
G37*
X83300000Y-42442164D02*
X83000000Y-42442164D01*
X82843928Y-42473209D01*
X82711616Y-42561616D01*
X82623209Y-42693928D01*
X82592164Y-42850000D01*
X82592164Y-44150000D01*
X82623209Y-44306072D01*
X82711616Y-44438384D01*
X82843928Y-44526791D01*
X83000000Y-44557836D01*
X83300000Y-44557836D01*
X83300000Y-46100000D01*
X81015836Y-46100000D01*
X81015836Y-45981400D01*
X80984791Y-45825328D01*
X80896384Y-45693016D01*
X80764072Y-45604609D01*
X80608000Y-45573564D01*
X79592691Y-45573564D01*
X79503480Y-45484353D01*
X79355108Y-45385214D01*
X79121000Y-45338647D01*
X78936230Y-45375400D01*
X75582800Y-45375400D01*
X75582800Y-44918173D01*
X75592104Y-44871399D01*
X75582800Y-44824625D01*
X75582800Y-44824621D01*
X75555239Y-44686065D01*
X75450255Y-44528945D01*
X75410598Y-44502447D01*
X75255754Y-44347604D01*
X75229255Y-44307945D01*
X75072135Y-44202961D01*
X75049539Y-44198466D01*
X75025184Y-44162016D01*
X74892872Y-44073609D01*
X74736800Y-44042564D01*
X73636800Y-44042564D01*
X73480728Y-44073609D01*
X73348416Y-44162016D01*
X73260009Y-44294328D01*
X73228964Y-44450400D01*
X73228964Y-44850400D01*
X73260009Y-45006472D01*
X73348416Y-45138784D01*
X73480728Y-45227191D01*
X73636800Y-45258236D01*
X74632800Y-45258236D01*
X74632801Y-45342564D01*
X73636800Y-45342564D01*
X73480728Y-45373609D01*
X73348416Y-45462016D01*
X73260009Y-45594328D01*
X73228964Y-45750400D01*
X73228964Y-45990206D01*
X73177714Y-46000400D01*
X73177709Y-46000400D01*
X73002692Y-46035213D01*
X72905732Y-46100000D01*
X69767868Y-46100000D01*
X69670908Y-46035213D01*
X69495891Y-46000400D01*
X69495886Y-46000400D01*
X69444636Y-45990206D01*
X69444636Y-45750400D01*
X69413591Y-45594328D01*
X69325184Y-45462016D01*
X69192872Y-45373609D01*
X69036800Y-45342564D01*
X67962800Y-45342564D01*
X67962800Y-45258236D01*
X69036800Y-45258236D01*
X69192872Y-45227191D01*
X69325184Y-45138784D01*
X69413591Y-45006472D01*
X69444636Y-44850400D01*
X69444636Y-44450400D01*
X69413591Y-44294328D01*
X69325184Y-44162016D01*
X69192872Y-44073609D01*
X69036800Y-44042564D01*
X67936800Y-44042564D01*
X67780728Y-44073609D01*
X67648416Y-44162016D01*
X67624061Y-44198466D01*
X67601465Y-44202961D01*
X67444345Y-44307945D01*
X67417845Y-44347605D01*
X67185003Y-44580447D01*
X67145346Y-44606945D01*
X67040362Y-44764065D01*
X67026106Y-44835736D01*
X67003496Y-44949400D01*
X67012801Y-44996178D01*
X67012800Y-45375400D01*
X64400000Y-45375400D01*
X64400000Y-44471751D01*
X64661047Y-44732798D01*
X64687545Y-44772455D01*
X64844665Y-44877439D01*
X64983221Y-44905000D01*
X64983226Y-44905000D01*
X65030000Y-44914304D01*
X65076774Y-44905000D01*
X65623226Y-44905000D01*
X65670000Y-44914304D01*
X65716774Y-44905000D01*
X65716779Y-44905000D01*
X65855335Y-44877439D01*
X66012455Y-44772455D01*
X66038954Y-44732796D01*
X66452798Y-44318953D01*
X66492455Y-44292455D01*
X66524388Y-44244664D01*
X66568440Y-44178736D01*
X67304300Y-44178736D01*
X67460372Y-44147691D01*
X67592684Y-44059284D01*
X67681091Y-43926972D01*
X67692742Y-43868401D01*
X67780728Y-43927191D01*
X67936800Y-43958236D01*
X69036800Y-43958236D01*
X69192872Y-43927191D01*
X69325184Y-43838784D01*
X69349539Y-43802334D01*
X69372135Y-43797839D01*
X69529255Y-43692855D01*
X69555754Y-43653196D01*
X70076601Y-43132351D01*
X70116255Y-43105855D01*
X70142751Y-43066201D01*
X70142753Y-43066199D01*
X70221238Y-42948736D01*
X70221239Y-42948735D01*
X70248800Y-42810179D01*
X70248800Y-42810175D01*
X70258104Y-42763401D01*
X70248800Y-42716627D01*
X70248800Y-42614750D01*
X70338150Y-42525400D01*
X73228964Y-42525400D01*
X73228964Y-42900400D01*
X73253828Y-43025400D01*
X73228964Y-43150400D01*
X73228964Y-43550400D01*
X73260009Y-43706472D01*
X73348416Y-43838784D01*
X73480728Y-43927191D01*
X73636800Y-43958236D01*
X74736800Y-43958236D01*
X74892872Y-43927191D01*
X74937265Y-43897529D01*
X75002916Y-43995784D01*
X75135228Y-44084191D01*
X75291300Y-44115236D01*
X76091300Y-44115236D01*
X76247372Y-44084191D01*
X76379684Y-43995784D01*
X76441300Y-43903568D01*
X76502916Y-43995784D01*
X76635228Y-44084191D01*
X76791300Y-44115236D01*
X77591300Y-44115236D01*
X77747372Y-44084191D01*
X77879684Y-43995784D01*
X77968091Y-43863472D01*
X77999136Y-43707400D01*
X77999136Y-43221314D01*
X78282800Y-42937650D01*
X79147946Y-43802797D01*
X79174445Y-43842455D01*
X79214102Y-43868953D01*
X79267419Y-43922270D01*
X79384881Y-44000756D01*
X79570217Y-44037621D01*
X79755552Y-44000756D01*
X79794099Y-43975000D01*
X80692164Y-43975000D01*
X80692164Y-44150000D01*
X80723209Y-44306072D01*
X80811616Y-44438384D01*
X80943928Y-44526791D01*
X81100000Y-44557836D01*
X81800000Y-44557836D01*
X81956072Y-44526791D01*
X82088384Y-44438384D01*
X82176791Y-44306072D01*
X82207836Y-44150000D01*
X82207836Y-42850000D01*
X82176791Y-42693928D01*
X82088384Y-42561616D01*
X81956072Y-42473209D01*
X81800000Y-42442164D01*
X81100000Y-42442164D01*
X80943928Y-42473209D01*
X80811616Y-42561616D01*
X80723209Y-42693928D01*
X80692164Y-42850000D01*
X80692164Y-43025000D01*
X79713651Y-43025000D01*
X79259051Y-42570400D01*
X78757800Y-42069150D01*
X78757800Y-40800000D01*
X83300000Y-40800000D01*
X83300000Y-42442164D01*
G04 #@! TO.N,PVDD*
G36*
X81617164Y-46967927D02*
X81617164Y-47225000D01*
X81446773Y-47225000D01*
X81399999Y-47215696D01*
X81353225Y-47225000D01*
X81353221Y-47225000D01*
X81214665Y-47252561D01*
X81214663Y-47252562D01*
X81214664Y-47252562D01*
X81097201Y-47331047D01*
X81097199Y-47331049D01*
X81057545Y-47357545D01*
X81031049Y-47397199D01*
X80352850Y-48075400D01*
X75034127Y-48075400D01*
X75025184Y-48062016D01*
X74892872Y-47973609D01*
X74736800Y-47942564D01*
X73636800Y-47942564D01*
X73480728Y-47973609D01*
X73348416Y-48062016D01*
X73260009Y-48194328D01*
X73228964Y-48350400D01*
X73228964Y-48750400D01*
X73237919Y-48795421D01*
X73184001Y-48831447D01*
X73183999Y-48831449D01*
X73144345Y-48857945D01*
X73117849Y-48897599D01*
X72467586Y-49547863D01*
X69420854Y-49530842D01*
X69419772Y-49525400D01*
X69444636Y-49400400D01*
X69444636Y-49000400D01*
X69413591Y-48844328D01*
X69325184Y-48712016D01*
X69192872Y-48623609D01*
X69036800Y-48592564D01*
X67936800Y-48592564D01*
X67795503Y-48620670D01*
X67785091Y-48568328D01*
X67696684Y-48436016D01*
X67564372Y-48347609D01*
X67408300Y-48316564D01*
X66908300Y-48316564D01*
X66752228Y-48347609D01*
X66619916Y-48436016D01*
X66531509Y-48568328D01*
X66500464Y-48724400D01*
X66500464Y-49514527D01*
X66316136Y-49513497D01*
X66316136Y-48724400D01*
X66285091Y-48568328D01*
X66196684Y-48436016D01*
X66064372Y-48347609D01*
X65908300Y-48316564D01*
X65408300Y-48316564D01*
X65252228Y-48347609D01*
X65119916Y-48436016D01*
X65031509Y-48568328D01*
X65000464Y-48724400D01*
X65000464Y-49506147D01*
X64582036Y-49503810D01*
X64582036Y-48840000D01*
X64550991Y-48683928D01*
X64462584Y-48551616D01*
X64330272Y-48463209D01*
X64174200Y-48432164D01*
X64000000Y-48432164D01*
X64000000Y-47347836D01*
X64174200Y-47347836D01*
X64330272Y-47316791D01*
X64462584Y-47228384D01*
X64550991Y-47096072D01*
X64582036Y-46940000D01*
X64582036Y-46596169D01*
X67012800Y-46582513D01*
X67012801Y-46904622D01*
X67003496Y-46951400D01*
X67012801Y-46998179D01*
X67026106Y-47065065D01*
X67040362Y-47136735D01*
X67101600Y-47228384D01*
X67145346Y-47293855D01*
X67185003Y-47320353D01*
X67417845Y-47553195D01*
X67444345Y-47592855D01*
X67601465Y-47697839D01*
X67624061Y-47702334D01*
X67648416Y-47738784D01*
X67780728Y-47827191D01*
X67936800Y-47858236D01*
X69036800Y-47858236D01*
X69192872Y-47827191D01*
X69325184Y-47738784D01*
X69413591Y-47606472D01*
X69444636Y-47450400D01*
X69444636Y-47050400D01*
X69413591Y-46894328D01*
X69325184Y-46762016D01*
X69192872Y-46673609D01*
X69036800Y-46642564D01*
X67962800Y-46642564D01*
X67962800Y-46577176D01*
X69728964Y-46567254D01*
X69728964Y-48710400D01*
X69760009Y-48866472D01*
X69848416Y-48998784D01*
X69980728Y-49087191D01*
X70136800Y-49118236D01*
X72536800Y-49118236D01*
X72692872Y-49087191D01*
X72825184Y-48998784D01*
X72913591Y-48866472D01*
X72944636Y-48710400D01*
X72944636Y-46549188D01*
X73573552Y-46545655D01*
X73636800Y-46558236D01*
X74632800Y-46558236D01*
X74632801Y-46642564D01*
X73636800Y-46642564D01*
X73480728Y-46673609D01*
X73348416Y-46762016D01*
X73260009Y-46894328D01*
X73228964Y-47050400D01*
X73228964Y-47450400D01*
X73260009Y-47606472D01*
X73348416Y-47738784D01*
X73480728Y-47827191D01*
X73636800Y-47858236D01*
X74736800Y-47858236D01*
X74892872Y-47827191D01*
X75025184Y-47738784D01*
X75049539Y-47702334D01*
X75072135Y-47697839D01*
X75229255Y-47592855D01*
X75255754Y-47553196D01*
X75410598Y-47398353D01*
X75450255Y-47371855D01*
X75555239Y-47214735D01*
X75582800Y-47076179D01*
X75582800Y-47076175D01*
X75592104Y-47029401D01*
X75582800Y-46982627D01*
X75582800Y-46534367D01*
X77178977Y-46525400D01*
X78750164Y-46525400D01*
X78750164Y-47081400D01*
X78781209Y-47237472D01*
X78869616Y-47369784D01*
X79001928Y-47458191D01*
X79158000Y-47489236D01*
X80608000Y-47489236D01*
X80764072Y-47458191D01*
X80896384Y-47369784D01*
X80984791Y-47237472D01*
X81015836Y-47081400D01*
X81015836Y-46503845D01*
X81603001Y-46500546D01*
X81617164Y-46967927D01*
X81617164Y-46967927D01*
G37*
X81617164Y-46967927D02*
X81617164Y-47225000D01*
X81446773Y-47225000D01*
X81399999Y-47215696D01*
X81353225Y-47225000D01*
X81353221Y-47225000D01*
X81214665Y-47252561D01*
X81214663Y-47252562D01*
X81214664Y-47252562D01*
X81097201Y-47331047D01*
X81097199Y-47331049D01*
X81057545Y-47357545D01*
X81031049Y-47397199D01*
X80352850Y-48075400D01*
X75034127Y-48075400D01*
X75025184Y-48062016D01*
X74892872Y-47973609D01*
X74736800Y-47942564D01*
X73636800Y-47942564D01*
X73480728Y-47973609D01*
X73348416Y-48062016D01*
X73260009Y-48194328D01*
X73228964Y-48350400D01*
X73228964Y-48750400D01*
X73237919Y-48795421D01*
X73184001Y-48831447D01*
X73183999Y-48831449D01*
X73144345Y-48857945D01*
X73117849Y-48897599D01*
X72467586Y-49547863D01*
X69420854Y-49530842D01*
X69419772Y-49525400D01*
X69444636Y-49400400D01*
X69444636Y-49000400D01*
X69413591Y-48844328D01*
X69325184Y-48712016D01*
X69192872Y-48623609D01*
X69036800Y-48592564D01*
X67936800Y-48592564D01*
X67795503Y-48620670D01*
X67785091Y-48568328D01*
X67696684Y-48436016D01*
X67564372Y-48347609D01*
X67408300Y-48316564D01*
X66908300Y-48316564D01*
X66752228Y-48347609D01*
X66619916Y-48436016D01*
X66531509Y-48568328D01*
X66500464Y-48724400D01*
X66500464Y-49514527D01*
X66316136Y-49513497D01*
X66316136Y-48724400D01*
X66285091Y-48568328D01*
X66196684Y-48436016D01*
X66064372Y-48347609D01*
X65908300Y-48316564D01*
X65408300Y-48316564D01*
X65252228Y-48347609D01*
X65119916Y-48436016D01*
X65031509Y-48568328D01*
X65000464Y-48724400D01*
X65000464Y-49506147D01*
X64582036Y-49503810D01*
X64582036Y-48840000D01*
X64550991Y-48683928D01*
X64462584Y-48551616D01*
X64330272Y-48463209D01*
X64174200Y-48432164D01*
X64000000Y-48432164D01*
X64000000Y-47347836D01*
X64174200Y-47347836D01*
X64330272Y-47316791D01*
X64462584Y-47228384D01*
X64550991Y-47096072D01*
X64582036Y-46940000D01*
X64582036Y-46596169D01*
X67012800Y-46582513D01*
X67012801Y-46904622D01*
X67003496Y-46951400D01*
X67012801Y-46998179D01*
X67026106Y-47065065D01*
X67040362Y-47136735D01*
X67101600Y-47228384D01*
X67145346Y-47293855D01*
X67185003Y-47320353D01*
X67417845Y-47553195D01*
X67444345Y-47592855D01*
X67601465Y-47697839D01*
X67624061Y-47702334D01*
X67648416Y-47738784D01*
X67780728Y-47827191D01*
X67936800Y-47858236D01*
X69036800Y-47858236D01*
X69192872Y-47827191D01*
X69325184Y-47738784D01*
X69413591Y-47606472D01*
X69444636Y-47450400D01*
X69444636Y-47050400D01*
X69413591Y-46894328D01*
X69325184Y-46762016D01*
X69192872Y-46673609D01*
X69036800Y-46642564D01*
X67962800Y-46642564D01*
X67962800Y-46577176D01*
X69728964Y-46567254D01*
X69728964Y-48710400D01*
X69760009Y-48866472D01*
X69848416Y-48998784D01*
X69980728Y-49087191D01*
X70136800Y-49118236D01*
X72536800Y-49118236D01*
X72692872Y-49087191D01*
X72825184Y-48998784D01*
X72913591Y-48866472D01*
X72944636Y-48710400D01*
X72944636Y-46549188D01*
X73573552Y-46545655D01*
X73636800Y-46558236D01*
X74632800Y-46558236D01*
X74632801Y-46642564D01*
X73636800Y-46642564D01*
X73480728Y-46673609D01*
X73348416Y-46762016D01*
X73260009Y-46894328D01*
X73228964Y-47050400D01*
X73228964Y-47450400D01*
X73260009Y-47606472D01*
X73348416Y-47738784D01*
X73480728Y-47827191D01*
X73636800Y-47858236D01*
X74736800Y-47858236D01*
X74892872Y-47827191D01*
X75025184Y-47738784D01*
X75049539Y-47702334D01*
X75072135Y-47697839D01*
X75229255Y-47592855D01*
X75255754Y-47553196D01*
X75410598Y-47398353D01*
X75450255Y-47371855D01*
X75555239Y-47214735D01*
X75582800Y-47076179D01*
X75582800Y-47076175D01*
X75592104Y-47029401D01*
X75582800Y-46982627D01*
X75582800Y-46534367D01*
X77178977Y-46525400D01*
X78750164Y-46525400D01*
X78750164Y-47081400D01*
X78781209Y-47237472D01*
X78869616Y-47369784D01*
X79001928Y-47458191D01*
X79158000Y-47489236D01*
X80608000Y-47489236D01*
X80764072Y-47458191D01*
X80896384Y-47369784D01*
X80984791Y-47237472D01*
X81015836Y-47081400D01*
X81015836Y-46503845D01*
X81603001Y-46500546D01*
X81617164Y-46967927D01*
G04 #@! TD*
M02*
