G04 #@! TF.GenerationSoftware,KiCad,Pcbnew,(5.0.0)*
G04 #@! TF.CreationDate,2018-10-12T08:26:41+02:00*
G04 #@! TF.ProjectId,Peltier_IMS,50656C746965725F494D532E6B696361,rev?*
G04 #@! TF.SameCoordinates,Original*
G04 #@! TF.FileFunction,Paste,Top*
G04 #@! TF.FilePolarity,Positive*
%FSLAX46Y46*%
G04 Gerber Fmt 4.6, Leading zero omitted, Abs format (unit mm)*
G04 Created by KiCad (PCBNEW (5.0.0)) date 10/12/18 08:26:41*
%MOMM*%
%LPD*%
G01*
G04 APERTURE LIST*
%ADD10R,2.835000X0.900000*%
%ADD11R,0.630000X1.170000*%
%ADD12R,1.305000X0.990000*%
%ADD13R,0.720000X0.925500*%
%ADD14R,0.990000X0.360000*%
%ADD15R,0.675000X0.720000*%
%ADD16R,0.720000X0.675000*%
%ADD17R,0.450000X0.810000*%
%ADD18R,0.900000X2.835000*%
%ADD19R,1.125000X0.900000*%
%ADD20R,5.400000X1.800000*%
%ADD21R,3.150000X1.800000*%
%ADD22R,1.170000X0.630000*%
%ADD23C,0.630000*%
%ADD24C,0.050000*%
%ADD25R,0.270000X1.260000*%
%ADD26R,1.440000X2.340000*%
%ADD27R,1.440000X0.900000*%
%ADD28R,1.080000X1.080000*%
%ADD29R,0.450000X0.360000*%
%ADD30R,0.810000X0.450000*%
G04 APERTURE END LIST*
D10*
G04 #@! TO.C,J1*
X54650400Y-50571400D03*
X59700400Y-50571400D03*
X54650400Y-53111400D03*
X59700400Y-53111400D03*
X54650400Y-55651400D03*
X59700400Y-55651400D03*
X54650400Y-58191400D03*
X59700400Y-58191400D03*
G04 #@! TD*
D11*
G04 #@! TO.C,R111*
X62899999Y-41730000D03*
X61000001Y-41730000D03*
G04 #@! TD*
D12*
G04 #@! TO.C,L12*
X79883000Y-46531400D03*
X79883000Y-49531400D03*
G04 #@! TD*
D13*
G04 #@! TO.C,U11*
X70736800Y-43311650D03*
X70736800Y-44854150D03*
X70736800Y-46396650D03*
X70736800Y-47939150D03*
X71936800Y-43311650D03*
X71936800Y-44854150D03*
X71936800Y-46396650D03*
X71936800Y-47939150D03*
D14*
X74186800Y-41400400D03*
X74186800Y-42050400D03*
X74186800Y-42700400D03*
X74186800Y-43350400D03*
X74186800Y-44000400D03*
X74186800Y-44650400D03*
X74186800Y-45300400D03*
X74186800Y-45950400D03*
X74186800Y-46600400D03*
X74186800Y-47250400D03*
X74186800Y-47900400D03*
X74186800Y-48550400D03*
X74186800Y-49200400D03*
X74186800Y-49850400D03*
X68486800Y-49850400D03*
X68486800Y-49200400D03*
X68486800Y-48550400D03*
X68486800Y-47900400D03*
X68486800Y-47250400D03*
X68486800Y-46600400D03*
X68486800Y-45950400D03*
X68486800Y-45300400D03*
X68486800Y-44650400D03*
X68486800Y-44000400D03*
X68486800Y-43350400D03*
X68486800Y-42700400D03*
X68486800Y-42050400D03*
X68486800Y-41400400D03*
G04 #@! TD*
D11*
G04 #@! TO.C,Rsense11*
X77556400Y-49860200D03*
X75656400Y-49860200D03*
G04 #@! TD*
D15*
G04 #@! TO.C,C12*
X66725800Y-46698600D03*
X66725800Y-45198600D03*
G04 #@! TD*
D16*
G04 #@! TO.C,C14*
X66904300Y-43395900D03*
X65404300Y-43395900D03*
G04 #@! TD*
D11*
G04 #@! TO.C,Ra11*
X75618300Y-39585900D03*
X77518300Y-39585900D03*
G04 #@! TD*
G04 #@! TO.C,Ra12*
X77518300Y-41554400D03*
X75618300Y-41554400D03*
G04 #@! TD*
D16*
G04 #@! TO.C,C18*
X70624000Y-51511200D03*
X72124000Y-51511200D03*
G04 #@! TD*
G04 #@! TO.C,C15*
X75691300Y-43332400D03*
X77191300Y-43332400D03*
G04 #@! TD*
G04 #@! TO.C,C13*
X66904300Y-41427400D03*
X65404300Y-41427400D03*
G04 #@! TD*
D15*
G04 #@! TO.C,C16*
X75869800Y-46698600D03*
X75869800Y-45198600D03*
G04 #@! TD*
D17*
G04 #@! TO.C,Rr11*
X67158300Y-49174400D03*
X65658300Y-49174400D03*
G04 #@! TD*
D12*
G04 #@! TO.C,L11*
X63449200Y-46390000D03*
X63449200Y-49390000D03*
G04 #@! TD*
D18*
G04 #@! TO.C,J2*
X80899000Y-57998600D03*
X80899000Y-52948600D03*
X83439000Y-57998600D03*
X83439000Y-52948600D03*
X85979000Y-57998600D03*
X85979000Y-52948600D03*
X88519000Y-57998600D03*
X88519000Y-52948600D03*
G04 #@! TD*
D15*
G04 #@! TO.C,C0*
X54454448Y-46537138D03*
X54454448Y-45037138D03*
G04 #@! TD*
D16*
G04 #@! TO.C,C1*
X86702200Y-44932600D03*
X88202200Y-44932600D03*
G04 #@! TD*
D15*
G04 #@! TO.C,C2*
X89687400Y-45198600D03*
X89687400Y-46698600D03*
G04 #@! TD*
D16*
G04 #@! TO.C,C3*
X88365900Y-41427400D03*
X89865900Y-41427400D03*
G04 #@! TD*
G04 #@! TO.C,C4*
X88365900Y-43395900D03*
X89865900Y-43395900D03*
G04 #@! TD*
G04 #@! TO.C,C5*
X100152900Y-43332400D03*
X98652900Y-43332400D03*
G04 #@! TD*
D15*
G04 #@! TO.C,C6*
X98831400Y-45198600D03*
X98831400Y-46698600D03*
G04 #@! TD*
D16*
G04 #@! TO.C,C8*
X95085600Y-51511200D03*
X93585600Y-51511200D03*
G04 #@! TD*
D19*
G04 #@! TO.C,Cc1*
X71272400Y-33290000D03*
X71272400Y-35290000D03*
G04 #@! TD*
D15*
G04 #@! TO.C,Cc2*
X73736200Y-33540000D03*
X73736200Y-35040000D03*
G04 #@! TD*
G04 #@! TO.C,Cc3*
X52250000Y-55650000D03*
X52250000Y-57150000D03*
G04 #@! TD*
D20*
G04 #@! TO.C,J0*
X53716600Y-32322000D03*
X53716600Y-36322000D03*
D21*
X62966600Y-36322000D03*
X62966600Y-32322000D03*
G04 #@! TD*
D22*
G04 #@! TO.C,R100*
X105003600Y-39588400D03*
X105003600Y-41488400D03*
G04 #@! TD*
D23*
G04 #@! TO.C,R101*
X85422898Y-41277698D03*
D24*
G36*
X86059294Y-41086779D02*
X85231979Y-41914094D01*
X84786502Y-41468617D01*
X85613817Y-40641302D01*
X86059294Y-41086779D01*
X86059294Y-41086779D01*
G37*
D23*
X86766400Y-42621200D03*
D24*
G36*
X87402796Y-42430281D02*
X86575481Y-43257596D01*
X86130004Y-42812119D01*
X86957319Y-41984804D01*
X87402796Y-42430281D01*
X87402796Y-42430281D01*
G37*
G04 #@! TD*
D11*
G04 #@! TO.C,Ra1*
X100479900Y-39585900D03*
X98579900Y-39585900D03*
G04 #@! TD*
G04 #@! TO.C,Ra2*
X98579900Y-41554400D03*
X100479900Y-41554400D03*
G04 #@! TD*
D17*
G04 #@! TO.C,Rr1*
X88619900Y-49174400D03*
X90119900Y-49174400D03*
G04 #@! TD*
D11*
G04 #@! TO.C,Rsense1*
X98618000Y-49860200D03*
X100518000Y-49860200D03*
G04 #@! TD*
D25*
G04 #@! TO.C,U0*
X56052448Y-41848138D03*
X56552448Y-41848138D03*
X57052448Y-41848138D03*
X57552448Y-41848138D03*
X58052448Y-41848138D03*
X58052448Y-46248138D03*
X57552448Y-46248138D03*
X57052448Y-46248138D03*
X56552448Y-46248138D03*
X56052448Y-46248138D03*
G04 #@! TD*
D26*
G04 #@! TO.C,Cc0*
X67437000Y-36064600D03*
X67437000Y-32464600D03*
G04 #@! TD*
D12*
G04 #@! TO.C,L1*
X86410800Y-49887000D03*
X86410800Y-46887000D03*
G04 #@! TD*
G04 #@! TO.C,L2*
X102844600Y-49531400D03*
X102844600Y-46531400D03*
G04 #@! TD*
D14*
G04 #@! TO.C,U1*
X91448400Y-41400400D03*
X91448400Y-42050400D03*
X91448400Y-42700400D03*
X91448400Y-43350400D03*
X91448400Y-44000400D03*
X91448400Y-44650400D03*
X91448400Y-45300400D03*
X91448400Y-45950400D03*
X91448400Y-46600400D03*
X91448400Y-47250400D03*
X91448400Y-47900400D03*
X91448400Y-48550400D03*
X91448400Y-49200400D03*
X91448400Y-49850400D03*
X97148400Y-49850400D03*
X97148400Y-49200400D03*
X97148400Y-48550400D03*
X97148400Y-47900400D03*
X97148400Y-47250400D03*
X97148400Y-46600400D03*
X97148400Y-45950400D03*
X97148400Y-45300400D03*
X97148400Y-44650400D03*
X97148400Y-44000400D03*
X97148400Y-43350400D03*
X97148400Y-42700400D03*
X97148400Y-42050400D03*
X97148400Y-41400400D03*
D13*
X94898400Y-47939150D03*
X94898400Y-46396650D03*
X94898400Y-44854150D03*
X94898400Y-43311650D03*
X93698400Y-47939150D03*
X93698400Y-46396650D03*
X93698400Y-44854150D03*
X93698400Y-43311650D03*
G04 #@! TD*
D27*
G04 #@! TO.C,C7*
X105613200Y-49506000D03*
X105613200Y-46506000D03*
G04 #@! TD*
G04 #@! TO.C,C11*
X60710000Y-49250000D03*
X60710000Y-46250000D03*
G04 #@! TD*
D15*
G04 #@! TO.C,C17*
X82400000Y-46950000D03*
X82400000Y-48450000D03*
G04 #@! TD*
D11*
G04 #@! TO.C,R200*
X81450000Y-43500000D03*
X83350000Y-43500000D03*
G04 #@! TD*
D28*
G04 #@! TO.C,D0*
X71500000Y-37200000D03*
X73700000Y-37200000D03*
G04 #@! TD*
D11*
G04 #@! TO.C,Rd0*
X77250000Y-37200000D03*
X75350000Y-37200000D03*
G04 #@! TD*
D29*
G04 #@! TO.C,Q2*
X78700000Y-53400000D03*
X77400000Y-53900000D03*
X77400000Y-52900000D03*
G04 #@! TD*
G04 #@! TO.C,Q3*
X64700000Y-60000000D03*
X64700000Y-59000000D03*
X63400000Y-59500000D03*
G04 #@! TD*
D30*
G04 #@! TO.C,Rr2*
X64700000Y-57450000D03*
X64700000Y-55950000D03*
G04 #@! TD*
G04 #@! TO.C,Rr3*
X73800000Y-55950000D03*
X73800000Y-57450000D03*
G04 #@! TD*
M02*
