EESchema Schematic File Version 4
EELAYER 26 0
EELAYER END
$Descr A4 11693 8268
encoding utf-8
Sheet 1 1
Title ""
Date ""
Rev ""
Comp ""
Comment1 ""
Comment2 ""
Comment3 ""
Comment4 ""
$EndDescr
Text GLabel 4580 5070 2    39   Input ~ 0
PWM_2
Text GLabel 1580 3300 3    39   Input ~ 0
GND
Text GLabel 1480 3300 3    39   Input ~ 0
V3
Text GLabel 1380 3300 3    39   Input ~ 0
SDA
Text GLabel 1280 3300 3    39   Input ~ 0
SCL
Text GLabel 7410 3925 0    39   Input ~ 0
SDA
Text GLabel 7410 3825 0    39   Input ~ 0
SCL
Text GLabel 8010 4325 0    39   Input ~ 0
GND
Text GLabel 7985 3625 0    39   Input ~ 0
V3
$Comp
L Device:C C1
U 1 1 5BA516EF
P 8110 3450
F 0 "C1" H 7910 3450 50  0000 L CNN
F 1 "100n" H 8235 3450 50  0000 L CNN
F 2 "Capacitors_SMD:C_0603" H 8148 3300 50  0001 C CNN
F 3 "" H 8110 3450 50  0001 C CNN
	1    8110 3450
	1    0    0    -1  
$EndComp
Text GLabel 8035 3300 0    39   Input ~ 0
GND
Text GLabel 7410 4025 0    39   Input ~ 0
LDAC
$Comp
L mcp9904:MCP9904 U12
U 1 1 5BA516F0
P 9305 6125
F 0 "U12" H 8905 6425 60  0000 C CNN
F 1 "MCP9904" H 9705 6425 60  0000 C CNN
F 2 "lib:MCP9904" H 9055 6425 60  0001 C CNN
F 3 "" H 9055 6425 60  0001 C CNN
	1    9305 6125
	1    0    0    -1  
$EndComp
Text GLabel 10435 3800 2    39   Input ~ 0
Ud_1
Text GLabel 10435 4200 2    39   Input ~ 0
Ud_2
$Comp
L Device:C_Small C12
U 1 1 5BA516F1
P 8580 5700
F 0 "C12" H 8680 5700 50  0000 L CNN
F 1 "100n" H 8305 5700 50  0000 L CNN
F 2 "Capacitors_SMD:C_0603" H 8580 5700 50  0001 C CNN
F 3 "" H 8580 5700 50  0001 C CNN
	1    8580 5700
	-1   0    0    1   
$EndComp
Text GLabel 8455 5925 0    39   Input ~ 0
V3
Text GLabel 10130 6470 2    39   Input ~ 0
GND
Text GLabel 10255 6025 2    39   Input ~ 0
SDA
Text GLabel 10255 5925 2    39   Input ~ 0
SCL
Text GLabel 8730 5600 2    39   Input ~ 0
GND
$Comp
L Device:LED D12
U 1 1 5BA516F7
P 10630 6125
F 0 "D12" H 10630 6225 50  0000 C CNN
F 1 "LED_R" H 10630 6025 50  0000 C CNN
F 2 "LEDs:LED_0805" H 10630 6125 50  0001 C CNN
F 3 "" H 10630 6125 50  0001 C CNN
	1    10630 6125
	1    0    0    -1  
$EndComp
$Comp
L Device:R Rd12
U 1 1 5BA516F8
P 10255 6125
F 0 "Rd12" V 10335 6125 50  0000 C CNN
F 1 "1k" V 10255 6125 50  0000 C CNN
F 2 "Resistors_SMD:R_0603" V 10185 6125 50  0001 C CNN
F 3 "" H 10255 6125 50  0001 C CNN
	1    10255 6125
	0    1    1    0   
$EndComp
Text GLabel 10930 6125 2    39   Input ~ 0
V3
$Comp
L Device:R R12
U 1 1 5BA516F9
P 10455 6350
F 0 "R12" V 10535 6350 50  0000 C CNN
F 1 "20k" V 10455 6350 50  0000 C CNN
F 2 "Resistors_SMD:R_0805" V 10385 6350 50  0001 C CNN
F 3 "" H 10455 6350 50  0001 C CNN
	1    10455 6350
	0    1    1    0   
$EndComp
Text GLabel 9135 4000 0    39   Input ~ 0
GND
Text GLabel 11060 4000 2    39   Input ~ 0
V3
Text GLabel 9160 3800 0    39   Input ~ 0
SPDT_1
Text GLabel 9160 4200 0    39   Input ~ 0
SPDT_2
$Comp
L Device:C C2
U 1 1 5BA516FB
P 10860 3550
F 0 "C2" H 10885 3650 50  0000 L CNN
F 1 "100n" H 10885 3450 50  0000 L CNN
F 2 "Capacitors_SMD:C_0603" H 10898 3400 50  0001 C CNN
F 3 "" H 10860 3550 50  0001 C CNN
	1    10860 3550
	1    0    0    -1  
$EndComp
Wire Wire Line
	1580 3300 1580 3150
Wire Wire Line
	1480 3300 1480 3150
Wire Wire Line
	1380 3300 1380 3150
Wire Wire Line
	1280 3300 1280 3150
Wire Wire Line
	7410 3925 7560 3925
Wire Wire Line
	7560 3825 7410 3825
Wire Wire Line
	8160 4325 8010 4325
Wire Wire Line
	8110 3600 8110 3625
Wire Wire Line
	8035 3300 8110 3300
Wire Wire Line
	7410 4025 7560 4025
Wire Wire Line
	10360 4200 10435 4200
Wire Wire Line
	7780 5875 7780 6075
Wire Wire Line
	8455 5925 8580 5925
Wire Wire Line
	10255 6025 10105 6025
Wire Wire Line
	10105 5925 10255 5925
Wire Wire Line
	8280 5875 8280 6025
Wire Wire Line
	8280 6025 8605 6025
Wire Wire Line
	8080 6275 8180 6275
Wire Wire Line
	8180 6275 8180 6125
Wire Wire Line
	8180 6125 8605 6125
Wire Wire Line
	8580 5800 8580 5925
Connection ~ 8580 5925
Wire Wire Line
	8580 5600 8730 5600
Wire Wire Line
	10405 6125 10480 6125
Wire Wire Line
	10780 6125 10880 6125
Wire Wire Line
	10105 6225 10155 6225
Wire Wire Line
	10155 6225 10155 6350
Wire Wire Line
	10155 6350 10305 6350
Wire Wire Line
	10605 6350 10880 6350
Wire Wire Line
	10880 6350 10880 6125
Connection ~ 10880 6125
Wire Wire Line
	9160 3800 9210 3800
Wire Wire Line
	9160 4200 9210 4200
Wire Wire Line
	7985 3625 8110 3625
Connection ~ 8110 3625
NoConn ~ 7560 4125
Text GLabel 1580 2525 1    39   Input ~ 0
PWM_1
Wire Wire Line
	1580 2650 1580 2525
$Comp
L conn:Conn_02x04_Odd_Even J5
U 1 1 5BA5170D
P 10740 2265
F 0 "J5" H 10790 2465 50  0000 C CNN
F 1 "I2C_Hub" H 10790 1965 50  0000 C CNN
F 2 "Pin_Headers:Pin_Header_Straight_2x04_Pitch2.54mm_SMD" H 10740 2265 50  0001 C CNN
F 3 "" H 10740 2265 50  0001 C CNN
	1    10740 2265
	-1   0    0    -1  
$EndComp
Text GLabel 10245 2265 0    39   Input ~ 0
V3
Text GLabel 10285 2355 0    39   Input ~ 0
SDA
Text GLabel 10285 2465 0    39   Input ~ 0
SCL
Wire Wire Line
	10440 2465 10390 2465
Wire Wire Line
	10440 2165 10390 2165
Text GLabel 680  3280 3    39   Input ~ 0
En_1
Wire Wire Line
	8580 5925 8605 5925
Wire Wire Line
	10880 6125 10930 6125
Wire Wire Line
	8110 3625 8160 3625
Wire Wire Line
	10360 3800 10435 3800
Wire Wire Line
	9210 4000 9135 4000
Wire Wire Line
	9210 3900 8810 3900
Wire Wire Line
	8810 3900 8810 3825
Wire Wire Line
	8810 3825 8760 3825
Wire Wire Line
	8835 4100 9210 4100
Wire Wire Line
	10360 4000 10860 4000
Wire Wire Line
	10860 3700 10860 4000
Connection ~ 10860 4000
Wire Wire Line
	10860 4000 11060 4000
Wire Wire Line
	8110 3300 10860 3300
Wire Wire Line
	10860 3300 10860 3400
Connection ~ 8110 3300
Text GLabel 1480 2525 1    39   Input ~ 0
A2_1
Wire Wire Line
	1480 2650 1480 2525
Text GLabel 680  2525 1    39   Input ~ 0
U+_1
Wire Wire Line
	680  2650 680  2525
Text GLabel 980  2525 1    39   Input ~ 0
Ud_1
Wire Wire Line
	980  2650 980  2525
Text GLabel 1380 2525 1    39   Input ~ 0
A1_1
Wire Wire Line
	1380 2650 1380 2525
Wire Wire Line
	680  3150 680  3280
Text GLabel 980  3205 3    39   Input ~ 0
Vcc_1
Wire Wire Line
	10940 2165 10940 2190
Wire Wire Line
	10940 2190 10390 2190
Wire Wire Line
	10390 2190 10390 2165
Connection ~ 10390 2165
Wire Wire Line
	10390 2165 10290 2165
Wire Wire Line
	10940 2265 10940 2290
Wire Wire Line
	10940 2290 10390 2290
Wire Wire Line
	10390 2290 10390 2265
Connection ~ 10390 2265
Wire Wire Line
	10390 2265 10440 2265
Wire Wire Line
	10940 2365 10940 2390
Wire Wire Line
	10940 2390 10390 2390
Wire Wire Line
	10390 2390 10390 2365
Wire Wire Line
	10390 2365 10440 2365
Wire Wire Line
	10940 2465 10940 2490
Wire Wire Line
	10940 2490 10390 2490
Wire Wire Line
	10390 2490 10390 2465
Connection ~ 10390 2465
$Comp
L atmel:ATMEGA32U4-AU U0
U 1 1 5B32B5CB
P 3415 6120
F 0 "U0" H 2465 7820 50  0000 C CNN
F 1 "ATMEGA32U4-AU" H 4115 4620 50  0000 C CNN
F 2 "Housings_QFP:TQFP-44_10x10mm_Pitch0.8mm" H 3415 6120 50  0001 C CIN
F 3 "" H 4515 7220 50  0001 C CNN
	1    3415 6120
	1    0    0    -1  
$EndComp
$Comp
L Device:C C4
U 1 1 5B32B77E
P 1235 5200
F 0 "C4" H 1260 5300 50  0000 L CNN
F 1 "20p" H 1260 5100 50  0000 L CNN
F 2 "Capacitors_SMD:C_0603" H 1273 5050 50  0001 C CNN
F 3 "" H 1235 5200 50  0001 C CNN
	1    1235 5200
	0    1    1    0   
$EndComp
$Comp
L Device:C C9
U 1 1 5B32B803
P 1235 4685
F 0 "C9" H 1260 4785 50  0000 L CNN
F 1 "20p" H 1260 4585 50  0000 L CNN
F 2 "Capacitors_SMD:C_0603" H 1273 4535 50  0001 C CNN
F 3 "" H 1235 4685 50  0001 C CNN
	1    1235 4685
	0    1    -1   0   
$EndComp
Text GLabel 990  6320 0    60   Input ~ 0
GND
Text GLabel 4775 700  0    60   Input ~ 0
V5
Text GLabel 1615 4270 0    60   Input ~ 0
V5
$Comp
L Device:R R1
U 1 1 5B32C5A2
P 1915 4270
F 0 "R1" V 1995 4270 50  0000 C CNN
F 1 "10k" V 1915 4270 50  0000 C CNN
F 2 "Resistors_SMD:R_0805" V 1845 4270 50  0001 C CNN
F 3 "" H 1915 4270 50  0001 C CNN
	1    1915 4270
	0    1    1    0   
$EndComp
$Comp
L conn:USB_OTG J0
U 1 1 5B32C89C
P 1290 5920
F 0 "J0" H 1090 6370 50  0000 L CNN
F 1 "USB_OTG" H 1090 6270 50  0000 L CNN
F 2 "Connectors_USB:USB_Micro-B_Molex-105017-0001" H 1440 5870 50  0001 C CNN
F 3 "" H 1440 5870 50  0001 C CNN
	1    1290 5920
	1    0    0    -1  
$EndComp
$Comp
L Device:R R2
U 1 1 5B32CC1B
P 1915 5920
F 0 "R2" V 1815 5920 50  0000 C CNN
F 1 "22" V 1915 5920 50  0000 C CNN
F 2 "Resistors_SMD:R_0805" V 1845 5920 50  0001 C CNN
F 3 "" H 1915 5920 50  0001 C CNN
	1    1915 5920
	0    1    1    0   
$EndComp
$Comp
L Device:R R3
U 1 1 5B32CC52
P 1915 6020
F 0 "R3" V 1995 6020 50  0000 C CNN
F 1 "22" V 1915 6020 50  0000 C CNN
F 2 "Resistors_SMD:R_0805" V 1845 6020 50  0001 C CNN
F 3 "" H 1915 6020 50  0001 C CNN
	1    1915 6020
	0    1    1    0   
$EndComp
$Comp
L Device:C C13
U 1 1 5B32D147
P 1915 6270
F 0 "C13" V 1965 6345 50  0000 L CNN
F 1 "1u" V 1965 6120 50  0000 L CNN
F 2 "Capacitors_SMD:C_0603" H 1953 6120 50  0001 C CNN
F 3 "" H 1915 6270 50  0001 C CNN
	1    1915 6270
	0    1    1    0   
$EndComp
Text GLabel 1915 5270 0    60   Input ~ 0
GND
NoConn ~ 1590 6120
Text GLabel 1900 3985 0    60   Input ~ 0
SCK
Text GLabel 1900 3835 0    60   Input ~ 0
MISO
Text GLabel 3775 3885 2    60   Input ~ 0
V5
Text GLabel 2850 3985 2    60   Input ~ 0
MOSI
Text GLabel 2850 4110 2    60   Input ~ 0
GND
$Comp
L Device:C C10
U 1 1 5B32F24C
P 2190 5520
F 0 "C10" H 2215 5620 50  0000 L CNN
F 1 "100n" H 2215 5420 50  0000 L CNN
F 2 "Capacitors_SMD:C_0603" H 2228 5370 50  0001 C CNN
F 3 "" H 2190 5520 50  0001 C CNN
	1    2190 5520
	1    0    0    -1  
$EndComp
Text GLabel 1965 7720 0    60   Input ~ 0
GND
$Comp
L Device:R Rd0
U 1 1 5B33020C
P 6350 740
F 0 "Rd0" V 6450 740 50  0000 C CNN
F 1 "1k" V 6350 740 50  0000 C CNN
F 2 "Resistors_SMD:R_0603" V 6280 740 50  0001 C CNN
F 3 "" H 6350 740 50  0001 C CNN
	1    6350 740 
	-1   0    0    1   
$EndComp
$Comp
L Device:LED D0
U 1 1 5B330375
P 6350 1090
F 0 "D0" H 6350 1190 50  0000 C CNN
F 1 "LED_G" H 6350 990 50  0000 C CNN
F 2 "LEDs:LED_0805" H 6350 1090 50  0001 C CNN
F 3 "" H 6350 1090 50  0001 C CNN
	1    6350 1090
	0    -1   -1   0   
$EndComp
Text GLabel 4755 5870 2    60   Input ~ 0
SDA
Text GLabel 4755 5750 2    60   Input ~ 0
SCL
Text GLabel 4740 4595 2    60   Input ~ 0
SCK
Text GLabel 4740 4845 2    60   Input ~ 0
MISO
Text GLabel 4740 4720 2    60   Input ~ 0
MOSI
$Comp
L Device:LED D2
U 1 1 5B3360C1
P 5090 6970
F 0 "D2" H 5090 7070 50  0000 C CNN
F 1 "LED_B" H 5090 6870 50  0000 C CNN
F 2 "LEDs:LED_0805" H 5090 6970 50  0001 C CNN
F 3 "" H 5090 6970 50  0001 C CNN
	1    5090 6970
	-1   0    0    1   
$EndComp
Text GLabel 5315 6670 2    60   Input ~ 0
GND
$Comp
L Device:R Rd3
U 1 1 5B3368DD
P 4665 4970
F 0 "Rd3" V 4695 4800 50  0000 C CNN
F 1 "1k" V 4665 4970 50  0000 C CNN
F 2 "Resistors_SMD:R_0603" V 4595 4970 50  0001 C CNN
F 3 "" H 4665 4970 50  0001 C CNN
	1    4665 4970
	0    -1   -1   0   
$EndComp
$Comp
L Device:LED D3
U 1 1 5B3368E3
P 5040 4970
F 0 "D3" H 4940 5010 50  0000 C CNN
F 1 "LED_O" H 4880 4840 50  0000 C CNN
F 2 "LEDs:LED_0805" H 5040 4970 50  0001 C CNN
F 3 "" H 5040 4970 50  0001 C CNN
	1    5040 4970
	-1   0    0    1   
$EndComp
Text GLabel 5290 4970 2    60   Input ~ 0
GND
$Comp
L Device:C C14
U 1 1 5B3396EE
P 2115 7120
F 0 "C14" H 2140 7220 50  0000 L CNN
F 1 "100n" H 2140 7020 50  0000 L CNN
F 2 "Capacitors_SMD:C_0603" H 2153 6970 50  0001 C CNN
F 3 "" H 2115 7120 50  0001 C CNN
	1    2115 7120
	-1   0    0    1   
$EndComp
$Comp
L regul:MIC5504-3.3YM5 U6
U 1 1 5B33B543
P 7145 820
F 0 "U6" H 6895 1070 50  0000 C CNN
F 1 "MIC5504-3.3V" H 7320 1070 50  0000 C CNN
F 2 "TO_SOT_Packages_SMD:SOT-23-5" H 7145 420 50  0001 C CNN
F 3 "" H 7145 1020 50  0001 C CNN
	1    7145 820 
	1    0    0    -1  
$EndComp
$Comp
L Device:C C7
U 1 1 5B33B64E
P 6695 945
F 0 "C7" H 6720 1045 50  0000 L CNN
F 1 "1u" H 6720 845 50  0000 L CNN
F 2 "Capacitors_SMD:C_0603" H 6733 795 50  0001 C CNN
F 3 "" H 6695 945 50  0001 C CNN
	1    6695 945 
	1    0    0    -1  
$EndComp
$Comp
L Device:C C8
U 1 1 5B33B6CE
P 7695 920
F 0 "C8" H 7720 1020 50  0000 L CNN
F 1 "1u" H 7720 820 50  0000 L CNN
F 2 "Capacitors_SMD:C_0603" H 7733 770 50  0001 C CNN
F 3 "" H 7695 920 50  0001 C CNN
	1    7695 920 
	1    0    0    -1  
$EndComp
$Comp
L Device:R Rd1
U 1 1 5B33D6FB
P 8245 720
F 0 "Rd1" V 8345 720 50  0000 C CNN
F 1 "1k" V 8245 720 50  0000 C CNN
F 2 "Resistors_SMD:R_0603" V 8175 720 50  0001 C CNN
F 3 "" H 8245 720 50  0001 C CNN
	1    8245 720 
	-1   0    0    1   
$EndComp
$Comp
L Device:LED D1
U 1 1 5B33D701
P 8245 1070
F 0 "D1" H 8245 1170 50  0000 C CNN
F 1 "LED_G" H 8245 970 50  0000 C CNN
F 2 "LEDs:LED_0805" H 8245 1070 50  0001 C CNN
F 3 "" H 8245 1070 50  0001 C CNN
	1    8245 1070
	0    -1   -1   0   
$EndComp
Text GLabel 8320 570  2    60   Input ~ 0
V3
Text Notes 8500 590  0    39   ~ 0
3.3V
Text Notes 5550 6700 0    39   ~ 0
USB enabled
Text GLabel 7845 920  2    39   Input ~ 0
En_V3
Wire Wire Line
	1615 4270 1765 4270
Wire Wire Line
	2065 4270 2150 4270
Wire Wire Line
	2265 5920 2065 5920
Wire Wire Line
	2265 6020 2065 6020
Wire Wire Line
	1590 5920 1765 5920
Wire Wire Line
	1765 6020 1590 6020
Wire Wire Line
	990  6320 1190 6320
Connection ~ 1190 6320
Wire Wire Line
	2065 6270 2165 6270
Wire Wire Line
	2165 6270 2165 6170
Wire Wire Line
	2165 6170 2265 6170
Wire Wire Line
	1640 6320 1640 6270
Wire Wire Line
	1640 6270 1765 6270
Connection ~ 1290 6320
Wire Wire Line
	1900 3835 2025 3835
Wire Wire Line
	2025 3835 2025 3885
Wire Wire Line
	2025 3885 2150 3885
Wire Wire Line
	2150 3985 1900 3985
Wire Wire Line
	2650 3985 2850 3985
Wire Wire Line
	2850 4110 2800 4110
Wire Wire Line
	2800 4110 2800 4085
Wire Wire Line
	2800 4085 2650 4085
Wire Wire Line
	2965 4320 3215 4320
Connection ~ 3215 4320
Wire Wire Line
	3215 4320 3215 3885
Wire Wire Line
	1590 5720 1740 5720
Wire Wire Line
	2040 5720 2065 5720
Wire Wire Line
	2215 5720 2215 5770
Wire Wire Line
	2215 5770 2265 5770
Wire Wire Line
	2190 5270 2190 5370
Wire Wire Line
	2190 5670 2190 5720
Connection ~ 2190 5720
Wire Wire Line
	1965 7720 2115 7720
Connection ~ 3015 7720
Connection ~ 3265 7720
Connection ~ 3365 7720
Connection ~ 3465 7720
Wire Wire Line
	6350 890  6350 940 
Wire Wire Line
	5190 4970 5290 4970
Wire Wire Line
	4815 4970 4890 4970
Wire Wire Line
	2265 6970 2115 6970
Wire Wire Line
	2115 7270 2115 7720
Connection ~ 2115 7720
Wire Wire Line
	6695 720  6695 795 
Wire Wire Line
	6695 1120 7145 1120
Wire Wire Line
	7695 1120 7695 1070
Connection ~ 7145 1120
Wire Wire Line
	7545 720  7695 720 
Wire Wire Line
	7695 570  7695 720 
Wire Wire Line
	8245 870  8245 920 
Wire Wire Line
	7820 1220 8245 1220
Connection ~ 7695 720 
Wire Wire Line
	7820 1120 7820 1220
Connection ~ 7695 1120
Wire Wire Line
	1915 5270 2190 5270
Text GLabel 1915 5395 0    60   Input ~ 0
V5
Wire Wire Line
	1915 5395 2065 5395
Wire Wire Line
	2065 5395 2065 5720
Connection ~ 2065 5720
Wire Wire Line
	1190 6320 1290 6320
Wire Wire Line
	1290 6320 1640 6320
Wire Wire Line
	3215 4320 3315 4320
Wire Wire Line
	2190 5720 2215 5720
Wire Wire Line
	3015 7720 3265 7720
Wire Wire Line
	3265 7720 3365 7720
Wire Wire Line
	3365 7720 3465 7720
Wire Wire Line
	3465 7720 3565 7720
Wire Wire Line
	2115 7720 3015 7720
Wire Wire Line
	7145 1120 7695 1120
Wire Wire Line
	7695 720  7695 770 
Wire Wire Line
	6695 720  6745 720 
Wire Wire Line
	7695 1120 7820 1120
Wire Wire Line
	2065 5720 2190 5720
Text GLabel 1775 1315 2    39   Input ~ 0
En_1
Text GLabel 1775 1015 2    39   Input ~ 0
A0_1
Text GLabel 1775 1115 2    39   Input ~ 0
A1_1
Text GLabel 1775 1215 2    39   Input ~ 0
A2_1
Wire Wire Line
	1775 1315 1625 1315
Wire Wire Line
	1775 1015 1625 1015
Wire Wire Line
	1775 1115 1625 1115
Wire Wire Line
	1775 1215 1625 1215
Wire Wire Line
	4740 4845 4640 4845
Wire Wire Line
	4640 4720 4740 4720
Wire Wire Line
	4615 4595 4740 4595
Wire Wire Line
	4615 4670 4615 4595
Wire Wire Line
	4515 4670 4615 4670
Wire Wire Line
	4640 4770 4640 4720
Wire Wire Line
	4515 4770 4640 4770
Wire Wire Line
	4640 4870 4640 4845
Wire Wire Line
	4515 4870 4640 4870
$Comp
L Device:R_Small R5
U 1 1 5C29E5DC
P 4960 6670
F 0 "R5" V 4890 6670 50  0000 C CNN
F 1 "10k" V 4960 6675 50  0000 C CNN
F 2 "Resistors_SMD:R_0805" H 4960 6670 50  0001 C CNN
F 3 "~" H 4960 6670 50  0001 C CNN
	1    4960 6670
	0    1    1    0   
$EndComp
Wire Wire Line
	4515 6670 4860 6670
$Comp
L Device:R_Small Rd2
U 1 1 5C2D706E
P 4800 6970
F 0 "Rd2" V 4880 6970 50  0000 C CNN
F 1 "1k" V 4800 6975 50  0000 C CNN
F 2 "Resistors_SMD:R_0603" H 4800 6970 50  0001 C CNN
F 3 "~" H 4800 6970 50  0001 C CNN
	1    4800 6970
	0    1    1    0   
$EndComp
Wire Wire Line
	4900 6970 4940 6970
Wire Wire Line
	5060 6670 5315 6670
Wire Wire Line
	2150 4085 2150 4270
Wire Wire Line
	2150 4270 2150 4570
Wire Wire Line
	2150 4570 2265 4570
Connection ~ 2150 4270
Text GLabel 4820 1240 0    39   Input ~ 0
GND
$Comp
L Device:C C6
U 1 1 5C6032E7
P 5775 850
F 0 "C6" H 5890 896 50  0000 L CNN
F 1 "22u" H 5890 805 50  0000 L CNN
F 2 "Capacitors_SMD:C_0603" H 5813 700 50  0001 C CNN
F 3 "~" H 5775 850 50  0001 C CNN
	1    5775 850 
	1    0    0    -1  
$EndComp
Wire Wire Line
	5775 1000 5775 1240
Wire Wire Line
	5775 1240 6350 1240
Wire Wire Line
	6350 1240 6695 1240
Wire Wire Line
	6695 1095 6695 1120
Connection ~ 6350 1240
Connection ~ 6695 1120
Wire Wire Line
	6695 1120 6695 1240
Wire Wire Line
	5775 700  5980 700 
Wire Wire Line
	5980 700  5980 590 
Wire Wire Line
	5980 590  6350 590 
Wire Wire Line
	6350 590  6695 590 
Wire Wire Line
	6695 590  6695 720 
Connection ~ 6350 590 
Connection ~ 6695 720 
Wire Wire Line
	8245 570  8320 570 
Wire Wire Line
	8245 570  7695 570 
Connection ~ 8245 570 
Wire Wire Line
	2650 3885 3215 3885
Text GLabel 4565 6770 2    39   Input ~ 0
LDAC
Text GLabel 725  1115 0    39   Input ~ 0
SDA
Wire Wire Line
	725  1115 825  1115
Text GLabel 725  1015 0    39   Input ~ 0
SCL
Wire Wire Line
	825  1015 725  1015
NoConn ~ 4515 4570
NoConn ~ 4515 6270
$Comp
L conn:Conn_02x04_Odd_Even J3
U 1 1 5CBDB826
P 2000 1640
F 0 "J3" H 2045 1350 50  0000 C CNN
F 1 "To_RasPI" H 2045 1840 50  0000 C CNN
F 2 "Pin_Headers:Pin_Header_Straight_2x04_Pitch2.54mm_SMD" H 2000 1640 50  0001 C CNN
F 3 "" H 2000 1640 50  0001 C CNN
	1    2000 1640
	1    0    0    1   
$EndComp
Text GLabel 10290 2165 0    39   Input ~ 0
GND
Wire Wire Line
	3565 4320 3615 4320
Wire Wire Line
	3215 3885 3390 3885
Connection ~ 3215 3885
Wire Wire Line
	3615 4320 3615 3885
Connection ~ 3615 4320
Wire Wire Line
	3615 4320 3665 4320
Connection ~ 3615 3885
Wire Wire Line
	3615 3885 3775 3885
$Comp
L Device:C C15
U 1 1 5D113A18
P 3390 4080
F 0 "C15" H 3400 4160 50  0000 L CNN
F 1 "100n" H 3400 4000 50  0000 L CNN
F 2 "Capacitors_SMD:C_0603" H 3428 3930 50  0001 C CNN
F 3 "~" H 3390 4080 50  0001 C CNN
	1    3390 4080
	1    0    0    -1  
$EndComp
Wire Wire Line
	3390 3930 3390 3885
Connection ~ 3390 3885
Wire Wire Line
	3390 3885 3615 3885
Wire Wire Line
	2800 4110 2800 4230
Wire Wire Line
	2800 4230 3390 4230
Connection ~ 2800 4110
Text GLabel 3450 770  2    60   Input ~ 0
V5
$Comp
L Device:C C3
U 1 1 5D1564A6
P 3130 770
F 0 "C3" V 3180 825 50  0000 L CNN
F 1 "100n" V 3175 535 50  0000 L CNN
F 2 "Capacitors_SMD:C_0603" H 3168 620 50  0001 C CNN
F 3 "~" H 3130 770 50  0001 C CNN
	1    3130 770 
	0    1    1    0   
$EndComp
Text GLabel 2885 770  0    39   Input ~ 0
GND
Wire Wire Line
	2980 770  2885 770 
Text GLabel 2885 2070 0    39   Input ~ 0
GND
Text GLabel 725  1215 0    39   Input ~ 0
Int
Wire Wire Line
	825  1215 725  1215
Text GLabel 4565 5970 2    39   Input ~ 0
Int
$Comp
L ts5a23157:ts5a23157 U2
U 1 1 5BBAD4F6
P 9610 3700
F 0 "U2" H 9785 3987 60  0000 C CNN
F 1 "ts5a23157" H 9785 3881 60  0000 C CNN
F 2 "Housings_SSOP:TSSOP-10_3x3mm_Pitch0.5mm" H 9610 3700 60  0001 C CNN
F 3 "" H 9610 3700 60  0001 C CNN
	1    9610 3700
	1    0    0    -1  
$EndComp
$Comp
L Analog_DAC:MCP4728 U1
U 1 1 5BBD021D
P 8160 3925
F 0 "U1" H 7710 4165 50  0000 C CNN
F 1 "MCP4728" H 8455 4175 50  0000 C CNN
F 2 "Housings_SSOP:MSOP-10_3x3mm_Pitch0.5mm" H 8160 3325 50  0001 C CNN
F 3 "http://ww1.microchip.com/downloads/en/DeviceDoc/22187E.pdf" H 8160 4175 50  0001 C CNN
	1    8160 3925
	1    0    0    -1  
$EndComp
Text GLabel 1280 2525 1    39   Input ~ 0
A0_1
Wire Wire Line
	1280 2650 1280 2525
Text GLabel 1080 2525 1    39   Input ~ 0
U-_1
Wire Wire Line
	1080 2650 1080 2525
NoConn ~ 1080 3150
Text GLabel 1180 2620 1    39   Input ~ 0
DN_1
Wire Wire Line
	1180 2620 1180 2650
Text GLabel 1180 3180 3    39   Input ~ 0
DP_1
Wire Wire Line
	1180 3180 1180 3150
Text GLabel 3370 3230 3    39   Input ~ 0
GND
Text GLabel 3270 3230 3    39   Input ~ 0
V3
Text GLabel 3170 3230 3    39   Input ~ 0
SDA
Text GLabel 3070 3230 3    39   Input ~ 0
SCL
Wire Wire Line
	3370 3230 3370 3080
Wire Wire Line
	3270 3230 3270 3080
Wire Wire Line
	3170 3230 3170 3080
Wire Wire Line
	3070 3230 3070 3080
Text GLabel 3370 2455 1    39   Input ~ 0
PWM_2
Wire Wire Line
	3370 2580 3370 2455
Text GLabel 3270 2455 1    39   Input ~ 0
A2_2
Wire Wire Line
	3270 2580 3270 2455
Text GLabel 3170 2455 1    39   Input ~ 0
A1_2
Wire Wire Line
	3170 2580 3170 2455
Text GLabel 3070 2455 1    39   Input ~ 0
A0_2
Wire Wire Line
	3070 2580 3070 2455
Text GLabel 2870 2455 1    39   Input ~ 0
U-_2
Wire Wire Line
	2870 2580 2870 2455
NoConn ~ 2870 3080
Text GLabel 2970 2550 1    39   Input ~ 0
DN_2
Wire Wire Line
	2970 2550 2970 2580
Text GLabel 2970 3110 3    39   Input ~ 0
DP_2
Wire Wire Line
	2970 3110 2970 3080
$Comp
L mcp9904:MCP9904 U11
U 1 1 5BE7F00C
P 9310 5115
F 0 "U11" H 8910 5415 60  0000 C CNN
F 1 "MCP9904" H 9710 5415 60  0000 C CNN
F 2 "lib:MCP9904" H 9060 5415 60  0001 C CNN
F 3 "" H 9060 5415 60  0001 C CNN
	1    9310 5115
	1    0    0    -1  
$EndComp
$Comp
L Device:C_Small C11
U 1 1 5BE7F012
P 8585 4690
F 0 "C11" H 8685 4690 50  0000 L CNN
F 1 "100n" H 8310 4690 50  0000 L CNN
F 2 "Capacitors_SMD:C_0603" H 8585 4690 50  0001 C CNN
F 3 "" H 8585 4690 50  0001 C CNN
	1    8585 4690
	-1   0    0    1   
$EndComp
Text GLabel 8460 4915 0    39   Input ~ 0
V3
Text GLabel 10165 5430 2    39   Input ~ 0
GND
Text GLabel 10260 5015 2    39   Input ~ 0
SDA
Text GLabel 10260 4915 2    39   Input ~ 0
SCL
$Comp
L transistors:MMBT3904 Q11
U 1 1 5BE7F022
P 7985 5065
F 0 "Q11" H 7860 5190 50  0000 L CNN
F 1 "MMBT3904" H 7810 5315 50  0000 L CNN
F 2 "lib:SOT523" H 8185 4990 50  0001 L CIN
F 3 "" H 7985 5065 50  0001 L CNN
	1    7985 5065
	1    0    0    -1  
$EndComp
Text GLabel 8735 4590 2    39   Input ~ 0
GND
$Comp
L Device:LED D11
U 1 1 5BE7F02F
P 10635 5115
F 0 "D11" H 10635 5215 50  0000 C CNN
F 1 "LED_R" H 10635 5015 50  0000 C CNN
F 2 "LEDs:LED_0805" H 10635 5115 50  0001 C CNN
F 3 "" H 10635 5115 50  0001 C CNN
	1    10635 5115
	1    0    0    -1  
$EndComp
$Comp
L Device:R Rd11
U 1 1 5BE7F035
P 10260 5115
F 0 "Rd11" V 10340 5115 50  0000 C CNN
F 1 "1k" V 10260 5115 50  0000 C CNN
F 2 "Resistors_SMD:R_0603" V 10190 5115 50  0001 C CNN
F 3 "" H 10260 5115 50  0001 C CNN
	1    10260 5115
	0    1    1    0   
$EndComp
Text GLabel 10935 5115 2    39   Input ~ 0
V3
$Comp
L Device:R R11
U 1 1 5BE7F03C
P 10460 5340
F 0 "R11" V 10540 5340 50  0000 C CNN
F 1 "20k" V 10460 5340 50  0000 C CNN
F 2 "Resistors_SMD:R_0805" V 10390 5340 50  0001 C CNN
F 3 "" H 10460 5340 50  0001 C CNN
	1    10460 5340
	0    1    1    0   
$EndComp
Wire Wire Line
	7785 4865 8085 4865
Wire Wire Line
	7785 4865 7785 5065
Wire Wire Line
	8460 4915 8585 4915
Wire Wire Line
	10260 5015 10110 5015
Wire Wire Line
	10110 4915 10260 4915
Wire Wire Line
	8285 4865 8285 5015
Wire Wire Line
	8285 5015 8610 5015
Connection ~ 8085 4865
Wire Wire Line
	8085 5265 8185 5265
Wire Wire Line
	8185 5265 8185 5115
Wire Wire Line
	8185 5115 8610 5115
Wire Wire Line
	8585 4790 8585 4915
Connection ~ 8585 4915
Wire Wire Line
	8585 4590 8735 4590
Wire Wire Line
	10410 5115 10485 5115
Wire Wire Line
	10785 5115 10885 5115
Wire Wire Line
	10110 5215 10160 5215
Wire Wire Line
	10160 5215 10160 5340
Wire Wire Line
	10160 5340 10310 5340
Wire Wire Line
	10610 5340 10885 5340
Wire Wire Line
	10885 5340 10885 5115
Connection ~ 10885 5115
Wire Wire Line
	8085 4865 8285 4865
Wire Wire Line
	8585 4915 8610 4915
Wire Wire Line
	10885 5115 10935 5115
Wire Wire Line
	8080 5875 8280 5875
Wire Wire Line
	7780 5875 8080 5875
Connection ~ 8080 5875
$Comp
L transistors:MMBT3904 Q12
U 1 1 5BA516F3
P 7980 6075
F 0 "Q12" H 7855 6200 50  0000 L CNN
F 1 "MMBT3904" H 7805 6325 50  0000 L CNN
F 2 "lib:SOT523" H 8180 6000 50  0001 L CIN
F 3 "" H 7980 6075 50  0001 L CNN
	1    7980 6075
	1    0    0    -1  
$EndComp
Text GLabel 8580 5315 0    39   Input ~ 0
DN_1
Text GLabel 8580 5215 0    39   Input ~ 0
DP_1
Wire Wire Line
	8580 5215 8610 5215
Wire Wire Line
	8580 5315 8610 5315
Text GLabel 8575 6325 0    39   Input ~ 0
DN_2
Text GLabel 8575 6225 0    39   Input ~ 0
DP_2
Wire Wire Line
	8575 6225 8605 6225
Wire Wire Line
	8575 6325 8605 6325
Wire Wire Line
	10110 5315 10110 5430
Wire Wire Line
	10110 5430 10165 5430
Wire Wire Line
	10105 6325 10130 6325
Wire Wire Line
	10130 6325 10130 6470
Text GLabel 4685 7270 2    39   Input ~ 0
En_V3
Text GLabel 3935 1370 2    39   Input ~ 0
En_2
Text GLabel 3935 1070 2    39   Input ~ 0
A0_2
Text GLabel 3935 1170 2    39   Input ~ 0
A1_2
Text GLabel 3935 1270 2    39   Input ~ 0
A2_2
Wire Wire Line
	3935 1370 3785 1370
Wire Wire Line
	3935 1070 3785 1070
Wire Wire Line
	3935 1170 3785 1170
Wire Wire Line
	3935 1270 3785 1270
Wire Wire Line
	4515 7270 4685 7270
Wire Wire Line
	7545 920  7845 920 
Text GLabel 7065 1455 0    60   Input ~ 0
V5
Text GLabel 7145 1455 2    39   Input ~ 0
Vcc_1
Wire Wire Line
	7065 1455 7100 1455
Text GLabel 4565 5170 2    39   Input ~ 0
SPDT_2
Wire Wire Line
	4565 5170 4515 5170
Wire Wire Line
	4820 1240 5030 1240
Connection ~ 5775 1240
Wire Wire Line
	4775 700  5030 700 
Wire Wire Line
	1625 1415 1800 1415
Wire Wire Line
	1625 1515 1800 1515
Wire Wire Line
	1625 1615 1800 1615
Wire Wire Line
	1625 1715 1800 1715
Text GLabel 2340 1740 2    39   Input ~ 0
Trig1
Wire Wire Line
	2300 1740 2340 1740
Text GLabel 2340 1640 2    39   Input ~ 0
Trig2
Wire Wire Line
	2300 1640 2340 1640
Text GLabel 2330 1415 2    39   Input ~ 0
GND
Text GLabel 2340 1540 2    39   Input ~ 0
V5
Wire Wire Line
	2300 1540 2340 1540
Wire Wire Line
	2300 1440 2315 1440
Wire Wire Line
	2315 1440 2315 1415
Wire Wire Line
	2315 1415 2330 1415
$Comp
L Device:R_Small R6
U 1 1 5BE594AE
P 10410 2835
F 0 "R6" H 10440 2880 50  0000 L CNN
F 1 "4.7k" H 10435 2805 50  0000 L CNN
F 2 "Resistors_SMD:R_0805_HandSoldering" H 10410 2835 50  0001 C CNN
F 3 "~" H 10410 2835 50  0001 C CNN
	1    10410 2835
	1    0    0    -1  
$EndComp
$Comp
L Device:R_Small R7
U 1 1 5BE77A1E
P 10825 2835
F 0 "R7" H 10855 2880 50  0000 L CNN
F 1 "4.7k" H 10845 2795 50  0000 L CNN
F 2 "Resistors_SMD:R_0805_HandSoldering" H 10825 2835 50  0001 C CNN
F 3 "~" H 10825 2835 50  0001 C CNN
	1    10825 2835
	1    0    0    -1  
$EndComp
Wire Wire Line
	10245 2265 10390 2265
Wire Wire Line
	10285 2465 10390 2465
Wire Wire Line
	10390 2365 10310 2365
Wire Wire Line
	10310 2365 10310 2355
Wire Wire Line
	10310 2355 10285 2355
Connection ~ 10390 2365
Text GLabel 10290 2735 0    39   Input ~ 0
V3
Text GLabel 10755 2935 0    39   Input ~ 0
SDA
Text GLabel 10315 2935 0    39   Input ~ 0
SCL
Wire Wire Line
	10290 2735 10410 2735
Wire Wire Line
	10410 2735 10825 2735
Connection ~ 10410 2735
Wire Wire Line
	10410 2935 10315 2935
Wire Wire Line
	10825 2935 10755 2935
$Comp
L conn:Conn_02x04_Odd_Even J6
U 1 1 5C06A80C
P 4830 1770
F 0 "J6" H 4880 1970 50  0000 C CNN
F 1 "Fan & GPIO" H 4880 1470 50  0000 C CNN
F 2 "Pin_Headers:Pin_Header_Straight_2x04_Pitch2.54mm_SMD" H 4830 1770 50  0001 C CNN
F 3 "" H 4830 1770 50  0001 C CNN
	1    4830 1770
	1    0    0    -1  
$EndComp
Text GLabel 4555 6070 2    39   Input ~ 0
Trig1
Wire Wire Line
	4515 6070 4555 6070
Text GLabel 4555 6170 2    39   Input ~ 0
Trig2
Wire Wire Line
	4515 6170 4555 6170
Text GLabel 5190 1670 2    39   Input ~ 0
GND
Text GLabel 6830 2095 0    39   Input ~ 0
PWM_3
Text GLabel 2150 3785 0    39   Input ~ 0
CS1
Text GLabel 2650 3785 2    39   Input ~ 0
CS2
Wire Wire Line
	5130 1670 5190 1670
Text GLabel 4080 2545 0    39   Input ~ 0
Fan_1
$Comp
L Device:Q_NMOS_GSD Q2
U 1 1 5C31D8D8
P 4915 2545
F 0 "Q2" H 4910 2690 50  0000 L CNN
F 1 "Q_NMOS" H 4690 2385 50  0000 L CNN
F 2 "lib:SOT523" H 5115 2645 50  0001 C CNN
F 3 "~" H 4915 2545 50  0001 C CNN
	1    4915 2545
	1    0    0    -1  
$EndComp
$Comp
L Device:Q_NMOS_GSD Q1
U 1 1 5C31D9CD
P 4280 2545
F 0 "Q1" H 4235 2695 50  0000 L CNN
F 1 "Q_NMOS" H 4070 2390 50  0000 L CNN
F 2 "lib:SOT523" H 4480 2645 50  0001 C CNN
F 3 "~" H 4280 2545 50  0001 C CNN
	1    4280 2545
	1    0    0    -1  
$EndComp
$Comp
L Device:C C5
U 1 1 5C43E1FE
P 5405 2260
F 0 "C5" H 5435 2350 50  0000 L CNN
F 1 "10u" H 5165 2265 50  0000 L CNN
F 2 "Capacitors_SMD:C_0805" H 5443 2110 50  0001 C CNN
F 3 "~" H 5405 2260 50  0001 C CNN
	1    5405 2260
	1    0    0    -1  
$EndComp
Text GLabel 4010 2745 0    39   Input ~ 0
GND
Wire Wire Line
	4380 2745 4010 2745
Wire Wire Line
	4380 2745 5015 2745
Connection ~ 4380 2745
$Comp
L conn:Conn_02x04_Odd_Even J8
U 1 1 5CA82606
P 7030 2195
F 0 "J8" H 7080 2395 50  0000 C CNN
F 1 "The_rest" H 7080 1895 50  0000 C CNN
F 2 "Pin_Headers:Pin_Header_Straight_2x04_Pitch2.54mm_SMD" H 7030 2195 50  0001 C CNN
F 3 "" H 7030 2195 50  0001 C CNN
	1    7030 2195
	1    0    0    -1  
$EndComp
$Comp
L Interface_Expansion:TCA9534 U5
U 1 1 5CE2DACF
P 1225 1315
F 0 "U5" H 1225 2093 50  0000 C CNN
F 1 "TCA9534" H 1225 2002 50  0000 C CNN
F 2 "Housings_SSOP:TSSOP-16_4.4x5mm_Pitch0.65mm" H 2175 765 50  0001 C CNN
F 3 "http://www.ti.com/lit/ds/symlink/tca9534.pdf" H 1325 1215 50  0001 C CNN
	1    1225 1315
	1    0    0    -1  
$EndComp
$Comp
L Interface_Expansion:TCA9534 U4
U 1 1 5CE2DDB5
P 3385 1370
F 0 "U4" H 3385 2148 50  0000 C CNN
F 1 "TCA9534" H 3385 2057 50  0000 C CNN
F 2 "Housings_SSOP:TSSOP-16_4.4x5mm_Pitch0.65mm" H 4335 820 50  0001 C CNN
F 3 "http://www.ti.com/lit/ds/symlink/tca9534.pdf" H 3485 1270 50  0001 C CNN
	1    3385 1370
	1    0    0    -1  
$EndComp
$Comp
L Device:R R100
U 1 1 5CE2FB48
P 1890 5720
F 0 "R100" V 1790 5720 50  0000 C CNN
F 1 "0" V 1890 5720 50  0000 C CNN
F 2 "Resistors_SMD:R_0805_HandSoldering" V 1820 5720 50  0001 C CNN
F 3 "" H 1890 5720 50  0001 C CNN
	1    1890 5720
	0    1    1    0   
$EndComp
$Comp
L Device:Crystal_GND24 Y1
U 1 1 5CE32AF8
P 1385 4945
F 0 "Y1" H 1165 5060 50  0000 L CNN
F 1 "16MHz" H 1525 5060 50  0000 L CNN
F 2 "lib:Crystal_FA-128_1.6x2mm" H 1385 4945 50  0001 C CNN
F 3 "~" H 1385 4945 50  0001 C CNN
	1    1385 4945
	0    1    1    0   
$EndComp
Wire Wire Line
	1385 5095 1385 5170
Wire Wire Line
	1385 4795 1385 4715
Wire Wire Line
	1085 4685 1085 4945
Wire Wire Line
	1185 4945 1085 4945
Connection ~ 1085 4945
Wire Wire Line
	1085 4945 1085 5200
Wire Wire Line
	1585 4945 1695 4945
Wire Wire Line
	1695 4945 1695 4455
Wire Wire Line
	1695 4455 1000 4455
Wire Wire Line
	1000 4455 1000 4945
Wire Wire Line
	1000 4945 1085 4945
Text GLabel 970  4945 0    60   Input ~ 0
GND
Wire Wire Line
	970  4945 1000 4945
Connection ~ 1000 4945
Wire Wire Line
	2265 5170 1385 5170
Connection ~ 1385 5170
Wire Wire Line
	1385 5170 1385 5200
Wire Wire Line
	2265 4970 2015 4970
Wire Wire Line
	2015 4970 2015 4715
Wire Wire Line
	2015 4715 1385 4715
Connection ~ 1385 4715
Wire Wire Line
	1385 4715 1385 4685
Text GLabel 2885 1170 0    39   Input ~ 0
SDA
Wire Wire Line
	2885 1170 2985 1170
Text GLabel 2885 1070 0    39   Input ~ 0
SCL
Wire Wire Line
	2985 1070 2885 1070
Wire Wire Line
	3280 770  3385 770 
Text GLabel 1310 715  2    60   Input ~ 0
V5
$Comp
L Device:C C16
U 1 1 5D28C5B5
P 990 715
F 0 "C16" V 1040 770 50  0000 L CNN
F 1 "100n" V 1035 480 50  0000 L CNN
F 2 "Capacitors_SMD:C_0603" H 1028 565 50  0001 C CNN
F 3 "~" H 990 715 50  0001 C CNN
	1    990  715 
	0    1    1    0   
$EndComp
Text GLabel 745  715  0    39   Input ~ 0
GND
Wire Wire Line
	840  715  745  715 
Wire Wire Line
	1140 715  1225 715 
Connection ~ 1225 715 
Wire Wire Line
	1225 715  1310 715 
Connection ~ 3385 770 
Wire Wire Line
	3385 770  3450 770 
Text GLabel 635  2020 0    39   Input ~ 0
GND
Wire Wire Line
	635  2020 825  2020
Wire Wire Line
	1225 2020 1225 2015
Wire Wire Line
	2885 2070 2985 2070
Wire Wire Line
	825  1515 825  1615
Wire Wire Line
	825  1615 825  1715
Connection ~ 825  1615
Wire Wire Line
	825  1715 825  2020
Connection ~ 825  1715
Connection ~ 825  2020
Wire Wire Line
	825  2020 1225 2020
Wire Wire Line
	2985 1670 2985 1770
Wire Wire Line
	2985 1770 2985 2070
Connection ~ 2985 1770
Connection ~ 2985 2070
Wire Wire Line
	2985 2070 3385 2070
Text GLabel 2960 1570 0    60   Input ~ 0
V5
Wire Wire Line
	2960 1570 2985 1570
Wire Wire Line
	4580 5070 4515 5070
Wire Wire Line
	5240 6970 5340 6970
Text GLabel 4580 5470 2    39   Input ~ 0
PWM_1
Wire Wire Line
	4580 5470 4515 5470
Text Notes 4835 5100 0    50   ~ 0
= Arduino Pin9   TIMER 1-A
Text Notes 4835 5200 0    50   ~ 0
= Arduino Pin10  TIMER 1-B
Text Notes 4830 5500 0    50   ~ 0
= Arduino Pin5   TIMER 3-A
Text GLabel 4565 5570 2    39   Input ~ 0
SPDT_1
Wire Wire Line
	4565 5570 4515 5570
Text Notes 4835 5600 0    50   ~ 0
= Arduino Pin13  TIMER 4-A
Wire Wire Line
	4515 5870 4755 5870
Wire Wire Line
	4515 5750 4515 5770
Wire Wire Line
	4515 5750 4755 5750
Text GLabel 4580 6470 2    39   Input ~ 0
PWM_3
Wire Wire Line
	4580 6470 4515 6470
Text Notes 4830 6500 0    50   ~ 0
= Arduino Pin6   TIMER 4-D
Text GLabel 4580 5270 2    39   Input ~ 0
Fan_1
Wire Wire Line
	4580 5270 4515 5270
Text Notes 4830 5300 0    50   ~ 0
= Arduino Pin11   TIMER 0-A
Text Notes 5525 5000 0    50   ~ 0
= Arduino Pin8
NoConn ~ 2985 1270
Wire Wire Line
	4565 5970 4515 5970
Text GLabel 5340 6970 2    60   Input ~ 0
GND
Wire Wire Line
	4700 6970 4515 6970
Wire Wire Line
	4565 6770 4515 6770
Text GLabel 4545 7070 2    39   Input ~ 0
CS1
Text GLabel 4545 7170 2    39   Input ~ 0
CS2
Wire Wire Line
	4515 7070 4545 7070
Wire Wire Line
	4545 7170 4515 7170
Wire Wire Line
	8760 3925 8835 3925
Wire Wire Line
	8835 3925 8835 4100
Wire Wire Line
	8760 4125 8760 4445
Wire Wire Line
	8760 4445 10710 4445
Wire Wire Line
	10710 4445 10710 3900
Wire Wire Line
	10710 3900 10360 3900
Wire Wire Line
	8760 4025 8800 4025
Wire Wire Line
	8800 4025 8800 4395
Wire Wire Line
	8800 4395 10660 4395
Wire Wire Line
	10660 4395 10660 4100
Wire Wire Line
	10660 4100 10360 4100
Wire Wire Line
	1800 1415 1800 1440
Wire Wire Line
	1800 1515 1800 1540
Wire Wire Line
	1800 1640 1800 1615
Wire Wire Line
	1800 1740 1800 1715
$Comp
L Device:C C66
U 1 1 5E8C54CD
P 5425 925
F 0 "C66" H 5540 971 50  0000 L CNN
F 1 "22u" H 5540 880 50  0000 L CNN
F 2 "Capacitors_SMD:C_0603" H 5463 775 50  0001 C CNN
F 3 "~" H 5425 925 50  0001 C CNN
	1    5425 925 
	1    0    0    -1  
$EndComp
Connection ~ 5775 700 
Wire Wire Line
	5425 775  5425 700 
Connection ~ 5425 700 
Wire Wire Line
	5425 700  5775 700 
Wire Wire Line
	5425 1075 5425 1240
Connection ~ 5425 1240
Wire Wire Line
	5425 1240 5775 1240
$Comp
L Device:C C67
U 1 1 5E9FDBE5
P 5030 920
F 0 "C67" H 5145 966 50  0000 L CNN
F 1 "22u" H 5145 875 50  0000 L CNN
F 2 "Capacitors_SMD:C_0603" H 5068 770 50  0001 C CNN
F 3 "~" H 5030 920 50  0001 C CNN
	1    5030 920 
	1    0    0    -1  
$EndComp
Wire Wire Line
	5030 770  5030 700 
Connection ~ 5030 700 
Wire Wire Line
	5030 700  5425 700 
Wire Wire Line
	5030 1070 5030 1240
Connection ~ 5030 1240
Wire Wire Line
	5030 1240 5425 1240
$Comp
L conn:Conn_02x04_Odd_Even J4
U 1 1 5EBBEE8E
P 2350 3885
F 0 "J4" H 2400 4085 50  0000 C CNN
F 1 "ISP+" H 2400 3585 50  0000 C CNN
F 2 "Pin_Headers:Pin_Header_Straight_2x04_Pitch2.54mm_SMD" H 2350 3885 50  0001 C CNN
F 3 "" H 2350 3885 50  0001 C CNN
	1    2350 3885
	1    0    0    -1  
$EndComp
Text Label 1665 1415 0    50   ~ 0
A4
Text Label 1680 1515 0    50   ~ 0
A5
Text Label 1670 1615 0    50   ~ 0
A6
Text Label 1670 1715 0    50   ~ 0
A7
Text GLabel 7145 1550 2    39   Input ~ 0
Vcc_2
Wire Wire Line
	7145 1550 7100 1550
Wire Wire Line
	7100 1550 7100 1455
Connection ~ 7100 1455
Wire Wire Line
	7100 1455 7145 1455
Wire Wire Line
	980  3150 980  3205
Text GLabel 880  3205 3    39   Input ~ 0
PVcc_1
Wire Wire Line
	880  3205 880  3150
Text GLabel 780  2525 1    39   Input ~ 0
GND
Wire Wire Line
	780  2525 780  2575
Wire Wire Line
	780  3150 800  3150
$Comp
L conn:Conn_02x10_Odd_Even J1
U 1 1 5BA516E6
P 1080 2950
F 0 "J1" H 1130 3450 50  0000 C CNN
F 1 "Conn_02x10" H 1130 2350 50  0000 C CNN
F 2 "Socket_Strips:Socket_Strip_Straight_2x10_Pitch2.54mm_SMD" H 1080 2950 50  0001 C CNN
F 3 "" H 1080 2950 50  0001 C CNN
	1    1080 2950
	0    -1   -1   0   
$EndComp
Wire Wire Line
	880  2650 880  2575
Wire Wire Line
	880  2575 780  2575
Connection ~ 780  2575
Wire Wire Line
	780  2575 780  2625
Wire Wire Line
	800  2625 780  2625
Wire Wire Line
	800  2625 800  3150
Connection ~ 780  2625
Wire Wire Line
	780  2625 780  2650
Text GLabel 2470 2455 1    39   Input ~ 0
U+_2
Wire Wire Line
	2470 2580 2470 2455
Text GLabel 2770 2455 1    39   Input ~ 0
Ud_2
Wire Wire Line
	2770 2580 2770 2455
Text GLabel 2570 2455 1    39   Input ~ 0
GND
Wire Wire Line
	2570 2455 2570 2505
Wire Wire Line
	2670 2580 2670 2505
Wire Wire Line
	2670 2505 2570 2505
Connection ~ 2570 2505
Wire Wire Line
	2570 2505 2570 2555
Wire Wire Line
	2590 2555 2570 2555
Wire Wire Line
	2590 2555 2590 3080
Connection ~ 2570 2555
Wire Wire Line
	2570 2555 2570 2580
$Comp
L conn:Conn_02x10_Odd_Even J2
U 1 1 5BE3C195
P 2870 2880
F 0 "J2" H 2920 3380 50  0000 C CNN
F 1 "Conn_02x10" H 2920 2280 50  0000 C CNN
F 2 "Socket_Strips:Socket_Strip_Straight_2x10_Pitch2.54mm_SMD" H 2870 2880 50  0001 C CNN
F 3 "" H 2870 2880 50  0001 C CNN
	1    2870 2880
	0    -1   -1   0   
$EndComp
Wire Wire Line
	2570 3080 2590 3080
Text GLabel 2470 3210 3    39   Input ~ 0
En_2
Wire Wire Line
	2470 3080 2470 3210
Text GLabel 2770 3135 3    39   Input ~ 0
Vcc_2
Wire Wire Line
	2770 3080 2770 3135
Text GLabel 2670 3135 3    39   Input ~ 0
PVcc_2
Wire Wire Line
	2670 3135 2670 3080
$Comp
L ts5a23157:ts5a23157 U7
U 1 1 5C11284E
P 8225 2290
F 0 "U7" H 8400 2577 60  0000 C CNN
F 1 "ts5a23157" H 8400 2471 60  0000 C CNN
F 2 "Housings_SSOP:TSSOP-10_3x3mm_Pitch0.5mm" H 8225 2290 60  0001 C CNN
F 3 "" H 8225 2290 60  0001 C CNN
	1    8225 2290
	1    0    0    -1  
$EndComp
Text GLabel 8975 2690 2    39   Input ~ 0
U+_1
Text GLabel 8975 2490 2    39   Input ~ 0
U-_1
Text GLabel 7825 2690 0    39   Input ~ 0
U+_2
Text GLabel 7825 2490 0    39   Input ~ 0
U-_2
Text GLabel 8975 2390 2    39   Input ~ 0
U-
Text GLabel 8975 2790 2    39   Input ~ 0
U+
Text GLabel 7825 2590 0    39   Input ~ 0
GND
Text GLabel 6830 2395 0    39   Input ~ 0
U-
Text GLabel 7330 2395 2    39   Input ~ 0
U+
Text GLabel 10695 770  2    39   Input ~ 0
PVcc_1
Text GLabel 10695 865  2    39   Input ~ 0
PVcc_2
Wire Wire Line
	10695 865  10655 865 
Wire Wire Line
	10655 865  10655 830 
Wire Wire Line
	10655 770  10695 770 
$Comp
L az2185:AZ2185 U3
U 1 1 5BD35F7A
P 9765 830
F 0 "U3" H 9765 1117 60  0000 C CNN
F 1 "AZ2185" H 9765 1011 60  0000 C CNN
F 2 "TO_SOT_Packages_SMD:TO-252-3_TabPin2" H 9765 830 60  0001 C CNN
F 3 "" H 9765 830 60  0001 C CNN
	1    9765 830 
	1    0    0    -1  
$EndComp
$Comp
L Device:R_POT RV1
U 1 1 5BD36386
P 10105 1430
F 0 "RV1" H 10060 1480 50  0000 R CNN
F 1 "POT" H 10055 1380 50  0000 R CNN
F 2 "lib:Pot_35W" H 10105 1430 50  0001 C CNN
F 3 "~" H 10105 1430 50  0001 C CNN
	1    10105 1430
	-1   0    0    -1  
$EndComp
$Comp
L Device:C C17
U 1 1 5BD369A0
P 9225 980
F 0 "C17" H 9250 1080 50  0000 L CNN
F 1 "10u" H 9250 880 50  0000 L CNN
F 2 "Capacitors_SMD:C_0805" H 9263 830 50  0001 C CNN
F 3 "" H 9225 980 50  0001 C CNN
	1    9225 980 
	1    0    0    -1  
$EndComp
$Comp
L Device:C C18
U 1 1 5BD36CB9
P 10315 980
F 0 "C18" H 10340 1080 50  0000 L CNN
F 1 "22u" H 10340 880 50  0000 L CNN
F 2 "Capacitors_SMD:C_0603" H 10353 830 50  0001 C CNN
F 3 "" H 10315 980 50  0001 C CNN
	1    10315 980 
	1    0    0    -1  
$EndComp
Wire Wire Line
	9225 830  9265 830 
Wire Wire Line
	10265 830  10285 830 
Connection ~ 10315 830 
Wire Wire Line
	10315 1130 10315 1580
Wire Wire Line
	10315 1580 10105 1580
Wire Wire Line
	10105 1580 9225 1580
Wire Wire Line
	9225 1580 9225 1130
Connection ~ 10105 1580
Wire Wire Line
	9955 1430 9765 1430
Wire Wire Line
	10105 1280 10105 875 
Wire Wire Line
	10105 875  10285 875 
Wire Wire Line
	10285 875  10285 830 
Connection ~ 10285 830 
Wire Wire Line
	10285 830  10315 830 
$Comp
L Device:R Rd4
U 1 1 5BE7E7BC
P 10565 980
F 0 "Rd4" V 10665 980 50  0000 C CNN
F 1 "1k" V 10565 980 50  0000 C CNN
F 2 "Resistors_SMD:R_0603" V 10495 980 50  0001 C CNN
F 3 "" H 10565 980 50  0001 C CNN
	1    10565 980 
	-1   0    0    1   
$EndComp
$Comp
L Device:LED D4
U 1 1 5BE7E7C2
P 10565 1330
F 0 "D4" H 10565 1430 50  0000 C CNN
F 1 "LED_G" H 10565 1230 50  0000 C CNN
F 2 "LEDs:LED_0805" H 10565 1330 50  0001 C CNN
F 3 "" H 10565 1330 50  0001 C CNN
	1    10565 1330
	0    -1   -1   0   
$EndComp
Wire Wire Line
	10565 1130 10565 1180
Wire Wire Line
	10315 830  10565 830 
Wire Wire Line
	10315 1580 10565 1580
Wire Wire Line
	10565 1580 10565 1480
Connection ~ 10315 1580
Wire Wire Line
	10565 830  10655 830 
Connection ~ 10565 830 
Connection ~ 10655 830 
Wire Wire Line
	10655 830  10655 770 
Text GLabel 9200 830  0    39   Input ~ 0
V12
Wire Wire Line
	9200 830  9225 830 
Connection ~ 9225 830 
Text GLabel 9310 2590 2    39   Input ~ 0
V3
Wire Wire Line
	8975 2590 9270 2590
$Comp
L Device:C C19
U 1 1 5C0F5075
P 9270 2370
F 0 "C19" H 9295 2470 50  0000 L CNN
F 1 "100n" H 9295 2270 50  0000 L CNN
F 2 "Capacitors_SMD:C_0603" H 9308 2220 50  0001 C CNN
F 3 "" H 9270 2370 50  0001 C CNN
	1    9270 2370
	1    0    0    -1  
$EndComp
Wire Wire Line
	9270 2520 9270 2590
Connection ~ 9270 2590
Wire Wire Line
	9270 2590 9310 2590
Text GLabel 9270 2220 0    39   Input ~ 0
GND
Wire Wire Line
	7570 2790 7825 2790
Wire Wire Line
	7825 2390 7570 2390
Wire Wire Line
	7570 2390 7570 2570
Text GLabel 4575 6370 2    39   Input ~ 0
switch
Wire Wire Line
	4515 6370 4575 6370
Text GLabel 9195 1580 0    39   Input ~ 0
GND
Wire Wire Line
	9195 1580 9225 1580
Connection ~ 9225 1580
Text Label 9845 1430 0    50   ~ 0
Adj
Text GLabel 5190 1770 2    39   Input ~ 0
V12
Wire Wire Line
	5130 1770 5190 1770
Text GLabel 4575 7470 2    39   Input ~ 0
A0
Text GLabel 4575 7370 2    39   Input ~ 0
A1
Wire Wire Line
	5130 1770 5130 1870
Connection ~ 5130 1770
Wire Wire Line
	5130 1870 5130 1970
Connection ~ 5130 1870
NoConn ~ 3785 1470
Text GLabel 4715 2545 0    39   Input ~ 0
Fan_2
Text GLabel 3935 1570 2    39   Input ~ 0
Fan_2
Wire Wire Line
	4630 1970 4585 1970
Wire Wire Line
	4585 1970 4585 2170
Wire Wire Line
	4585 2170 5015 2170
Wire Wire Line
	5015 2170 5015 2345
Wire Wire Line
	4380 2345 4380 1870
Wire Wire Line
	4380 1870 4630 1870
Wire Wire Line
	3785 1570 3935 1570
Wire Wire Line
	5015 2745 5405 2745
Wire Wire Line
	5405 2745 5405 2410
Connection ~ 5015 2745
Wire Wire Line
	5130 1970 5405 1970
Wire Wire Line
	5405 1970 5405 2110
Connection ~ 5130 1970
Wire Wire Line
	4515 7370 4575 7370
Wire Wire Line
	4515 7470 4575 7470
Text GLabel 7330 2295 2    39   Input ~ 0
A1
Text GLabel 7330 2095 2    39   Input ~ 0
GND
Text GLabel 7330 2195 2    39   Input ~ 0
V5
Text GLabel 6830 2295 0    39   Input ~ 0
A0
Wire Wire Line
	6830 2195 6625 2195
Wire Wire Line
	6625 2195 6625 2570
Wire Wire Line
	6625 2570 7570 2570
Connection ~ 7570 2570
Wire Wire Line
	7570 2570 7570 2790
Text Notes 10975 845  0    39   ~ 0
4 to 6V
Text GLabel 6605 2570 0    39   Input ~ 0
switch
Wire Wire Line
	6605 2570 6625 2570
Connection ~ 6625 2570
Wire Wire Line
	3785 1770 4225 1770
Wire Wire Line
	4225 1770 4225 1670
Wire Wire Line
	4225 1670 4630 1670
Wire Wire Line
	3785 1670 3940 1670
Wire Wire Line
	3940 1670 3940 1740
Wire Wire Line
	3940 1740 4520 1740
Wire Wire Line
	4520 1740 4520 1770
Wire Wire Line
	4520 1770 4630 1770
$EndSCHEMATC
