(export (version D)
  (design
    (source "C:\\Users\\UserPC\\Documents\\Cool_Light\\OpenSpectral\\Elec\\Interface_PCB\\Interface PCB.sch")
    (date "24/10/2018 05:19:58")
    (tool "Eeschema (5.0.0)")
    (sheet (number 1) (name /) (tstamps /)
      (title_block
        (title)
        (company)
        (rev)
        (date)
        (source "Interface PCB.sch")
        (comment (number 1) (value ""))
        (comment (number 2) (value ""))
        (comment (number 3) (value ""))
        (comment (number 4) (value "")))))
  (components
    (comp (ref C1)
      (value 100n)
      (footprint Capacitors_SMD:C_0603)
      (libsource (lib Device) (part C) (description "Unpolarized capacitor"))
      (sheetpath (names /) (tstamps /))
      (tstamp 5BA516EF))
    (comp (ref U12)
      (value MCP9904)
      (footprint lib:MCP9904)
      (libsource (lib Interface-PCB-rescue) (part MCP9904) (description ""))
      (sheetpath (names /) (tstamps /))
      (tstamp 5BA516F0))
    (comp (ref C12)
      (value 100n)
      (footprint Capacitors_SMD:C_0603)
      (libsource (lib Device) (part C_Small) (description "Unpolarized capacitor"))
      (sheetpath (names /) (tstamps /))
      (tstamp 5BA516F1))
    (comp (ref D12)
      (value LED_R)
      (footprint LEDs:LED_0805)
      (libsource (lib Device) (part LED) (description "LED generic"))
      (sheetpath (names /) (tstamps /))
      (tstamp 5BA516F7))
    (comp (ref Rd12)
      (value 1k)
      (footprint Resistors_SMD:R_0603)
      (libsource (lib Device) (part R) (description Resistor))
      (sheetpath (names /) (tstamps /))
      (tstamp 5BA516F8))
    (comp (ref R12)
      (value 20k)
      (footprint Resistors_SMD:R_0805)
      (libsource (lib Device) (part R) (description Resistor))
      (sheetpath (names /) (tstamps /))
      (tstamp 5BA516F9))
    (comp (ref C2)
      (value 100n)
      (footprint Capacitors_SMD:C_0603)
      (libsource (lib Device) (part C) (description "Unpolarized capacitor"))
      (sheetpath (names /) (tstamps /))
      (tstamp 5BA516FB))
    (comp (ref J5)
      (value I2C_Hub)
      (footprint Pin_Headers:Pin_Header_Straight_2x04_Pitch2.54mm_SMD)
      (libsource (lib conn) (part Conn_02x04_Odd_Even) (description "Generic connector, double row, 02x04, odd/even pin numbering scheme (row 1 odd numbers, row 2 even numbers)"))
      (sheetpath (names /) (tstamps /))
      (tstamp 5BA5170D))
    (comp (ref U0)
      (value ATMEGA32U4-AU)
      (footprint Housings_QFP:TQFP-44_10x10mm_Pitch0.8mm)
      (libsource (lib atmel) (part ATMEGA32U4-AU) (description "TQFP44, 32K Flash, 2.5K SRAM, 1K EEPROM, USB2.0"))
      (sheetpath (names /) (tstamps /))
      (tstamp 5B32B5CB))
    (comp (ref C4)
      (value 20p)
      (footprint Capacitors_SMD:C_0603)
      (libsource (lib Device) (part C) (description "Unpolarized capacitor"))
      (sheetpath (names /) (tstamps /))
      (tstamp 5B32B77E))
    (comp (ref C9)
      (value 20p)
      (footprint Capacitors_SMD:C_0603)
      (libsource (lib Device) (part C) (description "Unpolarized capacitor"))
      (sheetpath (names /) (tstamps /))
      (tstamp 5B32B803))
    (comp (ref R1)
      (value 10k)
      (footprint Resistors_SMD:R_0805)
      (libsource (lib Device) (part R) (description Resistor))
      (sheetpath (names /) (tstamps /))
      (tstamp 5B32C5A2))
    (comp (ref J0)
      (value USB_OTG)
      (footprint Connectors_USB:USB_Micro-B_Molex-105017-0001)
      (libsource (lib conn) (part USB_OTG) (description "USB mini/micro connector"))
      (sheetpath (names /) (tstamps /))
      (tstamp 5B32C89C))
    (comp (ref R2)
      (value 22)
      (footprint Resistors_SMD:R_0805)
      (libsource (lib Device) (part R) (description Resistor))
      (sheetpath (names /) (tstamps /))
      (tstamp 5B32CC1B))
    (comp (ref R3)
      (value 22)
      (footprint Resistors_SMD:R_0805)
      (libsource (lib Device) (part R) (description Resistor))
      (sheetpath (names /) (tstamps /))
      (tstamp 5B32CC52))
    (comp (ref C13)
      (value 1u)
      (footprint Capacitors_SMD:C_0603)
      (libsource (lib Device) (part C) (description "Unpolarized capacitor"))
      (sheetpath (names /) (tstamps /))
      (tstamp 5B32D147))
    (comp (ref C10)
      (value 100n)
      (footprint Capacitors_SMD:C_0603)
      (libsource (lib Device) (part C) (description "Unpolarized capacitor"))
      (sheetpath (names /) (tstamps /))
      (tstamp 5B32F24C))
    (comp (ref Rd0)
      (value 1k)
      (footprint Resistors_SMD:R_0603)
      (libsource (lib Device) (part R) (description Resistor))
      (sheetpath (names /) (tstamps /))
      (tstamp 5B33020C))
    (comp (ref D0)
      (value LED_G)
      (footprint LEDs:LED_0805)
      (libsource (lib Device) (part LED) (description "LED generic"))
      (sheetpath (names /) (tstamps /))
      (tstamp 5B330375))
    (comp (ref D2)
      (value LED_B)
      (footprint LEDs:LED_0805)
      (libsource (lib Device) (part LED) (description "LED generic"))
      (sheetpath (names /) (tstamps /))
      (tstamp 5B3360C1))
    (comp (ref Rd3)
      (value 1k)
      (footprint Resistors_SMD:R_0603)
      (libsource (lib Device) (part R) (description Resistor))
      (sheetpath (names /) (tstamps /))
      (tstamp 5B3368DD))
    (comp (ref D3)
      (value LED_O)
      (footprint LEDs:LED_0805)
      (libsource (lib Device) (part LED) (description "LED generic"))
      (sheetpath (names /) (tstamps /))
      (tstamp 5B3368E3))
    (comp (ref C14)
      (value 100n)
      (footprint Capacitors_SMD:C_0603)
      (libsource (lib Device) (part C) (description "Unpolarized capacitor"))
      (sheetpath (names /) (tstamps /))
      (tstamp 5B3396EE))
    (comp (ref U6)
      (value MIC5504-3.3V)
      (footprint TO_SOT_Packages_SMD:SOT-23-5)
      (libsource (lib regul) (part MIC5504-3.3YM5) (description "LDO 3.3V, input 2.5V to 5.5V SOT-23"))
      (sheetpath (names /) (tstamps /))
      (tstamp 5B33B543))
    (comp (ref C7)
      (value 1u)
      (footprint Capacitors_SMD:C_0603)
      (libsource (lib Device) (part C) (description "Unpolarized capacitor"))
      (sheetpath (names /) (tstamps /))
      (tstamp 5B33B64E))
    (comp (ref C8)
      (value 1u)
      (footprint Capacitors_SMD:C_0603)
      (libsource (lib Device) (part C) (description "Unpolarized capacitor"))
      (sheetpath (names /) (tstamps /))
      (tstamp 5B33B6CE))
    (comp (ref Rd1)
      (value 1k)
      (footprint Resistors_SMD:R_0603)
      (libsource (lib Device) (part R) (description Resistor))
      (sheetpath (names /) (tstamps /))
      (tstamp 5B33D6FB))
    (comp (ref D1)
      (value LED_G)
      (footprint LEDs:LED_0805)
      (libsource (lib Device) (part LED) (description "LED generic"))
      (sheetpath (names /) (tstamps /))
      (tstamp 5B33D701))
    (comp (ref R5)
      (value 10k)
      (footprint Resistors_SMD:R_0805)
      (datasheet ~)
      (libsource (lib Device) (part R_Small) (description "Resistor, small symbol"))
      (sheetpath (names /) (tstamps /))
      (tstamp 5C29E5DC))
    (comp (ref Rd2)
      (value 1k)
      (footprint Resistors_SMD:R_0603)
      (datasheet ~)
      (libsource (lib Device) (part R_Small) (description "Resistor, small symbol"))
      (sheetpath (names /) (tstamps /))
      (tstamp 5C2D706E))
    (comp (ref C6)
      (value 22u)
      (footprint Capacitors_SMD:C_0603)
      (datasheet ~)
      (libsource (lib Device) (part C) (description "Unpolarized capacitor"))
      (sheetpath (names /) (tstamps /))
      (tstamp 5C6032E7))
    (comp (ref J3)
      (value To_RasPI)
      (footprint Pin_Headers:Pin_Header_Straight_2x04_Pitch2.54mm_SMD)
      (libsource (lib conn) (part Conn_02x04_Odd_Even) (description "Generic connector, double row, 02x04, odd/even pin numbering scheme (row 1 odd numbers, row 2 even numbers)"))
      (sheetpath (names /) (tstamps /))
      (tstamp 5CBDB826))
    (comp (ref C15)
      (value 100n)
      (footprint Capacitors_SMD:C_0603)
      (datasheet ~)
      (libsource (lib Device) (part C) (description "Unpolarized capacitor"))
      (sheetpath (names /) (tstamps /))
      (tstamp 5D113A18))
    (comp (ref C3)
      (value 100n)
      (footprint Capacitors_SMD:C_0603)
      (datasheet ~)
      (libsource (lib Device) (part C) (description "Unpolarized capacitor"))
      (sheetpath (names /) (tstamps /))
      (tstamp 5D1564A6))
    (comp (ref U2)
      (value ts5a23157)
      (footprint Housings_SSOP:TSSOP-10_3x3mm_Pitch0.5mm)
      (libsource (lib ts5a23157) (part ts5a23157) (description ""))
      (sheetpath (names /) (tstamps /))
      (tstamp 5BBAD4F6))
    (comp (ref U1)
      (value MCP4728)
      (footprint Housings_SSOP:MSOP-10_3x3mm_Pitch0.5mm)
      (datasheet http://ww1.microchip.com/downloads/en/DeviceDoc/22187E.pdf)
      (libsource (lib Analog_DAC) (part MCP4728) (description "12-bit digital to analog converter, quad output, 2.048V internal reference, integrated EEPROM, I2C interface"))
      (sheetpath (names /) (tstamps /))
      (tstamp 5BBD021D))
    (comp (ref U11)
      (value MCP9904)
      (footprint lib:MCP9904)
      (libsource (lib Interface-PCB-rescue) (part MCP9904) (description ""))
      (sheetpath (names /) (tstamps /))
      (tstamp 5BE7F00C))
    (comp (ref C11)
      (value 100n)
      (footprint Capacitors_SMD:C_0603)
      (libsource (lib Device) (part C_Small) (description "Unpolarized capacitor"))
      (sheetpath (names /) (tstamps /))
      (tstamp 5BE7F012))
    (comp (ref Q11)
      (value MMBT3904)
      (footprint lib:SOT523)
      (libsource (lib transistors) (part MMBT3904) (description "40V Vce, 0.2A Ic, NPN, Small Signal Transistor, SOT-23"))
      (sheetpath (names /) (tstamps /))
      (tstamp 5BE7F022))
    (comp (ref D11)
      (value LED_R)
      (footprint LEDs:LED_0805)
      (libsource (lib Device) (part LED) (description "LED generic"))
      (sheetpath (names /) (tstamps /))
      (tstamp 5BE7F02F))
    (comp (ref Rd11)
      (value 1k)
      (footprint Resistors_SMD:R_0603)
      (libsource (lib Device) (part R) (description Resistor))
      (sheetpath (names /) (tstamps /))
      (tstamp 5BE7F035))
    (comp (ref R11)
      (value 20k)
      (footprint Resistors_SMD:R_0805)
      (libsource (lib Device) (part R) (description Resistor))
      (sheetpath (names /) (tstamps /))
      (tstamp 5BE7F03C))
    (comp (ref Q12)
      (value MMBT3904)
      (footprint lib:SOT523)
      (libsource (lib transistors) (part MMBT3904) (description "40V Vce, 0.2A Ic, NPN, Small Signal Transistor, SOT-23"))
      (sheetpath (names /) (tstamps /))
      (tstamp 5BA516F3))
    (comp (ref R6)
      (value 4.7k)
      (footprint Resistors_SMD:R_0805_HandSoldering)
      (datasheet ~)
      (libsource (lib Device) (part R_Small) (description "Resistor, small symbol"))
      (sheetpath (names /) (tstamps /))
      (tstamp 5BE594AE))
    (comp (ref R7)
      (value 4.7k)
      (footprint Resistors_SMD:R_0805_HandSoldering)
      (datasheet ~)
      (libsource (lib Device) (part R_Small) (description "Resistor, small symbol"))
      (sheetpath (names /) (tstamps /))
      (tstamp 5BE77A1E))
    (comp (ref J6)
      (value "Fan & GPIO")
      (footprint Pin_Headers:Pin_Header_Straight_2x04_Pitch2.54mm_SMD)
      (libsource (lib conn) (part Conn_02x04_Odd_Even) (description "Generic connector, double row, 02x04, odd/even pin numbering scheme (row 1 odd numbers, row 2 even numbers)"))
      (sheetpath (names /) (tstamps /))
      (tstamp 5C06A80C))
    (comp (ref Q2)
      (value Q_NMOS)
      (footprint lib:SOT523)
      (datasheet ~)
      (libsource (lib Device) (part Q_NMOS_GSD) (description "Transistor N-MOSFETwith substrate diode (general)"))
      (sheetpath (names /) (tstamps /))
      (tstamp 5C31D8D8))
    (comp (ref Q1)
      (value Q_NMOS)
      (footprint lib:SOT523)
      (datasheet ~)
      (libsource (lib Device) (part Q_NMOS_GSD) (description "Transistor N-MOSFETwith substrate diode (general)"))
      (sheetpath (names /) (tstamps /))
      (tstamp 5C31D9CD))
    (comp (ref C5)
      (value 10u)
      (footprint Capacitors_SMD:C_0805)
      (datasheet ~)
      (libsource (lib Device) (part C) (description "Unpolarized capacitor"))
      (sheetpath (names /) (tstamps /))
      (tstamp 5C43E1FE))
    (comp (ref J8)
      (value The_rest)
      (footprint Pin_Headers:Pin_Header_Straight_2x04_Pitch2.54mm_SMD)
      (libsource (lib conn) (part Conn_02x04_Odd_Even) (description "Generic connector, double row, 02x04, odd/even pin numbering scheme (row 1 odd numbers, row 2 even numbers)"))
      (sheetpath (names /) (tstamps /))
      (tstamp 5CA82606))
    (comp (ref U5)
      (value TCA9534)
      (footprint Housings_SSOP:TSSOP-16_4.4x5mm_Pitch0.65mm)
      (datasheet http://www.ti.com/lit/ds/symlink/tca9534.pdf)
      (libsource (lib Interface_Expansion) (part TCA9534) (description "8 Bit Port/Expander, I2C SMBUS, Interrupt output, TSSOP-16, SOIC-20"))
      (sheetpath (names /) (tstamps /))
      (tstamp 5CE2DACF))
    (comp (ref U4)
      (value TCA9534)
      (footprint Housings_SSOP:TSSOP-16_4.4x5mm_Pitch0.65mm)
      (datasheet http://www.ti.com/lit/ds/symlink/tca9534.pdf)
      (libsource (lib Interface_Expansion) (part TCA9534) (description "8 Bit Port/Expander, I2C SMBUS, Interrupt output, TSSOP-16, SOIC-20"))
      (sheetpath (names /) (tstamps /))
      (tstamp 5CE2DDB5))
    (comp (ref R100)
      (value 0)
      (footprint Resistors_SMD:R_0805_HandSoldering)
      (libsource (lib Device) (part R) (description Resistor))
      (sheetpath (names /) (tstamps /))
      (tstamp 5CE2FB48))
    (comp (ref Y1)
      (value 16MHz)
      (footprint lib:Crystal_FA-128_1.6x2mm)
      (datasheet ~)
      (libsource (lib Device) (part Crystal_GND24) (description "Four pin crystal (GND on pins 2 and 4), e.g. in SMD package"))
      (sheetpath (names /) (tstamps /))
      (tstamp 5CE32AF8))
    (comp (ref C16)
      (value 100n)
      (footprint Capacitors_SMD:C_0603)
      (datasheet ~)
      (libsource (lib Device) (part C) (description "Unpolarized capacitor"))
      (sheetpath (names /) (tstamps /))
      (tstamp 5D28C5B5))
    (comp (ref C66)
      (value 22u)
      (footprint Capacitors_SMD:C_0603)
      (datasheet ~)
      (libsource (lib Device) (part C) (description "Unpolarized capacitor"))
      (sheetpath (names /) (tstamps /))
      (tstamp 5E8C54CD))
    (comp (ref C67)
      (value 22u)
      (footprint Capacitors_SMD:C_0603)
      (datasheet ~)
      (libsource (lib Device) (part C) (description "Unpolarized capacitor"))
      (sheetpath (names /) (tstamps /))
      (tstamp 5E9FDBE5))
    (comp (ref J4)
      (value ISP+)
      (footprint Pin_Headers:Pin_Header_Straight_2x04_Pitch2.54mm_SMD)
      (libsource (lib conn) (part Conn_02x04_Odd_Even) (description "Generic connector, double row, 02x04, odd/even pin numbering scheme (row 1 odd numbers, row 2 even numbers)"))
      (sheetpath (names /) (tstamps /))
      (tstamp 5EBBEE8E))
    (comp (ref J1)
      (value Conn_02x10)
      (footprint Socket_Strips:Socket_Strip_Straight_2x10_Pitch2.54mm_SMD)
      (libsource (lib conn) (part Conn_02x10_Odd_Even) (description "Generic connector, double row, 02x10, odd/even pin numbering scheme (row 1 odd numbers, row 2 even numbers)"))
      (sheetpath (names /) (tstamps /))
      (tstamp 5BA516E6))
    (comp (ref J2)
      (value Conn_02x10)
      (footprint Socket_Strips:Socket_Strip_Straight_2x10_Pitch2.54mm_SMD)
      (libsource (lib conn) (part Conn_02x10_Odd_Even) (description "Generic connector, double row, 02x10, odd/even pin numbering scheme (row 1 odd numbers, row 2 even numbers)"))
      (sheetpath (names /) (tstamps /))
      (tstamp 5BE3C195))
    (comp (ref U7)
      (value ts5a23157)
      (footprint Housings_SSOP:TSSOP-10_3x3mm_Pitch0.5mm)
      (libsource (lib ts5a23157) (part ts5a23157) (description ""))
      (sheetpath (names /) (tstamps /))
      (tstamp 5C11284E))
    (comp (ref U3)
      (value AZ2185)
      (footprint TO_SOT_Packages_SMD:TO-252-3_TabPin2)
      (libsource (lib az2185) (part AZ2185) (description ""))
      (sheetpath (names /) (tstamps /))
      (tstamp 5BD35F7A))
    (comp (ref RV1)
      (value POT)
      (footprint lib:Pot_35W)
      (datasheet ~)
      (libsource (lib Device) (part R_POT) (description Potentiometer))
      (sheetpath (names /) (tstamps /))
      (tstamp 5BD36386))
    (comp (ref C17)
      (value 10u)
      (footprint Capacitors_SMD:C_0805)
      (libsource (lib Device) (part C) (description "Unpolarized capacitor"))
      (sheetpath (names /) (tstamps /))
      (tstamp 5BD369A0))
    (comp (ref C18)
      (value 22u)
      (footprint Capacitors_SMD:C_0603)
      (libsource (lib Device) (part C) (description "Unpolarized capacitor"))
      (sheetpath (names /) (tstamps /))
      (tstamp 5BD36CB9))
    (comp (ref Rd4)
      (value 1k)
      (footprint Resistors_SMD:R_0603)
      (libsource (lib Device) (part R) (description Resistor))
      (sheetpath (names /) (tstamps /))
      (tstamp 5BE7E7BC))
    (comp (ref D4)
      (value LED_G)
      (footprint LEDs:LED_0805)
      (libsource (lib Device) (part LED) (description "LED generic"))
      (sheetpath (names /) (tstamps /))
      (tstamp 5BE7E7C2))
    (comp (ref C19)
      (value 100n)
      (footprint Capacitors_SMD:C_0603)
      (libsource (lib Device) (part C) (description "Unpolarized capacitor"))
      (sheetpath (names /) (tstamps /))
      (tstamp 5C0F5075)))
  (libparts
    (libpart (lib Analog_DAC) (part MCP4728)
      (description "12-bit digital to analog converter, quad output, 2.048V internal reference, integrated EEPROM, I2C interface")
      (docs http://ww1.microchip.com/downloads/en/DeviceDoc/22187E.pdf)
      (footprints
        (fp *SOP*3x3mm*P0.5mm*))
      (fields
        (field (name Reference) U)
        (field (name Value) MCP4728)
        (field (name Footprint) Package_SO:MSOP-10_3x3mm_P0.5mm))
      (pins
        (pin (num 1) (name VDD) (type power_in))
        (pin (num 2) (name SCL) (type input))
        (pin (num 3) (name SDA) (type BiDi))
        (pin (num 4) (name ~LDAC) (type input))
        (pin (num 5) (name RDY/~BSY) (type output))
        (pin (num 6) (name VOUTA) (type output))
        (pin (num 7) (name VOUTB) (type output))
        (pin (num 8) (name VOUTC) (type output))
        (pin (num 9) (name VOUTD) (type output))
        (pin (num 10) (name VSS) (type power_in))))
    (libpart (lib Device) (part C)
      (description "Unpolarized capacitor")
      (docs ~)
      (footprints
        (fp C_*))
      (fields
        (field (name Reference) C)
        (field (name Value) C))
      (pins
        (pin (num 1) (name ~) (type passive))
        (pin (num 2) (name ~) (type passive))))
    (libpart (lib Device) (part C_Small)
      (description "Unpolarized capacitor")
      (docs ~)
      (footprints
        (fp C_*))
      (fields
        (field (name Reference) C)
        (field (name Value) C_Small))
      (pins
        (pin (num 1) (name ~) (type passive))
        (pin (num 2) (name ~) (type passive))))
    (libpart (lib Device) (part Crystal_GND24)
      (description "Four pin crystal (GND on pins 2 and 4), e.g. in SMD package")
      (docs ~)
      (footprints
        (fp Crystal*))
      (fields
        (field (name Reference) Y)
        (field (name Value) Crystal_GND24))
      (pins
        (pin (num 1) (name 1) (type passive))
        (pin (num 2) (name 2) (type passive))
        (pin (num 3) (name 3) (type passive))
        (pin (num 4) (name 4) (type passive))))
    (libpart (lib Device) (part LED)
      (description "LED generic")
      (docs ~)
      (footprints
        (fp LED*)
        (fp LED_SMD:*)
        (fp LED_THT:*))
      (fields
        (field (name Reference) D)
        (field (name Value) LED))
      (pins
        (pin (num 1) (name K) (type passive))
        (pin (num 2) (name A) (type passive))))
    (libpart (lib Device) (part Q_NMOS_GSD)
      (description "Transistor N-MOSFETwith substrate diode (general)")
      (docs ~)
      (fields
        (field (name Reference) Q)
        (field (name Value) Q_NMOS_GSD))
      (pins
        (pin (num 1) (name G) (type input))
        (pin (num 2) (name S) (type passive))
        (pin (num 3) (name D) (type passive))))
    (libpart (lib Device) (part R)
      (description Resistor)
      (docs ~)
      (footprints
        (fp R_*))
      (fields
        (field (name Reference) R)
        (field (name Value) R))
      (pins
        (pin (num 1) (name ~) (type passive))
        (pin (num 2) (name ~) (type passive))))
    (libpart (lib Device) (part R_POT)
      (description Potentiometer)
      (docs ~)
      (footprints
        (fp Potentiometer*))
      (fields
        (field (name Reference) RV)
        (field (name Value) R_POT))
      (pins
        (pin (num 1) (name 1) (type passive))
        (pin (num 2) (name 2) (type passive))
        (pin (num 3) (name 3) (type passive))))
    (libpart (lib Device) (part R_Small)
      (description "Resistor, small symbol")
      (docs ~)
      (footprints
        (fp R_*))
      (fields
        (field (name Reference) R)
        (field (name Value) R_Small))
      (pins
        (pin (num 1) (name ~) (type passive))
        (pin (num 2) (name ~) (type passive))))
    (libpart (lib Interface-PCB-rescue) (part MCP9904)
      (fields
        (field (name Reference) U)
        (field (name Value) MCP9904))
      (pins
        (pin (num 1) (name Vdd) (type input))
        (pin (num 2) (name DP1) (type input))
        (pin (num 3) (name DN1) (type input))
        (pin (num 4) (name DP2-DN3) (type input))
        (pin (num 5) (name DN2-DP3) (type input))
        (pin (num 6) (name GND) (type input))
        (pin (num 7) (name /Therm-Addr) (type input))
        (pin (num 8) (name /Alert-/Therm2) (type input))
        (pin (num 9) (name SDA) (type input))
        (pin (num 10) (name SCL) (type input))))
    (libpart (lib Interface_Expansion) (part TCA9534)
      (description "8 Bit Port/Expander, I2C SMBUS, Interrupt output, TSSOP-16, SOIC-20")
      (docs http://www.ti.com/lit/ds/symlink/tca9534.pdf)
      (footprints
        (fp TSSOP*4.4x5mm*P0.65mm*)
        (fp SOIC*7.5x12.8mm*P1.27mm*))
      (fields
        (field (name Reference) U)
        (field (name Value) TCA9534))
      (pins
        (pin (num 1) (name A0) (type input))
        (pin (num 2) (name A1) (type input))
        (pin (num 3) (name A2) (type input))
        (pin (num 4) (name P0) (type BiDi))
        (pin (num 5) (name P1) (type BiDi))
        (pin (num 6) (name P2) (type BiDi))
        (pin (num 7) (name P3) (type BiDi))
        (pin (num 8) (name GND) (type power_in))
        (pin (num 9) (name P4) (type BiDi))
        (pin (num 10) (name P5) (type BiDi))
        (pin (num 11) (name P6) (type BiDi))
        (pin (num 12) (name P7) (type BiDi))
        (pin (num 13) (name ~INT~) (type openCol))
        (pin (num 14) (name SCL) (type input))
        (pin (num 15) (name SDA) (type BiDi))
        (pin (num 16) (name VDD) (type power_in))))
    (libpart (lib atmel) (part ATMEGA16U4-AU)
      (aliases
        (alias ATMEGA16U4RC-AU)
        (alias ATMEGA32U4-AU)
        (alias ATMEGA32U4RC-AU))
      (description "TQFP44, 16K Flash, 1.25K SRAM, 512B EEPROM, USB2.0")
      (docs http://www.atmel.com/images/atmel-7766-8-bit-avr-atmega16u4-32u4_%20datasheet.pdf)
      (footprints
        (fp TQFP44))
      (fields
        (field (name Reference) U)
        (field (name Value) ATMEGA16U4-AU)
        (field (name Footprint) TQFP44))
      (pins
        (pin (num 1) (name "(INT6/AIN0)PE6") (type BiDi))
        (pin (num 2) (name UVCC) (type power_in))
        (pin (num 3) (name D-) (type BiDi))
        (pin (num 4) (name D+) (type BiDi))
        (pin (num 5) (name UGND) (type passive))
        (pin (num 6) (name UCAP) (type passive))
        (pin (num 7) (name VBUS) (type passive))
        (pin (num 8) (name "(SS/PCINT0)PB0") (type BiDi))
        (pin (num 9) (name "(SCLK/PCINT1)PB1") (type BiDi))
        (pin (num 10) (name "(PDI/MOSI/PCINT2)PB2") (type BiDi))
        (pin (num 11) (name "(PDO/MISO/PCINT3)PB3") (type BiDi))
        (pin (num 12) (name "(OC0A/OC1C/~RTS~/PCINT7)PB7") (type BiDi))
        (pin (num 13) (name ~RESET~) (type input))
        (pin (num 14) (name VCC) (type power_in))
        (pin (num 15) (name GND) (type power_in))
        (pin (num 16) (name XTAL2) (type output))
        (pin (num 17) (name XTAL1) (type input))
        (pin (num 18) (name "(OC0B/SCL/INT0)PD0") (type BiDi))
        (pin (num 19) (name "(SDA/INT1)PD1") (type BiDi))
        (pin (num 20) (name "(RXD/INT2)PD2") (type BiDi))
        (pin (num 21) (name "(TXD/INT3)PD3") (type BiDi))
        (pin (num 22) (name "(XCK1/~CTS~)PD5") (type BiDi))
        (pin (num 23) (name GND) (type power_in))
        (pin (num 24) (name AVCC) (type power_in))
        (pin (num 25) (name "(ICP2/ADC8)PD4") (type BiDi))
        (pin (num 26) (name "(T1/~OC4D~/ADC9)PD6") (type BiDi))
        (pin (num 27) (name "(T0/OC4D/ADC10)PD7") (type BiDi))
        (pin (num 28) (name "(ADC11/PCINT4)PB4") (type BiDi))
        (pin (num 29) (name "(ADC12/OC1A/~OC4B~/PCINT12)PB5") (type BiDi))
        (pin (num 30) (name "(ADC13/OC1B/OC4B/PCINT13)PB6") (type BiDi))
        (pin (num 31) (name "(OC3A/~OC4A~)PC6") (type BiDi))
        (pin (num 32) (name "(ICP3/CLK0/OC4A)PC7") (type BiDi))
        (pin (num 33) (name "(~HWB~)PE2") (type BiDi))
        (pin (num 34) (name VCC) (type power_in))
        (pin (num 35) (name GND) (type power_in))
        (pin (num 36) (name "(ADC7/TDI)PF7") (type BiDi))
        (pin (num 37) (name "(ADC6/TDO)PF6") (type BiDi))
        (pin (num 38) (name "(ADC5/TMS)PF5") (type BiDi))
        (pin (num 39) (name "(ADC4/TCK)PF4") (type BiDi))
        (pin (num 40) (name "(ADC1)PF1") (type BiDi))
        (pin (num 41) (name "(ADC0)PF0") (type BiDi))
        (pin (num 42) (name AREF) (type passive))
        (pin (num 43) (name GND) (type power_in))
        (pin (num 44) (name AVCC) (type power_in))))
    (libpart (lib az2185) (part AZ2185)
      (fields
        (field (name Reference) U)
        (field (name Value) AZ2185))
      (pins
        (pin (num 1) (name ~) (type input))
        (pin (num 2) (name V_out) (type output))
        (pin (num 3) (name V_in) (type input))))
    (libpart (lib conn) (part Conn_02x04_Odd_Even)
      (description "Generic connector, double row, 02x04, odd/even pin numbering scheme (row 1 odd numbers, row 2 even numbers)")
      (docs ~)
      (footprints
        (fp Connector*:*2x??x*mm*)
        (fp Connector*:*2x???Pitch*)
        (fp Pin_Header_Straight_2X*)
        (fp Pin_Header_Angled_2X*)
        (fp Socket_Strip_Straight_2X*)
        (fp Socket_Strip_Angled_2X*))
      (fields
        (field (name Reference) J)
        (field (name Value) Conn_02x04_Odd_Even))
      (pins
        (pin (num 1) (name Pin_1) (type passive))
        (pin (num 2) (name Pin_2) (type passive))
        (pin (num 3) (name Pin_3) (type passive))
        (pin (num 4) (name Pin_4) (type passive))
        (pin (num 5) (name Pin_5) (type passive))
        (pin (num 6) (name Pin_6) (type passive))
        (pin (num 7) (name Pin_7) (type passive))
        (pin (num 8) (name Pin_8) (type passive))))
    (libpart (lib conn) (part Conn_02x10_Odd_Even)
      (description "Generic connector, double row, 02x10, odd/even pin numbering scheme (row 1 odd numbers, row 2 even numbers)")
      (docs ~)
      (footprints
        (fp Connector*:*2x??x*mm*)
        (fp Connector*:*2x???Pitch*)
        (fp Pin_Header_Straight_2X*)
        (fp Pin_Header_Angled_2X*)
        (fp Socket_Strip_Straight_2X*)
        (fp Socket_Strip_Angled_2X*))
      (fields
        (field (name Reference) J)
        (field (name Value) Conn_02x10_Odd_Even))
      (pins
        (pin (num 1) (name Pin_1) (type passive))
        (pin (num 2) (name Pin_2) (type passive))
        (pin (num 3) (name Pin_3) (type passive))
        (pin (num 4) (name Pin_4) (type passive))
        (pin (num 5) (name Pin_5) (type passive))
        (pin (num 6) (name Pin_6) (type passive))
        (pin (num 7) (name Pin_7) (type passive))
        (pin (num 8) (name Pin_8) (type passive))
        (pin (num 9) (name Pin_9) (type passive))
        (pin (num 10) (name Pin_10) (type passive))
        (pin (num 11) (name Pin_11) (type passive))
        (pin (num 12) (name Pin_12) (type passive))
        (pin (num 13) (name Pin_13) (type passive))
        (pin (num 14) (name Pin_14) (type passive))
        (pin (num 15) (name Pin_15) (type passive))
        (pin (num 16) (name Pin_16) (type passive))
        (pin (num 17) (name Pin_17) (type passive))
        (pin (num 18) (name Pin_18) (type passive))
        (pin (num 19) (name Pin_19) (type passive))
        (pin (num 20) (name Pin_20) (type passive))))
    (libpart (lib conn) (part USB_OTG)
      (description "USB mini/micro connector")
      (footprints
        (fp USB*))
      (fields
        (field (name Reference) J)
        (field (name Value) USB_OTG))
      (pins
        (pin (num 1) (name VBUS) (type power_in))
        (pin (num 2) (name D-) (type passive))
        (pin (num 3) (name D+) (type passive))
        (pin (num 4) (name ID) (type passive))
        (pin (num 5) (name GND) (type power_in))
        (pin (num 6) (name Shield) (type passive))))
    (libpart (lib regul) (part MIC5504-3.3YM5)
      (aliases
        (alias MIC5504-2.8YM5)
        (alias MIC5504-2.5YM5)
        (alias MIC5504-1.8YM5)
        (alias MIC5504-1.2YM5))
      (description "LDO 3.3V, input 2.5V to 5.5V SOT-23")
      (docs http://ww1.microchip.com/downloads/en/devicedoc/mic550x.pdf)
      (footprints
        (fp SOT*23*5*))
      (fields
        (field (name Reference) U)
        (field (name Value) MIC5504-3.3YM5)
        (field (name Footprint) TO_SOT_Packages_SMD:SOT-23-5))
      (pins
        (pin (num 1) (name VIN) (type power_in))
        (pin (num 2) (name GND) (type power_in))
        (pin (num 3) (name EN) (type input))
        (pin (num 4) (name NC) (type NotConnected))
        (pin (num 5) (name VOUT) (type power_out))))
    (libpart (lib transistors) (part BC817)
      (aliases
        (alias BC818)
        (alias BC847)
        (alias BC848)
        (alias BC849)
        (alias BC850)
        (alias MMBT3904))
      (description "45V Vce, 0.8A Ic, NPN, SOT-23")
      (docs http://www.fairchildsemi.com/ds/BC/BC817.pdf)
      (footprints
        (fp SOT?23*))
      (fields
        (field (name Reference) Q)
        (field (name Value) BC817)
        (field (name Footprint) TO_SOT_Packages_SMD:SOT-23))
      (pins
        (pin (num 1) (name B) (type input))
        (pin (num 2) (name E) (type passive))
        (pin (num 3) (name C) (type passive))))
    (libpart (lib ts5a23157) (part ts5a23157)
      (fields
        (field (name Reference) U)
        (field (name Value) ts5a23157))
      (pins
        (pin (num 1) (name IN1) (type input))
        (pin (num 2) (name NO1) (type input))
        (pin (num 3) (name GND) (type input))
        (pin (num 4) (name NO2) (type input))
        (pin (num 5) (name IN2) (type input))
        (pin (num 6) (name COM2) (type input))
        (pin (num 7) (name NC2) (type input))
        (pin (num 8) (name Vdd) (type input))
        (pin (num 9) (name NC1) (type input))
        (pin (num 10) (name COM1) (type input)))))
  (libraries
    (library (logical Analog_DAC)
      (uri "C:\\Program Files\\KiCad\\share\\kicad\\library/Analog_DAC.lib"))
    (library (logical Device)
      (uri "C:\\Program Files\\KiCad\\share\\kicad\\library/Device.lib"))
    (library (logical Interface-PCB-rescue)
      (uri "C:\\Users\\UserPC\\Documents\\Cool_Light\\OpenSpectral\\Elec\\Interface_PCB/Interface PCB-rescue.lib"))
    (library (logical Interface_Expansion)
      (uri "C:\\Program Files\\KiCad\\share\\kicad\\library/Interface_Expansion.lib"))
    (library (logical atmel)
      (uri "C:\\Program Files\\KiCad\\share\\kicad\\library/atmel.lib"))
    (library (logical az2185)
      (uri C:\Users\UserPC\Documents\Cool_Light\OpenSpectral\Elec\Interface_PCB/lib/az2185.lib))
    (library (logical conn)
      (uri "C:\\Program Files\\KiCad\\share\\kicad\\library/conn.lib"))
    (library (logical regul)
      (uri "C:\\Program Files\\KiCad\\share\\kicad\\library/regul.lib"))
    (library (logical transistors)
      (uri "C:\\Program Files\\KiCad\\share\\kicad\\library/transistors.lib"))
    (library (logical ts5a23157)
      (uri C:\Users\UserPC\Documents\Cool_Light\OpenSpectral\Elec\Interface_PCB/lib/ts5a23157.lib)))
  (nets
    (net (code 1) (name "Net-(J6-Pad1)")
      (node (ref U4) (pin 12))
      (node (ref J6) (pin 1)))
    (net (code 2) (name "Net-(U4-Pad13)")
      (node (ref U4) (pin 13)))
    (net (code 3) (name "Net-(C4-Pad1)")
      (node (ref U0) (pin 16))
      (node (ref Y1) (pin 3))
      (node (ref C4) (pin 1)))
    (net (code 4) (name "Net-(J6-Pad3)")
      (node (ref J6) (pin 3))
      (node (ref U4) (pin 11)))
    (net (code 5) (name GND)
      (node (ref D4) (pin 1))
      (node (ref C5) (pin 2))
      (node (ref Q1) (pin 2))
      (node (ref Q2) (pin 2))
      (node (ref C4) (pin 2))
      (node (ref U0) (pin 5))
      (node (ref C12) (pin 2))
      (node (ref U12) (pin 6))
      (node (ref C14) (pin 1))
      (node (ref D0) (pin 1))
      (node (ref C6) (pin 2))
      (node (ref J6) (pin 2))
      (node (ref J8) (pin 2))
      (node (ref U1) (pin 10))
      (node (ref J1) (pin 6))
      (node (ref J1) (pin 4))
      (node (ref J1) (pin 3))
      (node (ref J3) (pin 8))
      (node (ref C66) (pin 2))
      (node (ref J4) (pin 8))
      (node (ref J1) (pin 19))
      (node (ref C15) (pin 2))
      (node (ref C3) (pin 2))
      (node (ref J2) (pin 19))
      (node (ref J2) (pin 6))
      (node (ref U2) (pin 3))
      (node (ref J2) (pin 4))
      (node (ref J2) (pin 3))
      (node (ref C67) (pin 2))
      (node (ref C18) (pin 2))
      (node (ref C17) (pin 2))
      (node (ref RV1) (pin 3))
      (node (ref U0) (pin 23))
      (node (ref U0) (pin 43))
      (node (ref U0) (pin 15))
      (node (ref U11) (pin 6))
      (node (ref U7) (pin 3))
      (node (ref J5) (pin 2))
      (node (ref J5) (pin 1))
      (node (ref U0) (pin 35))
      (node (ref C11) (pin 2))
      (node (ref C19) (pin 1))
      (node (ref U4) (pin 8))
      (node (ref U4) (pin 3))
      (node (ref C9) (pin 2))
      (node (ref D1) (pin 1))
      (node (ref U4) (pin 2))
      (node (ref C8) (pin 2))
      (node (ref C10) (pin 1))
      (node (ref C16) (pin 2))
      (node (ref U5) (pin 8))
      (node (ref C13) (pin 2))
      (node (ref J0) (pin 5))
      (node (ref C2) (pin 1))
      (node (ref Y1) (pin 2))
      (node (ref U6) (pin 2))
      (node (ref D3) (pin 1))
      (node (ref Y1) (pin 4))
      (node (ref C1) (pin 1))
      (node (ref D2) (pin 1))
      (node (ref U5) (pin 3))
      (node (ref U5) (pin 2))
      (node (ref C7) (pin 2))
      (node (ref U5) (pin 1))
      (node (ref R5) (pin 1))
      (node (ref J0) (pin 6)))
    (net (code 6) (name "Net-(C9-Pad1)")
      (node (ref U0) (pin 17))
      (node (ref C9) (pin 1))
      (node (ref Y1) (pin 1)))
    (net (code 7) (name A0)
      (node (ref U0) (pin 36))
      (node (ref J8) (pin 5)))
    (net (code 8) (name A1)
      (node (ref U0) (pin 37))
      (node (ref J8) (pin 6)))
    (net (code 9) (name A1_2)
      (node (ref U4) (pin 5))
      (node (ref J2) (pin 16)))
    (net (code 10) (name "Net-(U4-Pad9)")
      (node (ref U4) (pin 9)))
    (net (code 11) (name Fan_1)
      (node (ref U0) (pin 12))
      (node (ref Q1) (pin 1)))
    (net (code 12) (name V5)
      (node (ref C15) (pin 1))
      (node (ref J4) (pin 4))
      (node (ref R100) (pin 1))
      (node (ref C10) (pin 2))
      (node (ref U4) (pin 16))
      (node (ref C3) (pin 1))
      (node (ref Rd0) (pin 2))
      (node (ref U6) (pin 1))
      (node (ref C67) (pin 1))
      (node (ref C66) (pin 1))
      (node (ref U0) (pin 2))
      (node (ref U0) (pin 7))
      (node (ref J1) (pin 7))
      (node (ref J2) (pin 7))
      (node (ref J3) (pin 6))
      (node (ref C7) (pin 1))
      (node (ref U5) (pin 16))
      (node (ref C16) (pin 1))
      (node (ref J8) (pin 4))
      (node (ref U4) (pin 1))
      (node (ref U0) (pin 44))
      (node (ref R1) (pin 2))
      (node (ref U0) (pin 34))
      (node (ref U0) (pin 24))
      (node (ref C6) (pin 1))
      (node (ref U0) (pin 14)))
    (net (code 13) (name PWM_1)
      (node (ref J1) (pin 20))
      (node (ref U0) (pin 31)))
    (net (code 14) (name SPDT_1)
      (node (ref U2) (pin 1))
      (node (ref U0) (pin 32)))
    (net (code 15) (name PWM_3)
      (node (ref J8) (pin 1))
      (node (ref U0) (pin 27)))
    (net (code 16) (name "Net-(Rd2-Pad2)")
      (node (ref Rd2) (pin 2))
      (node (ref U0) (pin 41)))
    (net (code 17) (name CS1)
      (node (ref U0) (pin 40))
      (node (ref J4) (pin 1)))
    (net (code 18) (name CS2)
      (node (ref U0) (pin 39))
      (node (ref J4) (pin 2)))
    (net (code 19) (name "Net-(U1-Pad7)")
      (node (ref U1) (pin 7))
      (node (ref U2) (pin 4)))
    (net (code 20) (name "Net-(U1-Pad9)")
      (node (ref U1) (pin 9))
      (node (ref U2) (pin 9)))
    (net (code 21) (name SDA)
      (node (ref U12) (pin 9))
      (node (ref J1) (pin 15))
      (node (ref J5) (pin 6))
      (node (ref J5) (pin 5))
      (node (ref U0) (pin 19))
      (node (ref U5) (pin 15))
      (node (ref R7) (pin 2))
      (node (ref U4) (pin 15))
      (node (ref U11) (pin 9))
      (node (ref U1) (pin 3))
      (node (ref J2) (pin 15)))
    (net (code 22) (name SCL)
      (node (ref U0) (pin 18))
      (node (ref U5) (pin 14))
      (node (ref J2) (pin 13))
      (node (ref R6) (pin 2))
      (node (ref U12) (pin 10))
      (node (ref J5) (pin 8))
      (node (ref J5) (pin 7))
      (node (ref U11) (pin 10))
      (node (ref J1) (pin 13))
      (node (ref U4) (pin 14))
      (node (ref U1) (pin 2)))
    (net (code 23) (name DN_2)
      (node (ref J2) (pin 12))
      (node (ref U12) (pin 5)))
    (net (code 24) (name DP_2)
      (node (ref J2) (pin 11))
      (node (ref U12) (pin 4)))
    (net (code 25) (name En_V3)
      (node (ref U0) (pin 38))
      (node (ref U6) (pin 3)))
    (net (code 26) (name En_2)
      (node (ref U4) (pin 7))
      (node (ref J2) (pin 1)))
    (net (code 27) (name A0_2)
      (node (ref U4) (pin 4))
      (node (ref J2) (pin 14)))
    (net (code 28) (name A2_2)
      (node (ref U4) (pin 6))
      (node (ref J2) (pin 18)))
    (net (code 29) (name DN_1)
      (node (ref U11) (pin 5))
      (node (ref J1) (pin 12)))
    (net (code 30) (name SPDT_2)
      (node (ref U2) (pin 5))
      (node (ref U0) (pin 30)))
    (net (code 31) (name "Net-(Q11-Pad1)")
      (node (ref Q11) (pin 3))
      (node (ref Q11) (pin 1))
      (node (ref U11) (pin 2)))
    (net (code 32) (name "Net-(Q11-Pad2)")
      (node (ref Q11) (pin 2))
      (node (ref U11) (pin 3)))
    (net (code 33) (name "Net-(D11-Pad1)")
      (node (ref Rd11) (pin 1))
      (node (ref D11) (pin 1)))
    (net (code 34) (name "Net-(R11-Pad2)")
      (node (ref U11) (pin 7))
      (node (ref R11) (pin 2)))
    (net (code 35) (name "Net-(Q12-Pad1)")
      (node (ref Q12) (pin 1))
      (node (ref Q12) (pin 3))
      (node (ref U12) (pin 2)))
    (net (code 36) (name "Net-(Q12-Pad2)")
      (node (ref U12) (pin 3))
      (node (ref Q12) (pin 2)))
    (net (code 37) (name DP_1)
      (node (ref U11) (pin 4))
      (node (ref J1) (pin 11)))
    (net (code 38) (name Fan_2)
      (node (ref Q2) (pin 1))
      (node (ref U4) (pin 10)))
    (net (code 39) (name "Net-(J6-Pad5)")
      (node (ref Q1) (pin 3))
      (node (ref J6) (pin 5)))
    (net (code 40) (name "Net-(J6-Pad7)")
      (node (ref Q2) (pin 3))
      (node (ref J6) (pin 7)))
    (net (code 41) (name Trig1)
      (node (ref U0) (pin 21))
      (node (ref J3) (pin 2)))
    (net (code 42) (name Trig2)
      (node (ref J3) (pin 4))
      (node (ref U0) (pin 25)))
    (net (code 43) (name V3)
      (node (ref C19) (pin 2))
      (node (ref C11) (pin 1))
      (node (ref C12) (pin 1))
      (node (ref D12) (pin 2))
      (node (ref J2) (pin 17))
      (node (ref R11) (pin 1))
      (node (ref J1) (pin 17))
      (node (ref J5) (pin 4))
      (node (ref J5) (pin 3))
      (node (ref U2) (pin 8))
      (node (ref U1) (pin 1))
      (node (ref D11) (pin 2))
      (node (ref U7) (pin 8))
      (node (ref R7) (pin 1))
      (node (ref R6) (pin 1))
      (node (ref U6) (pin 5))
      (node (ref C8) (pin 1))
      (node (ref C1) (pin 2))
      (node (ref Rd1) (pin 2))
      (node (ref R12) (pin 1))
      (node (ref C2) (pin 2))
      (node (ref U11) (pin 1))
      (node (ref U12) (pin 1)))
    (net (code 44) (name "Net-(D4-Pad2)")
      (node (ref Rd4) (pin 1))
      (node (ref D4) (pin 2)))
    (net (code 45) (name V12)
      (node (ref U3) (pin 3))
      (node (ref C17) (pin 1))
      (node (ref J6) (pin 4))
      (node (ref J6) (pin 6))
      (node (ref J6) (pin 8))
      (node (ref C5) (pin 1)))
    (net (code 46) (name U+_2)
      (node (ref J2) (pin 2))
      (node (ref U7) (pin 4)))
    (net (code 47) (name U+)
      (node (ref U7) (pin 6))
      (node (ref J8) (pin 8)))
    (net (code 48) (name U+_1)
      (node (ref U7) (pin 7))
      (node (ref J1) (pin 2)))
    (net (code 49) (name U-_1)
      (node (ref U7) (pin 9))
      (node (ref J1) (pin 10)))
    (net (code 50) (name PVcc_1)
      (node (ref J2) (pin 5))
      (node (ref C18) (pin 1))
      (node (ref J1) (pin 5))
      (node (ref RV1) (pin 1))
      (node (ref Rd4) (pin 2))
      (node (ref U3) (pin 2)))
    (net (code 51) (name switch)
      (node (ref J8) (pin 3))
      (node (ref U7) (pin 1))
      (node (ref U0) (pin 26))
      (node (ref U7) (pin 5)))
    (net (code 52) (name /Adj)
      (node (ref U3) (pin 1))
      (node (ref RV1) (pin 2)))
    (net (code 53) (name /A4)
      (node (ref U5) (pin 9))
      (node (ref J3) (pin 7)))
    (net (code 54) (name /A5)
      (node (ref U5) (pin 10))
      (node (ref J3) (pin 5)))
    (net (code 55) (name /A6)
      (node (ref J3) (pin 3))
      (node (ref U5) (pin 11)))
    (net (code 56) (name /A7)
      (node (ref J3) (pin 1))
      (node (ref U5) (pin 12)))
    (net (code 57) (name "Net-(J1-Pad9)")
      (node (ref J1) (pin 9)))
    (net (code 58) (name "Net-(U1-Pad8)")
      (node (ref U1) (pin 8))
      (node (ref U2) (pin 7)))
    (net (code 59) (name "Net-(J2-Pad9)")
      (node (ref J2) (pin 9)))
    (net (code 60) (name U-)
      (node (ref U7) (pin 10))
      (node (ref J8) (pin 7)))
    (net (code 61) (name U-_2)
      (node (ref U7) (pin 2))
      (node (ref J2) (pin 10)))
    (net (code 62) (name Ud_2)
      (node (ref J2) (pin 8))
      (node (ref U2) (pin 6)))
    (net (code 63) (name "Net-(U0-Pad22)")
      (node (ref U0) (pin 22)))
    (net (code 64) (name "Net-(Rd3-Pad1)")
      (node (ref U0) (pin 28))
      (node (ref Rd3) (pin 1)))
    (net (code 65) (name "Net-(U0-Pad8)")
      (node (ref U0) (pin 8)))
    (net (code 66) (name SCK)
      (node (ref J4) (pin 5))
      (node (ref U0) (pin 9)))
    (net (code 67) (name MISO)
      (node (ref U0) (pin 11))
      (node (ref J4) (pin 3)))
    (net (code 68) (name MOSI)
      (node (ref J4) (pin 6))
      (node (ref U0) (pin 10)))
    (net (code 69) (name "Net-(D3-Pad2)")
      (node (ref Rd3) (pin 2))
      (node (ref D3) (pin 2)))
    (net (code 70) (name "Net-(C14-Pad2)")
      (node (ref C14) (pin 2))
      (node (ref U0) (pin 42)))
    (net (code 71) (name "Net-(U6-Pad4)")
      (node (ref U6) (pin 4)))
    (net (code 72) (name "Net-(D1-Pad2)")
      (node (ref D1) (pin 2))
      (node (ref Rd1) (pin 1)))
    (net (code 73) (name "Net-(R3-Pad1)")
      (node (ref R3) (pin 1))
      (node (ref U0) (pin 3)))
    (net (code 74) (name "Net-(J4-Pad7)")
      (node (ref R1) (pin 1))
      (node (ref J4) (pin 7))
      (node (ref U0) (pin 13)))
    (net (code 75) (name "Net-(J0-Pad1)")
      (node (ref R100) (pin 2))
      (node (ref J0) (pin 1)))
    (net (code 76) (name "Net-(J0-Pad4)")
      (node (ref J0) (pin 4)))
    (net (code 77) (name "Net-(R2-Pad1)")
      (node (ref R2) (pin 1))
      (node (ref U0) (pin 4)))
    (net (code 78) (name "Net-(J0-Pad3)")
      (node (ref R2) (pin 2))
      (node (ref J0) (pin 3)))
    (net (code 79) (name "Net-(J0-Pad2)")
      (node (ref R3) (pin 2))
      (node (ref J0) (pin 2)))
    (net (code 80) (name "Net-(C13-Pad1)")
      (node (ref C13) (pin 1))
      (node (ref U0) (pin 6)))
    (net (code 81) (name "Net-(D0-Pad2)")
      (node (ref Rd0) (pin 1))
      (node (ref D0) (pin 2)))
    (net (code 82) (name "Net-(D12-Pad1)")
      (node (ref Rd12) (pin 1))
      (node (ref D12) (pin 1)))
    (net (code 83) (name "Net-(Rd12-Pad2)")
      (node (ref U12) (pin 8))
      (node (ref Rd12) (pin 2)))
    (net (code 84) (name LDAC)
      (node (ref U0) (pin 1))
      (node (ref U1) (pin 4)))
    (net (code 85) (name "Net-(R12-Pad2)")
      (node (ref U12) (pin 7))
      (node (ref R12) (pin 2)))
    (net (code 86) (name Ud_1)
      (node (ref U2) (pin 10))
      (node (ref J1) (pin 8)))
    (net (code 87) (name En_1)
      (node (ref J1) (pin 1))
      (node (ref U5) (pin 7)))
    (net (code 88) (name "Net-(U1-Pad6)")
      (node (ref U1) (pin 6))
      (node (ref U2) (pin 2)))
    (net (code 89) (name A2_1)
      (node (ref U5) (pin 6))
      (node (ref J1) (pin 18)))
    (net (code 90) (name A1_1)
      (node (ref J1) (pin 16))
      (node (ref U5) (pin 5)))
    (net (code 91) (name "Net-(U1-Pad5)")
      (node (ref U1) (pin 5)))
    (net (code 92) (name Int)
      (node (ref U0) (pin 20))
      (node (ref U5) (pin 13)))
    (net (code 93) (name A0_1)
      (node (ref J1) (pin 14))
      (node (ref U5) (pin 4)))
    (net (code 94) (name "Net-(Rd11-Pad2)")
      (node (ref Rd11) (pin 2))
      (node (ref U11) (pin 8)))
    (net (code 95) (name PWM_2)
      (node (ref J2) (pin 20))
      (node (ref U0) (pin 29)))
    (net (code 96) (name "Net-(R5-Pad2)")
      (node (ref R5) (pin 2))
      (node (ref U0) (pin 33)))
    (net (code 97) (name "Net-(D2-Pad2)")
      (node (ref D2) (pin 2))
      (node (ref Rd2) (pin 1)))))