(module LOGO (layer F.Cu)
  (at 0 0)
 (fp_text reference "G***" (at 0 0) (layer F.SilkS) hide
  (effects (font (thickness 0.3)))
  )
  (fp_text value "LOGO" (at 0.75 0) (layer F.SilkS) hide
  (effects (font (thickness 0.3)))
  )
  (fp_poly (pts (xy 0.076709 -2.311070) (xy 0.145144 -2.310553) (xy 0.206566 -2.309759) (xy 0.259081 -2.308727) (xy 0.300797 -2.307496) (xy 0.329822 -2.306105) (xy 0.344263 -2.304593) (xy 0.345351 -2.304214)
     (xy 0.349646 -2.294214) (xy 0.356538 -2.268687) (xy 0.365778 -2.228798) (xy 0.377115 -2.175711) (xy 0.390298 -2.110592) (xy 0.405079 -2.034605) (xy 0.418169 -1.965250) (xy 0.431919 -1.892331)
     (xy 0.445002 -1.824558) (xy 0.457042 -1.763752) (xy 0.467665 -1.711737) (xy 0.476497 -1.670335) (xy 0.483162 -1.641371) (xy 0.487288 -1.626666) (xy 0.488003 -1.625277) (xy 0.498414 -1.619381)
     (xy 0.521919 -1.608473) (xy 0.556128 -1.593518) (xy 0.598650 -1.575482) (xy 0.647097 -1.555333) (xy 0.699077 -1.534035) (xy 0.752201 -1.512557) (xy 0.804079 -1.491863) (xy 0.852320 -1.472920)
     (xy 0.894535 -1.456695) (xy 0.928333 -1.444153) (xy 0.951324 -1.436262) (xy 0.961119 -1.433987) (xy 0.961131 -1.433992) (xy 0.969980 -1.439444) (xy 0.991207 -1.453452) (xy 1.023248 -1.474958)
     (xy 1.064541 -1.502904) (xy 1.113524 -1.536232) (xy 1.168635 -1.573884) (xy 1.228311 -1.614801) (xy 1.242761 -1.624730) (xy 1.303476 -1.666205) (xy 1.360248 -1.704489) (xy 1.411477 -1.738542)
     (xy 1.455566 -1.767322) (xy 1.490916 -1.789789) (xy 1.515927 -1.804902) (xy 1.529003 -1.811619) (xy 1.530144 -1.811867) (xy 1.539680 -1.806014) (xy 1.559337 -1.789512) (xy 1.587533 -1.763947)
     (xy 1.622682 -1.730903) (xy 1.663200 -1.691966) (xy 1.707501 -1.648722) (xy 1.754001 -1.602755) (xy 1.801115 -1.555651) (xy 1.847259 -1.508995) (xy 1.890848 -1.464372) (xy 1.930297 -1.423369)
     (xy 1.964021 -1.387569) (xy 1.990436 -1.358559) (xy 2.007957 -1.337923) (xy 2.014999 -1.327248) (xy 2.015067 -1.326769) (xy 2.010406 -1.316570) (xy 1.997133 -1.294116) (xy 1.976315 -1.261046)
     (xy 1.949017 -1.219002) (xy 1.916305 -1.169623) (xy 1.879245 -1.114551) (xy 1.838903 -1.055425) (xy 1.836315 -1.051658) (xy 1.795490 -0.992123) (xy 1.757500 -0.936434) (xy 1.723467 -0.886260)
     (xy 1.694515 -0.843269) (xy 1.671767 -0.809130) (xy 1.656346 -0.785512) (xy 1.649377 -0.774083) (xy 1.649281 -0.773883) (xy 1.647974 -0.766014) (xy 1.649854 -0.752948) (xy 1.655499 -0.733094)
     (xy 1.665488 -0.704860) (xy 1.680402 -0.666655) (xy 1.700819 -0.616888) (xy 1.727318 -0.553967) (xy 1.741249 -0.521247) (xy 1.768364 -0.458579) (xy 1.793353 -0.402483) (xy 1.815385 -0.354719)
     (xy 1.833626 -0.317047) (xy 1.847244 -0.291224) (xy 1.855406 -0.279012) (xy 1.856184 -0.278420) (xy 1.867601 -0.275119) (xy 1.893747 -0.269163) (xy 1.932694 -0.260942) (xy 1.982514 -0.250847)
     (xy 2.041279 -0.239267) (xy 2.107060 -0.226593) (xy 2.177930 -0.213214) (xy 2.185683 -0.211766) (xy 2.266910 -0.196365) (xy 2.338422 -0.182297) (xy 2.398985 -0.169829) (xy 2.447365 -0.159228)
     (xy 2.482328 -0.150760) (xy 2.502642 -0.144693) (xy 2.507419 -0.142143) (xy 2.508953 -0.131506) (xy 2.510376 -0.105828) (xy 2.511648 -0.067003) (xy 2.512731 -0.016921) (xy 2.513586 0.042523)
     (xy 2.514173 0.109439) (xy 2.514453 0.181932) (xy 2.514470 0.200046) (xy 2.514416 0.285913) (xy 2.514144 0.356335) (xy 2.513605 0.412800) (xy 2.512745 0.456795) (xy 2.511514 0.489808)
     (xy 2.509860 0.513327) (xy 2.507732 0.528839) (xy 2.505078 0.537832) (xy 2.502659 0.541236) (xy 2.491826 0.544999) (xy 2.466272 0.551333) (xy 2.427942 0.559830) (xy 2.378786 0.570084)
     (xy 2.320751 0.581689) (xy 2.255785 0.594238) (xy 2.187276 0.607060) (xy 2.110351 0.621496) (xy 2.041331 0.634969) (xy 1.981771 0.647143) (xy 1.933228 0.657686) (xy 1.897258 0.666264)
     (xy 1.875416 0.672542) (xy 1.869544 0.675222) (xy 1.862841 0.685976) (xy 1.851190 0.709979) (xy 1.835524 0.744915) (xy 1.816772 0.788471) (xy 1.795865 0.838334) (xy 1.773734 0.892189)
     (xy 1.751309 0.947725) (xy 1.729521 1.002626) (xy 1.709300 1.054580) (xy 1.691577 1.101272) (xy 1.677282 1.140390) (xy 1.667347 1.169619) (xy 1.662701 1.186646) (xy 1.662594 1.189737)
     (xy 1.668169 1.198931) (xy 1.682247 1.220437) (xy 1.703728 1.252623) (xy 1.731511 1.293854) (xy 1.764495 1.342498) (xy 1.801580 1.396920) (xy 1.840853 1.454304) (xy 1.880812 1.512995)
     (xy 1.917544 1.567770) (xy 1.949971 1.616958) (xy 1.977015 1.658886) (xy 1.997597 1.691884) (xy 2.010639 1.714281) (xy 2.015067 1.724314) (xy 2.009229 1.733763) (xy 1.992771 1.753362)
     (xy 1.967273 1.781525) (xy 1.934317 1.816663) (xy 1.895485 1.857191) (xy 1.852357 1.901520) (xy 1.806514 1.948065) (xy 1.759539 1.995237) (xy 1.713013 2.041451) (xy 1.668516 2.085119)
     (xy 1.627630 2.124654) (xy 1.591937 2.158468) (xy 1.563017 2.184976) (xy 1.542452 2.202590) (xy 1.531824 2.209723) (xy 1.531321 2.209800) (xy 1.521529 2.205148) (xy 1.499483 2.191914)
     (xy 1.466838 2.171175) (xy 1.425245 2.144011) (xy 1.376358 2.111501) (xy 1.321830 2.074725) (xy 1.265458 2.036233) (xy 1.206987 1.996346) (xy 1.152490 1.959689) (xy 1.103632 1.927342)
     (xy 1.062079 1.900387) (xy 1.029495 1.879903) (xy 1.007545 1.866972) (xy 0.998021 1.862667) (xy 0.985644 1.866534) (xy 0.961491 1.877176) (xy 0.928595 1.893151) (xy 0.889986 1.913018)
     (xy 0.872250 1.922470) (xy 0.829667 1.944579) (xy 0.792523 1.962292) (xy 0.763620 1.974370) (xy 0.745761 1.979574) (xy 0.743039 1.979620) (xy 0.738726 1.977295) (xy 0.733125 1.970754)
     (xy 0.725778 1.958968) (xy 0.716230 1.940912) (xy 0.704024 1.915557) (xy 0.688701 1.881876) (xy 0.669807 1.838842) (xy 0.646883 1.785429) (xy 0.619473 1.720608) (xy 0.587120 1.643353)
     (xy 0.549368 1.552637) (xy 0.505758 1.447433) (xy 0.498101 1.428932) (xy 0.460429 1.337547) (xy 0.424853 1.250571) (xy 0.391881 1.169292) (xy 0.362023 1.094997) (xy 0.335788 1.028977)
     (xy 0.313687 0.972517) (xy 0.296228 0.926906) (xy 0.283920 0.893433) (xy 0.277274 0.873386) (xy 0.276268 0.868016) (xy 0.284915 0.858162) (xy 0.304539 0.841379) (xy 0.332057 0.820171)
     (xy 0.358622 0.801049) (xy 0.428880 0.749285) (xy 0.486255 0.700385) (xy 0.533672 0.651138) (xy 0.574054 0.598329) (xy 0.610325 0.538745) (xy 0.628106 0.504864) (xy 0.667927 0.407481)
     (xy 0.691794 0.306931) (xy 0.699966 0.204922) (xy 0.692705 0.103164) (xy 0.670272 0.003366) (xy 0.632927 -0.092763) (xy 0.580932 -0.183515) (xy 0.514546 -0.267179) (xy 0.509441 -0.272647)
     (xy 0.430030 -0.345277) (xy 0.341347 -0.404297) (xy 0.242257 -0.450408) (xy 0.194435 -0.466988) (xy 0.166556 -0.475042) (xy 0.140276 -0.480613) (xy 0.111424 -0.484135) (xy 0.075830 -0.486044)
     (xy 0.029323 -0.486774) (xy 0.004233 -0.486833) (xy -0.048474 -0.486483) (xy -0.088440 -0.485140) (xy -0.119845 -0.482370) (xy -0.146872 -0.477737) (xy -0.173703 -0.470806) (xy -0.186267 -0.466996)
     (xy -0.289590 -0.426324) (xy -0.383398 -0.372183) (xy -0.466717 -0.305394) (xy -0.538575 -0.226777) (xy -0.597998 -0.137154) (xy -0.614452 -0.105833) (xy -0.648739 -0.027738) (xy -0.671276 0.046211)
     (xy -0.683567 0.122406) (xy -0.687121 0.203200) (xy -0.679023 0.311649) (xy -0.655013 0.415109) (xy -0.615520 0.512517) (xy -0.560973 0.602813) (xy -0.493407 0.683292) (xy -0.463099 0.711618)
     (xy -0.423729 0.744653) (xy -0.380419 0.778421) (xy -0.338294 0.808947) (xy -0.302476 0.832257) (xy -0.298102 0.834806) (xy -0.278613 0.849642) (xy -0.266880 0.865440) (xy -0.266125 0.867748)
     (xy -0.268546 0.878870) (xy -0.277265 0.904722) (xy -0.291946 0.944452) (xy -0.312254 0.997211) (xy -0.337854 1.062145) (xy -0.368411 1.138406) (xy -0.403590 1.225142) (xy -0.443055 1.321502)
     (xy -0.482120 1.416132) (xy -0.519500 1.506302) (xy -0.555143 1.592144) (xy -0.588495 1.672332) (xy -0.619001 1.745542) (xy -0.646109 1.810448) (xy -0.669263 1.865723) (xy -0.687910 1.910043)
     (xy -0.701497 1.942083) (xy -0.709468 1.960516) (xy -0.711244 1.964349) (xy -0.724966 1.977861) (xy -0.736315 1.981200) (xy -0.749169 1.977324) (xy -0.773758 1.966659) (xy -0.807017 1.950646)
     (xy -0.845882 1.930728) (xy -0.863929 1.921121) (xy -0.913610 1.895320) (xy -0.952806 1.876983) (xy -0.980207 1.866679) (xy -0.993629 1.864729) (xy -1.005533 1.870449) (xy -1.029103 1.884500)
     (xy -1.062152 1.905477) (xy -1.102490 1.931974) (xy -1.147931 1.962586) (xy -1.176867 1.982435) (xy -1.255062 2.036371) (xy -1.320529 2.081359) (xy -1.374413 2.118154) (xy -1.417865 2.147510)
     (xy -1.452031 2.170182) (xy -1.478061 2.186926) (xy -1.497102 2.198496) (xy -1.510302 2.205647) (xy -1.518809 2.209134) (xy -1.522687 2.209800) (xy -1.531465 2.203999) (xy -1.550774 2.187463)
     (xy -1.579233 2.161495) (xy -1.615464 2.127396) (xy -1.658086 2.086467) (xy -1.705720 2.040011) (xy -1.756984 1.989329) (xy -1.767115 1.979236) (xy -1.818773 1.927450) (xy -1.866649 1.878971)
     (xy -1.909405 1.835187) (xy -1.945705 1.797491) (xy -1.974212 1.767272) (xy -1.993588 1.745920) (xy -2.002498 1.734827) (xy -2.002889 1.734022) (xy -2.004388 1.729060) (xy -2.004912 1.723989)
     (xy -2.003608 1.717434) (xy -1.999623 1.708021) (xy -1.992105 1.694375) (xy -1.980200 1.675121) (xy -1.963058 1.648885) (xy -1.939824 1.614292) (xy -1.909647 1.569967) (xy -1.871673 1.514535)
     (xy -1.825051 1.446623) (xy -1.820807 1.440443) (xy -1.781397 1.382709) (xy -1.745224 1.329064) (xy -1.713377 1.281177) (xy -1.686947 1.240714) (xy -1.667024 1.209343) (xy -1.654698 1.188730)
     (xy -1.651000 1.180783) (xy -1.654048 1.170118) (xy -1.662683 1.145760) (xy -1.676142 1.109711) (xy -1.693662 1.063975) (xy -1.714480 1.010556) (xy -1.737832 0.951457) (xy -1.749509 0.922179)
     (xy -1.779071 0.848857) (xy -1.803324 0.790085) (xy -1.822873 0.744545) (xy -1.838323 0.710920) (xy -1.850278 0.687891) (xy -1.859342 0.674142) (xy -1.865926 0.668432) (xy -1.878191 0.665202)
     (xy -1.905106 0.659349) (xy -1.944662 0.651271) (xy -1.994847 0.641366) (xy -2.053651 0.630030) (xy -2.119062 0.617662) (xy -2.183465 0.605690) (xy -2.252865 0.592694) (xy -2.317217 0.580258)
     (xy -2.374565 0.568789) (xy -2.422950 0.558696) (xy -2.460415 0.550387) (xy -2.485002 0.544268) (xy -2.494615 0.540886) (xy -2.497611 0.535601) (xy -2.500064 0.524235) (xy -2.502024 0.505352)
     (xy -2.503538 0.477515) (xy -2.504655 0.439286) (xy -2.505423 0.389227) (xy -2.505890 0.325902) (xy -2.506105 0.247873) (xy -2.506133 0.198125) (xy -2.506133 -0.135076) (xy -2.487083 -0.146829)
     (xy -2.474604 -0.150999) (xy -2.447439 -0.157713) (xy -2.407574 -0.166556) (xy -2.356996 -0.177113) (xy -2.297693 -0.188971) (xy -2.231651 -0.201714) (xy -2.160857 -0.214929) (xy -2.159000 -0.215269)
     (xy -2.088540 -0.228416) (xy -2.023153 -0.241043) (xy -1.964758 -0.252746) (xy -1.915273 -0.263123) (xy -1.876616 -0.271772) (xy -1.850706 -0.278289) (xy -1.839461 -0.282271) (xy -1.839325 -0.282389)
     (xy -1.833183 -0.292831) (xy -1.821630 -0.316489) (xy -1.805704 -0.350952) (xy -1.786443 -0.393812) (xy -1.764882 -0.442656) (xy -1.742060 -0.495077) (xy -1.719014 -0.548663) (xy -1.696781 -0.601004)
     (xy -1.676397 -0.649691) (xy -1.658900 -0.692314) (xy -1.645328 -0.726461) (xy -1.636717 -0.749725) (xy -1.634067 -0.759343) (xy -1.638721 -0.769041) (xy -1.651982 -0.791046) (xy -1.672800 -0.823751)
     (xy -1.700126 -0.865555) (xy -1.732910 -0.914852) (xy -1.770100 -0.970039) (xy -1.810648 -1.029511) (xy -1.817096 -1.038908) (xy -1.858253 -1.099103) (xy -1.896408 -1.155416) (xy -1.930477 -1.206210)
     (xy -1.959380 -1.249852) (xy -1.982035 -1.284707) (xy -1.997361 -1.309140) (xy -2.004276 -1.321516) (xy -2.004511 -1.322192) (xy -2.003243 -1.329034) (xy -1.996309 -1.340553) (xy -1.982804 -1.357741)
     (xy -1.961824 -1.381585) (xy -1.932465 -1.413076) (xy -1.893820 -1.453203) (xy -1.844986 -1.502956) (xy -1.785059 -1.563324) (xy -1.773001 -1.575417) (xy -1.712970 -1.635185) (xy -1.659406 -1.687702)
     (xy -1.613219 -1.732114) (xy -1.575323 -1.767564) (xy -1.546627 -1.793197) (xy -1.528043 -1.808157) (xy -1.521124 -1.811867) (xy -1.510733 -1.807212) (xy -1.488072 -1.793954) (xy -1.454777 -1.773149)
     (xy -1.412485 -1.745855) (xy -1.362833 -1.713129) (xy -1.307456 -1.676030) (xy -1.247991 -1.635614) (xy -1.241523 -1.631184) (xy -1.181499 -1.590119) (xy -1.125296 -1.551809) (xy -1.074578 -1.517378)
     (xy -1.031008 -1.487950) (xy -0.996252 -1.464648) (xy -0.971974 -1.448598) (xy -0.959839 -1.440922) (xy -0.959413 -1.440688) (xy -0.951991 -1.438431) (xy -0.941101 -1.438759) (xy -0.924901 -1.442281)
     (xy -0.901553 -1.449609) (xy -0.869214 -1.461354) (xy -0.826045 -1.478127) (xy -0.770205 -1.500537) (xy -0.730813 -1.516552) (xy -0.661056 -1.545031) (xy -0.605353 -1.567928) (xy -0.562066 -1.586030)
     (xy -0.529560 -1.600123) (xy -0.506197 -1.610995) (xy -0.490341 -1.619433) (xy -0.480357 -1.626223) (xy -0.474606 -1.632153) (xy -0.471453 -1.638010) (xy -0.470091 -1.641932) (xy -0.467400 -1.653773)
     (xy -0.462011 -1.680324) (xy -0.454299 -1.719642) (xy -0.444639 -1.769785) (xy -0.433403 -1.828810) (xy -0.420966 -1.894775) (xy -0.407702 -1.965736) (xy -0.406341 -1.973052) (xy -0.392913 -2.044198)
     (xy -0.380053 -2.110335) (xy -0.368160 -2.169556) (xy -0.357633 -2.219953) (xy -0.348873 -2.259620) (xy -0.342278 -2.286646) (xy -0.338249 -2.299126) (xy -0.337980 -2.299528) (xy -0.332930 -2.302605)
     (xy -0.322395 -2.305119) (xy -0.304894 -2.307122) (xy -0.278945 -2.308664) (xy -0.243067 -2.309797) (xy -0.195780 -2.310572) (xy -0.135601 -2.311039) (xy -0.061050 -2.311249) (xy 0.003153 -2.311271)
     (xy 0.076709 -2.311070) )(layer F.SilkS) (width  0.010000)
  )
)
