EESchema Schematic File Version 4
LIBS:ThC_IMS-cache
EELAYER 26 0
EELAYER END
$Descr A4 11693 8268
encoding utf-8
Sheet 1 1
Title ""
Date ""
Rev ""
Comp ""
Comment1 ""
Comment2 ""
Comment3 ""
Comment4 ""
$EndDescr
$Comp
L I2C_Connector U?
U 1 1 59523514
P 5345 1425
F 0 "U?" H 5345 1375 60  0000 C CNN
F 1 "I2C_Connector" H 5045 1625 60  0000 C CNN
F 2 "Mej_Footprint:I2C_4pin" H 5345 1425 60  0001 C CNN
F 3 "" H 5345 1425 60  0001 C CNN
	1    5345 1425
	1    0    0    -1  
$EndComp
$Comp
L MAX1968 U?
U 1 1 59524177
P 3700 3900
F 0 "U?" H 4100 3100 50  0000 C CNN
F 1 "MAX1968" H 3700 4700 50  0000 C CNB
F 2 "Mej_Footprint:TSSOP-28-PWP" H 3400 3150 50  0001 C CNN
F 3 "DOCUMENTATION" H 3550 3100 50  0001 C CNN
	1    3700 3900
	1    0    0    -1  
$EndComp
Text GLabel 4950 3700 2    60   Input ~ 0
PGND
$Comp
L C C?
U 1 1 59524D8D
P 4850 4200
F 0 "C?" H 4875 4300 50  0000 L CNN
F 1 "1uF" H 4875 4100 50  0000 L CNN
F 2 "Mej_Footprint:0603" H 4888 4050 50  0001 C CNN
F 3 "" H 4850 4200 50  0001 C CNN
	1    4850 4200
	0    1    1    0   
$EndComp
$Comp
L C C?
U 1 1 59524EE0
P 2500 4200
F 0 "C?" H 2525 4300 50  0000 L CNN
F 1 "1uF" H 2525 4100 50  0000 L CNN
F 2 "Mej_Footprint:0603" H 2538 4050 50  0001 C CNN
F 3 "" H 2500 4200 50  0001 C CNN
	1    2500 4200
	0    1    1    0   
$EndComp
Text GLabel 5150 4200 2    60   Input ~ 0
PGND
Text GLabel 2200 4200 0    60   Input ~ 0
PGND
Wire Wire Line
	2950 4050 2800 4050
Wire Wire Line
	2800 4050 2800 4200
Wire Wire Line
	2800 4250 2950 4250
Wire Wire Line
	4450 4050 4600 4050
Wire Wire Line
	4600 4250 4450 4250
Wire Wire Line
	2650 4200 2800 4200
Connection ~ 4600 4200
Connection ~ 2800 4200
Wire Wire Line
	2900 4150 2950 4150
Wire Wire Line
	2900 3750 2900 3950
Wire Wire Line
	2800 3950 2900 3950
Wire Wire Line
	4450 3950 4500 3950
Wire Wire Line
	4500 3750 4500 3950
Wire Wire Line
	4500 4150 4450 4150
Wire Wire Line
	4450 3750 4500 3750
Connection ~ 4500 3950
Wire Wire Line
	2950 3750 2900 3750
Connection ~ 2900 3950
Wire Wire Line
	2800 3850 2950 3850
Wire Wire Line
	2800 3650 2800 3700
Wire Wire Line
	2800 3650 2950 3650
Wire Wire Line
	4450 3650 4600 3650
Wire Wire Line
	4600 3650 4600 3700
Wire Wire Line
	4600 3850 4450 3850
Wire Wire Line
	2800 3700 4600 3700
Connection ~ 4600 3700
Connection ~ 2800 3700
Wire Wire Line
	1700 2100 3250 2100
$Comp
L L L?
U 1 1 59525520
P 4750 3950
F 0 "L?" V 4700 3950 50  0000 C CNN
F 1 "3.3uH" V 4825 3950 50  0000 C CNN
F 2 "Mej_Footprint:0603" H 4750 3950 50  0001 C CNN
F 3 "" H 4750 3950 50  0001 C CNN
	1    4750 3950
	0    1    1    0   
$EndComp
$Comp
L L L?
U 1 1 59525789
P 2650 3950
F 0 "L?" V 2600 3950 50  0000 C CNN
F 1 "3.3uH" V 2725 3950 50  0000 C CNN
F 2 "Mej_Footprint:0603" H 2650 3950 50  0001 C CNN
F 3 "" H 2650 3950 50  0001 C CNN
	1    2650 3950
	0    1    1    0   
$EndComp
$Comp
L C C?
U 1 1 59525C4A
P 2300 4050
F 0 "C?" H 2325 4150 50  0000 L CNN
F 1 "1uF" H 2050 4050 50  0000 L CNN
F 2 "Mej_Footprint:0603" H 2338 3900 50  0001 C CNN
F 3 "" H 2300 4050 50  0001 C CNN
	1    2300 4050
	1    0    0    -1  
$EndComp
Wire Wire Line
	1850 3900 2300 3900
Wire Wire Line
	2500 3900 2500 3950
$Comp
L C C?
U 1 1 59525EC7
P 5050 4050
F 0 "C?" H 5075 4150 50  0000 L CNN
F 1 "1uF" H 5150 4050 50  0000 L CNN
F 2 "Mej_Footprint:0603" H 5088 3900 50  0001 C CNN
F 3 "" H 5050 4050 50  0001 C CNN
	1    5050 4050
	1    0    0    -1  
$EndComp
Wire Wire Line
	4900 3950 4950 3950
Wire Wire Line
	4950 3950 4950 3900
Wire Wire Line
	4950 3900 5050 3900
Wire Wire Line
	1850 3900 1850 4550
Wire Wire Line
	1850 4550 2950 4550
Connection ~ 2300 3900
Wire Wire Line
	5650 3900 5650 4600
Connection ~ 5050 3900
Text GLabel 2400 3350 0    60   Input ~ 0
GND
Wire Wire Line
	2400 3350 2650 3350
$Comp
L C C?
U 1 1 59526427
P 4700 3550
F 0 "C?" H 4725 3650 50  0000 L CNN
F 1 "0.01uF" V 4650 3250 50  0000 L CNN
F 2 "Mej_Footprint:0603" H 4738 3400 50  0001 C CNN
F 3 "" H 4700 3550 50  0001 C CNN
	1    4700 3550
	0    1    1    0   
$EndComp
Text GLabel 4950 3550 2    60   Input ~ 0
GND
Wire Wire Line
	4450 3550 4550 3550
Wire Wire Line
	4850 3550 4950 3550
Text GLabel 2700 4450 0    60   Input ~ 0
GND
Wire Wire Line
	2700 4450 2950 4350
Text GLabel 5150 4350 2    60   Input ~ 0
Enable
Wire Wire Line
	4450 4350 5150 4350
Text GLabel 2950 2200 0    60   Input ~ 0
GND
Text GLabel 2950 2500 0    60   Input ~ 0
VDD
Text GLabel 4350 2350 2    60   Input ~ 0
SDA
Text GLabel 4350 2200 2    60   Input ~ 0
SCL
Wire Wire Line
	4200 2200 4350 2200
Wire Wire Line
	4200 2300 4300 2300
Wire Wire Line
	4300 2300 4300 2350
Wire Wire Line
	4300 2350 4350 2350
Text GLabel 6900 2150 2    60   Input ~ 0
SDA
Text GLabel 6900 2350 2    60   Input ~ 0
SCL
Wire Wire Line
	6800 2150 6900 2150
Wire Wire Line
	6800 2350 6900 2350
Text GLabel 5045 1775 3    60   Input ~ 0
SDA
Text GLabel 5195 1775 3    60   Input ~ 0
SCL
Wire Wire Line
	5045 1675 5045 1775
Wire Wire Line
	5195 1675 5195 1775
Text GLabel 7765 2470 0    60   Input ~ 0
GND
Text GLabel 5500 2450 0    60   Input ~ 0
GND
Text GLabel 5500 2150 0    60   Input ~ 0
VDD
Wire Wire Line
	7865 2470 7765 2470
Wire Wire Line
	5500 2150 5600 2150
Text GLabel 4745 1775 3    60   Input ~ 0
GND
Text GLabel 4895 1775 3    60   Input ~ 0
VDD
Wire Wire Line
	4745 1675 4745 1775
Wire Wire Line
	4895 1675 4895 1775
Text GLabel 7715 2120 0    60   Input ~ 0
Enable
Wire Wire Line
	4200 2100 4650 2100
Wire Wire Line
	4650 2100 4650 2500
Wire Wire Line
	4650 2500 3250 2500
Connection ~ 4600 4250
Wire Wire Line
	4600 4050 4600 4200
Text GLabel 5150 4500 2    60   Input ~ 0
PVDD
Wire Wire Line
	4600 4500 5150 4500
Wire Wire Line
	4450 4450 4550 4450
Wire Wire Line
	4550 4450 4550 4600
Wire Wire Line
	4550 4600 5650 4600
Text GLabel 2400 3000 0    60   Input ~ 0
PVDD
Wire Wire Line
	2900 3000 2900 3250
Wire Wire Line
	2900 3250 2950 3250
$Comp
L R Rsense?
U 1 1 5952ACB2
P 4800 4950
F 0 "Rsense?" V 4880 4950 50  0000 C CNN
F 1 "50m" V 4800 4950 50  0000 C CNN
F 2 "Mej_Footprint:0603" V 4730 4950 50  0001 C CNN
F 3 "" H 4800 4950 50  0001 C CNN
	1    4800 4950
	0    -1   -1   0   
$EndComp
Wire Wire Line
	4450 4550 4450 4950
Wire Wire Line
	4450 4950 4650 4950
Wire Wire Line
	5650 4950 4950 4950
Connection ~ 5650 4600
Wire Wire Line
	1850 4800 4100 4800
Connection ~ 1850 4550
$Comp
L C C?
U 1 1 5952AFBD
P 5400 4800
F 0 "C?" H 5425 4900 50  0000 L CNN
F 1 "10uF" V 5350 4550 50  0000 L CNN
F 2 "Mej_Footprint:0603" H 5438 4650 50  0001 C CNN
F 3 "" H 5400 4800 50  0001 C CNN
	1    5400 4800
	0    1    1    0   
$EndComp
Wire Wire Line
	5550 4800 5650 4800
Connection ~ 5650 4800
Connection ~ 4450 4950
Wire Wire Line
	4100 4800 4100 5400
Connection ~ 4100 4800
Text GLabel 2400 3650 0    60   Input ~ 0
MAX_REF
Text GLabel 4950 3350 2    60   Input ~ 0
MAX_REF
Wire Wire Line
	4850 3450 4450 3450
$Comp
L C C?
U 1 1 5952C137
P 2650 3150
F 0 "C?" H 2675 3250 50  0000 L CNN
F 1 "1uF" H 2500 3050 50  0000 L CNN
F 2 "Mej_Footprint:0603" H 2688 3000 50  0001 C CNN
F 3 "" H 2650 3150 50  0001 C CNN
	1    2650 3150
	1    0    0    -1  
$EndComp
Wire Wire Line
	2400 3000 2650 3000
Connection ~ 2650 3000
Wire Wire Line
	2650 3300 2650 3350
Connection ~ 2650 3350
$Comp
L C C?
U 1 1 5952C782
P 2650 3500
F 0 "C?" H 2675 3600 50  0000 L CNN
F 1 "1uF" H 2500 3400 50  0000 L CNN
F 2 "Mej_Footprint:0603" H 2688 3350 50  0001 C CNN
F 3 "" H 2650 3500 50  0001 C CNN
	1    2650 3500
	1    0    0    -1  
$EndComp
Wire Wire Line
	2950 3550 2750 3550
Wire Wire Line
	2750 3550 2750 3650
Wire Wire Line
	2750 3650 2650 3650
Connection ~ 2650 3650
$Comp
L R Ra?
U 1 1 5952D0F6
P 4650 3250
F 0 "Ra?" V 4550 3250 50  0000 C CNN
F 1 "50k" V 4650 3250 50  0000 C CNN
F 2 "Mej_Footprint:0603" V 4580 3250 50  0001 C CNN
F 3 "" H 4650 3250 50  0001 C CNN
	1    4650 3250
	0    1    1    0   
$EndComp
$Comp
L R Ra?
U 1 1 5952D189
P 4650 3050
F 0 "Ra?" V 4550 3050 50  0000 C CNN
F 1 "100k" V 4650 3050 50  0000 C CNN
F 2 "Mej_Footprint:0603" V 4580 3050 50  0001 C CNN
F 3 "" H 4650 3050 50  0001 C CNN
	1    4650 3050
	0    1    1    0   
$EndComp
Wire Wire Line
	4450 3250 4450 3050
Wire Wire Line
	4450 3050 4500 3050
Wire Wire Line
	4500 3250 4450 3250
Wire Wire Line
	4450 3350 4850 3350
Wire Wire Line
	4800 3250 4850 3250
Wire Wire Line
	4850 3250 4850 3350
Connection ~ 4850 3350
Text GLabel 4950 3050 2    60   Input ~ 0
GND
Wire Wire Line
	4800 3050 4950 3050
NoConn ~ 5850 2350
Text GLabel 7715 2320 0    60   Input ~ 0
Fan
$Comp
L ThC_2x7 U?
U 1 1 5952F6BB
P 7400 3450
F 0 "U?" H 7400 3450 50  0000 C CNN
F 1 "ThC_2x7" H 7400 3850 50  0000 C CNB
F 2 "Mej_Footprint:ThC_2x7" H 7100 3000 50  0001 C CNN
F 3 "DOCUMENTATION" H 7250 3050 50  0001 C CNN
	1    7400 3450
	1    0    0    -1  
$EndComp
Text GLabel 6450 3150 0    60   Input ~ 0
GND
Text GLabel 6450 3300 0    60   Input ~ 0
VDD
Wire Wire Line
	6450 3150 6550 3150
Wire Wire Line
	6650 3300 6450 3300
Wire Wire Line
	6650 3450 6550 3450
Wire Wire Line
	6550 3150 6550 3450
Connection ~ 6550 3150
Wire Wire Line
	6550 3750 6650 3750
Connection ~ 6550 3450
Text GLabel 8300 3150 2    60   Input ~ 0
SDA
Text GLabel 8300 3300 2    60   Input ~ 0
SCL
Wire Wire Line
	8150 3150 8300 3150
Wire Wire Line
	8150 3300 8300 3300
Text GLabel 8300 3450 2    60   Input ~ 0
GND
Wire Wire Line
	8150 3450 8250 3450
Wire Wire Line
	8150 3750 8250 3750
Wire Wire Line
	8250 3450 8250 3750
Connection ~ 8250 3450
Wire Wire Line
	8250 3900 8150 3900
Connection ~ 8250 3750
Text GLabel 8300 3600 2    60   Input ~ 0
PGND
Wire Wire Line
	8150 3600 8300 3600
Text GLabel 6450 3600 0    60   Input ~ 0
PVDD
Wire Wire Line
	6650 3600 6450 3600
Wire Wire Line
	4450 5200 6650 5200
Wire Wire Line
	6650 5200 6650 4050
Wire Wire Line
	4100 5400 8150 5400
Wire Wire Line
	8150 5400 8150 4050
Text GLabel 6450 3900 0    60   Input ~ 0
Fan
Wire Wire Line
	6450 3900 6650 3900
$Comp
L C C?
U 1 1 5953295D
P 3100 2350
F 0 "C?" H 3125 2450 50  0000 L CNN
F 1 "0.1uF" H 2800 2350 50  0000 L CNN
F 2 "Mej_Footprint:0603" H 3138 2200 50  0001 C CNN
F 3 "" H 3100 2350 50  0001 C CNN
	1    3100 2350
	1    0    0    -1  
$EndComp
Wire Wire Line
	2950 2200 3100 2200
Connection ~ 3100 2200
Connection ~ 3100 2500
Wire Wire Line
	3250 2300 3250 2500
Connection ~ 3250 2500
$Comp
L C C?
U 1 1 595341F7
P 5600 2300
F 0 "C?" H 5625 2400 50  0000 L CNN
F 1 "0.1uF" H 5300 2300 50  0000 L CNN
F 2 "Mej_Footprint:0603" H 5638 2150 50  0001 C CNN
F 3 "" H 5600 2300 50  0001 C CNN
	1    5600 2300
	1    0    0    -1  
$EndComp
Connection ~ 5600 2150
Wire Wire Line
	5850 2250 5750 2250
Wire Wire Line
	5750 2250 5750 2450
Wire Wire Line
	5750 2450 5600 2450
Connection ~ 5600 2450
NoConn ~ 2950 4450
Wire Wire Line
	2200 4200 2300 4200
Connection ~ 2300 4200
Wire Wire Line
	5000 4200 5050 4200
Connection ~ 5050 4200
Wire Wire Line
	7715 2320 7815 2320
Wire Wire Line
	7815 2370 7865 2370
$Comp
L R R?
U 1 1 59530186
P 1700 2550
F 0 "R?" V 1780 2550 50  0000 C CNN
F 1 "0" V 1700 2550 50  0000 C CNN
F 2 "Mej_Footprint:0603" V 1630 2550 50  0001 C CNN
F 3 "" H 1700 2550 50  0001 C CNN
	1    1700 2550
	1    0    0    -1  
$EndComp
Wire Wire Line
	1700 2100 1700 2400
Wire Wire Line
	1700 2700 1700 3450
Wire Wire Line
	1700 3450 2950 3450
Wire Wire Line
	7815 2320 7815 2370
Wire Wire Line
	7715 2120 7765 2120
Wire Wire Line
	7765 2120 7765 2270
Wire Wire Line
	7765 2270 7865 2270
NoConn ~ 7865 2170
Text GLabel 1845 1780 0    60   Input ~ 0
GND
$Comp
L R R_GND?
U 1 1 59531C08
P 2295 1780
F 0 "R_GND?" V 2375 1780 50  0000 C CNN
F 1 "0" V 2295 1780 50  0000 C CNN
F 2 "Mej_Footprint:0603" V 2225 1780 50  0001 C CNN
F 3 "" H 2295 1780 50  0001 C CNN
	1    2295 1780
	1    0    0    -1  
$EndComp
$Comp
L R R_GND?
U 1 1 59531C93
P 2695 1780
F 0 "R_GND?" V 2775 1780 50  0000 C CNN
F 1 "0" V 2695 1780 50  0000 C CNN
F 2 "Mej_Footprint:0603" V 2625 1780 50  0001 C CNN
F 3 "" H 2695 1780 50  0001 C CNN
	1    2695 1780
	1    0    0    -1  
$EndComp
Wire Wire Line
	1845 1780 1995 1780
Wire Wire Line
	1995 1630 1995 1780
Wire Wire Line
	1995 1630 2295 1630
Wire Wire Line
	1995 1930 2295 1930
Connection ~ 1995 1780
Connection ~ 2295 1930
Connection ~ 2295 1630
$Comp
L R R_GND?
U 1 1 595331B0
P 3045 1780
F 0 "R_GND?" V 3125 1780 50  0000 C CNN
F 1 "0" V 3045 1780 50  0000 C CNN
F 2 "Mej_Footprint:0603" V 2975 1780 50  0001 C CNN
F 3 "" H 3045 1780 50  0001 C CNN
	1    3045 1780
	1    0    0    -1  
$EndComp
Connection ~ 2695 1630
Connection ~ 2695 1930
Wire Wire Line
	4600 4200 4700 4200
Wire Wire Line
	4600 4200 4600 4250
Wire Wire Line
	2800 4200 2800 4250
Wire Wire Line
	2800 4200 4600 4200
Wire Wire Line
	4500 3950 4600 3950
Wire Wire Line
	4500 3950 4500 4150
Wire Wire Line
	2900 3950 2900 4150
Wire Wire Line
	2900 3950 2950 3950
Wire Wire Line
	4600 3700 4600 3850
Wire Wire Line
	4600 3700 4950 3700
Wire Wire Line
	2800 3700 2800 3850
Wire Wire Line
	2300 3900 2500 3900
Wire Wire Line
	5050 3900 5650 3900
Wire Wire Line
	4600 4250 4600 4500
Wire Wire Line
	5650 4600 5650 4800
Wire Wire Line
	1850 4550 1850 4800
Wire Wire Line
	5650 4800 5650 4950
Wire Wire Line
	4450 4950 4450 5200
Wire Wire Line
	4100 4800 5250 4800
Wire Wire Line
	2650 3000 2900 3000
Wire Wire Line
	2650 3350 2950 3350
Wire Wire Line
	2650 3650 2400 3650
Wire Wire Line
	4850 3350 4950 3350
Wire Wire Line
	4850 3350 4850 3450
Wire Wire Line
	6550 3150 6650 3150
Wire Wire Line
	6550 3450 6550 3750
Wire Wire Line
	8250 3450 8300 3450
Wire Wire Line
	8250 3750 8250 3900
Wire Wire Line
	3100 2200 3250 2200
Wire Wire Line
	3100 2500 2950 2500
Wire Wire Line
	3250 2500 3100 2500
Wire Wire Line
	5600 2150 5850 2150
Wire Wire Line
	5600 2450 5500 2450
Wire Wire Line
	2300 4200 2350 4200
Wire Wire Line
	5050 4200 5150 4200
Wire Wire Line
	1995 1780 1995 1930
Wire Wire Line
	2295 1930 2695 1930
Wire Wire Line
	2295 1630 2695 1630
Wire Wire Line
	2695 1630 3045 1630
Wire Wire Line
	2695 1930 3045 1930
$EndSCHEMATC
