G04 #@! TF.GenerationSoftware,KiCad,Pcbnew,(5.0.0)*
G04 #@! TF.CreationDate,2018-10-08T08:04:11+02:00*
G04 #@! TF.ProjectId,Interface PCB,496E74657266616365205043422E6B69,rev?*
G04 #@! TF.SameCoordinates,Original*
G04 #@! TF.FileFunction,Soldermask,Bot*
G04 #@! TF.FilePolarity,Negative*
%FSLAX46Y46*%
G04 Gerber Fmt 4.6, Leading zero omitted, Abs format (unit mm)*
G04 Created by KiCad (PCBNEW (5.0.0)) date 10/08/18 08:04:11*
%MOMM*%
%LPD*%
G01*
G04 APERTURE LIST*
%ADD10R,1.100000X3.100000*%
%ADD11C,1.550000*%
%ADD12O,1.300000X2.000000*%
G04 APERTURE END LIST*
D10*
G04 #@! TO.C,J2*
X120730000Y24780000D03*
X120730000Y19740000D03*
X118190000Y24780000D03*
X118190000Y19740000D03*
X115650000Y24780000D03*
X115650000Y19740000D03*
X113110000Y24780000D03*
X113110000Y19740000D03*
X110570000Y24780000D03*
X110570000Y19740000D03*
X108030000Y24780000D03*
X108030000Y19740000D03*
X105490000Y24780000D03*
X105490000Y19740000D03*
X102950000Y24780000D03*
X102950000Y19740000D03*
X100410000Y24780000D03*
X100410000Y19740000D03*
X97870000Y24780000D03*
X97870000Y19740000D03*
G04 #@! TD*
G04 #@! TO.C,J1*
X2270000Y5220000D03*
X2270000Y10260000D03*
X4810000Y5220000D03*
X4810000Y10260000D03*
X7350000Y5220000D03*
X7350000Y10260000D03*
X9890000Y5220000D03*
X9890000Y10260000D03*
X12430000Y5220000D03*
X12430000Y10260000D03*
X14970000Y5220000D03*
X14970000Y10260000D03*
X17510000Y5220000D03*
X17510000Y10260000D03*
X20050000Y5220000D03*
X20050000Y10260000D03*
X22590000Y5220000D03*
X22590000Y10260000D03*
X25130000Y5220000D03*
X25130000Y10260000D03*
G04 #@! TD*
D11*
G04 #@! TO.C,J0*
X24350000Y40910000D03*
X19350000Y40910000D03*
D12*
X25350000Y43610000D03*
X18350000Y43610000D03*
G04 #@! TD*
M02*
