G04 #@! TF.GenerationSoftware,KiCad,Pcbnew,(5.0.0)*
G04 #@! TF.CreationDate,2018-10-08T08:04:11+02:00*
G04 #@! TF.ProjectId,Interface PCB,496E74657266616365205043422E6B69,rev?*
G04 #@! TF.SameCoordinates,Original*
G04 #@! TF.FileFunction,Paste,Top*
G04 #@! TF.FilePolarity,Positive*
%FSLAX46Y46*%
G04 Gerber Fmt 4.6, Leading zero omitted, Abs format (unit mm)*
G04 Created by KiCad (PCBNEW (5.0.0)) date 10/08/18 08:04:11*
%MOMM*%
%LPD*%
G01*
G04 APERTURE LIST*
%ADD10R,1.350000X1.980000*%
%ADD11R,0.720000X0.270000*%
%ADD12R,1.170000X0.630000*%
%ADD13R,0.630000X1.170000*%
%ADD14R,0.360000X0.450000*%
%ADD15R,1.080000X1.080000*%
%ADD16R,0.720000X0.675000*%
%ADD17R,1.125000X0.900000*%
%ADD18R,0.675000X0.720000*%
%ADD19R,0.495000X1.350000*%
%ADD20R,1.350000X0.495000*%
%ADD21R,1.260000X0.270000*%
%ADD22R,0.225000X0.990000*%
%ADD23R,0.954000X0.585000*%
%ADD24R,1.350000X1.710000*%
%ADD25R,0.360000X1.215000*%
%ADD26R,0.900000X2.835000*%
%ADD27R,2.835000X0.900000*%
%ADD28R,0.450000X0.360000*%
%ADD29R,1.170000X1.350000*%
%ADD30R,1.350000X0.405000*%
%ADD31R,0.765000X0.855000*%
%ADD32R,0.900000X1.125000*%
G04 APERTURE END LIST*
D10*
G04 #@! TO.C,U12*
X115250000Y5110000D03*
D11*
X113750000Y4110000D03*
X113750000Y4610000D03*
X113750000Y5110000D03*
X113750000Y5610000D03*
X113750000Y6110000D03*
X116750000Y6110000D03*
X116750000Y5610000D03*
X116750000Y5110000D03*
X116750000Y4610000D03*
X116750000Y4110000D03*
G04 #@! TD*
D12*
G04 #@! TO.C,Rd12*
X118513000Y5034000D03*
X118513000Y3134000D03*
G04 #@! TD*
D13*
G04 #@! TO.C,R12*
X114200000Y2710000D03*
X116100000Y2710000D03*
G04 #@! TD*
D14*
G04 #@! TO.C,Q12*
X111000000Y3460000D03*
X111500000Y2160000D03*
X110500000Y2160000D03*
G04 #@! TD*
D15*
G04 #@! TO.C,D12*
X120250000Y4610000D03*
X120250000Y2410000D03*
G04 #@! TD*
D16*
G04 #@! TO.C,C12*
X113800000Y7210000D03*
X115300000Y7210000D03*
G04 #@! TD*
G04 #@! TO.C,C1*
X21500000Y30660000D03*
X23000000Y30660000D03*
G04 #@! TD*
G04 #@! TO.C,C2*
X25600000Y31560000D03*
X27100000Y31560000D03*
G04 #@! TD*
G04 #@! TO.C,C3*
X117850000Y11060000D03*
X116350000Y11060000D03*
G04 #@! TD*
G04 #@! TO.C,C4*
X7224881Y17419597D03*
X5724881Y17419597D03*
G04 #@! TD*
G04 #@! TO.C,C5*
X99150000Y24560000D03*
X100650000Y24560000D03*
G04 #@! TD*
G04 #@! TO.C,C6*
X103888735Y12011342D03*
X102388735Y12011342D03*
G04 #@! TD*
D17*
G04 #@! TO.C,C7*
X105000000Y31860000D03*
X105000000Y29860000D03*
G04 #@! TD*
G04 #@! TO.C,C8*
X111100000Y29960000D03*
X111100000Y31960000D03*
G04 #@! TD*
D16*
G04 #@! TO.C,C9*
X7224881Y13419597D03*
X5724881Y13419597D03*
G04 #@! TD*
D18*
G04 #@! TO.C,C10*
X25400000Y39060000D03*
X25400000Y37560000D03*
G04 #@! TD*
D16*
G04 #@! TO.C,C11*
X23850000Y7110000D03*
X22350000Y7110000D03*
G04 #@! TD*
D18*
G04 #@! TO.C,C15*
X7550000Y19210000D03*
X7550000Y20710000D03*
G04 #@! TD*
D15*
G04 #@! TO.C,D0*
X102800000Y28360000D03*
X105000000Y28360000D03*
G04 #@! TD*
G04 #@! TO.C,D1*
X111100000Y28460000D03*
X113300000Y28460000D03*
G04 #@! TD*
G04 #@! TO.C,D2*
X27950000Y18360000D03*
X25750000Y18360000D03*
G04 #@! TD*
G04 #@! TO.C,D3*
X14950000Y5960000D03*
X14950000Y3760000D03*
G04 #@! TD*
G04 #@! TO.C,D11*
X28800000Y2310000D03*
X28800000Y4510000D03*
G04 #@! TD*
D14*
G04 #@! TO.C,Q11*
X19850000Y2510000D03*
X20850000Y2510000D03*
X20350000Y3810000D03*
G04 #@! TD*
D13*
G04 #@! TO.C,R1*
X6150000Y19910000D03*
X4250000Y19910000D03*
G04 #@! TD*
D12*
G04 #@! TO.C,R2*
X19700000Y36510000D03*
X19700000Y38410000D03*
G04 #@! TD*
G04 #@! TO.C,R3*
X21700000Y38410000D03*
X21700000Y36510000D03*
G04 #@! TD*
G04 #@! TO.C,R5*
X18950000Y9310000D03*
X18950000Y7410000D03*
G04 #@! TD*
D13*
G04 #@! TO.C,R11*
X24650000Y2610000D03*
X22750000Y2610000D03*
G04 #@! TD*
D12*
G04 #@! TO.C,Rd0*
X102900000Y29910000D03*
X102900000Y31810000D03*
G04 #@! TD*
G04 #@! TO.C,Rd1*
X113200000Y31910000D03*
X113200000Y30010000D03*
G04 #@! TD*
D13*
G04 #@! TO.C,Rd2*
X24300000Y18360000D03*
X22400000Y18360000D03*
G04 #@! TD*
D12*
G04 #@! TO.C,Rd3*
X14950000Y7410000D03*
X14950000Y9310000D03*
G04 #@! TD*
G04 #@! TO.C,Rd11*
X27009500Y3007000D03*
X27009500Y4907000D03*
G04 #@! TD*
D19*
G04 #@! TO.C,U0*
X18950000Y22460000D03*
X18150000Y22460000D03*
X17350000Y22460000D03*
X16550000Y22460000D03*
X15750000Y22460000D03*
X14950000Y22460000D03*
X14150000Y22460000D03*
X13350000Y22460000D03*
X12550000Y22460000D03*
X11750000Y22460000D03*
X10950000Y22460000D03*
D20*
X9250000Y20760000D03*
X9250000Y19960000D03*
X9250000Y19160000D03*
X9250000Y18360000D03*
X9250000Y17560000D03*
X9250000Y16760000D03*
X9250000Y15960000D03*
X9250000Y15160000D03*
X9250000Y14360000D03*
X9250000Y13560000D03*
X9250000Y12760000D03*
D19*
X10950000Y11060000D03*
X11750000Y11060000D03*
X12550000Y11060000D03*
X13350000Y11060000D03*
X14150000Y11060000D03*
X14950000Y11060000D03*
X15750000Y11060000D03*
X16550000Y11060000D03*
X17350000Y11060000D03*
X18150000Y11060000D03*
X18950000Y11060000D03*
D20*
X20650000Y12760000D03*
X20650000Y13560000D03*
X20650000Y14360000D03*
X20650000Y15160000D03*
X20650000Y15960000D03*
X20650000Y16760000D03*
X20650000Y17560000D03*
X20650000Y18360000D03*
X20650000Y19160000D03*
X20650000Y19960000D03*
X20650000Y20760000D03*
G04 #@! TD*
D21*
G04 #@! TO.C,U1*
X19950000Y29060000D03*
X19950000Y28560000D03*
X19950000Y28060000D03*
X19950000Y27560000D03*
X19950000Y27060000D03*
X24350000Y27060000D03*
X24350000Y27560000D03*
X24350000Y28060000D03*
X24350000Y28560000D03*
X24350000Y29060000D03*
G04 #@! TD*
D22*
G04 #@! TO.C,U2*
X26350000Y25810000D03*
X26850000Y25810000D03*
X27350000Y25810000D03*
X27850000Y25810000D03*
X28350000Y25810000D03*
X28350000Y30110000D03*
X27850000Y30110000D03*
X27350000Y30110000D03*
X26850000Y30110000D03*
X26350000Y30110000D03*
G04 #@! TD*
D23*
G04 #@! TO.C,U6*
X106900000Y31910000D03*
X106900000Y30960000D03*
X106900000Y30010000D03*
X109100000Y30010000D03*
X109100000Y31910000D03*
G04 #@! TD*
D11*
G04 #@! TO.C,U11*
X25300000Y4010000D03*
X25300000Y4510000D03*
X25300000Y5010000D03*
X25300000Y5510000D03*
X25300000Y6010000D03*
X22300000Y6010000D03*
X22300000Y5510000D03*
X22300000Y5010000D03*
X22300000Y4510000D03*
X22300000Y4010000D03*
D10*
X23800000Y5010000D03*
G04 #@! TD*
D18*
G04 #@! TO.C,C13*
X14950000Y25810000D03*
X14950000Y24310000D03*
G04 #@! TD*
D16*
G04 #@! TO.C,C14*
X24100000Y20060000D03*
X22600000Y20060000D03*
G04 #@! TD*
G04 #@! TO.C,C16*
X6050000Y4210000D03*
X4550000Y4210000D03*
G04 #@! TD*
D24*
G04 #@! TO.C,J0*
X20850000Y43610000D03*
D25*
X22500000Y40910000D03*
X23150000Y40910000D03*
X20550000Y40910000D03*
X21200000Y40910000D03*
X21850000Y40910000D03*
D24*
X22850000Y43610000D03*
G04 #@! TD*
D26*
G04 #@! TO.C,J3*
X4340000Y37485000D03*
X4340000Y42535000D03*
X6880000Y37485000D03*
X6880000Y42535000D03*
X9420000Y37485000D03*
X9420000Y42535000D03*
X11960000Y37485000D03*
X11960000Y42535000D03*
G04 #@! TD*
G04 #@! TO.C,J5*
X113490000Y37735000D03*
X113490000Y42785000D03*
X116030000Y37735000D03*
X116030000Y42785000D03*
X118570000Y37735000D03*
X118570000Y42785000D03*
X121110000Y37735000D03*
X121110000Y42785000D03*
G04 #@! TD*
D27*
G04 #@! TO.C,J6*
X102203735Y1911342D03*
X97153735Y1911342D03*
X102203735Y4451342D03*
X97153735Y4451342D03*
X102203735Y6991342D03*
X97153735Y6991342D03*
X102203735Y9531342D03*
X97153735Y9531342D03*
G04 #@! TD*
G04 #@! TO.C,J7*
X97138735Y22231342D03*
X102188735Y22231342D03*
X97138735Y19691342D03*
X102188735Y19691342D03*
X97138735Y17151342D03*
X102188735Y17151342D03*
X97138735Y14611342D03*
X102188735Y14611342D03*
G04 #@! TD*
G04 #@! TO.C,J8*
X99825000Y35850000D03*
X94775000Y35850000D03*
X99825000Y38390000D03*
X94775000Y38390000D03*
X99825000Y40930000D03*
X94775000Y40930000D03*
X99825000Y43470000D03*
X94775000Y43470000D03*
G04 #@! TD*
D28*
G04 #@! TO.C,Q1*
X104600000Y19660000D03*
X105900000Y20160000D03*
X105900000Y19160000D03*
G04 #@! TD*
G04 #@! TO.C,Q2*
X105900000Y16660000D03*
X105900000Y17660000D03*
X104600000Y17160000D03*
G04 #@! TD*
G04 #@! TO.C,Q3*
X105900000Y14160000D03*
X105900000Y15160000D03*
X104600000Y14660000D03*
G04 #@! TD*
D29*
G04 #@! TO.C,R6*
X121100000Y32260000D03*
X121100000Y29560000D03*
G04 #@! TD*
G04 #@! TO.C,R7*
X118500000Y29510000D03*
X118500000Y32210000D03*
G04 #@! TD*
G04 #@! TO.C,R100*
X23700000Y36010000D03*
X23700000Y38710000D03*
G04 #@! TD*
D30*
G04 #@! TO.C,U4*
X119550000Y12485000D03*
X119550000Y13135000D03*
X119550000Y13785000D03*
X119550000Y14435000D03*
X119550000Y15085000D03*
X119550000Y15735000D03*
X119550000Y16385000D03*
X119550000Y17035000D03*
X113650000Y17035000D03*
X113650000Y16385000D03*
X113650000Y15735000D03*
X113650000Y15085000D03*
X113650000Y14435000D03*
X113650000Y13785000D03*
X113650000Y13135000D03*
X113650000Y12485000D03*
G04 #@! TD*
G04 #@! TO.C,U5*
X2250000Y5685000D03*
X2250000Y6335000D03*
X2250000Y6985000D03*
X2250000Y7635000D03*
X2250000Y8285000D03*
X2250000Y8935000D03*
X2250000Y9585000D03*
X2250000Y10235000D03*
X8150000Y10235000D03*
X8150000Y9585000D03*
X8150000Y8935000D03*
X8150000Y8285000D03*
X8150000Y7635000D03*
X8150000Y6985000D03*
X8150000Y6335000D03*
X8150000Y5685000D03*
G04 #@! TD*
D31*
G04 #@! TO.C,Y1*
X5904881Y14689597D03*
X7054881Y14689597D03*
X5904881Y16139597D03*
X7054881Y16139597D03*
G04 #@! TD*
D32*
G04 #@! TO.C,C66*
X96538735Y12111342D03*
X94538735Y12111342D03*
G04 #@! TD*
G04 #@! TO.C,C67*
X27238735Y36011342D03*
X25238735Y36011342D03*
G04 #@! TD*
D27*
G04 #@! TO.C,J4*
X5773735Y32891342D03*
X10823735Y32891342D03*
X5773735Y30351342D03*
X10823735Y30351342D03*
X5773735Y27811342D03*
X10823735Y27811342D03*
X5773735Y25271342D03*
X10823735Y25271342D03*
G04 #@! TD*
M02*
