(module 2x10_LED_IMS_conn (layer F.Cu) (tedit 5C387593)
  (fp_text reference REF** (at 0 -13.97) (layer F.SilkS)
    (effects (font (size 1 1) (thickness 0.15)))
  )
  (fp_text value 2x10_LED_IMS_conn (at 0 -16.51) (layer F.Fab) hide
    (effects (font (size 1 1) (thickness 0.15)))
  )
  (fp_line (start 3.6 -12.7) (end 3.6 12.7) (layer F.SilkS) (width 0.15))
  (fp_line (start 3.6 12.7) (end -3.6 12.7) (layer F.SilkS) (width 0.15))
  (fp_line (start -3.6 12.7) (end -3.6 -12.7) (layer F.SilkS) (width 0.15))
  (fp_line (start -3.6 -12.7) (end 3.6 -12.7) (layer F.SilkS) (width 0.15))
  (fp_text user SCL (at -7.62 11.43) (layer F.SilkS)
    (effects (font (size 1 1) (thickness 0.2)))
  )
  (fp_text user GND (at -7.62 8.89) (layer F.SilkS)
    (effects (font (size 1 1) (thickness 0.2)))
  )
  (fp_text user Vdd (at 7.62 8.89) (layer F.SilkS)
    (effects (font (size 1 1) (thickness 0.2)))
  )
  (fp_text user SDA (at 7.62 11.43) (layer F.SilkS)
    (effects (font (size 1 1) (thickness 0.2)))
  )
  (fp_text user 5 (at 5.08 -1.27) (layer F.SilkS)
    (effects (font (size 1 1) (thickness 0.2)))
  )
  (fp_text user 6 (at 5.08 1.27) (layer F.SilkS)
    (effects (font (size 1 1) (thickness 0.2)))
  )
  (fp_text user 8 (at 5.08 6.35) (layer F.SilkS)
    (effects (font (size 1 1) (thickness 0.2)))
  )
  (fp_text user 7 (at 5.08 3.81) (layer F.SilkS)
    (effects (font (size 1 1) (thickness 0.2)))
  )
  (fp_text user 3 (at 5.08 -6.35) (layer F.SilkS)
    (effects (font (size 1 1) (thickness 0.2)))
  )
  (fp_text user 4 (at 5.08 -3.81) (layer F.SilkS)
    (effects (font (size 1 1) (thickness 0.2)))
  )
  (fp_text user 2 (at 5.08 -8.89) (layer F.SilkS)
    (effects (font (size 1 1) (thickness 0.2)))
  )
  (fp_text user 1 (at 5.08 -11.43) (layer F.SilkS)
    (effects (font (size 1 1) (thickness 0.2)))
  )
  (pad 1 smd rect (at -2.54 -11.43) (size 3.15 1) (layers F.Cu F.Paste F.Mask))
  (pad 2 smd rect (at -2.54 -8.89) (size 3.15 1) (layers F.Cu F.Paste F.Mask))
  (pad 3 smd rect (at -2.54 -6.35) (size 3.15 1) (layers F.Cu F.Paste F.Mask))
  (pad 4 smd rect (at -2.54 -3.81) (size 3.15 1) (layers F.Cu F.Paste F.Mask))
  (pad 5 smd rect (at -2.54 -1.27) (size 3.15 1) (layers F.Cu F.Paste F.Mask))
  (pad 6 smd rect (at -2.54 1.27) (size 3.15 1) (layers F.Cu F.Paste F.Mask))
  (pad 7 smd rect (at -2.54 3.81) (size 3.15 1) (layers F.Cu F.Paste F.Mask))
  (pad 8 smd rect (at -2.54 6.35) (size 3.15 1) (layers F.Cu F.Paste F.Mask))
  (pad 9 smd rect (at -2.54 8.89) (size 3.15 1) (layers F.Cu F.Paste F.Mask))
  (pad 10 smd rect (at -2.54 11.43) (size 3.15 1) (layers F.Cu F.Paste F.Mask))
  (pad 11 smd rect (at 2.54 11.43) (size 3.15 1) (layers F.Cu F.Paste F.Mask))
  (pad 12 smd rect (at 2.54 8.89) (size 3.15 1) (layers F.Cu F.Paste F.Mask))
  (pad 13 smd rect (at 2.54 6.35) (size 3.15 1) (layers F.Cu F.Paste F.Mask))
  (pad 14 smd rect (at 2.54 3.81) (size 3.15 1) (layers F.Cu F.Paste F.Mask))
  (pad 15 smd rect (at 2.54 1.27) (size 3.15 1) (layers F.Cu F.Paste F.Mask))
  (pad 16 smd rect (at 2.54 -1.27) (size 3.15 1) (layers F.Cu F.Paste F.Mask))
  (pad 17 smd rect (at 2.54 -3.81) (size 3.15 1) (layers F.Cu F.Paste F.Mask))
  (pad 18 smd rect (at 2.54 -6.35) (size 3.15 1) (layers F.Cu F.Paste F.Mask))
  (pad 19 smd rect (at 2.54 -8.89) (size 3.15 1) (layers F.Cu F.Paste F.Mask))
  (pad 20 smd rect (at 2.54 -11.43) (size 3.15 1) (layers F.Cu F.Paste F.Mask))
  (model ${KISYS3DMOD}/Pin_Headers.3dshapes/Pin_Header_Straight_2x10_Pitch2.54mm_SMD.wrl
    (at (xyz 0 0 0))
    (scale (xyz 1 1 1))
    (rotate (xyz 0 0 0))
  )
)
