(module MCP9904 (layer F.Cu) (tedit 5B9FA1D9)
  (fp_text reference REF** (at 1.8 3.2) (layer F.SilkS)
    (effects (font (size 1 1) (thickness 0.15)))
  )
  (fp_text value MCP9904 (at 1.6 -1.1) (layer F.Fab)
    (effects (font (size 1 1) (thickness 0.15)))
  )
  (pad 6 smd rect (at 3 2) (size 0.8 0.3) (layers F.Cu F.Paste F.Mask))
  (pad 7 smd rect (at 3 1.5) (size 0.8 0.3) (layers F.Cu F.Paste F.Mask))
  (pad 8 smd rect (at 3 1) (size 0.8 0.3) (layers F.Cu F.Paste F.Mask))
  (pad 9 smd rect (at 3 0.5) (size 0.8 0.3) (layers F.Cu F.Paste F.Mask))
  (pad 10 smd rect (at 3 0) (size 0.8 0.3) (layers F.Cu F.Paste F.Mask))
  (pad 1 smd rect (at 0 0) (size 0.8 0.3) (layers F.Cu F.Paste F.Mask))
  (pad 2 smd rect (at 0 0.5) (size 0.8 0.3) (layers F.Cu F.Paste F.Mask))
  (pad 3 smd rect (at 0 1) (size 0.8 0.3) (layers F.Cu F.Paste F.Mask))
  (pad 4 smd rect (at 0 1.5) (size 0.8 0.3) (layers F.Cu F.Paste F.Mask))
  (pad 5 smd rect (at 0 2) (size 0.8 0.3) (layers F.Cu F.Paste F.Mask))
  (pad 6 smd rect (at 1.5 1) (size 1.5 2.2) (layers F.Cu F.Paste F.Mask))
)
