ISO-10303-21;
HEADER;
FILE_DESCRIPTION (( 'STEP AP214' ),
    '1' );
FILE_NAME ('LUXEON Z- R1.STEP',
    '2012-04-30T20:02:44',
    ( 'Philips' ),
    ( 'Philips' ),
    'SwSTEP 2.0',
    'SolidWorks 2012',
    '' );
FILE_SCHEMA (( 'AUTOMOTIVE_DESIGN' ));
ENDSEC;

DATA;
#1 = CYLINDRICAL_SURFACE ( 'NONE', #473, 0.001968503937007870500 ) ;
#2 = FACE_OUTER_BOUND ( 'NONE', #156, .T. ) ;
#3 = FACE_OUTER_BOUND ( 'NONE', #76, .T. ) ;
#4 = FACE_OUTER_BOUND ( 'NONE', #81, .T. ) ;
#5 = FACE_OUTER_BOUND ( 'NONE', #85, .T. ) ;
#6 = ORIENTED_EDGE ( 'NONE', *, *, #480, .T. ) ;
#7 = ORIENTED_EDGE ( 'NONE', *, *, #474, .F. ) ;
#8 = ORIENTED_EDGE ( 'NONE', *, *, #488, .T. ) ;
#9 = VERTEX_POINT ( 'NONE', #261 ) ;
#10 = VERTEX_POINT ( 'NONE', #264 ) ;
#11 = VERTEX_POINT ( 'NONE', #266 ) ;
#12 = VERTEX_POINT ( 'NONE', #267 ) ;
#13 = VERTEX_POINT ( 'NONE', #260 ) ;
#14 = VERTEX_POINT ( 'NONE', #268 ) ;
#15 = VERTEX_POINT ( 'NONE', #263 ) ;
#16 = VERTEX_POINT ( 'NONE', #265 ) ;
#17 = VERTEX_POINT ( 'NONE', #262 ) ;
#18 = VERTEX_POINT ( 'NONE', #269 ) ;
#19 = VERTEX_POINT ( 'NONE', #270 ) ;
#20 = VERTEX_POINT ( 'NONE', #271 ) ;
#21 = VERTEX_POINT ( 'NONE', #272 ) ;
#22 = VERTEX_POINT ( 'NONE', #273 ) ;
#23 = VERTEX_POINT ( 'NONE', #274 ) ;
#24 = VERTEX_POINT ( 'NONE', #275 ) ;
#25 = VERTEX_POINT ( 'NONE', #276 ) ;
#26 = VERTEX_POINT ( 'NONE', #277 ) ;
#27 = VERTEX_POINT ( 'NONE', #278 ) ;
#28 = VERTEX_POINT ( 'NONE', #279 ) ;
#29 = VERTEX_POINT ( 'NONE', #280 ) ;
#30 = VERTEX_POINT ( 'NONE', #281 ) ;
#31 = VERTEX_POINT ( 'NONE', #282 ) ;
#32 = VERTEX_POINT ( 'NONE', #283 ) ;
#33 = VERTEX_POINT ( 'NONE', #284 ) ;
#34 = VERTEX_POINT ( 'NONE', #285 ) ;
#35 = VERTEX_POINT ( 'NONE', #286 ) ;
#36 = VERTEX_POINT ( 'NONE', #287 ) ;
#37 = VERTEX_POINT ( 'NONE', #288 ) ;
#38 = VERTEX_POINT ( 'NONE', #289 ) ;
#39 = VERTEX_POINT ( 'NONE', #290 ) ;
#40 = VERTEX_POINT ( 'NONE', #291 ) ;
#41 = VERTEX_POINT ( 'NONE', #292 ) ;
#42 = VERTEX_POINT ( 'NONE', #293 ) ;
#43 = VERTEX_POINT ( 'NONE', #294 ) ;
#44 = VERTEX_POINT ( 'NONE', #295 ) ;
#45 = VERTEX_POINT ( 'NONE', #296 ) ;
#46 = VERTEX_POINT ( 'NONE', #297 ) ;
#47 = VERTEX_POINT ( 'NONE', #298 ) ;
#48 = VERTEX_POINT ( 'NONE', #299 ) ;
#49 = VERTEX_POINT ( 'NONE', #300 ) ;
#50 = VERTEX_POINT ( 'NONE', #301 ) ;
#51 = VERTEX_POINT ( 'NONE', #302 ) ;
#52 = VERTEX_POINT ( 'NONE', #303 ) ;
#53 = ORIENTED_EDGE ( 'NONE', *, *, #455, .F. ) ;
#54 = ORIENTED_EDGE ( 'NONE', *, *, #485, .T. ) ;
#55 = ORIENTED_EDGE ( 'NONE', *, *, #446, .F. ) ;
#56 = ORIENTED_EDGE ( 'NONE', *, *, #484, .T. ) ;
#57 = EDGE_LOOP ( 'NONE', ( #99, #90, #93, #92, #91, #88, #87, #78, #157, #158 ) ) ;
#58 = EDGE_LOOP ( 'NONE', ( #129, #153, #127, #53, #54, #55, #56, #7 ) ) ;
#59 = EDGE_LOOP ( 'NONE', ( #8, #6, #148, #103 ) ) ;
#60 = EDGE_LOOP ( 'NONE', ( #136, #140, #144, #143 ) ) ;
#61 = EDGE_LOOP ( 'NONE', ( #149, #145, #146, #142 ) ) ;
#62 = EDGE_LOOP ( 'NONE', ( #133, #128, #134, #152 ) ) ;
#63 = EDGE_LOOP ( 'NONE', ( #141, #139, #138, #137 ) ) ;
#64 = EDGE_LOOP ( 'NONE', ( #806, #809, #812, #834, #811, #810, #803, #801 ) ) ;
#65 = EDGE_LOOP ( 'NONE', ( #155, #80, #154, #89 ) ) ;
#66 = EDGE_LOOP ( 'NONE', ( #799, #798, #86, #836 ) ) ;
#67 = EDGE_LOOP ( 'NONE', ( #817, #820, #842, #808 ) ) ;
#68 = EDGE_LOOP ( 'NONE', ( #795, #839, #838, #840 ) ) ;
#69 = EDGE_LOOP ( 'NONE', ( #816, #813, #815, #814 ) ) ;
#70 = EDGE_LOOP ( 'NONE', ( #82, #151, #150, #147 ) ) ;
#71 = EDGE_LOOP ( 'NONE', ( #802, #804, #805, #800 ) ) ;
#72 = EDGE_LOOP ( 'NONE', ( #826, #822, #833, #835 ) ) ;
#73 = EDGE_LOOP ( 'NONE', ( #832, #824, #823, #828 ) ) ;
#74 = EDGE_LOOP ( 'NONE', ( #843, #830, #794, #797 ) ) ;
#75 = EDGE_LOOP ( 'NONE', ( #94, #95, #102, #829, #837, #793, #796, #831, #825, #827 ) ) ;
#76 = EDGE_LOOP ( 'NONE', ( #117, #113, #111, #110 ) ) ;
#77 = EDGE_LOOP ( 'NONE', ( #101, #97, #96, #98 ) ) ;
#78 = ORIENTED_EDGE ( 'NONE', *, *, #512, .T. ) ;
#79 = EDGE_LOOP ( 'NONE', ( #821, #818, #807, #819 ) ) ;
#80 = ORIENTED_EDGE ( 'NONE', *, *, #464, .T. ) ;
#81 = EDGE_LOOP ( 'NONE', ( #120, #126, #119, #118 ) ) ;
#82 = ORIENTED_EDGE ( 'NONE', *, *, #491, .F. ) ;
#83 = EDGE_LOOP ( 'NONE', ( #112, #105, #104, #100 ) ) ;
#84 = EDGE_LOOP ( 'NONE', ( #124, #125, #122, #121 ) ) ;
#85 = EDGE_LOOP ( 'NONE', ( #135, #130, #132, #123 ) ) ;
#86 = ORIENTED_EDGE ( 'NONE', *, *, #464, .F. ) ;
#87 = ORIENTED_EDGE ( 'NONE', *, *, #522, .F. ) ;
#88 = ORIENTED_EDGE ( 'NONE', *, *, #518, .T. ) ;
#89 = ORIENTED_EDGE ( 'NONE', *, *, #491, .T. ) ;
#90 = ORIENTED_EDGE ( 'NONE', *, *, #477, .F. ) ;
#91 = ORIENTED_EDGE ( 'NONE', *, *, #505, .F. ) ;
#92 = ORIENTED_EDGE ( 'NONE', *, *, #478, .F. ) ;
#93 = ORIENTED_EDGE ( 'NONE', *, *, #475, .F. ) ;
#94 = ORIENTED_EDGE ( 'NONE', *, *, #492, .T. ) ;
#95 = ORIENTED_EDGE ( 'NONE', *, *, #503, .T. ) ;
#96 = ORIENTED_EDGE ( 'NONE', *, *, #475, .T. ) ;
#97 = ORIENTED_EDGE ( 'NONE', *, *, #501, .T. ) ;
#98 = ORIENTED_EDGE ( 'NONE', *, *, #506, .T. ) ;
#99 = ORIENTED_EDGE ( 'NONE', *, *, #493, .T. ) ;
#100 = ORIENTED_EDGE ( 'NONE', *, *, #478, .T. ) ;
#101 = ORIENTED_EDGE ( 'NONE', *, *, #492, .F. ) ;
#102 = ORIENTED_EDGE ( 'NONE', *, *, #486, .T. ) ;
#103 = ORIENTED_EDGE ( 'NONE', *, *, #466, .T. ) ;
#104 = ORIENTED_EDGE ( 'NONE', *, *, #495, .F. ) ;
#105 = ORIENTED_EDGE ( 'NONE', *, *, #504, .F. ) ;
#106 = ORIENTED_EDGE ( 'NONE', *, *, #505, .T. ) ;
#107 = ORIENTED_EDGE ( 'NONE', *, *, #518, .F. ) ;
#108 = ORIENTED_EDGE ( 'NONE', *, *, #520, .F. ) ;
#109 = ORIENTED_EDGE ( 'NONE', *, *, #517, .F. ) ;
#110 = ORIENTED_EDGE ( 'NONE', *, *, #520, .T. ) ;
#111 = ORIENTED_EDGE ( 'NONE', *, *, #522, .T. ) ;
#112 = ORIENTED_EDGE ( 'NONE', *, *, #501, .F. ) ;
#113 = ORIENTED_EDGE ( 'NONE', *, *, #513, .T. ) ;
#114 = ORIENTED_EDGE ( 'NONE', *, *, #502, .F. ) ;
#115 = ORIENTED_EDGE ( 'NONE', *, *, #495, .T. ) ;
#116 = ORIENTED_EDGE ( 'NONE', *, *, #517, .T. ) ;
#117 = ORIENTED_EDGE ( 'NONE', *, *, #516, .F. ) ;
#118 = ORIENTED_EDGE ( 'NONE', *, *, #514, .F. ) ;
#119 = ORIENTED_EDGE ( 'NONE', *, *, #513, .F. ) ;
#120 = ORIENTED_EDGE ( 'NONE', *, *, #510, .F. ) ;
#121 = ORIENTED_EDGE ( 'NONE', *, *, #510, .T. ) ;
#122 = ORIENTED_EDGE ( 'NONE', *, *, #509, .T. ) ;
#123 = ORIENTED_EDGE ( 'NONE', *, *, #507, .F. ) ;
#124 = ORIENTED_EDGE ( 'NONE', *, *, #511, .F. ) ;
#125 = ORIENTED_EDGE ( 'NONE', *, *, #508, .T. ) ;
#126 = ORIENTED_EDGE ( 'NONE', *, *, #512, .F. ) ;
#127 = ORIENTED_EDGE ( 'NONE', *, *, #460, .T. ) ;
#128 = ORIENTED_EDGE ( 'NONE', *, *, #450, .F. ) ;
#129 = ORIENTED_EDGE ( 'NONE', *, *, #456, .T. ) ;
#130 = ORIENTED_EDGE ( 'NONE', *, *, #515, .F. ) ;
#131 = ORIENTED_EDGE ( 'NONE', *, *, #519, .F. ) ;
#132 = ORIENTED_EDGE ( 'NONE', *, *, #508, .F. ) ;
#133 = ORIENTED_EDGE ( 'NONE', *, *, #490, .F. ) ;
#134 = ORIENTED_EDGE ( 'NONE', *, *, #457, .F. ) ;
#135 = ORIENTED_EDGE ( 'NONE', *, *, #521, .F. ) ;
#136 = ORIENTED_EDGE ( 'NONE', *, *, #458, .F. ) ;
#137 = ORIENTED_EDGE ( 'NONE', *, *, #458, .T. ) ;
#138 = ORIENTED_EDGE ( 'NONE', *, *, #449, .F. ) ;
#139 = ORIENTED_EDGE ( 'NONE', *, *, #457, .T. ) ;
#140 = ORIENTED_EDGE ( 'NONE', *, *, #483, .F. ) ;
#141 = ORIENTED_EDGE ( 'NONE', *, *, #489, .T. ) ;
#142 = ORIENTED_EDGE ( 'NONE', *, *, #448, .T. ) ;
#143 = ORIENTED_EDGE ( 'NONE', *, *, #460, .F. ) ;
#144 = ORIENTED_EDGE ( 'NONE', *, *, #448, .F. ) ;
#145 = ORIENTED_EDGE ( 'NONE', *, *, #487, .T. ) ;
#146 = ORIENTED_EDGE ( 'NONE', *, *, #455, .T. ) ;
#147 = ORIENTED_EDGE ( 'NONE', *, *, #459, .F. ) ;
#148 = ORIENTED_EDGE ( 'NONE', *, *, #447, .T. ) ;
#149 = ORIENTED_EDGE ( 'NONE', *, *, #461, .F. ) ;
#150 = ORIENTED_EDGE ( 'NONE', *, *, #487, .F. ) ;
#151 = ORIENTED_EDGE ( 'NONE', *, *, #485, .F. ) ;
#152 = ORIENTED_EDGE ( 'NONE', *, *, #456, .F. ) ;
#153 = ORIENTED_EDGE ( 'NONE', *, *, #489, .F. ) ;
#154 = ORIENTED_EDGE ( 'NONE', *, *, #446, .T. ) ;
#155 = ORIENTED_EDGE ( 'NONE', *, *, #453, .F. ) ;
#156 = EDGE_LOOP ( 'NONE', ( #106, #115, #114, #116 ) ) ;
#157 = ORIENTED_EDGE ( 'NONE', *, *, #509, .F. ) ;
#158 = ORIENTED_EDGE ( 'NONE', *, *, #515, .T. ) ;
#159 = EDGE_LOOP ( 'NONE', ( #109, #131, #108, #107 ) ) ;
#160 = LINE ( 'NONE', #617, #183 ) ;
#161 = VECTOR ( 'NONE', #626, 39.37007874015748100 ) ;
#162 = LINE ( 'NONE', #625, #164 ) ;
#163 = VECTOR ( 'NONE', #590, 39.37007874015748100 ) ;
#164 = VECTOR ( 'NONE', #624, 39.37007874015748100 ) ;
#165 = LINE ( 'NONE', #621, #184 ) ;
#166 = LINE ( 'NONE', #604, #174 ) ;
#167 = VECTOR ( 'NONE', #623, 39.37007874015748100 ) ;
#168 = VECTOR ( 'NONE', #600, 39.37007874015748100 ) ;
#169 = LINE ( 'NONE', #591, #163 ) ;
#170 = LINE ( 'NONE', #598, #168 ) ;
#171 = VECTOR ( 'NONE', #597, 39.37007874015748100 ) ;
#172 = CIRCLE ( 'NONE', #213, 0.001968503937007874900 ) ;
#173 = VECTOR ( 'NONE', #599, 39.37007874015748100 ) ;
#174 = VECTOR ( 'NONE', #609, 39.37007874015748100 ) ;
#175 = LINE ( 'NONE', #615, #171 ) ;
#176 = LINE ( 'NONE', #605, #173 ) ;
#177 = CIRCLE ( 'NONE', #212, 0.001968503937007870500 ) ;
#178 = VECTOR ( 'NONE', #610, 39.37007874015748100 ) ;
#179 = CIRCLE ( 'NONE', #209, 0.001968503937007870500 ) ;
#180 = LINE ( 'NONE', #627, #161 ) ;
#181 = CIRCLE ( 'NONE', #211, 0.001968503937007874900 ) ;
#182 = LINE ( 'NONE', #611, #178 ) ;
#183 = VECTOR ( 'NONE', #616, 39.37007874015748100 ) ;
#184 = VECTOR ( 'NONE', #637, 39.37007874015748100 ) ;
#185 = CIRCLE ( 'NONE', #210, 0.001968503937007870500 ) ;
#186 = LINE ( 'NONE', #622, #167 ) ;
#187 = AXIS2_PLACEMENT_3D ( 'NONE', #368, #735, #729 ) ;
#188 = AXIS2_PLACEMENT_3D ( 'NONE', #733, #732, #731 ) ;
#189 = AXIS2_PLACEMENT_3D ( 'NONE', #361, #366, #367 ) ;
#190 = AXIS2_PLACEMENT_3D ( 'NONE', #365, #369, #370 ) ;
#191 = AXIS2_PLACEMENT_3D ( 'NONE', #728, #730, #726 ) ;
#192 = AXIS2_PLACEMENT_3D ( 'NONE', #727, #722, #721 ) ;
#193 = AXIS2_PLACEMENT_3D ( 'NONE', #720, #725, #723 ) ;
#194 = AXIS2_PLACEMENT_3D ( 'NONE', #718, #717, #719 ) ;
#195 = AXIS2_PLACEMENT_3D ( 'NONE', #716, #712, #711 ) ;
#196 = STYLED_ITEM ( 'NONE', ( #412 ), #419 ) ;
#197 = AXIS2_PLACEMENT_3D ( 'NONE', #710, #713, #708 ) ;
#198 = PRESENTATION_LAYER_ASSIGNMENT (  '', '', ( #196 ) ) ;
#199 = MECHANICAL_DESIGN_GEOMETRIC_PRESENTATION_REPRESENTATION (  '', ( #196 ), #200 ) ;
#200 =( GEOMETRIC_REPRESENTATION_CONTEXT ( 3 ) GLOBAL_UNCERTAINTY_ASSIGNED_CONTEXT ( ( #417 ) ) GLOBAL_UNIT_ASSIGNED_CONTEXT ( ( #703, #702, #701 ) ) REPRESENTATION_CONTEXT ( 'NONE', 'WORKASPACE' ) );
#201 = AXIS2_PLACEMENT_3D ( 'NONE', #697, #696, #695 ) ;
#202 = AXIS2_PLACEMENT_3D ( 'NONE', #689, #688, #687 ) ;
#203 = AXIS2_PLACEMENT_3D ( 'NONE', #684, #683, #682 ) ;
#204 = AXIS2_PLACEMENT_3D ( 'NONE', #680, #679, #678 ) ;
#205 = AXIS2_PLACEMENT_3D ( 'NONE', #674, #673, #672 ) ;
#206 = AXIS2_PLACEMENT_3D ( 'NONE', #661, #660, #659 ) ;
#207 = AXIS2_PLACEMENT_3D ( 'NONE', #648, #647, #646 ) ;
#208 = AXIS2_PLACEMENT_3D ( 'NONE', #643, #642, #641 ) ;
#209 = AXIS2_PLACEMENT_3D ( 'NONE', #620, #619, #618 ) ;
#210 = AXIS2_PLACEMENT_3D ( 'NONE', #614, #613, #612 ) ;
#211 = AXIS2_PLACEMENT_3D ( 'NONE', #608, #607, #606 ) ;
#212 = AXIS2_PLACEMENT_3D ( 'NONE', #603, #602, #601 ) ;
#213 = AXIS2_PLACEMENT_3D ( 'NONE', #594, #593, #592 ) ;
#214 = AXIS2_PLACEMENT_3D ( 'NONE', #588, #587, #586 ) ;
#215 = AXIS2_PLACEMENT_3D ( 'NONE', #578, #577, #576 ) ;
#216 = AXIS2_PLACEMENT_3D ( 'NONE', #573, #572, #571 ) ;
#217 = AXIS2_PLACEMENT_3D ( 'NONE', #563, #562, #561 ) ;
#218 = AXIS2_PLACEMENT_3D ( 'NONE', #552, #551, #550 ) ;
#219 =( GEOMETRIC_REPRESENTATION_CONTEXT ( 3 ) GLOBAL_UNCERTAINTY_ASSIGNED_CONTEXT ( ( #415 ) ) GLOBAL_UNIT_ASSIGNED_CONTEXT ( ( #548, #547, #546 ) ) REPRESENTATION_CONTEXT ( 'NONE', 'WORKASPACE' ) );
#220 = STYLED_ITEM ( 'NONE', ( #372 ), #416 ) ;
#221 = PRESENTATION_LAYER_ASSIGNMENT (  '', '', ( #220 ) ) ;
#222 = MECHANICAL_DESIGN_GEOMETRIC_PRESENTATION_REPRESENTATION (  '', ( #220 ), #223 ) ;
#223 =( GEOMETRIC_REPRESENTATION_CONTEXT ( 3 ) GLOBAL_UNCERTAINTY_ASSIGNED_CONTEXT ( ( #418 ) ) GLOBAL_UNIT_ASSIGNED_CONTEXT ( ( #539, #538, #537 ) ) REPRESENTATION_CONTEXT ( 'NONE', 'WORKASPACE' ) );
#224 = AXIS2_PLACEMENT_3D ( 'NONE', #536, #535, #534 ) ;
#225 = PRODUCT_DEFINITION ( 'UNKNOWN', '', #226, #258 ) ;
#226 = PRODUCT_DEFINITION_FORMATION_WITH_SPECIFIED_SOURCE ( 'ANY', '', #228, .NOT_KNOWN. ) ;
#227 = PRODUCT_RELATED_PRODUCT_CATEGORY ( 'part', '', ( #228 ) ) ;
#228 = PRODUCT ( 'LUXEON Z- R1', 'LUXEON Z- R1', '', ( #533 ) ) ;
#229 = ADVANCED_FACE ( 'NONE', ( #3 ), #1, .T. ) ;
#230 = ADVANCED_FACE ( 'NONE', ( #5 ), #309, .F. ) ;
#231 = ADVANCED_FACE ( 'NONE', ( #4 ), #308, .F. ) ;
#232 = ADVANCED_FACE ( 'NONE', ( #2 ), #379, .T. ) ;
#233 = ADVANCED_FACE ( 'NONE', ( #375 ), #381, .T. ) ;
#234 = ADVANCED_FACE ( 'NONE', ( #378 ), #323, .F. ) ;
#235 = ADVANCED_FACE ( 'NONE', ( #376 ), #322, .F. ) ;
#236 = ADVANCED_FACE ( 'NONE', ( #382 ), #385, .T. ) ;
#237 = ADVANCED_FACE ( 'NONE', ( #380 ), #334, .F. ) ;
#238 = ADVANCED_FACE ( 'NONE', ( #383 ), #333, .F. ) ;
#239 = ADVANCED_FACE ( 'NONE', ( #386 ), #389, .T. ) ;
#240 = ADVANCED_FACE ( 'NONE', ( #384 ), #391, .F. ) ;
#241 = ADVANCED_FACE ( 'NONE', ( #388 ), #348, .T. ) ;
#242 = ADVANCED_FACE ( 'NONE', ( #387 ), #347, .F. ) ;
#243 = ADVANCED_FACE ( 'NONE', ( #392 ), #352, .F. ) ;
#244 = ADVANCED_FACE ( 'NONE', ( #393 ), #356, .F. ) ;
#245 = ADVANCED_FACE ( 'NONE', ( #394 ), #360, .T. ) ;
#246 = ADVANCED_FACE ( 'NONE', ( #395 ), #364, .T. ) ;
#247 = ADVANCED_FACE ( 'NONE', ( #396 ), #734, .F. ) ;
#248 = ADVANCED_FACE ( 'NONE', ( #397 ), #371, .F. ) ;
#249 = ADVANCED_FACE ( 'NONE', ( #398 ), #401, .T. ) ;
#250 = ADVANCED_FACE ( 'NONE', ( #390 ), #724, .F. ) ;
#251 = ADVANCED_FACE ( 'NONE', ( #399 ), #404, .T. ) ;
#252 = ADVANCED_FACE ( 'NONE', ( #377 ), #406, .T. ) ;
#253 = ADVANCED_FACE ( 'NONE', ( #403 ), #714, .F. ) ;
#254 = ADVANCED_FACE ( 'NONE', ( #402, #408, #405 ), #709, .T. ) ;
#255 = DIMENSIONAL_EXPONENTS ( 1.000000000000000000, 0.0000000000000000000, 0.0000000000000000000, 0.0000000000000000000, 0.0000000000000000000, 0.0000000000000000000, 0.0000000000000000000 ) ;
#256 = DIMENSIONAL_EXPONENTS ( 1.000000000000000000, 0.0000000000000000000, 0.0000000000000000000, 0.0000000000000000000, 0.0000000000000000000, 0.0000000000000000000, 0.0000000000000000000 ) ;
#257 = DIMENSIONAL_EXPONENTS ( 1.000000000000000000, 0.0000000000000000000, 0.0000000000000000000, 0.0000000000000000000, 0.0000000000000000000, 0.0000000000000000000, 0.0000000000000000000 ) ;
#258 = PRODUCT_DEFINITION_CONTEXT ( 'detailed design', #532, 'design' ) ;
#259 = PRODUCT_DEFINITION_SHAPE ( 'NONE', 'NONE',  #225 ) ;
#260 = CARTESIAN_POINT ( 'NONE',  ( 0.003311279530307523900, -0.006267727921894991600, 0.02892034694411457100 ) ) ;
#261 = CARTESIAN_POINT ( 'NONE',  ( 0.001342775593299653200, -0.003807098000635148700, 0.02695184300710669300 ) ) ;
#262 = CARTESIAN_POINT ( 'NONE',  ( 0.01512230315235476400, -0.006267727921894991600, -0.03013477116612165200 ) ) ;
#263 = CARTESIAN_POINT ( 'NONE',  ( 0.01709080708936263500, -0.006267727921894991600, 0.02695184300710669700 ) ) ;
#264 = CARTESIAN_POINT ( 'NONE',  ( 0.01512230315235476400, -0.003807098000635148700, 0.02892034694411457100 ) ) ;
#265 = CARTESIAN_POINT ( 'NONE',  ( 0.01709080708936263500, -0.006267727921894991600, -0.02816626722911378200 ) ) ;
#266 = CARTESIAN_POINT ( 'NONE',  ( 0.01709080708936263500, -0.003807098000635148700, -0.02816626722911378200 ) ) ;
#267 = CARTESIAN_POINT ( 'NONE',  ( 0.001342775593299644700, -0.003807098000635148700, -0.02816626722911378200 ) ) ;
#268 = CARTESIAN_POINT ( 'NONE',  ( 0.01512230315235476400, -0.006267727921894991600, 0.02892034694411457100 ) ) ;
#269 = CARTESIAN_POINT ( 'NONE',  ( 0.003311279530307515200, -0.006267727921894991600, -0.03013477116612165200 ) ) ;
#270 = CARTESIAN_POINT ( 'NONE',  ( 0.01512230315235476400, -0.003807098000635148700, -0.03013477116612165200 ) ) ;
#271 = CARTESIAN_POINT ( 'NONE',  ( 0.001342775593299644700, -0.006267727921894991600, -0.02816626722911378200 ) ) ;
#272 = CARTESIAN_POINT ( 'NONE',  ( 0.01709080708936263500, -0.003807098000635148700, 0.02695184300710669700 ) ) ;
#273 = CARTESIAN_POINT ( 'NONE',  ( 0.02201206693188232200, 0.03152754766865619600, 0.03285735481813031900 ) ) ;
#274 = CARTESIAN_POINT ( 'NONE',  ( -0.02916903543032241300, -0.003807098000635145200, -0.03407177904013740400 ) ) ;
#275 = CARTESIAN_POINT ( 'NONE',  ( -0.02916903543032241300, 0.03152754766865619600, 0.03285735481813031900 ) ) ;
#276 = CARTESIAN_POINT ( 'NONE',  ( 0.003311279530307523900, -0.003807098000635148700, 0.02892034694411457100 ) ) ;
#277 = CARTESIAN_POINT ( 'NONE',  ( 0.001342775593299653200, -0.006267727921894991600, 0.02695184300710669300 ) ) ;
#278 = CARTESIAN_POINT ( 'NONE',  ( 0.02201206693188232200, 0.03152754766865619600, -0.03407177904013740400 ) ) ;
#279 = CARTESIAN_POINT ( 'NONE',  ( 0.003311279530307515200, -0.003807098000635148700, -0.03013477116612165200 ) ) ;
#280 = CARTESIAN_POINT ( 'NONE',  ( -0.02916903543032241300, 0.03152754766865619600, -0.03407177904013740400 ) ) ;
#281 = CARTESIAN_POINT ( 'NONE',  ( -0.02424777558780272600, -0.003807098000635148700, -0.02816626722911378200 ) ) ;
#282 = CARTESIAN_POINT ( 'NONE',  ( -0.02424777558780272600, -0.006267727921894991600, 0.02695184300710669700 ) ) ;
#283 = CARTESIAN_POINT ( 'NONE',  ( -0.02916903543032241300, -0.003807098000635145200, 0.03285735481813031900 ) ) ;
#284 = CARTESIAN_POINT ( 'NONE',  ( -0.02424777558780272600, -0.003807098000635148700, 0.02695184300710669700 ) ) ;
#285 = CARTESIAN_POINT ( 'NONE',  ( -0.01046824802874759900, -0.006267727921894991600, 0.02892034694411457100 ) ) ;
#286 = CARTESIAN_POINT ( 'NONE',  ( 0.02201206693188232200, -0.003807098000635145200, 0.03285735481813031900 ) ) ;
#287 = CARTESIAN_POINT ( 'NONE',  ( 0.02201206693188232200, -0.003807098000635145200, -0.03407177904013740400 ) ) ;
#288 = CARTESIAN_POINT ( 'NONE',  ( -0.02227927165079485200, -0.006267727921894991600, -0.03013477116612165200 ) ) ;
#289 = CARTESIAN_POINT ( 'NONE',  ( -0.02227927165079485200, -0.003807098000635148700, 0.02892034694411457100 ) ) ;
#290 = CARTESIAN_POINT ( 'NONE',  ( -0.01046824802874759900, -0.003807098000635148700, 0.02892034694411457100 ) ) ;
#291 = CARTESIAN_POINT ( 'NONE',  ( -0.008499744091739730400, -0.006267727921894991600, -0.02816626722911378200 ) ) ;
#292 = CARTESIAN_POINT ( 'NONE',  ( -0.01046824802874760400, -0.003807098000635148700, -0.03013477116612165200 ) ) ;
#293 = CARTESIAN_POINT ( 'NONE',  ( -0.008499744091739730400, -0.003807098000635148700, -0.02816626722911378200 ) ) ;
#294 = CARTESIAN_POINT ( 'NONE',  ( -0.02227927165079485200, -0.003807098000635148700, -0.03013477116612165200 ) ) ;
#295 = CARTESIAN_POINT ( 'NONE',  ( -0.02424777558780272600, -0.006267727921894991600, 0.001361291826004331100 ) ) ;
#296 = CARTESIAN_POINT ( 'NONE',  ( -0.02424777558780272600, -0.003807098000635148700, -0.002575716048011410400 ) ) ;
#297 = CARTESIAN_POINT ( 'NONE',  ( -0.02424777558780272600, -0.003807098000635148700, 0.001361291826004331100 ) ) ;
#298 = CARTESIAN_POINT ( 'NONE',  ( -0.02227927165079485200, -0.006267727921894991600, 0.02892034694411457100 ) ) ;
#299 = CARTESIAN_POINT ( 'NONE',  ( -0.01046824802874760400, -0.006267727921894991600, -0.03013477116612165200 ) ) ;
#300 = CARTESIAN_POINT ( 'NONE',  ( -0.02424777558780272600, -0.006267727921894991600, -0.02816626722911378200 ) ) ;
#301 = CARTESIAN_POINT ( 'NONE',  ( -0.008499744091739728700, -0.006267727921894991600, 0.02695184300710670000 ) ) ;
#302 = CARTESIAN_POINT ( 'NONE',  ( -0.008499744091739723500, -0.003807098000635148700, 0.02695184300710670000 ) ) ;
#303 = CARTESIAN_POINT ( 'NONE',  ( -0.02424777558780272600, -0.006267727921894991600, -0.002575716048011410400 ) ) ;
#304 = DIRECTION ( 'NONE',  ( 0.0000000000000000000, -1.000000000000000000, 0.0000000000000000000 ) ) ;
#305 = CARTESIAN_POINT ( 'NONE',  ( -0.02424777558780272600, -0.003807098000635148700, 0.02892034694411457100 ) ) ;
#306 = DIRECTION ( 'NONE',  ( 0.0000000000000000000, 0.0000000000000000000, -1.000000000000000000 ) ) ;
#307 = CARTESIAN_POINT ( 'NONE',  ( -0.01046824802874760400, -0.003807098000635148700, -0.02816626722911378200 ) ) ;
#308 = PLANE ( 'NONE',  #471 ) ;
#309 = PLANE ( 'NONE',  #469 ) ;
#310 = CARTESIAN_POINT ( 'NONE',  ( -0.02424777558780272600, -0.003807098000635148700, -0.03013477116612165200 ) ) ;
#311 = DIRECTION ( 'NONE',  ( 1.000000000000000000, -0.0000000000000000000, 0.0000000000000000000 ) ) ;
#312 = DIRECTION ( 'NONE',  ( 0.0000000000000000000, 0.0000000000000000000, -1.000000000000000000 ) ) ;
#313 = DIRECTION ( 'NONE',  ( 0.0000000000000000000, 1.000000000000000000, 0.0000000000000000000 ) ) ;
#314 = DIRECTION ( 'NONE',  ( 0.0000000000000000000, 0.0000000000000000000, 1.000000000000000000 ) ) ;
#315 = DIRECTION ( 'NONE',  ( 0.0000000000000000000, 0.0000000000000000000, 1.000000000000000000 ) ) ;
#316 = DIRECTION ( 'NONE',  ( 1.000000000000000000, 0.0000000000000000000, -0.0000000000000000000 ) ) ;
#317 = CARTESIAN_POINT ( 'NONE',  ( -0.01046824802874759900, -0.003807098000635148700, 0.02695184300710669700 ) ) ;
#318 = DIRECTION ( 'NONE',  ( 0.0000000000000000000, 0.0000000000000000000, -1.000000000000000000 ) ) ;
#319 = CARTESIAN_POINT ( 'NONE',  ( -0.02227927165079485200, -0.003807098000635148700, -0.02816626722911378200 ) ) ;
#320 = DIRECTION ( 'NONE',  ( -0.0000000000000000000, -1.000000000000000000, 0.0000000000000000000 ) ) ;
#321 = CARTESIAN_POINT ( 'NONE',  ( -0.008499744091739732200, -0.006267727921894991600, -0.03736683849054924600 ) ) ;
#322 = PLANE ( 'NONE',  #498 ) ;
#323 = PLANE ( 'NONE',  #472 ) ;
#324 = CARTESIAN_POINT ( 'NONE',  ( -0.02424777558780272600, -0.003807098000635148700, 0.02892034694411457100 ) ) ;
#325 = DIRECTION ( 'NONE',  ( -1.000000000000000000, 0.0000000000000000000, 1.424328550833738800E-016 ) ) ;
#326 = DIRECTION ( 'NONE',  ( 1.424328550833738800E-016, 0.0000000000000000000, 1.000000000000000000 ) ) ;
#327 = DIRECTION ( 'NONE',  ( 0.0000000000000000000, -1.000000000000000000, 0.0000000000000000000 ) ) ;
#328 = DIRECTION ( 'NONE',  ( 0.0000000000000000000, 0.0000000000000000000, -1.000000000000000000 ) ) ;
#329 = DIRECTION ( 'NONE',  ( 0.0000000000000000000, 0.0000000000000000000, -1.000000000000000000 ) ) ;
#330 = DIRECTION ( 'NONE',  ( -1.000000000000000000, 0.0000000000000000000, -0.0000000000000000000 ) ) ;
#331 = CARTESIAN_POINT ( 'NONE',  ( -0.02227927165079485200, -0.003807098000635148700, 0.02695184300710669700 ) ) ;
#332 = CARTESIAN_POINT ( 'NONE',  ( 0.001342775593299644700, -0.006267727921894991600, -0.03736683849054924600 ) ) ;
#333 = PLANE ( 'NONE',  #499 ) ;
#334 = PLANE ( 'NONE',  #496 ) ;
#335 = CARTESIAN_POINT ( 'NONE',  ( 0.02201206693188232200, 0.03152754766865619600, 0.03285735481813031900 ) ) ;
#336 = DIRECTION ( 'NONE',  ( 1.000000000000000000, 0.0000000000000000000, -1.139462840666991200E-016 ) ) ;
#337 = DIRECTION ( 'NONE',  ( -1.139462840666991200E-016, 0.0000000000000000000, -1.000000000000000000 ) ) ;
#338 = DIRECTION ( 'NONE',  ( -0.0000000000000000000, 1.000000000000000000, 0.0000000000000000000 ) ) ;
#339 = DIRECTION ( 'NONE',  ( 0.0000000000000000000, 0.0000000000000000000, 1.000000000000000000 ) ) ;
#340 = DIRECTION ( 'NONE',  ( -1.000000000000000000, 0.0000000000000000000, 0.0000000000000000000 ) ) ;
#341 = DIRECTION ( 'NONE',  ( 0.0000000000000000000, 0.0000000000000000000, 1.000000000000000000 ) ) ;
#342 = CARTESIAN_POINT ( 'NONE',  ( 0.003311279530307515200, -0.003807098000635148700, -0.02816626722911378200 ) ) ;
#343 = DIRECTION ( 'NONE',  ( 0.0000000000000000000, 0.0000000000000000000, 1.000000000000000000 ) ) ;
#344 = CARTESIAN_POINT ( 'NONE',  ( -0.02424777558780272600, -0.006267727921894991600, -0.0006072121110035396800 ) ) ;
#345 = DIRECTION ( 'NONE',  ( -0.0000000000000000000, 1.000000000000000000, -0.0000000000000000000 ) ) ;
#346 = CARTESIAN_POINT ( 'NONE',  ( -0.02424777558780272600, -0.006267727921894991600, -0.03013477116612165200 ) ) ;
#347 = PLANE ( 'NONE',  #737 ) ;
#348 = PLANE ( 'NONE',  #740 ) ;
#349 = CARTESIAN_POINT ( 'NONE',  ( 0.01709080708936263500, -0.003807098000635148700, 0.02892034694411457100 ) ) ;
#350 = DIRECTION ( 'NONE',  ( 0.0000000000000000000, -1.000000000000000000, 0.0000000000000000000 ) ) ;
#351 = DIRECTION ( 'NONE',  ( 0.0000000000000000000, -0.0000000000000000000, -1.000000000000000000 ) ) ;
#352 = PLANE ( 'NONE',  #739 ) ;
#353 = CARTESIAN_POINT ( 'NONE',  ( 0.02201206693188232200, 0.03152754766865619600, -0.03407177904013740400 ) ) ;
#354 = DIRECTION ( 'NONE',  ( -1.000000000000000000, 0.0000000000000000000, 0.0000000000000000000 ) ) ;
#355 = DIRECTION ( 'NONE',  ( 0.0000000000000000000, 0.0000000000000000000, 1.000000000000000000 ) ) ;
#356 = PLANE ( 'NONE',  #736 ) ;
#357 = CARTESIAN_POINT ( 'NONE',  ( -0.02424777558780272600, -0.003807098000635148700, 0.02892034694411457100 ) ) ;
#358 = DIRECTION ( 'NONE',  ( 0.0000000000000000000, -0.0000000000000000000, 1.000000000000000000 ) ) ;
#359 = DIRECTION ( 'NONE',  ( 1.000000000000000000, 0.0000000000000000000, -0.0000000000000000000 ) ) ;
#360 = PLANE ( 'NONE',  #189 ) ;
#361 = CARTESIAN_POINT ( 'NONE',  ( -0.02424777558780272600, -0.006267727921894991600, -0.03013477116612165200 ) ) ;
#362 = DIRECTION ( 'NONE',  ( 1.000000000000000000, -0.0000000000000000000, 0.0000000000000000000 ) ) ;
#363 = DIRECTION ( 'NONE',  ( 0.0000000000000000000, 0.0000000000000000000, -1.000000000000000000 ) ) ;
#364 = PLANE ( 'NONE',  #190 ) ;
#365 = CARTESIAN_POINT ( 'NONE',  ( -0.02916903543032241300, 0.03152754766865619600, -0.03407177904013740400 ) ) ;
#366 = DIRECTION ( 'NONE',  ( 0.0000000000000000000, -1.000000000000000000, 0.0000000000000000000 ) ) ;
#367 = DIRECTION ( 'NONE',  ( 0.0000000000000000000, -0.0000000000000000000, -1.000000000000000000 ) ) ;
#368 = CARTESIAN_POINT ( 'NONE',  ( -0.02916903543032241300, 0.03152754766865619600, 0.03285735481813031900 ) ) ;
#369 = DIRECTION ( 'NONE',  ( 0.0000000000000000000, 1.000000000000000000, -0.0000000000000000000 ) ) ;
#370 = DIRECTION ( 'NONE',  ( 0.0000000000000000000, 0.0000000000000000000, 1.000000000000000000 ) ) ;
#371 = PLANE ( 'NONE',  #187 ) ;
#372 = PRESENTATION_STYLE_ASSIGNMENT (( #541 ) ) ;
#373 = COLOUR_RGB ( '',0.7921568627450980000, 0.8196078431372548800, 0.9333333333333333500 ) ;
#374 = SURFACE_STYLE_FILL_AREA ( #543 ) ;
#375 = FACE_OUTER_BOUND ( 'NONE', #84, .T. ) ;
#376 = FACE_OUTER_BOUND ( 'NONE', #83, .T. ) ;
#377 = FACE_OUTER_BOUND ( 'NONE', #71, .T. ) ;
#378 = FACE_OUTER_BOUND ( 'NONE', #159, .T. ) ;
#379 = CYLINDRICAL_SURFACE ( 'NONE', #468, 0.001968503937007874900 ) ;
#380 = FACE_OUTER_BOUND ( 'NONE', #60, .T. ) ;
#381 = CYLINDRICAL_SURFACE ( 'NONE', #470, 0.001968503937007870500 ) ;
#382 = FACE_OUTER_BOUND ( 'NONE', #77, .T. ) ;
#383 = FACE_OUTER_BOUND ( 'NONE', #69, .T. ) ;
#384 = FACE_OUTER_BOUND ( 'NONE', #74, .T. ) ;
#385 = CYLINDRICAL_SURFACE ( 'NONE', #497, 0.001968503937007874900 ) ;
#386 = FACE_OUTER_BOUND ( 'NONE', #63, .T. ) ;
#387 = FACE_OUTER_BOUND ( 'NONE', #66, .T. ) ;
#388 = FACE_OUTER_BOUND ( 'NONE', #64, .T. ) ;
#389 = CYLINDRICAL_SURFACE ( 'NONE', #500, 0.001968503937007870500 ) ;
#390 = FACE_OUTER_BOUND ( 'NONE', #62, .T. ) ;
#391 = CYLINDRICAL_SURFACE ( 'NONE', #738, 0.001968503937007870500 ) ;
#392 = FACE_OUTER_BOUND ( 'NONE', #73, .T. ) ;
#393 = FACE_OUTER_BOUND ( 'NONE', #72, .T. ) ;
#394 = FACE_OUTER_BOUND ( 'NONE', #75, .T. ) ;
#395 = FACE_OUTER_BOUND ( 'NONE', #68, .T. ) ;
#396 = FACE_OUTER_BOUND ( 'NONE', #79, .T. ) ;
#397 = FACE_OUTER_BOUND ( 'NONE', #67, .T. ) ;
#398 = FACE_OUTER_BOUND ( 'NONE', #65, .T. ) ;
#399 = FACE_OUTER_BOUND ( 'NONE', #61, .T. ) ;
#400 = CIRCLE ( 'NONE', #201, 0.001968503937007874900 ) ;
#401 = CYLINDRICAL_SURFACE ( 'NONE', #191, 0.001968503937007874900 ) ;
#402 = FACE_BOUND ( 'NONE', #58, .T. ) ;
#403 = FACE_OUTER_BOUND ( 'NONE', #70, .T. ) ;
#404 = CYLINDRICAL_SURFACE ( 'NONE', #193, 0.001968503937007874900 ) ;
#405 = FACE_BOUND ( 'NONE', #57, .T. ) ;
#406 = CYLINDRICAL_SURFACE ( 'NONE', #194, 0.001968503937007870500 ) ;
#407 = COLOUR_RGB ( '',0.7921568627450980000, 0.8196078431372548800, 0.9333333333333333500 ) ;
#408 = FACE_OUTER_BOUND ( 'NONE', #59, .T. ) ;
#409 = LINE ( 'NONE', #698, #414 ) ;
#410 = LINE ( 'NONE', #699, #787 ) ;
#411 = SURFACE_STYLE_FILL_AREA ( #707 ) ;
#412 = PRESENTATION_STYLE_ASSIGNMENT (( #705 ) ) ;
#413 = LENGTH_MEASURE_WITH_UNIT ( LENGTH_MEASURE( 0.02539999999999999900 ), #704 );
#414 = VECTOR ( 'NONE', #700, 39.37007874015748100 ) ;
#415 = UNCERTAINTY_MEASURE_WITH_UNIT (LENGTH_MEASURE( 1.000000000000000100E-005 ), #548, 'distance_accuracy_value', 'NONE');
#416 = ADVANCED_BREP_SHAPE_REPRESENTATION ( 'LUXEON Z- R1', ( #419, #224 ), #219 ) ;
#417 = UNCERTAINTY_MEASURE_WITH_UNIT (LENGTH_MEASURE( 1.000000000000000100E-005 ), #703, 'distance_accuracy_value', 'NONE');
#418 = UNCERTAINTY_MEASURE_WITH_UNIT (LENGTH_MEASURE( 1.000000000000000100E-005 ), #539, 'distance_accuracy_value', 'NONE');
#419 = MANIFOLD_SOLID_BREP ( 'Join1', #841 ) ;
#420 = VECTOR ( 'NONE', #557, 39.37007874015748100 ) ;
#421 = LINE ( 'NONE', #570, #441 ) ;
#422 = CIRCLE ( 'NONE', #215, 0.001968503937007870500 ) ;
#423 = LINE ( 'NONE', #582, #442 ) ;
#424 = VECTOR ( 'NONE', #559, 39.37007874015748100 ) ;
#425 = VECTOR ( 'NONE', #584, 39.37007874015748100 ) ;
#426 = LINE ( 'NONE', #580, #427 ) ;
#427 = VECTOR ( 'NONE', #579, 39.37007874015748100 ) ;
#428 = LINE ( 'NONE', #560, #424 ) ;
#429 = CIRCLE ( 'NONE', #217, 0.001968503937007870500 ) ;
#430 = VECTOR ( 'NONE', #575, 39.37007874015748100 ) ;
#431 = LINE ( 'NONE', #585, #425 ) ;
#432 = VECTOR ( 'NONE', #595, 39.37007874015748100 ) ;
#433 = VECTOR ( 'NONE', #581, 39.37007874015748100 ) ;
#434 = CIRCLE ( 'NONE', #214, 0.001968503937007874900 ) ;
#435 = LINE ( 'NONE', #569, #430 ) ;
#436 = CIRCLE ( 'NONE', #216, 0.001968503937007870500 ) ;
#437 = LINE ( 'NONE', #583, #433 ) ;
#438 = LINE ( 'NONE', #558, #420 ) ;
#439 = VECTOR ( 'NONE', #565, 39.37007874015748100 ) ;
#440 = VECTOR ( 'NONE', #567, 39.37007874015748100 ) ;
#441 = VECTOR ( 'NONE', #568, 39.37007874015748100 ) ;
#442 = VECTOR ( 'NONE', #589, 39.37007874015748100 ) ;
#443 = LINE ( 'NONE', #574, #440 ) ;
#444 = LINE ( 'NONE', #596, #432 ) ;
#445 = LINE ( 'NONE', #566, #439 ) ;
#446 = EDGE_CURVE ( 'NONE', #21, #10, #400, .T. ) ;
#447 = EDGE_CURVE ( 'NONE', #32, #23, #409, .T. ) ;
#448 = EDGE_CURVE ( 'NONE', #9, #26, #410, .T. ) ;
#449 = EDGE_CURVE ( 'NONE', #20, #18, #792, .T. ) ;
#450 = EDGE_CURVE ( 'NONE', #18, #17, #789, .T. ) ;
#451 = EDGE_CURVE ( 'NONE', #17, #16, #755, .T. ) ;
#452 = EDGE_CURVE ( 'NONE', #16, #15, #750, .T. ) ;
#453 = EDGE_CURVE ( 'NONE', #15, #14, #754, .T. ) ;
#454 = EDGE_CURVE ( 'NONE', #23, #29, #788, .T. ) ;
#455 = EDGE_CURVE ( 'NONE', #25, #9, #786, .T. ) ;
#456 = EDGE_CURVE ( 'NONE', #19, #28, #790, .T. ) ;
#457 = EDGE_CURVE ( 'NONE', #28, #18, #778, .T. ) ;
#458 = EDGE_CURVE ( 'NONE', #20, #12, #783, .T. ) ;
#459 = EDGE_CURVE ( 'NONE', #14, #13, #742, .T. ) ;
#460 = EDGE_CURVE ( 'NONE', #12, #9, #752, .T. ) ;
#461 = EDGE_CURVE ( 'NONE', #13, #26, #747, .T. ) ;
#462 = EDGE_CURVE ( 'NONE', #24, #32, #758, .T. ) ;
#463 = EDGE_CURVE ( 'NONE', #22, #27, #779, .T. ) ;
#464 = EDGE_CURVE ( 'NONE', #15, #21, #748, .T. ) ;
#465 = EDGE_CURVE ( 'NONE', #27, #29, #785, .T. ) ;
#466 = EDGE_CURVE ( 'NONE', #23, #36, #782, .T. ) ;
#467 = EDGE_CURVE ( 'NONE', #22, #35, #776, .T. ) ;
#468 = AXIS2_PLACEMENT_3D ( 'NONE', #317, #313, #314 ) ;
#469 = AXIS2_PLACEMENT_3D ( 'NONE', #305, #311, #312 ) ;
#470 = AXIS2_PLACEMENT_3D ( 'NONE', #319, #320, #318 ) ;
#471 = AXIS2_PLACEMENT_3D ( 'NONE', #310, #315, #316 ) ;
#472 = AXIS2_PLACEMENT_3D ( 'NONE', #321, #325, #326 ) ;
#473 = AXIS2_PLACEMENT_3D ( 'NONE', #307, #304, #306 ) ;
#474 = EDGE_CURVE ( 'NONE', #19, #11, #746, .T. ) ;
#475 = EDGE_CURVE ( 'NONE', #38, #33, #775, .T. ) ;
#476 = EDGE_CURVE ( 'NONE', #24, #22, #773, .T. ) ;
#477 = EDGE_CURVE ( 'NONE', #33, #46, #771, .T. ) ;
#478 = EDGE_CURVE ( 'NONE', #39, #38, #772, .T. ) ;
#479 = EDGE_CURVE ( 'NONE', #27, #36, #769, .T. ) ;
#480 = EDGE_CURVE ( 'NONE', #35, #32, #766, .T. ) ;
#481 = EDGE_CURVE ( 'NONE', #29, #24, #764, .T. ) ;
#482 = EDGE_CURVE ( 'NONE', #11, #16, #762, .T. ) ;
#483 = EDGE_CURVE ( 'NONE', #26, #20, #760, .T. ) ;
#484 = EDGE_CURVE ( 'NONE', #21, #11, #180, .T. ) ;
#485 = EDGE_CURVE ( 'NONE', #25, #10, #162, .T. ) ;
#486 = EDGE_CURVE ( 'NONE', #44, #52, #179, .T. ) ;
#487 = EDGE_CURVE ( 'NONE', #13, #25, #165, .T. ) ;
#488 = EDGE_CURVE ( 'NONE', #36, #35, #160, .T. ) ;
#489 = EDGE_CURVE ( 'NONE', #12, #28, #185, .T. ) ;
#490 = EDGE_CURVE ( 'NONE', #17, #19, #186, .T. ) ;
#491 = EDGE_CURVE ( 'NONE', #10, #14, #182, .T. ) ;
#492 = EDGE_CURVE ( 'NONE', #47, #31, #181, .T. ) ;
#493 = EDGE_CURVE ( 'NONE', #45, #46, #177, .T. ) ;
#494 = EDGE_CURVE ( 'NONE', #44, #46, #166, .T. ) ;
#495 = EDGE_CURVE ( 'NONE', #39, #34, #176, .T. ) ;
#496 = AXIS2_PLACEMENT_3D ( 'NONE', #332, #336, #337 ) ;
#497 = AXIS2_PLACEMENT_3D ( 'NONE', #331, #327, #328 ) ;
#498 = AXIS2_PLACEMENT_3D ( 'NONE', #324, #329, #330 ) ;
#499 = AXIS2_PLACEMENT_3D ( 'NONE', #335, #340, #341 ) ;
#500 = AXIS2_PLACEMENT_3D ( 'NONE', #342, #338, #339 ) ;
#501 = EDGE_CURVE ( 'NONE', #47, #38, #175, .T. ) ;
#502 = EDGE_CURVE ( 'NONE', #50, #34, #172, .T. ) ;
#503 = EDGE_CURVE ( 'NONE', #31, #44, #170, .T. ) ;
#504 = EDGE_CURVE ( 'NONE', #34, #47, #169, .T. ) ;
#505 = EDGE_CURVE ( 'NONE', #51, #39, #434, .T. ) ;
#506 = EDGE_CURVE ( 'NONE', #33, #31, #444, .T. ) ;
#507 = EDGE_CURVE ( 'NONE', #52, #49, #431, .T. ) ;
#508 = EDGE_CURVE ( 'NONE', #49, #30, #437, .T. ) ;
#509 = EDGE_CURVE ( 'NONE', #30, #43, #422, .T. ) ;
#510 = EDGE_CURVE ( 'NONE', #43, #37, #423, .T. ) ;
#511 = EDGE_CURVE ( 'NONE', #49, #37, #436, .T. ) ;
#512 = EDGE_CURVE ( 'NONE', #41, #43, #426, .T. ) ;
#513 = EDGE_CURVE ( 'NONE', #48, #41, #421, .T. ) ;
#514 = EDGE_CURVE ( 'NONE', #37, #48, #443, .T. ) ;
#515 = EDGE_CURVE ( 'NONE', #30, #45, #445, .T. ) ;
#516 = EDGE_CURVE ( 'NONE', #48, #40, #429, .T. ) ;
#517 = EDGE_CURVE ( 'NONE', #50, #51, #435, .T. ) ;
#518 = EDGE_CURVE ( 'NONE', #51, #42, #428, .T. ) ;
#519 = EDGE_CURVE ( 'NONE', #40, #50, #438, .T. ) ;
#520 = EDGE_CURVE ( 'NONE', #42, #40, #527, .T. ) ;
#521 = EDGE_CURVE ( 'NONE', #45, #52, #528, .T. ) ;
#522 = EDGE_CURVE ( 'NONE', #41, #42, #525, .T. ) ;
#523 = LENGTH_MEASURE_WITH_UNIT ( LENGTH_MEASURE( 0.02539999999999999900 ), #549 );
#524 = VECTOR ( 'NONE', #553, 39.37007874015748100 ) ;
#525 = CIRCLE ( 'NONE', #218, 0.001968503937007870500 ) ;
#526 = VECTOR ( 'NONE', #555, 39.37007874015748100 ) ;
#527 = LINE ( 'NONE', #556, #526 ) ;
#528 = LINE ( 'NONE', #554, #524 ) ;
#529 = SHAPE_DEFINITION_REPRESENTATION ( #259, #416 ) ;
#530 = LENGTH_MEASURE_WITH_UNIT ( LENGTH_MEASURE( 0.02539999999999999900 ), #540 );
#531 = APPLICATION_PROTOCOL_DEFINITION ( 'draft international standard', 'automotive_design', 1998, #532 ) ;
#532 = APPLICATION_CONTEXT ( 'automotive_design' ) ;
#533 = PRODUCT_CONTEXT ( 'NONE', #544, 'mechanical' ) ;
#534 = DIRECTION ( 'NONE',  ( 1.000000000000000000, 0.0000000000000000000, 0.0000000000000000000 ) ) ;
#535 = DIRECTION ( 'NONE',  ( 0.0000000000000000000, 0.0000000000000000000, 1.000000000000000000 ) ) ;
#536 = CARTESIAN_POINT ( 'NONE',  ( 0.0000000000000000000, 0.0000000000000000000, 0.0000000000000000000 ) ) ;
#537 =( NAMED_UNIT ( * ) SI_UNIT ( $, .STERADIAN. ) SOLID_ANGLE_UNIT ( ) );
#538 =( NAMED_UNIT ( * ) PLANE_ANGLE_UNIT ( ) SI_UNIT ( $, .RADIAN. ) );
#539 =( CONVERSION_BASED_UNIT ( 'INCH', #530 ) LENGTH_UNIT ( ) NAMED_UNIT ( #257 ) );
#540 =( LENGTH_UNIT ( ) NAMED_UNIT ( * ) SI_UNIT ( $, .METRE. ) );
#541 = SURFACE_STYLE_USAGE ( .BOTH. , #542 ) ;
#542 = SURFACE_SIDE_STYLE ('',( #374 ) ) ;
#543 = FILL_AREA_STYLE ('',( #564 ) ) ;
#544 = APPLICATION_CONTEXT ( 'automotive_design' ) ;
#545 = APPLICATION_PROTOCOL_DEFINITION ( 'draft international standard', 'automotive_design', 1998, #544 ) ;
#546 =( NAMED_UNIT ( * ) SI_UNIT ( $, .STERADIAN. ) SOLID_ANGLE_UNIT ( ) );
#547 =( NAMED_UNIT ( * ) PLANE_ANGLE_UNIT ( ) SI_UNIT ( $, .RADIAN. ) );
#548 =( CONVERSION_BASED_UNIT ( 'INCH', #523 ) LENGTH_UNIT ( ) NAMED_UNIT ( #256 ) );
#549 =( LENGTH_UNIT ( ) NAMED_UNIT ( * ) SI_UNIT ( $, .METRE. ) );
#550 = DIRECTION ( 'NONE',  ( 0.0000000000000000000, 0.0000000000000000000, -1.000000000000000000 ) ) ;
#551 = DIRECTION ( 'NONE',  ( 0.0000000000000000000, -1.000000000000000000, 0.0000000000000000000 ) ) ;
#552 = CARTESIAN_POINT ( 'NONE',  ( -0.01046824802874760400, -0.003807098000635148700, -0.02816626722911378200 ) ) ;
#553 = DIRECTION ( 'NONE',  ( -0.0000000000000000000, -1.000000000000000000, -0.0000000000000000000 ) ) ;
#554 = CARTESIAN_POINT ( 'NONE',  ( -0.02424777558780272600, -0.003807098000635148700, -0.002575716048011410400 ) ) ;
#555 = DIRECTION ( 'NONE',  ( -0.0000000000000000000, -1.000000000000000000, 0.0000000000000000000 ) ) ;
#556 = CARTESIAN_POINT ( 'NONE',  ( -0.008499744091739730400, -0.006267727921894991600, -0.02816626722911378200 ) ) ;
#557 = DIRECTION ( 'NONE',  ( -0.0000000000000000000, 0.0000000000000000000, 1.000000000000000000 ) ) ;
#558 = CARTESIAN_POINT ( 'NONE',  ( -0.008499744091739732200, -0.006267727921894991600, -0.03013477116612165200 ) ) ;
#559 = DIRECTION ( 'NONE',  ( -1.424328550833738800E-016, -0.0000000000000000000, -1.000000000000000000 ) ) ;
#560 = CARTESIAN_POINT ( 'NONE',  ( -0.008499744091739732200, -0.003807098000635148700, -0.03736683849054924600 ) ) ;
#561 = DIRECTION ( 'NONE',  ( 0.0000000000000000000, 0.0000000000000000000, -1.000000000000000000 ) ) ;
#562 = DIRECTION ( 'NONE',  ( 0.0000000000000000000, -1.000000000000000000, 0.0000000000000000000 ) ) ;
#563 = CARTESIAN_POINT ( 'NONE',  ( -0.01046824802874760400, -0.006267727921894991600, -0.02816626722911378200 ) ) ;
#564 = FILL_AREA_STYLE_COLOUR ( '', #373 ) ;
#565 = DIRECTION ( 'NONE',  ( -0.0000000000000000000, -0.0000000000000000000, 1.000000000000000000 ) ) ;
#566 = CARTESIAN_POINT ( 'NONE',  ( -0.02424777558780272600, -0.003807098000635148700, 0.02892034694411457100 ) ) ;
#567 = DIRECTION ( 'NONE',  ( 1.000000000000000000, 0.0000000000000000000, 0.0000000000000000000 ) ) ;
#568 = DIRECTION ( 'NONE',  ( -0.0000000000000000000, 1.000000000000000000, -0.0000000000000000000 ) ) ;
#569 = CARTESIAN_POINT ( 'NONE',  ( -0.008499744091739723500, -0.003807098000635148700, 0.02695184300710670000 ) ) ;
#570 = CARTESIAN_POINT ( 'NONE',  ( -0.01046824802874760400, -0.003807098000635148700, -0.03013477116612165200 ) ) ;
#571 = DIRECTION ( 'NONE',  ( 0.0000000000000000000, 0.0000000000000000000, -1.000000000000000000 ) ) ;
#572 = DIRECTION ( 'NONE',  ( -0.0000000000000000000, -1.000000000000000000, 0.0000000000000000000 ) ) ;
#573 = CARTESIAN_POINT ( 'NONE',  ( -0.02227927165079485200, -0.006267727921894991600, -0.02816626722911378200 ) ) ;
#574 = CARTESIAN_POINT ( 'NONE',  ( -0.02424777558780272600, -0.006267727921894991600, -0.03013477116612165200 ) ) ;
#575 = DIRECTION ( 'NONE',  ( 0.0000000000000000000, 1.000000000000000000, 0.0000000000000000000 ) ) ;
#576 = DIRECTION ( 'NONE',  ( 0.0000000000000000000, 0.0000000000000000000, -1.000000000000000000 ) ) ;
#577 = DIRECTION ( 'NONE',  ( -0.0000000000000000000, -1.000000000000000000, 0.0000000000000000000 ) ) ;
#578 = CARTESIAN_POINT ( 'NONE',  ( -0.02227927165079485200, -0.003807098000635148700, -0.02816626722911378200 ) ) ;
#579 = DIRECTION ( 'NONE',  ( -1.000000000000000000, -0.0000000000000000000, 0.0000000000000000000 ) ) ;
#580 = CARTESIAN_POINT ( 'NONE',  ( -0.02424777558780272600, -0.003807098000635148700, -0.03013477116612165200 ) ) ;
#581 = DIRECTION ( 'NONE',  ( 0.0000000000000000000, 1.000000000000000000, -0.0000000000000000000 ) ) ;
#582 = CARTESIAN_POINT ( 'NONE',  ( -0.02227927165079485200, -0.003807098000635148700, -0.03013477116612165200 ) ) ;
#583 = CARTESIAN_POINT ( 'NONE',  ( -0.02424777558780272200, -0.003807098000635148700, -0.02816626722911378200 ) ) ;
#584 = DIRECTION ( 'NONE',  ( 0.0000000000000000000, -0.0000000000000000000, -1.000000000000000000 ) ) ;
#585 = CARTESIAN_POINT ( 'NONE',  ( -0.02424777558780272600, -0.006267727921894991600, -0.03013477116612165200 ) ) ;
#586 = DIRECTION ( 'NONE',  ( -1.084202172485504000E-015, 0.0000000000000000000, 1.000000000000000000 ) ) ;
#587 = DIRECTION ( 'NONE',  ( -0.0000000000000000000, -1.000000000000000000, -0.0000000000000000000 ) ) ;
#588 = CARTESIAN_POINT ( 'NONE',  ( -0.01046824802874759900, -0.003807098000635148700, 0.02695184300710669700 ) ) ;
#589 = DIRECTION ( 'NONE',  ( 0.0000000000000000000, -1.000000000000000000, -0.0000000000000000000 ) ) ;
#590 = DIRECTION ( 'NONE',  ( -1.000000000000000000, -0.0000000000000000000, -0.0000000000000000000 ) ) ;
#591 = CARTESIAN_POINT ( 'NONE',  ( -0.02424777558780272600, -0.006267727921894991600, 0.02892034694411457100 ) ) ;
#592 = DIRECTION ( 'NONE',  ( -1.084202172485504000E-015, 0.0000000000000000000, 1.000000000000000000 ) ) ;
#593 = DIRECTION ( 'NONE',  ( -0.0000000000000000000, -1.000000000000000000, -0.0000000000000000000 ) ) ;
#594 = CARTESIAN_POINT ( 'NONE',  ( -0.01046824802874759900, -0.006267727921894991600, 0.02695184300710669700 ) ) ;
#595 = DIRECTION ( 'NONE',  ( -0.0000000000000000000, -1.000000000000000000, -0.0000000000000000000 ) ) ;
#596 = CARTESIAN_POINT ( 'NONE',  ( -0.02424777558780272600, -0.003807098000635148700, 0.02695184300710669700 ) ) ;
#597 = DIRECTION ( 'NONE',  ( -0.0000000000000000000, 1.000000000000000000, -0.0000000000000000000 ) ) ;
#598 = CARTESIAN_POINT ( 'NONE',  ( -0.02424777558780272600, -0.006267727921894991600, -0.03013477116612165200 ) ) ;
#599 = DIRECTION ( 'NONE',  ( -0.0000000000000000000, -1.000000000000000000, -0.0000000000000000000 ) ) ;
#600 = DIRECTION ( 'NONE',  ( 0.0000000000000000000, -0.0000000000000000000, -1.000000000000000000 ) ) ;
#601 = DIRECTION ( 'NONE',  ( 0.0000000000000000000, 0.0000000000000000000, 1.000000000000000000 ) ) ;
#602 = DIRECTION ( 'NONE',  ( 0.0000000000000000000, -1.000000000000000000, 0.0000000000000000000 ) ) ;
#603 = CARTESIAN_POINT ( 'NONE',  ( -0.02424777558780272600, -0.003807098000635148700, -0.0006072121110035396800 ) ) ;
#604 = CARTESIAN_POINT ( 'NONE',  ( -0.02424777558780272600, -0.003807098000635148700, 0.001361291826004331100 ) ) ;
#605 = CARTESIAN_POINT ( 'NONE',  ( -0.01046824802874759900, -0.003807098000635148700, 0.02892034694411457100 ) ) ;
#606 = DIRECTION ( 'NONE',  ( 0.0000000000000000000, 0.0000000000000000000, -1.000000000000000000 ) ) ;
#607 = DIRECTION ( 'NONE',  ( 0.0000000000000000000, -1.000000000000000000, 0.0000000000000000000 ) ) ;
#608 = CARTESIAN_POINT ( 'NONE',  ( -0.02227927165079485200, -0.006267727921894991600, 0.02695184300710669700 ) ) ;
#609 = DIRECTION ( 'NONE',  ( 0.0000000000000000000, 1.000000000000000000, 0.0000000000000000000 ) ) ;
#610 = DIRECTION ( 'NONE',  ( -0.0000000000000000000, -1.000000000000000000, -0.0000000000000000000 ) ) ;
#611 = CARTESIAN_POINT ( 'NONE',  ( 0.01512230315235476400, -0.003807098000635148700, 0.02892034694411457100 ) ) ;
#612 = DIRECTION ( 'NONE',  ( 0.0000000000000000000, 0.0000000000000000000, 1.000000000000000000 ) ) ;
#613 = DIRECTION ( 'NONE',  ( 0.0000000000000000000, -1.000000000000000000, -0.0000000000000000000 ) ) ;
#614 = CARTESIAN_POINT ( 'NONE',  ( 0.003311279530307515200, -0.003807098000635148700, -0.02816626722911378200 ) ) ;
#615 = CARTESIAN_POINT ( 'NONE',  ( -0.02227927165079485200, -0.003807098000635148700, 0.02892034694411457100 ) ) ;
#616 = DIRECTION ( 'NONE',  ( 0.0000000000000000000, 0.0000000000000000000, 1.000000000000000000 ) ) ;
#617 = CARTESIAN_POINT ( 'NONE',  ( 0.02201206693188232200, -0.003807098000635145200, 0.03285735481813031900 ) ) ;
#618 = DIRECTION ( 'NONE',  ( 0.0000000000000000000, 0.0000000000000000000, 1.000000000000000000 ) ) ;
#619 = DIRECTION ( 'NONE',  ( -0.0000000000000000000, 1.000000000000000000, -0.0000000000000000000 ) ) ;
#620 = CARTESIAN_POINT ( 'NONE',  ( -0.02424777558780272600, -0.006267727921894991600, -0.0006072121110035396800 ) ) ;
#621 = CARTESIAN_POINT ( 'NONE',  ( 0.003311279530307523900, -0.003807098000635148700, 0.02892034694411457100 ) ) ;
#622 = CARTESIAN_POINT ( 'NONE',  ( 0.01512230315235476400, -0.003807098000635148700, -0.03013477116612165200 ) ) ;
#623 = DIRECTION ( 'NONE',  ( -0.0000000000000000000, 1.000000000000000000, -0.0000000000000000000 ) ) ;
#624 = DIRECTION ( 'NONE',  ( 1.000000000000000000, -0.0000000000000000000, 0.0000000000000000000 ) ) ;
#625 = CARTESIAN_POINT ( 'NONE',  ( -0.02424777558780272600, -0.003807098000635148700, 0.02892034694411457100 ) ) ;
#626 = DIRECTION ( 'NONE',  ( -0.0000000000000000000, -0.0000000000000000000, -1.000000000000000000 ) ) ;
#627 = CARTESIAN_POINT ( 'NONE',  ( 0.01709080708936263500, -0.003807098000635148700, 0.02892034694411457100 ) ) ;
#628 = DIRECTION ( 'NONE',  ( 0.0000000000000000000, -0.0000000000000000000, -1.000000000000000000 ) ) ;
#629 = CARTESIAN_POINT ( 'NONE',  ( 0.001342775593299649000, -0.006267727921894991600, -0.03013477116612165200 ) ) ;
#630 = DIRECTION ( 'NONE',  ( -0.0000000000000000000, -1.000000000000000000, 0.0000000000000000000 ) ) ;
#631 = CARTESIAN_POINT ( 'NONE',  ( 0.01709080708936263500, -0.003807098000635148700, -0.02816626722911378200 ) ) ;
#632 = DIRECTION ( 'NONE',  ( 0.0000000000000000000, 0.0000000000000000000, 1.000000000000000000 ) ) ;
#633 = CARTESIAN_POINT ( 'NONE',  ( -0.02916903543032241300, 0.03152754766865619600, -0.03407177904013740400 ) ) ;
#634 = DIRECTION ( 'NONE',  ( -1.000000000000000000, 0.0000000000000000000, -0.0000000000000000000 ) ) ;
#635 = CARTESIAN_POINT ( 'NONE',  ( -0.02916903543032241300, -0.003807098000635145200, 0.03285735481813031900 ) ) ;
#636 = DIRECTION ( 'NONE',  ( -0.0000000000000000000, -1.000000000000000000, 0.0000000000000000000 ) ) ;
#637 = DIRECTION ( 'NONE',  ( -0.0000000000000000000, 1.000000000000000000, -0.0000000000000000000 ) ) ;
#638 = DIRECTION ( 'NONE',  ( -1.000000000000000000, -0.0000000000000000000, -0.0000000000000000000 ) ) ;
#639 = DIRECTION ( 'NONE',  ( 0.0000000000000000000, -0.0000000000000000000, -1.000000000000000000 ) ) ;
#640 = CARTESIAN_POINT ( 'NONE',  ( -0.02424777558780272600, -0.003807098000635148700, -0.03013477116612165200 ) ) ;
#641 = DIRECTION ( 'NONE',  ( 0.0000000000000000000, 0.0000000000000000000, -1.000000000000000000 ) ) ;
#642 = DIRECTION ( 'NONE',  ( 0.0000000000000000000, -1.000000000000000000, 0.0000000000000000000 ) ) ;
#643 = CARTESIAN_POINT ( 'NONE',  ( -0.02227927165079485200, -0.003807098000635148700, 0.02695184300710669700 ) ) ;
#644 = CARTESIAN_POINT ( 'NONE',  ( -0.02916903543032241300, 0.03152754766865619600, 0.03285735481813031900 ) ) ;
#645 = CARTESIAN_POINT ( 'NONE',  ( -0.02424777558780272600, -0.003807098000635148700, 0.02892034694411457100 ) ) ;
#646 = DIRECTION ( 'NONE',  ( 0.0000000000000000000, 0.0000000000000000000, -1.000000000000000000 ) ) ;
#647 = DIRECTION ( 'NONE',  ( 0.0000000000000000000, -1.000000000000000000, 0.0000000000000000000 ) ) ;
#648 = CARTESIAN_POINT ( 'NONE',  ( 0.01512230315235476400, -0.003807098000635148700, -0.02816626722911378200 ) ) ;
#649 = DIRECTION ( 'NONE',  ( 1.000000000000000000, -0.0000000000000000000, 0.0000000000000000000 ) ) ;
#650 = DIRECTION ( 'NONE',  ( -0.0000000000000000000, -1.000000000000000000, -0.0000000000000000000 ) ) ;
#651 = CARTESIAN_POINT ( 'NONE',  ( 0.02201206693188232200, 0.01115353192062469900, -0.03407177904013740400 ) ) ;
#652 = CARTESIAN_POINT ( 'NONE',  ( 0.02201206693188232200, 0.01115353192062469900, 0.03285735481813031900 ) ) ;
#653 = DIRECTION ( 'NONE',  ( 1.000000000000000000, 0.0000000000000000000, -0.0000000000000000000 ) ) ;
#654 = CARTESIAN_POINT ( 'NONE',  ( -0.02916903543032241300, -0.003807098000635145200, -0.03407177904013740400 ) ) ;
#655 = DIRECTION ( 'NONE',  ( -1.000000000000000000, 0.0000000000000000000, -0.0000000000000000000 ) ) ;
#656 = CARTESIAN_POINT ( 'NONE',  ( -0.02916903543032241300, 0.03152754766865619600, -0.03407177904013740400 ) ) ;
#657 = DIRECTION ( 'NONE',  ( -0.0000000000000000000, 1.000000000000000000, -0.0000000000000000000 ) ) ;
#658 = DIRECTION ( 'NONE',  ( -0.0000000000000000000, -0.0000000000000000000, -1.000000000000000000 ) ) ;
#659 = DIRECTION ( 'NONE',  ( 0.0000000000000000000, 0.0000000000000000000, -1.000000000000000000 ) ) ;
#660 = DIRECTION ( 'NONE',  ( 0.0000000000000000000, -1.000000000000000000, 0.0000000000000000000 ) ) ;
#661 = CARTESIAN_POINT ( 'NONE',  ( 0.003311279530307523900, -0.006267727921894991600, 0.02695184300710669700 ) ) ;
#662 = CARTESIAN_POINT ( 'NONE',  ( 0.02201206693188232200, 0.03152754766865619600, -0.03407177904013740400 ) ) ;
#663 = CARTESIAN_POINT ( 'NONE',  ( 0.01709080708936263500, -0.003807098000635148700, 0.02695184300710669700 ) ) ;
#664 = DIRECTION ( 'NONE',  ( 1.139462840666991200E-016, -0.0000000000000000000, 1.000000000000000000 ) ) ;
#665 = CARTESIAN_POINT ( 'NONE',  ( 0.001342775593299644700, -0.003807098000635148700, -0.03736683849054924600 ) ) ;
#666 = DIRECTION ( 'NONE',  ( -1.000000000000000000, -0.0000000000000000000, -0.0000000000000000000 ) ) ;
#667 = CARTESIAN_POINT ( 'NONE',  ( -0.02424777558780272600, -0.006267727921894991600, 0.02892034694411457100 ) ) ;
#668 = DIRECTION ( 'NONE',  ( -0.0000000000000000000, 1.000000000000000000, 0.0000000000000000000 ) ) ;
#669 = CARTESIAN_POINT ( 'NONE',  ( -0.02916903543032241300, 0.01115353192062469900, 0.03285735481813031900 ) ) ;
#670 = DIRECTION ( 'NONE',  ( 0.0000000000000000000, -1.000000000000000000, -0.0000000000000000000 ) ) ;
#671 = DIRECTION ( 'NONE',  ( -0.0000000000000000000, -1.000000000000000000, -0.0000000000000000000 ) ) ;
#672 = DIRECTION ( 'NONE',  ( 0.0000000000000000000, 0.0000000000000000000, -1.000000000000000000 ) ) ;
#673 = DIRECTION ( 'NONE',  ( 0.0000000000000000000, -1.000000000000000000, 0.0000000000000000000 ) ) ;
#674 = CARTESIAN_POINT ( 'NONE',  ( 0.003311279530307523900, -0.003807098000635148700, 0.02695184300710669700 ) ) ;
#675 = CARTESIAN_POINT ( 'NONE',  ( 0.003311279530307515200, -0.003807098000635148700, -0.03013477116612165200 ) ) ;
#676 = CARTESIAN_POINT ( 'NONE',  ( 0.001342775593299644700, -0.003807098000635148700, -0.02816626722911378200 ) ) ;
#677 = CARTESIAN_POINT ( 'NONE',  ( -0.02424777558780272600, -0.003807098000635148700, -0.03013477116612165200 ) ) ;
#678 = DIRECTION ( 'NONE',  ( 0.0000000000000000000, 0.0000000000000000000, -1.000000000000000000 ) ) ;
#679 = DIRECTION ( 'NONE',  ( 0.0000000000000000000, -1.000000000000000000, 0.0000000000000000000 ) ) ;
#680 = CARTESIAN_POINT ( 'NONE',  ( 0.01512230315235476400, -0.006267727921894991600, 0.02695184300710669700 ) ) ;
#681 = DIRECTION ( 'NONE',  ( -1.000000000000000000, -0.0000000000000000000, 0.0000000000000000000 ) ) ;
#682 = DIRECTION ( 'NONE',  ( 0.0000000000000000000, 0.0000000000000000000, -1.000000000000000000 ) ) ;
#683 = DIRECTION ( 'NONE',  ( 0.0000000000000000000, -1.000000000000000000, 0.0000000000000000000 ) ) ;
#684 = CARTESIAN_POINT ( 'NONE',  ( 0.01512230315235476400, -0.006267727921894991600, -0.02816626722911378200 ) ) ;
#685 = DIRECTION ( 'NONE',  ( 0.0000000000000000000, 1.000000000000000000, 0.0000000000000000000 ) ) ;
#686 = CARTESIAN_POINT ( 'NONE',  ( -0.02916903543032241300, 0.01115353192062469900, -0.03407177904013740400 ) ) ;
#687 = DIRECTION ( 'NONE',  ( 0.0000000000000000000, 0.0000000000000000000, 1.000000000000000000 ) ) ;
#688 = DIRECTION ( 'NONE',  ( 0.0000000000000000000, -1.000000000000000000, -0.0000000000000000000 ) ) ;
#689 = CARTESIAN_POINT ( 'NONE',  ( 0.003311279530307515200, -0.006267727921894991600, -0.02816626722911378200 ) ) ;
#690 = CARTESIAN_POINT ( 'NONE',  ( -0.02424777558780272600, -0.006267727921894991600, -0.03013477116612165200 ) ) ;
#691 = DIRECTION ( 'NONE',  ( -0.0000000000000000000, 0.0000000000000000000, 1.000000000000000000 ) ) ;
#692 = CARTESIAN_POINT ( 'NONE',  ( 0.01709080708936263500, -0.006267727921894991600, -0.03013477116612165200 ) ) ;
#693 = DIRECTION ( 'NONE',  ( 1.000000000000000000, 0.0000000000000000000, 0.0000000000000000000 ) ) ;
#694 = DIRECTION ( 'NONE',  ( -0.0000000000000000000, -1.000000000000000000, -0.0000000000000000000 ) ) ;
#695 = DIRECTION ( 'NONE',  ( 0.0000000000000000000, 0.0000000000000000000, -1.000000000000000000 ) ) ;
#696 = DIRECTION ( 'NONE',  ( 0.0000000000000000000, -1.000000000000000000, 0.0000000000000000000 ) ) ;
#697 = CARTESIAN_POINT ( 'NONE',  ( 0.01512230315235476400, -0.003807098000635148700, 0.02695184300710669700 ) ) ;
#698 = CARTESIAN_POINT ( 'NONE',  ( -0.02916903543032241300, -0.003807098000635145200, 0.03285735481813031900 ) ) ;
#699 = CARTESIAN_POINT ( 'NONE',  ( 0.001342775593299653200, -0.006267727921894991600, 0.02695184300710668300 ) ) ;
#700 = DIRECTION ( 'NONE',  ( 0.0000000000000000000, 0.0000000000000000000, -1.000000000000000000 ) ) ;
#701 =( NAMED_UNIT ( * ) SI_UNIT ( $, .STERADIAN. ) SOLID_ANGLE_UNIT ( ) );
#702 =( NAMED_UNIT ( * ) PLANE_ANGLE_UNIT ( ) SI_UNIT ( $, .RADIAN. ) );
#703 =( CONVERSION_BASED_UNIT ( 'INCH', #413 ) LENGTH_UNIT ( ) NAMED_UNIT ( #255 ) );
#704 =( LENGTH_UNIT ( ) NAMED_UNIT ( * ) SI_UNIT ( $, .METRE. ) );
#705 = SURFACE_STYLE_USAGE ( .BOTH. , #706 ) ;
#706 = SURFACE_SIDE_STYLE ('',( #411 ) ) ;
#707 = FILL_AREA_STYLE ('',( #715 ) ) ;
#708 = DIRECTION ( 'NONE',  ( 0.0000000000000000000, -0.0000000000000000000, -1.000000000000000000 ) ) ;
#709 = PLANE ( 'NONE',  #197 ) ;
#710 = CARTESIAN_POINT ( 'NONE',  ( -0.02916903543032241300, -0.003807098000635145200, -0.03407177904013740400 ) ) ;
#711 = DIRECTION ( 'NONE',  ( -1.000000000000000000, 0.0000000000000000000, -0.0000000000000000000 ) ) ;
#712 = DIRECTION ( 'NONE',  ( 0.0000000000000000000, 0.0000000000000000000, -1.000000000000000000 ) ) ;
#713 = DIRECTION ( 'NONE',  ( 0.0000000000000000000, -1.000000000000000000, 0.0000000000000000000 ) ) ;
#714 = PLANE ( 'NONE',  #195 ) ;
#715 = FILL_AREA_STYLE_COLOUR ( '', #407 ) ;
#716 = CARTESIAN_POINT ( 'NONE',  ( -0.02424777558780272600, -0.003807098000635148700, 0.02892034694411457100 ) ) ;
#717 = DIRECTION ( 'NONE',  ( 0.0000000000000000000, -1.000000000000000000, 0.0000000000000000000 ) ) ;
#718 = CARTESIAN_POINT ( 'NONE',  ( 0.01512230315235476400, -0.003807098000635148700, -0.02816626722911378200 ) ) ;
#719 = DIRECTION ( 'NONE',  ( 0.0000000000000000000, 0.0000000000000000000, -1.000000000000000000 ) ) ;
#720 = CARTESIAN_POINT ( 'NONE',  ( 0.003311279530307523900, -0.003807098000635148700, 0.02695184300710669700 ) ) ;
#721 = DIRECTION ( 'NONE',  ( 1.000000000000000000, 0.0000000000000000000, -0.0000000000000000000 ) ) ;
#722 = DIRECTION ( 'NONE',  ( 0.0000000000000000000, 0.0000000000000000000, 1.000000000000000000 ) ) ;
#723 = DIRECTION ( 'NONE',  ( 0.0000000000000000000, 0.0000000000000000000, -1.000000000000000000 ) ) ;
#724 = PLANE ( 'NONE',  #192 ) ;
#725 = DIRECTION ( 'NONE',  ( 0.0000000000000000000, -1.000000000000000000, 0.0000000000000000000 ) ) ;
#726 = DIRECTION ( 'NONE',  ( 0.0000000000000000000, 0.0000000000000000000, -1.000000000000000000 ) ) ;
#727 = CARTESIAN_POINT ( 'NONE',  ( -0.02424777558780272600, -0.003807098000635148700, -0.03013477116612165200 ) ) ;
#728 = CARTESIAN_POINT ( 'NONE',  ( 0.01512230315235476400, -0.003807098000635148700, 0.02695184300710669700 ) ) ;
#729 = DIRECTION ( 'NONE',  ( -1.000000000000000000, 0.0000000000000000000, -0.0000000000000000000 ) ) ;
#730 = DIRECTION ( 'NONE',  ( 0.0000000000000000000, -1.000000000000000000, 0.0000000000000000000 ) ) ;
#731 = DIRECTION ( 'NONE',  ( 0.0000000000000000000, 0.0000000000000000000, -1.000000000000000000 ) ) ;
#732 = DIRECTION ( 'NONE',  ( 1.000000000000000000, 0.0000000000000000000, 0.0000000000000000000 ) ) ;
#733 = CARTESIAN_POINT ( 'NONE',  ( -0.02916903543032241300, 0.03152754766865619600, -0.03407177904013740400 ) ) ;
#734 = PLANE ( 'NONE',  #188 ) ;
#735 = DIRECTION ( 'NONE',  ( 0.0000000000000000000, 0.0000000000000000000, -1.000000000000000000 ) ) ;
#736 = AXIS2_PLACEMENT_3D ( 'NONE', #357, #362, #363 ) ;
#737 = AXIS2_PLACEMENT_3D ( 'NONE', #349, #354, #355 ) ;
#738 = AXIS2_PLACEMENT_3D ( 'NONE', #344, #345, #343 ) ;
#739 = AXIS2_PLACEMENT_3D ( 'NONE', #353, #358, #359 ) ;
#740 = AXIS2_PLACEMENT_3D ( 'NONE', #346, #350, #351 ) ;
#741 = VECTOR ( 'NONE', #628, 39.37007874015748100 ) ;
#742 = LINE ( 'NONE', #667, #743 ) ;
#743 = VECTOR ( 'NONE', #666, 39.37007874015748100 ) ;
#744 = VECTOR ( 'NONE', #658, 39.37007874015748100 ) ;
#745 = VECTOR ( 'NONE', #693, 39.37007874015748100 ) ;
#746 = CIRCLE ( 'NONE', #207, 0.001968503937007870500 ) ;
#747 = CIRCLE ( 'NONE', #206, 0.001968503937007874900 ) ;
#748 = LINE ( 'NONE', #663, #781 ) ;
#749 = VECTOR ( 'NONE', #664, 39.37007874015748100 ) ;
#750 = LINE ( 'NONE', #692, #751 ) ;
#751 = VECTOR ( 'NONE', #691, 39.37007874015748100 ) ;
#752 = LINE ( 'NONE', #665, #749 ) ;
#753 = VECTOR ( 'NONE', #670, 39.37007874015748100 ) ;
#754 = CIRCLE ( 'NONE', #204, 0.001968503937007874900 ) ;
#755 = CIRCLE ( 'NONE', #203, 0.001968503937007870500 ) ;
#756 = VECTOR ( 'NONE', #681, 39.37007874015748100 ) ;
#757 = VECTOR ( 'NONE', #668, 39.37007874015748100 ) ;
#758 = LINE ( 'NONE', #669, #791 ) ;
#759 = VECTOR ( 'NONE', #630, 39.37007874015748100 ) ;
#760 = LINE ( 'NONE', #629, #741 ) ;
#761 = VECTOR ( 'NONE', #632, 39.37007874015748100 ) ;
#762 = LINE ( 'NONE', #631, #759 ) ;
#763 = VECTOR ( 'NONE', #634, 39.37007874015748100 ) ;
#764 = LINE ( 'NONE', #633, #761 ) ;
#765 = VECTOR ( 'NONE', #636, 39.37007874015748100 ) ;
#766 = LINE ( 'NONE', #635, #763 ) ;
#767 = VECTOR ( 'NONE', #638, 39.37007874015748100 ) ;
#768 = VECTOR ( 'NONE', #639, 39.37007874015748100 ) ;
#769 = LINE ( 'NONE', #651, #765 ) ;
#770 = VECTOR ( 'NONE', #649, 39.37007874015748100 ) ;
#771 = LINE ( 'NONE', #640, #768 ) ;
#772 = LINE ( 'NONE', #645, #767 ) ;
#773 = LINE ( 'NONE', #644, #770 ) ;
#774 = VECTOR ( 'NONE', #650, 39.37007874015748100 ) ;
#775 = CIRCLE ( 'NONE', #208, 0.001968503937007874900 ) ;
#776 = LINE ( 'NONE', #652, #774 ) ;
#777 = VECTOR ( 'NONE', #655, 39.37007874015748100 ) ;
#778 = LINE ( 'NONE', #675, #753 ) ;
#779 = LINE ( 'NONE', #662, #744 ) ;
#780 = VECTOR ( 'NONE', #653, 39.37007874015748100 ) ;
#781 = VECTOR ( 'NONE', #657, 39.37007874015748100 ) ;
#782 = LINE ( 'NONE', #654, #780 ) ;
#783 = LINE ( 'NONE', #676, #757 ) ;
#784 = VECTOR ( 'NONE', #685, 39.37007874015748100 ) ;
#785 = LINE ( 'NONE', #656, #777 ) ;
#786 = CIRCLE ( 'NONE', #205, 0.001968503937007874900 ) ;
#787 = VECTOR ( 'NONE', #694, 39.37007874015748100 ) ;
#788 = LINE ( 'NONE', #686, #784 ) ;
#789 = LINE ( 'NONE', #690, #745 ) ;
#790 = LINE ( 'NONE', #677, #756 ) ;
#791 = VECTOR ( 'NONE', #671, 39.37007874015748100 ) ;
#792 = CIRCLE ( 'NONE', #202, 0.001968503937007870500 ) ;
#793 = ORIENTED_EDGE ( 'NONE', *, *, #514, .T. ) ;
#794 = ORIENTED_EDGE ( 'NONE', *, *, #521, .T. ) ;
#795 = ORIENTED_EDGE ( 'NONE', *, *, #476, .T. ) ;
#796 = ORIENTED_EDGE ( 'NONE', *, *, #516, .T. ) ;
#797 = ORIENTED_EDGE ( 'NONE', *, *, #486, .F. ) ;
#798 = ORIENTED_EDGE ( 'NONE', *, *, #484, .F. ) ;
#799 = ORIENTED_EDGE ( 'NONE', *, *, #482, .F. ) ;
#800 = ORIENTED_EDGE ( 'NONE', *, *, #482, .T. ) ;
#801 = ORIENTED_EDGE ( 'NONE', *, *, #461, .T. ) ;
#802 = ORIENTED_EDGE ( 'NONE', *, *, #451, .F. ) ;
#803 = ORIENTED_EDGE ( 'NONE', *, *, #459, .T. ) ;
#804 = ORIENTED_EDGE ( 'NONE', *, *, #490, .T. ) ;
#805 = ORIENTED_EDGE ( 'NONE', *, *, #474, .T. ) ;
#806 = ORIENTED_EDGE ( 'NONE', *, *, #483, .T. ) ;
#807 = ORIENTED_EDGE ( 'NONE', *, *, #454, .F. ) ;
#808 = ORIENTED_EDGE ( 'NONE', *, *, #480, .F. ) ;
#809 = ORIENTED_EDGE ( 'NONE', *, *, #449, .T. ) ;
#810 = ORIENTED_EDGE ( 'NONE', *, *, #453, .T. ) ;
#811 = ORIENTED_EDGE ( 'NONE', *, *, #452, .T. ) ;
#812 = ORIENTED_EDGE ( 'NONE', *, *, #450, .T. ) ;
#813 = ORIENTED_EDGE ( 'NONE', *, *, #463, .F. ) ;
#814 = ORIENTED_EDGE ( 'NONE', *, *, #488, .F. ) ;
#815 = ORIENTED_EDGE ( 'NONE', *, *, #467, .T. ) ;
#816 = ORIENTED_EDGE ( 'NONE', *, *, #479, .F. ) ;
#817 = ORIENTED_EDGE ( 'NONE', *, *, #467, .F. ) ;
#818 = ORIENTED_EDGE ( 'NONE', *, *, #481, .F. ) ;
#819 = ORIENTED_EDGE ( 'NONE', *, *, #447, .F. ) ;
#820 = ORIENTED_EDGE ( 'NONE', *, *, #476, .F. ) ;
#821 = ORIENTED_EDGE ( 'NONE', *, *, #462, .F. ) ;
#822 = ORIENTED_EDGE ( 'NONE', *, *, #503, .F. ) ;
#823 = ORIENTED_EDGE ( 'NONE', *, *, #479, .T. ) ;
#824 = ORIENTED_EDGE ( 'NONE', *, *, #465, .F. ) ;
#825 = ORIENTED_EDGE ( 'NONE', *, *, #502, .T. ) ;
#826 = ORIENTED_EDGE ( 'NONE', *, *, #494, .F. ) ;
#827 = ORIENTED_EDGE ( 'NONE', *, *, #504, .T. ) ;
#828 = ORIENTED_EDGE ( 'NONE', *, *, #466, .F. ) ;
#829 = ORIENTED_EDGE ( 'NONE', *, *, #507, .T. ) ;
#830 = ORIENTED_EDGE ( 'NONE', *, *, #493, .F. ) ;
#831 = ORIENTED_EDGE ( 'NONE', *, *, #519, .T. ) ;
#832 = ORIENTED_EDGE ( 'NONE', *, *, #454, .T. ) ;
#833 = ORIENTED_EDGE ( 'NONE', *, *, #506, .F. ) ;
#834 = ORIENTED_EDGE ( 'NONE', *, *, #451, .T. ) ;
#835 = ORIENTED_EDGE ( 'NONE', *, *, #477, .T. ) ;
#836 = ORIENTED_EDGE ( 'NONE', *, *, #452, .F. ) ;
#837 = ORIENTED_EDGE ( 'NONE', *, *, #511, .T. ) ;
#838 = ORIENTED_EDGE ( 'NONE', *, *, #465, .T. ) ;
#839 = ORIENTED_EDGE ( 'NONE', *, *, #463, .T. ) ;
#840 = ORIENTED_EDGE ( 'NONE', *, *, #481, .T. ) ;
#841 = CLOSED_SHELL ( 'NONE', ( #230, #233, #231, #229, #234, #232, #235, #236, #245, #240, #244, #254, #252, #242, #249, #253, #251, #237, #241, #250, #239, #238, #248, #247, #243, #246 ) ) ;
#842 = ORIENTED_EDGE ( 'NONE', *, *, #462, .T. ) ;
#843 = ORIENTED_EDGE ( 'NONE', *, *, #494, .T. ) ;
ENDSEC;
END-ISO-10303-21;
