G04 #@! TF.GenerationSoftware,KiCad,Pcbnew,(5.0.0)*
G04 #@! TF.CreationDate,2018-10-03T21:29:19+02:00*
G04 #@! TF.ProjectId,Driver_IMS_TLV,4472697665725F494D535F544C562E6B,rev?*
G04 #@! TF.SameCoordinates,Original*
G04 #@! TF.FileFunction,Paste,Top*
G04 #@! TF.FilePolarity,Positive*
%FSLAX46Y46*%
G04 Gerber Fmt 4.6, Leading zero omitted, Abs format (unit mm)*
G04 Created by KiCad (PCBNEW (5.0.0)) date 10/03/18 21:29:19*
%MOMM*%
%LPD*%
G01*
G04 APERTURE LIST*
%ADD10R,0.900000X2.835000*%
%ADD11R,0.405000X1.305000*%
%ADD12R,0.450000X0.810000*%
%ADD13R,1.080000X1.080000*%
%ADD14R,0.675000X0.720000*%
%ADD15R,0.630000X1.170000*%
%ADD16R,0.810000X0.450000*%
%ADD17R,1.440000X0.360000*%
%ADD18R,1.350000X1.620000*%
%ADD19R,0.450000X0.360000*%
%ADD20R,2.835000X0.900000*%
%ADD21C,0.450000*%
%ADD22C,0.050000*%
%ADD23R,1.350000X0.405000*%
%ADD24R,0.360000X0.450000*%
G04 APERTURE END LIST*
D10*
G04 #@! TO.C,J1*
X133130000Y-58310001D03*
X133130000Y-63360001D03*
X130590000Y-58310001D03*
X130590000Y-63360001D03*
X128050000Y-58310001D03*
X128050000Y-63360001D03*
X125510000Y-58310001D03*
X125510000Y-63360001D03*
X122970000Y-58310001D03*
X122970000Y-63360001D03*
X120430000Y-58310001D03*
X120430000Y-63360001D03*
X117890000Y-58310001D03*
X117890000Y-63360001D03*
X115350000Y-58310001D03*
X115350000Y-63360001D03*
X112810000Y-58310001D03*
X112810000Y-63360001D03*
X110270000Y-58310001D03*
X110270000Y-63360001D03*
G04 #@! TD*
D11*
G04 #@! TO.C,U2*
X121767000Y-46254001D03*
X122417000Y-46254001D03*
X123067000Y-46254001D03*
X123717000Y-46254001D03*
X123717000Y-41854001D03*
X123067000Y-41854001D03*
X122417000Y-41854001D03*
X121767000Y-41854001D03*
G04 #@! TD*
D12*
G04 #@! TO.C,Rd0*
X118750000Y-44975001D03*
X117250000Y-44975001D03*
G04 #@! TD*
G04 #@! TO.C,R22*
X123898400Y-40066201D03*
X122398400Y-40066201D03*
G04 #@! TD*
D13*
G04 #@! TO.C,D0*
X118400000Y-41125001D03*
X118400000Y-43325001D03*
G04 #@! TD*
D14*
G04 #@! TO.C,C2*
X120100400Y-43000601D03*
X120100400Y-41500601D03*
G04 #@! TD*
G04 #@! TO.C,C1*
X125536000Y-44853401D03*
X125536000Y-46353401D03*
G04 #@! TD*
D15*
G04 #@! TO.C,R1*
X131270000Y-41675001D03*
X129370000Y-41675001D03*
G04 #@! TD*
D16*
G04 #@! TO.C,R21*
X120049600Y-46759801D03*
X120049600Y-45259801D03*
G04 #@! TD*
D17*
G04 #@! TO.C,U1*
X131400000Y-45410001D03*
X131400000Y-44760001D03*
X131400000Y-44110001D03*
X131400000Y-43460001D03*
X127200000Y-43460001D03*
X127200000Y-44110001D03*
X127200000Y-44760001D03*
X127200000Y-45410001D03*
D18*
X129300000Y-44435001D03*
G04 #@! TD*
D16*
G04 #@! TO.C,Rd8*
X138197000Y-57905001D03*
X138197000Y-59405001D03*
G04 #@! TD*
D13*
G04 #@! TO.C,D8*
X139891000Y-59925001D03*
X142091000Y-59925001D03*
G04 #@! TD*
D19*
G04 #@! TO.C,Q7*
X144704000Y-57377001D03*
X143404000Y-57877001D03*
X143404000Y-56877001D03*
G04 #@! TD*
D16*
G04 #@! TO.C,Rd7*
X138197000Y-56865001D03*
X138197000Y-55365001D03*
G04 #@! TD*
D19*
G04 #@! TO.C,Q8*
X144704000Y-59917001D03*
X143404000Y-60417001D03*
X143404000Y-59417001D03*
G04 #@! TD*
D13*
G04 #@! TO.C,D7*
X139891000Y-57385001D03*
X142091000Y-57385001D03*
G04 #@! TD*
D16*
G04 #@! TO.C,Rd5*
X138197000Y-50285001D03*
X138197000Y-51785001D03*
G04 #@! TD*
D19*
G04 #@! TO.C,Q6*
X143404000Y-54337001D03*
X143404000Y-55337001D03*
X144704000Y-54837001D03*
G04 #@! TD*
D16*
G04 #@! TO.C,Rd6*
X138197000Y-54325001D03*
X138197000Y-52825001D03*
G04 #@! TD*
D13*
G04 #@! TO.C,D6*
X142091000Y-54845001D03*
X139891000Y-54845001D03*
G04 #@! TD*
G04 #@! TO.C,D5*
X142091000Y-52305001D03*
X139891000Y-52305001D03*
G04 #@! TD*
D19*
G04 #@! TO.C,Q5*
X143404000Y-51797001D03*
X143404000Y-52797001D03*
X144704000Y-52297001D03*
G04 #@! TD*
D16*
G04 #@! TO.C,Rd3*
X138197000Y-45205001D03*
X138197000Y-46705001D03*
G04 #@! TD*
D19*
G04 #@! TO.C,Q4*
X143404000Y-49257001D03*
X143404000Y-50257001D03*
X144704000Y-49757001D03*
G04 #@! TD*
D16*
G04 #@! TO.C,Rd4*
X138197000Y-49245001D03*
X138197000Y-47745001D03*
G04 #@! TD*
D13*
G04 #@! TO.C,D4*
X142091000Y-49765001D03*
X139891000Y-49765001D03*
G04 #@! TD*
G04 #@! TO.C,D3*
X142091000Y-47225001D03*
X139891000Y-47225001D03*
G04 #@! TD*
D19*
G04 #@! TO.C,Q3*
X143404000Y-46717001D03*
X143404000Y-47717001D03*
X144704000Y-47217001D03*
G04 #@! TD*
D13*
G04 #@! TO.C,D1*
X139891000Y-42145001D03*
X142091000Y-42145001D03*
G04 #@! TD*
G04 #@! TO.C,D2*
X139891000Y-44685001D03*
X142091000Y-44685001D03*
G04 #@! TD*
D20*
G04 #@! TO.C,J0*
X152040000Y-42145001D03*
X152040000Y-44685001D03*
X152040000Y-47225001D03*
X152040000Y-49765001D03*
X152040000Y-52305001D03*
X152040000Y-54845001D03*
X152040000Y-57385001D03*
X152040000Y-59925001D03*
X152040000Y-62465001D03*
X152040000Y-65005001D03*
X146960000Y-65005001D03*
X146960000Y-62465001D03*
X146960000Y-59925001D03*
X146960000Y-57385001D03*
X146960000Y-54845001D03*
X146960000Y-52305001D03*
X146960000Y-49765001D03*
X146960000Y-47225001D03*
X146960000Y-44685001D03*
X146960000Y-42145001D03*
G04 #@! TD*
D19*
G04 #@! TO.C,Q1*
X144704000Y-42137001D03*
X143404000Y-42637001D03*
X143404000Y-41637001D03*
G04 #@! TD*
G04 #@! TO.C,Q2*
X144704000Y-44677001D03*
X143404000Y-45177001D03*
X143404000Y-44177001D03*
G04 #@! TD*
D16*
G04 #@! TO.C,Rd1*
X138197000Y-41625001D03*
X138197000Y-40125001D03*
G04 #@! TD*
G04 #@! TO.C,Rd2*
X138197000Y-42665001D03*
X138197000Y-44165001D03*
G04 #@! TD*
D14*
G04 #@! TO.C,C3*
X123200000Y-49925001D03*
X123200000Y-48425001D03*
G04 #@! TD*
D16*
G04 #@! TO.C,R100*
X136550000Y-47735001D03*
X136550000Y-49235001D03*
G04 #@! TD*
D21*
G04 #@! TO.C,R101*
X136580330Y-44705331D03*
D22*
G36*
X137025807Y-44578052D02*
X136453051Y-45150808D01*
X136134853Y-44832610D01*
X136707609Y-44259854D01*
X137025807Y-44578052D01*
X137025807Y-44578052D01*
G37*
D21*
X135519670Y-43644671D03*
D22*
G36*
X135965147Y-43517392D02*
X135392391Y-44090148D01*
X135074193Y-43771950D01*
X135646949Y-43199194D01*
X135965147Y-43517392D01*
X135965147Y-43517392D01*
G37*
G04 #@! TD*
D21*
G04 #@! TO.C,R102*
X135519670Y-53715331D03*
D22*
G36*
X135392391Y-53269854D02*
X135965147Y-53842610D01*
X135646949Y-54160808D01*
X135074193Y-53588052D01*
X135392391Y-53269854D01*
X135392391Y-53269854D01*
G37*
D21*
X136580330Y-52654671D03*
D22*
G36*
X136453051Y-52209194D02*
X137025807Y-52781950D01*
X136707609Y-53100148D01*
X136134853Y-52527392D01*
X136453051Y-52209194D01*
X136453051Y-52209194D01*
G37*
G04 #@! TD*
D23*
G04 #@! TO.C,U3*
X132250000Y-48160001D03*
X132250000Y-48810001D03*
X132250000Y-49460001D03*
X132250000Y-50110001D03*
X132250000Y-50760001D03*
X132250000Y-51410001D03*
X132250000Y-52060001D03*
X132250000Y-52710001D03*
X126350000Y-52710001D03*
X126350000Y-52060001D03*
X126350000Y-51410001D03*
X126350000Y-50760001D03*
X126350000Y-50110001D03*
X126350000Y-49460001D03*
X126350000Y-48810001D03*
X126350000Y-48160001D03*
G04 #@! TD*
D21*
G04 #@! TO.C,R103*
X127910330Y-40425331D03*
D22*
G36*
X128355807Y-40298052D02*
X127783051Y-40870808D01*
X127464853Y-40552610D01*
X128037609Y-39979854D01*
X128355807Y-40298052D01*
X128355807Y-40298052D01*
G37*
D21*
X126849670Y-39364671D03*
D22*
G36*
X127295147Y-39237392D02*
X126722391Y-39810148D01*
X126404193Y-39491950D01*
X126976949Y-38919194D01*
X127295147Y-39237392D01*
X127295147Y-39237392D01*
G37*
G04 #@! TD*
D21*
G04 #@! TO.C,R104*
X136730330Y-57234671D03*
D22*
G36*
X136857609Y-57680148D02*
X136284853Y-57107392D01*
X136603051Y-56789194D01*
X137175807Y-57361950D01*
X136857609Y-57680148D01*
X136857609Y-57680148D01*
G37*
D21*
X135669670Y-58295331D03*
D22*
G36*
X135796949Y-58740808D02*
X135224193Y-58168052D01*
X135542391Y-57849854D01*
X136115147Y-58422610D01*
X135796949Y-58740808D01*
X135796949Y-58740808D01*
G37*
G04 #@! TD*
D24*
G04 #@! TO.C,QT2*
X120930000Y-50235001D03*
X121930000Y-50235001D03*
X121430000Y-48935001D03*
G04 #@! TD*
G04 #@! TO.C,QT3*
X135980000Y-66075001D03*
X135480000Y-64775001D03*
X136480000Y-64775001D03*
G04 #@! TD*
M02*
