(module Crystal_FA-128_1.6x2mm (layer F.Cu) (tedit 5BBA1504)
  (fp_text reference REF** (at 0 -1.7) (layer F.SilkS)
    (effects (font (size 1 1) (thickness 0.15)))
  )
  (fp_text value Crystal_FA-128_1.6x2mm (at 0 -3.2) (layer F.Fab)
    (effects (font (size 1 1) (thickness 0.15)))
  )
  (fp_line (start 1 -0.8) (end -1 -0.8) (layer F.SilkS) (width 0.1))
  (fp_line (start -1 -0.8) (end -1 0.8) (layer F.SilkS) (width 0.1))
  (fp_line (start -1 0.8) (end 1 0.8) (layer F.SilkS) (width 0.1))
  (fp_line (start 1 0.8) (end 1 -0.8) (layer F.SilkS) (width 0.1))
  (pad 4 smd rect (at -0.73 -0.57) (size 0.95 0.85) (layers F.Cu F.Paste F.Mask))
  (pad 1 smd rect (at -0.73 0.58) (size 0.95 0.85) (layers F.Cu F.Paste F.Mask))
  (pad 3 smd rect (at 0.72 -0.57) (size 0.95 0.85) (layers F.Cu F.Paste F.Mask))
  (pad 2 smd rect (at 0.72 0.58) (size 0.95 0.85) (layers F.Cu F.Paste F.Mask))
)
