EESchema Schematic File Version 4
LIBS:LED_IMS_16-cache
EELAYER 26 0
EELAYER END
$Descr A4 11693 8268
encoding utf-8
Sheet 1 1
Title ""
Date ""
Rev ""
Comp ""
Comment1 ""
Comment2 ""
Comment3 ""
Comment4 ""
$EndDescr
$Comp
L conn:Conn_02x10_Counter_Clockwise J1
U 1 1 5B9F84C8
P 3700 3300
F 0 "J1" H 3750 2700 50  0000 C CNN
F 1 "Conn_02x10_Counter_Clockwise" H 3750 3850 50  0000 C CNN
F 2 "lib:2x10_LED_IMS_conn" H 3700 3300 50  0001 C CNN
F 3 "" H 3700 3300 50  0001 C CNN
	1    3700 3300
	1    0    0    -1  
$EndComp
$Comp
L Device:LED_Small D1
U 1 1 5B9F8524
P 2500 2900
F 0 "D1" H 2275 2900 50  0000 L CNN
F 1 "LED" H 2100 2900 50  0000 L CNN
F 2 "lib:Luxeon_Z_1.7x1.3mm" V 2500 2900 50  0001 C CNN
F 3 "" V 2500 2900 50  0001 C CNN
	1    2500 2900
	1    0    0    -1  
$EndComp
$Comp
L Device:LED_Small D2
U 1 1 5B9F8759
P 2500 3025
F 0 "D2" H 2275 3025 50  0000 L CNN
F 1 "LED" H 2100 3025 50  0000 L CNN
F 2 "lib:Luxeon_Z_1.7x1.3mm" V 2500 3025 50  0001 C CNN
F 3 "" V 2500 3025 50  0001 C CNN
	1    2500 3025
	1    0    0    -1  
$EndComp
$Comp
L Device:LED_Small D3
U 1 1 5B9F87C4
P 2500 3150
F 0 "D3" H 2275 3150 50  0000 L CNN
F 1 "LED" H 2100 3150 50  0000 L CNN
F 2 "lib:Luxeon_Z_1.7x1.3mm" V 2500 3150 50  0001 C CNN
F 3 "" V 2500 3150 50  0001 C CNN
	1    2500 3150
	1    0    0    -1  
$EndComp
$Comp
L Device:LED_Small D4
U 1 1 5B9F87CD
P 2500 3275
F 0 "D4" H 2275 3275 50  0000 L CNN
F 1 "LED" H 2100 3275 50  0000 L CNN
F 2 "lib:Luxeon_Z_1.7x1.3mm" V 2500 3275 50  0001 C CNN
F 3 "" V 2500 3275 50  0001 C CNN
	1    2500 3275
	1    0    0    -1  
$EndComp
$Comp
L Device:LED_Small D5
U 1 1 5B9F8897
P 2500 3400
F 0 "D5" H 2275 3400 50  0000 L CNN
F 1 "LED" H 2100 3400 50  0000 L CNN
F 2 "lib:Luxeon_Z_1.7x1.3mm" V 2500 3400 50  0001 C CNN
F 3 "" V 2500 3400 50  0001 C CNN
	1    2500 3400
	1    0    0    -1  
$EndComp
$Comp
L Device:LED_Small D6
U 1 1 5B9F88A0
P 2500 3525
F 0 "D6" H 2275 3525 50  0000 L CNN
F 1 "LED" H 2100 3525 50  0000 L CNN
F 2 "lib:Luxeon_Z_1.7x1.3mm" V 2500 3525 50  0001 C CNN
F 3 "" V 2500 3525 50  0001 C CNN
	1    2500 3525
	1    0    0    -1  
$EndComp
$Comp
L Device:LED_Small D7
U 1 1 5B9F88A7
P 2500 3650
F 0 "D7" H 2275 3650 50  0000 L CNN
F 1 "LED" H 2100 3650 50  0000 L CNN
F 2 "lib:Luxeon_Z_1.7x1.3mm" V 2500 3650 50  0001 C CNN
F 3 "" V 2500 3650 50  0001 C CNN
	1    2500 3650
	1    0    0    -1  
$EndComp
$Comp
L Device:LED_Small D8
U 1 1 5B9F88AE
P 2500 3775
F 0 "D8" H 2275 3775 50  0000 L CNN
F 1 "LED" H 2100 3775 50  0000 L CNN
F 2 "lib:Luxeon_Z_1.7x1.3mm" V 2500 3775 50  0001 C CNN
F 3 "" V 2500 3775 50  0001 C CNN
	1    2500 3775
	1    0    0    -1  
$EndComp
Text GLabel 3425 3700 0    39   Input ~ 0
GND
Text GLabel 3425 3800 0    39   Input ~ 0
SCL
Text GLabel 4075 3800 2    39   Input ~ 0
SDA
Text GLabel 4075 3700 2    39   Input ~ 0
3V
$Comp
L conn:Conn_02x10_Counter_Clockwise J2
U 1 1 5B9FA5BD
P 3700 4650
F 0 "J2" H 3750 4050 50  0000 C CNN
F 1 "Conn_02x10_Counter_Clockwise" H 3750 5200 50  0000 C CNN
F 2 "lib:2x10_LED_IMS_conn" H 3700 4650 50  0001 C CNN
F 3 "" H 3700 4650 50  0001 C CNN
	1    3700 4650
	1    0    0    -1  
$EndComp
$Comp
L Device:LED_Small D9
U 1 1 5B9FA5C3
P 2500 4250
F 0 "D9" H 2250 4250 50  0000 L CNN
F 1 "LED" H 2075 4250 50  0000 L CNN
F 2 "lib:Luxeon_Z_1.7x1.3mm" V 2500 4250 50  0001 C CNN
F 3 "" V 2500 4250 50  0001 C CNN
	1    2500 4250
	1    0    0    -1  
$EndComp
$Comp
L Device:LED_Small D10
U 1 1 5B9FA5CD
P 2500 4375
F 0 "D10" H 2250 4375 50  0000 L CNN
F 1 "LED" H 2075 4375 50  0000 L CNN
F 2 "lib:Luxeon_Z_1.7x1.3mm" V 2500 4375 50  0001 C CNN
F 3 "" V 2500 4375 50  0001 C CNN
	1    2500 4375
	1    0    0    -1  
$EndComp
$Comp
L Device:LED_Small D11
U 1 1 5B9FA5D4
P 2500 4500
F 0 "D11" H 2250 4500 50  0000 L CNN
F 1 "LED" H 2075 4500 50  0000 L CNN
F 2 "lib:Luxeon_Z_1.7x1.3mm" V 2500 4500 50  0001 C CNN
F 3 "" V 2500 4500 50  0001 C CNN
	1    2500 4500
	1    0    0    -1  
$EndComp
$Comp
L Device:LED_Small D12
U 1 1 5B9FA5DB
P 2500 4625
F 0 "D12" H 2250 4625 50  0000 L CNN
F 1 "LED" H 2075 4625 50  0000 L CNN
F 2 "lib:Luxeon_Z_1.7x1.3mm" V 2500 4625 50  0001 C CNN
F 3 "" V 2500 4625 50  0001 C CNN
	1    2500 4625
	1    0    0    -1  
$EndComp
$Comp
L Device:LED_Small D13
U 1 1 5B9FA5E2
P 2500 4750
F 0 "D13" H 2250 4750 50  0000 L CNN
F 1 "LED" H 2075 4750 50  0000 L CNN
F 2 "lib:Luxeon_Z_1.7x1.3mm" V 2500 4750 50  0001 C CNN
F 3 "" V 2500 4750 50  0001 C CNN
	1    2500 4750
	1    0    0    -1  
$EndComp
$Comp
L Device:LED_Small D14
U 1 1 5B9FA5E9
P 2500 4875
F 0 "D14" H 2250 4875 50  0000 L CNN
F 1 "LED" H 2075 4875 50  0000 L CNN
F 2 "lib:Luxeon_Z_1.7x1.3mm" V 2500 4875 50  0001 C CNN
F 3 "" V 2500 4875 50  0001 C CNN
	1    2500 4875
	1    0    0    -1  
$EndComp
$Comp
L Device:LED_Small D15
U 1 1 5B9FA5F0
P 2500 5000
F 0 "D15" H 2250 5000 50  0000 L CNN
F 1 "LED" H 2075 5000 50  0000 L CNN
F 2 "lib:Luxeon_Z_1.7x1.3mm" V 2500 5000 50  0001 C CNN
F 3 "" V 2500 5000 50  0001 C CNN
	1    2500 5000
	1    0    0    -1  
$EndComp
$Comp
L Device:LED_Small D16
U 1 1 5B9FA5F7
P 2500 5125
F 0 "D16" H 2250 5125 50  0000 L CNN
F 1 "LED" H 2075 5125 50  0000 L CNN
F 2 "lib:Luxeon_Z_1.7x1.3mm" V 2500 5125 50  0001 C CNN
F 3 "" V 2500 5125 50  0001 C CNN
	1    2500 5125
	1    0    0    -1  
$EndComp
Text GLabel 3425 5050 0    39   Input ~ 0
GND
Text GLabel 3425 5150 0    39   Input ~ 0
SCL
Text GLabel 4075 5150 2    39   Input ~ 0
SDA
Text GLabel 4075 5050 2    39   Input ~ 0
3V
$Comp
L transistors:MMBT3904 Q1
U 1 1 5B9FB2EC
P 4975 3250
F 0 "Q1" H 5175 3325 50  0000 L CNN
F 1 "MMBT3904" H 5175 3250 50  0000 L CNN
F 2 "lib:SOT523" H 5175 3175 50  0001 L CIN
F 3 "" H 4975 3250 50  0001 L CNN
	1    4975 3250
	1    0    0    -1  
$EndComp
Text GLabel 8100 3050 2    39   Input ~ 0
SDA
Text GLabel 6050 2950 0    39   Input ~ 0
3V
Text GLabel 8075 3350 2    39   Input ~ 0
GND
Text GLabel 8100 2950 2    39   Input ~ 0
SCL
Text GLabel 6325 2625 0    39   Input ~ 0
GND
$Comp
L Device:C C1
U 1 1 5B9FC160
P 6475 2775
F 0 "C1" H 6575 2775 50  0000 L CNN
F 1 "100n" H 6175 2775 50  0000 L CNN
F 2 "Capacitors_SMD:C_0603" H 6513 2625 50  0001 C CNN
F 3 "" H 6475 2775 50  0001 C CNN
	1    6475 2775
	1    0    0    -1  
$EndComp
Text GLabel 9225 3150 2    39   Input ~ 0
3V
$Comp
L Device:R R1
U 1 1 5B9FC7E3
P 8550 3350
F 0 "R1" V 8630 3350 50  0000 C CNN
F 1 "10k" V 8550 3350 50  0000 C CNN
F 2 "Resistors_SMD:R_0805" V 8480 3350 50  0001 C CNN
F 3 "" H 8550 3350 50  0001 C CNN
	1    8550 3350
	0    1    1    0   
$EndComp
$Comp
L Device:R R0
U 1 1 5B9FCA4E
P 8550 3150
F 0 "R0" V 8630 3150 50  0000 C CNN
F 1 "1k" V 8550 3150 50  0000 C CNN
F 2 "Resistors_SMD:R_0805" V 8480 3150 50  0001 C CNN
F 3 "" H 8550 3150 50  0001 C CNN
	1    8550 3150
	0    1    1    0   
$EndComp
$Comp
L Device:LED D0
U 1 1 5B9FCCF6
P 8925 3150
F 0 "D0" H 8925 3050 50  0000 C CNN
F 1 "LED" H 8925 3275 50  0000 C CNN
F 2 "LEDs:LED_0805" H 8925 3150 50  0001 C CNN
F 3 "" H 8925 3150 50  0001 C CNN
	1    8925 3150
	1    0    0    -1  
$EndComp
Text Notes 8500 3575 0    60   ~ 0
R1 =>  I²C address
Wire Wire Line
	2600 2900 3500 2900
Wire Wire Line
	2400 2900 2400 2950
Wire Wire Line
	2625 2925 4000 2925
Wire Wire Line
	4000 2925 4000 2900
Wire Wire Line
	2400 3025 2400 3075
Wire Wire Line
	2400 3150 2400 3200
Wire Wire Line
	2400 3275 2400 3325
Wire Wire Line
	2400 3400 2400 3450
Wire Wire Line
	2400 3525 2400 3575
Wire Wire Line
	2400 3650 2400 3700
Wire Wire Line
	2400 3775 2400 3825
Wire Wire Line
	3500 3000 2675 3000
Wire Wire Line
	2675 3000 2675 3025
Wire Wire Line
	2675 3025 2600 3025
Wire Wire Line
	2700 3025 4000 3025
Wire Wire Line
	4000 3025 4000 3000
Wire Wire Line
	3500 3100 2675 3100
Wire Wire Line
	2675 3100 2675 3150
Wire Wire Line
	2675 3150 2600 3150
Wire Wire Line
	2700 3125 4000 3125
Wire Wire Line
	4000 3125 4000 3100
Wire Wire Line
	2400 2950 2625 2950
Wire Wire Line
	2625 2950 2625 2925
Wire Wire Line
	2700 3025 2700 3075
Wire Wire Line
	2700 3075 2400 3075
Wire Wire Line
	2400 3200 2700 3200
Wire Wire Line
	2700 3200 2700 3125
Wire Wire Line
	3500 3200 2800 3200
Wire Wire Line
	2800 3200 2800 3275
Wire Wire Line
	2800 3275 2600 3275
Wire Wire Line
	2400 3325 2825 3325
Wire Wire Line
	2825 3325 2825 3225
Wire Wire Line
	2825 3225 4000 3225
Wire Wire Line
	4000 3225 4000 3200
Wire Wire Line
	3500 3300 2875 3300
Wire Wire Line
	2875 3300 2875 3400
Wire Wire Line
	2875 3400 2600 3400
Wire Wire Line
	2400 3450 2900 3450
Wire Wire Line
	2900 3450 2900 3325
Wire Wire Line
	2900 3325 4000 3325
Wire Wire Line
	4000 3325 4000 3300
Wire Wire Line
	3500 3400 2950 3400
Wire Wire Line
	2950 3400 2950 3525
Wire Wire Line
	2950 3525 2600 3525
Wire Wire Line
	2400 3575 2975 3575
Wire Wire Line
	2975 3575 2975 3425
Wire Wire Line
	2975 3425 4000 3425
Wire Wire Line
	4000 3425 4000 3400
Wire Wire Line
	3500 3500 3025 3500
Wire Wire Line
	3025 3500 3025 3650
Wire Wire Line
	3025 3650 2600 3650
Wire Wire Line
	2400 3700 3050 3700
Wire Wire Line
	3050 3700 3050 3525
Wire Wire Line
	3050 3525 4000 3525
Wire Wire Line
	4000 3525 4000 3500
Wire Wire Line
	3500 3600 3100 3600
Wire Wire Line
	3100 3600 3100 3775
Wire Wire Line
	3100 3775 2600 3775
Wire Wire Line
	2400 3825 3125 3825
Wire Wire Line
	3125 3825 3125 3625
Wire Wire Line
	3125 3625 4000 3625
Wire Wire Line
	4000 3625 4000 3600
Wire Wire Line
	3425 3700 3500 3700
Wire Wire Line
	3425 3800 3500 3800
Wire Wire Line
	4000 3700 4075 3700
Wire Wire Line
	4000 3800 4075 3800
Wire Wire Line
	2600 4250 3500 4250
Wire Wire Line
	2400 4250 2400 4300
Wire Wire Line
	2625 4275 4000 4275
Wire Wire Line
	4000 4275 4000 4250
Wire Wire Line
	2400 4375 2400 4425
Wire Wire Line
	2400 4500 2400 4550
Wire Wire Line
	2400 4625 2400 4675
Wire Wire Line
	2400 4750 2400 4800
Wire Wire Line
	2400 4875 2400 4925
Wire Wire Line
	2400 5000 2400 5050
Wire Wire Line
	2400 5125 2400 5175
Wire Wire Line
	3500 4350 2675 4350
Wire Wire Line
	2675 4350 2675 4375
Wire Wire Line
	2675 4375 2600 4375
Wire Wire Line
	2700 4375 4000 4375
Wire Wire Line
	4000 4375 4000 4350
Wire Wire Line
	3500 4450 2675 4450
Wire Wire Line
	2675 4450 2675 4500
Wire Wire Line
	2675 4500 2600 4500
Wire Wire Line
	2700 4475 4000 4475
Wire Wire Line
	4000 4475 4000 4450
Wire Wire Line
	2400 4300 2625 4300
Wire Wire Line
	2625 4300 2625 4275
Wire Wire Line
	2700 4375 2700 4425
Wire Wire Line
	2700 4425 2400 4425
Wire Wire Line
	2400 4550 2700 4550
Wire Wire Line
	2700 4550 2700 4475
Wire Wire Line
	3500 4550 2800 4550
Wire Wire Line
	2800 4550 2800 4625
Wire Wire Line
	2800 4625 2600 4625
Wire Wire Line
	2400 4675 2825 4675
Wire Wire Line
	2825 4675 2825 4575
Wire Wire Line
	2825 4575 4000 4575
Wire Wire Line
	4000 4575 4000 4550
Wire Wire Line
	3500 4650 2875 4650
Wire Wire Line
	2875 4650 2875 4750
Wire Wire Line
	2875 4750 2600 4750
Wire Wire Line
	2400 4800 2900 4800
Wire Wire Line
	2900 4800 2900 4675
Wire Wire Line
	2900 4675 4000 4675
Wire Wire Line
	4000 4675 4000 4650
Wire Wire Line
	3500 4750 2950 4750
Wire Wire Line
	2950 4750 2950 4875
Wire Wire Line
	2950 4875 2600 4875
Wire Wire Line
	2400 4925 2975 4925
Wire Wire Line
	2975 4925 2975 4775
Wire Wire Line
	2975 4775 4000 4775
Wire Wire Line
	4000 4775 4000 4750
Wire Wire Line
	3500 4850 3025 4850
Wire Wire Line
	3025 4850 3025 5000
Wire Wire Line
	3025 5000 2600 5000
Wire Wire Line
	2400 5050 3050 5050
Wire Wire Line
	3050 5050 3050 4875
Wire Wire Line
	3050 4875 4000 4875
Wire Wire Line
	4000 4875 4000 4850
Wire Wire Line
	3500 4950 3100 4950
Wire Wire Line
	3100 4950 3100 5125
Wire Wire Line
	3100 5125 2600 5125
Wire Wire Line
	2400 5175 3125 5175
Wire Wire Line
	3125 5175 3125 4975
Wire Wire Line
	3125 4975 4000 4975
Wire Wire Line
	4000 4975 4000 4950
Wire Wire Line
	3425 5050 3500 5050
Wire Wire Line
	3425 5150 3500 5150
Wire Wire Line
	4000 5050 4075 5050
Wire Wire Line
	4000 5150 4075 5150
Wire Wire Line
	6425 2950 6475 2950
Wire Wire Line
	8000 2950 8100 2950
Wire Wire Line
	8100 3050 8000 3050
Wire Wire Line
	6325 2625 6475 2625
Wire Wire Line
	6475 2925 6475 2950
Connection ~ 6475 2950
Wire Wire Line
	8000 3250 8325 3250
Wire Wire Line
	8000 3150 8400 3150
Wire Wire Line
	8700 3150 8775 3150
Wire Wire Line
	9075 3150 9175 3150
Wire Wire Line
	8000 3350 8075 3350
Wire Wire Line
	8325 3250 8325 3350
Wire Wire Line
	8325 3350 8400 3350
Wire Wire Line
	8700 3350 9175 3350
Wire Wire Line
	9175 3350 9175 3150
Connection ~ 9175 3150
Wire Wire Line
	4775 3050 5075 3050
Wire Wire Line
	4775 3250 4775 3050
Connection ~ 5075 3050
Wire Wire Line
	5075 3450 5150 3450
Wire Wire Line
	5150 3450 5150 3125
Wire Wire Line
	5150 3125 6450 3125
Wire Wire Line
	6450 3125 6450 3150
Wire Wire Line
	6450 3150 6500 3150
$Comp
L mcp9904:MCP9904 U1
U 1 1 5B9FE8B6
P 7200 3150
F 0 "U1" H 6800 3450 60  0000 C CNN
F 1 "MCP9904" H 7600 3450 60  0000 C CNN
F 2 "lib:MCP9904" H 6950 3450 60  0001 C CNN
F 3 "" H 6950 3450 60  0001 C CNN
	1    7200 3150
	1    0    0    -1  
$EndComp
$Comp
L transistors:MMBT3904 Q2
U 1 1 5B9FED20
P 4950 3750
F 0 "Q2" H 5150 3825 50  0000 L CNN
F 1 "MMBT3904" H 5150 3750 50  0000 L CNN
F 2 "lib:SOT523" H 5150 3675 50  0001 L CIN
F 3 "" H 4950 3750 50  0001 L CNN
	1    4950 3750
	1    0    0    -1  
$EndComp
$Comp
L transistors:MMBT3904 Q3
U 1 1 5B9FEDF8
P 6250 3750
F 0 "Q3" H 6450 3825 50  0000 L CNN
F 1 "MMBT3904" H 6450 3750 50  0000 L CNN
F 2 "lib:SOT523" H 6450 3675 50  0001 L CIN
F 3 "" H 6250 3750 50  0001 L CNN
	1    6250 3750
	-1   0    0    1   
$EndComp
Wire Wire Line
	4750 3550 5050 3550
Wire Wire Line
	4750 3550 4750 3750
Wire Wire Line
	6075 3950 6150 3950
Wire Wire Line
	6450 3950 6450 3750
Wire Wire Line
	5650 3550 5650 3250
Wire Wire Line
	5650 3250 6150 3250
Connection ~ 5050 3550
Wire Wire Line
	5050 3950 5125 3950
Wire Wire Line
	5125 3950 5125 3600
Wire Wire Line
	5125 3600 5700 3600
Wire Wire Line
	5700 3600 5700 3350
Wire Wire Line
	5700 3350 6075 3350
Wire Wire Line
	6150 3550 6150 3250
Connection ~ 6150 3250
Wire Wire Line
	6075 3950 6075 3350
Connection ~ 6075 3350
Connection ~ 6150 3950
$Comp
L Device:R R100
U 1 1 5B9FCA0A
P 6275 2950
F 0 "R100" V 6200 2950 50  0000 C CNN
F 1 "0" V 6275 2950 50  0000 C CNN
F 2 "Resistors_SMD:R_0805" V 6205 2950 50  0001 C CNN
F 3 "" H 6275 2950 50  0001 C CNN
	1    6275 2950
	0    1    1    0   
$EndComp
Wire Wire Line
	6050 2950 6125 2950
Wire Wire Line
	6475 2950 6500 2950
Wire Wire Line
	9175 3150 9225 3150
Wire Wire Line
	5075 3050 6500 3050
Wire Wire Line
	5050 3550 5650 3550
Wire Wire Line
	6150 3250 6500 3250
Wire Wire Line
	6075 3350 6500 3350
Wire Wire Line
	6150 3950 6450 3950
$EndSCHEMATC
