G04 #@! TF.GenerationSoftware,KiCad,Pcbnew,(5.0.0)*
G04 #@! TF.CreationDate,2018-11-26T00:56:53+01:00*
G04 #@! TF.ProjectId,LED_IMS_16,4C45445F494D535F31362E6B69636164,rev?*
G04 #@! TF.SameCoordinates,Original*
G04 #@! TF.FileFunction,Profile,NP*
%FSLAX46Y46*%
G04 Gerber Fmt 4.6, Leading zero omitted, Abs format (unit mm)*
G04 Created by KiCad (PCBNEW (5.0.0)) date 11/26/18 00:56:53*
%MOMM*%
%LPD*%
G01*
G04 APERTURE LIST*
%ADD10C,0.150000*%
G04 APERTURE END LIST*
D10*
X50000000Y-50000000D02*
G75*
G03X49000000Y-51000000I0J-1000000D01*
G01*
X101000000Y-51000000D02*
G75*
G03X100000000Y-50000000I-1000000J0D01*
G01*
X100000000Y-80000000D02*
G75*
G03X101000000Y-79000000I0J1000000D01*
G01*
X49000000Y-79000000D02*
G75*
G03X50000000Y-80000000I1000000J0D01*
G01*
X50000000Y-80000000D02*
X100000000Y-80000000D01*
X101000000Y-51000000D02*
X101000000Y-79000000D01*
X50000000Y-50000000D02*
X100000000Y-50000000D01*
X49000000Y-51000000D02*
X49000000Y-79000000D01*
M02*
