G04 #@! TF.GenerationSoftware,KiCad,Pcbnew,(5.0.0)*
G04 #@! TF.CreationDate,2018-11-26T00:56:53+01:00*
G04 #@! TF.ProjectId,LED_IMS_16,4C45445F494D535F31362E6B69636164,rev?*
G04 #@! TF.SameCoordinates,Original*
G04 #@! TF.FileFunction,Legend,Top*
G04 #@! TF.FilePolarity,Positive*
%FSLAX46Y46*%
G04 Gerber Fmt 4.6, Leading zero omitted, Abs format (unit mm)*
G04 Created by KiCad (PCBNEW (5.0.0)) date 11/26/18 00:56:53*
%MOMM*%
%LPD*%
G01*
G04 APERTURE LIST*
%ADD10C,0.100000*%
%ADD11C,0.200000*%
%ADD12C,0.120000*%
%ADD13C,0.150000*%
G04 APERTURE END LIST*
D10*
X86000000Y-65000000D02*
G75*
G03X86000000Y-65000000I-11000000J0D01*
G01*
X80000000Y-65000000D02*
G75*
G03X80000000Y-65000000I-5000000J0D01*
G01*
D11*
X61404761Y-51602380D02*
X60928571Y-51602380D01*
X60928571Y-50602380D01*
X61738095Y-51078571D02*
X62071428Y-51078571D01*
X62214285Y-51602380D02*
X61738095Y-51602380D01*
X61738095Y-50602380D01*
X62214285Y-50602380D01*
X62642857Y-51602380D02*
X62642857Y-50602380D01*
X62880952Y-50602380D01*
X63023809Y-50650000D01*
X63119047Y-50745238D01*
X63166666Y-50840476D01*
X63214285Y-51030952D01*
X63214285Y-51173809D01*
X63166666Y-51364285D01*
X63119047Y-51459523D01*
X63023809Y-51554761D01*
X62880952Y-51602380D01*
X62642857Y-51602380D01*
X63404761Y-51697619D02*
X64166666Y-51697619D01*
X64404761Y-51602380D02*
X64404761Y-50602380D01*
X64880952Y-51602380D02*
X64880952Y-50602380D01*
X65214285Y-51316666D01*
X65547619Y-50602380D01*
X65547619Y-51602380D01*
X65976190Y-51554761D02*
X66119047Y-51602380D01*
X66357142Y-51602380D01*
X66452380Y-51554761D01*
X66500000Y-51507142D01*
X66547619Y-51411904D01*
X66547619Y-51316666D01*
X66500000Y-51221428D01*
X66452380Y-51173809D01*
X66357142Y-51126190D01*
X66166666Y-51078571D01*
X66071428Y-51030952D01*
X66023809Y-50983333D01*
X65976190Y-50888095D01*
X65976190Y-50792857D01*
X66023809Y-50697619D01*
X66071428Y-50650000D01*
X66166666Y-50602380D01*
X66404761Y-50602380D01*
X66547619Y-50650000D01*
X66738095Y-51697619D02*
X67500000Y-51697619D01*
X67642857Y-50935714D02*
X67880952Y-51602380D01*
X68119047Y-50935714D01*
X68404761Y-50602380D02*
X69071428Y-50602380D01*
X68404761Y-51602380D01*
X69071428Y-51602380D01*
X69452380Y-51507142D02*
X69500000Y-51554761D01*
X69452380Y-51602380D01*
X69404761Y-51554761D01*
X69452380Y-51507142D01*
X69452380Y-51602380D01*
X70452380Y-51602380D02*
X69880952Y-51602380D01*
X70166666Y-51602380D02*
X70166666Y-50602380D01*
X70071428Y-50745238D01*
X69976190Y-50840476D01*
X69880952Y-50888095D01*
X72928571Y-51602380D02*
X72357142Y-51602380D01*
X72642857Y-51602380D02*
X72642857Y-50602380D01*
X72547619Y-50745238D01*
X72452380Y-50840476D01*
X72357142Y-50888095D01*
X73261904Y-50602380D02*
X73928571Y-50602380D01*
X73500000Y-51602380D01*
X75023809Y-50554761D02*
X74166666Y-51840476D01*
X75880952Y-51602380D02*
X75309523Y-51602380D01*
X75595238Y-51602380D02*
X75595238Y-50602380D01*
X75499999Y-50745238D01*
X75404761Y-50840476D01*
X75309523Y-50888095D01*
X76357142Y-51602380D02*
X76547619Y-51602380D01*
X76642857Y-51554761D01*
X76690476Y-51507142D01*
X76785714Y-51364285D01*
X76833333Y-51173809D01*
X76833333Y-50792857D01*
X76785714Y-50697619D01*
X76738095Y-50650000D01*
X76642857Y-50602380D01*
X76452380Y-50602380D01*
X76357142Y-50650000D01*
X76309523Y-50697619D01*
X76261904Y-50792857D01*
X76261904Y-51030952D01*
X76309523Y-51126190D01*
X76357142Y-51173809D01*
X76452380Y-51221428D01*
X76642857Y-51221428D01*
X76738095Y-51173809D01*
X76785714Y-51126190D01*
X76833333Y-51030952D01*
X77976190Y-50554761D02*
X77119047Y-51840476D01*
X78261904Y-50697619D02*
X78309523Y-50650000D01*
X78404761Y-50602380D01*
X78642857Y-50602380D01*
X78738095Y-50650000D01*
X78785714Y-50697619D01*
X78833333Y-50792857D01*
X78833333Y-50888095D01*
X78785714Y-51030952D01*
X78214285Y-51602380D01*
X78833333Y-51602380D01*
X79452380Y-50602380D02*
X79547619Y-50602380D01*
X79642857Y-50650000D01*
X79690476Y-50697619D01*
X79738095Y-50792857D01*
X79785714Y-50983333D01*
X79785714Y-51221428D01*
X79738095Y-51411904D01*
X79690476Y-51507142D01*
X79642857Y-51554761D01*
X79547619Y-51602380D01*
X79452380Y-51602380D01*
X79357142Y-51554761D01*
X79309523Y-51507142D01*
X79261904Y-51411904D01*
X79214285Y-51221428D01*
X79214285Y-50983333D01*
X79261904Y-50792857D01*
X79309523Y-50697619D01*
X79357142Y-50650000D01*
X79452380Y-50602380D01*
X80738095Y-51602380D02*
X80166666Y-51602380D01*
X80452380Y-51602380D02*
X80452380Y-50602380D01*
X80357142Y-50745238D01*
X80261904Y-50840476D01*
X80166666Y-50888095D01*
X81309523Y-51030952D02*
X81214285Y-50983333D01*
X81166666Y-50935714D01*
X81119047Y-50840476D01*
X81119047Y-50792857D01*
X81166666Y-50697619D01*
X81214285Y-50650000D01*
X81309523Y-50602380D01*
X81499999Y-50602380D01*
X81595238Y-50650000D01*
X81642857Y-50697619D01*
X81690476Y-50792857D01*
X81690476Y-50840476D01*
X81642857Y-50935714D01*
X81595238Y-50983333D01*
X81499999Y-51030952D01*
X81309523Y-51030952D01*
X81214285Y-51078571D01*
X81166666Y-51126190D01*
X81119047Y-51221428D01*
X81119047Y-51411904D01*
X81166666Y-51507142D01*
X81214285Y-51554761D01*
X81309523Y-51602380D01*
X81499999Y-51602380D01*
X81595238Y-51554761D01*
X81642857Y-51507142D01*
X81690476Y-51411904D01*
X81690476Y-51221428D01*
X81642857Y-51126190D01*
X81595238Y-51078571D01*
X81499999Y-51030952D01*
X83642857Y-51602380D02*
X83642857Y-50602380D01*
X83642857Y-50983333D02*
X83738095Y-50935714D01*
X83928571Y-50935714D01*
X84023809Y-50983333D01*
X84071428Y-51030952D01*
X84119047Y-51126190D01*
X84119047Y-51411904D01*
X84071428Y-51507142D01*
X84023809Y-51554761D01*
X83928571Y-51602380D01*
X83738095Y-51602380D01*
X83642857Y-51554761D01*
X84452380Y-50935714D02*
X84690476Y-51602380D01*
X84928571Y-50935714D02*
X84690476Y-51602380D01*
X84595238Y-51840476D01*
X84547619Y-51888095D01*
X84452380Y-51935714D01*
X86071428Y-51602380D02*
X86071428Y-50602380D01*
X86404761Y-51316666D01*
X86738095Y-50602380D01*
X86738095Y-51602380D01*
X87595238Y-51554761D02*
X87499999Y-51602380D01*
X87309523Y-51602380D01*
X87214285Y-51554761D01*
X87166666Y-51459523D01*
X87166666Y-51078571D01*
X87214285Y-50983333D01*
X87309523Y-50935714D01*
X87499999Y-50935714D01*
X87595238Y-50983333D01*
X87642857Y-51078571D01*
X87642857Y-51173809D01*
X87166666Y-51269047D01*
X88071428Y-50935714D02*
X88071428Y-51792857D01*
X88023809Y-51888095D01*
X87928571Y-51935714D01*
X87880952Y-51935714D01*
X88071428Y-50602380D02*
X88023809Y-50650000D01*
X88071428Y-50697619D01*
X88119047Y-50650000D01*
X88071428Y-50602380D01*
X88071428Y-50697619D01*
X64690476Y-52635714D02*
X65071428Y-52635714D01*
X64833333Y-53302380D02*
X64833333Y-52445238D01*
X64880952Y-52350000D01*
X64976190Y-52302380D01*
X65071428Y-52302380D01*
X65547619Y-53302380D02*
X65452380Y-53254761D01*
X65404761Y-53207142D01*
X65357142Y-53111904D01*
X65357142Y-52826190D01*
X65404761Y-52730952D01*
X65452380Y-52683333D01*
X65547619Y-52635714D01*
X65690476Y-52635714D01*
X65785714Y-52683333D01*
X65833333Y-52730952D01*
X65880952Y-52826190D01*
X65880952Y-53111904D01*
X65833333Y-53207142D01*
X65785714Y-53254761D01*
X65690476Y-53302380D01*
X65547619Y-53302380D01*
X66309523Y-53302380D02*
X66309523Y-52635714D01*
X66309523Y-52826190D02*
X66357142Y-52730952D01*
X66404761Y-52683333D01*
X66500000Y-52635714D01*
X66595238Y-52635714D01*
X67690476Y-53302380D02*
X67690476Y-52302380D01*
X68166666Y-53302380D02*
X68166666Y-52635714D01*
X68166666Y-52730952D02*
X68214285Y-52683333D01*
X68309523Y-52635714D01*
X68452380Y-52635714D01*
X68547619Y-52683333D01*
X68595238Y-52778571D01*
X68595238Y-53302380D01*
X68595238Y-52778571D02*
X68642857Y-52683333D01*
X68738095Y-52635714D01*
X68880952Y-52635714D01*
X68976190Y-52683333D01*
X69023809Y-52778571D01*
X69023809Y-53302380D01*
X69500000Y-52635714D02*
X69500000Y-53635714D01*
X69500000Y-52683333D02*
X69595238Y-52635714D01*
X69785714Y-52635714D01*
X69880952Y-52683333D01*
X69928571Y-52730952D01*
X69976190Y-52826190D01*
X69976190Y-53111904D01*
X69928571Y-53207142D01*
X69880952Y-53254761D01*
X69785714Y-53302380D01*
X69595238Y-53302380D01*
X69500000Y-53254761D01*
X70833333Y-53302380D02*
X70833333Y-52778571D01*
X70785714Y-52683333D01*
X70690476Y-52635714D01*
X70500000Y-52635714D01*
X70404761Y-52683333D01*
X70833333Y-53254761D02*
X70738095Y-53302380D01*
X70500000Y-53302380D01*
X70404761Y-53254761D01*
X70357142Y-53159523D01*
X70357142Y-53064285D01*
X70404761Y-52969047D01*
X70500000Y-52921428D01*
X70738095Y-52921428D01*
X70833333Y-52873809D01*
X71738095Y-53254761D02*
X71642857Y-53302380D01*
X71452380Y-53302380D01*
X71357142Y-53254761D01*
X71309523Y-53207142D01*
X71261904Y-53111904D01*
X71261904Y-52826190D01*
X71309523Y-52730952D01*
X71357142Y-52683333D01*
X71452380Y-52635714D01*
X71642857Y-52635714D01*
X71738095Y-52683333D01*
X72023809Y-52635714D02*
X72404761Y-52635714D01*
X72166666Y-52302380D02*
X72166666Y-53159523D01*
X72214285Y-53254761D01*
X72309523Y-53302380D01*
X72404761Y-53302380D01*
X77309523Y-53302380D02*
X77309523Y-52302380D01*
X77690476Y-52302380D01*
X77785714Y-52350000D01*
X77833333Y-52397619D01*
X77880952Y-52492857D01*
X77880952Y-52635714D01*
X77833333Y-52730952D01*
X77785714Y-52778571D01*
X77690476Y-52826190D01*
X77309523Y-52826190D01*
X78309523Y-53302380D02*
X78309523Y-52302380D01*
X78738095Y-53302380D02*
X78738095Y-52778571D01*
X78690476Y-52683333D01*
X78595238Y-52635714D01*
X78452380Y-52635714D01*
X78357142Y-52683333D01*
X78309523Y-52730952D01*
X79357142Y-53302380D02*
X79261904Y-53254761D01*
X79214285Y-53207142D01*
X79166666Y-53111904D01*
X79166666Y-52826190D01*
X79214285Y-52730952D01*
X79261904Y-52683333D01*
X79357142Y-52635714D01*
X79500000Y-52635714D01*
X79595238Y-52683333D01*
X79642857Y-52730952D01*
X79690476Y-52826190D01*
X79690476Y-53111904D01*
X79642857Y-53207142D01*
X79595238Y-53254761D01*
X79500000Y-53302380D01*
X79357142Y-53302380D01*
X79976190Y-52635714D02*
X80357142Y-52635714D01*
X80119047Y-52302380D02*
X80119047Y-53159523D01*
X80166666Y-53254761D01*
X80261904Y-53302380D01*
X80357142Y-53302380D01*
X80833333Y-53302380D02*
X80738095Y-53254761D01*
X80690476Y-53207142D01*
X80642857Y-53111904D01*
X80642857Y-52826190D01*
X80690476Y-52730952D01*
X80738095Y-52683333D01*
X80833333Y-52635714D01*
X80976190Y-52635714D01*
X81071428Y-52683333D01*
X81119047Y-52730952D01*
X81166666Y-52826190D01*
X81166666Y-53111904D01*
X81119047Y-53207142D01*
X81071428Y-53254761D01*
X80976190Y-53302380D01*
X80833333Y-53302380D01*
X81595238Y-52635714D02*
X81595238Y-53302380D01*
X81595238Y-52730952D02*
X81642857Y-52683333D01*
X81738095Y-52635714D01*
X81880952Y-52635714D01*
X81976190Y-52683333D01*
X82023809Y-52778571D01*
X82023809Y-53302380D01*
X82500000Y-53302380D02*
X82500000Y-52635714D01*
X82500000Y-52302380D02*
X82452380Y-52350000D01*
X82500000Y-52397619D01*
X82547619Y-52350000D01*
X82500000Y-52302380D01*
X82500000Y-52397619D01*
X83404761Y-53254761D02*
X83309523Y-53302380D01*
X83119047Y-53302380D01*
X83023809Y-53254761D01*
X82976190Y-53207142D01*
X82928571Y-53111904D01*
X82928571Y-52826190D01*
X82976190Y-52730952D01*
X83023809Y-52683333D01*
X83119047Y-52635714D01*
X83309523Y-52635714D01*
X83404761Y-52683333D01*
X83785714Y-53254761D02*
X83880952Y-53302380D01*
X84071428Y-53302380D01*
X84166666Y-53254761D01*
X84214285Y-53159523D01*
X84214285Y-53111904D01*
X84166666Y-53016666D01*
X84071428Y-52969047D01*
X83928571Y-52969047D01*
X83833333Y-52921428D01*
X83785714Y-52826190D01*
X83785714Y-52778571D01*
X83833333Y-52683333D01*
X83928571Y-52635714D01*
X84071428Y-52635714D01*
X84166666Y-52683333D01*
X74000000Y-65000000D02*
X76000000Y-65000000D01*
X75000000Y-64000000D02*
X75000000Y-66000000D01*
D12*
G04 #@! TO.C,C1*
X77450000Y-75600000D02*
X78150000Y-75600000D01*
X78150000Y-76800000D02*
X77450000Y-76800000D01*
G04 #@! TO.C,D0*
X84300000Y-75600000D02*
X84300000Y-77000000D01*
X84300000Y-77000000D02*
X87100000Y-77000000D01*
X84300000Y-75600000D02*
X87100000Y-75600000D01*
D10*
G04 #@! TO.C,5'*
X73300000Y-64350000D02*
X73300000Y-64250000D01*
X73500000Y-64950000D02*
X73500000Y-65050000D01*
X73600000Y-65000000D02*
X73400000Y-65000000D01*
X74150000Y-65650000D02*
X72450000Y-65650000D01*
X72450000Y-64350000D02*
X72450000Y-65650000D01*
X74150000Y-64350000D02*
X72450000Y-64350000D01*
X74150000Y-64350000D02*
X74150000Y-65650000D01*
G04 #@! TO.C,1'*
X74350000Y-66700000D02*
X74250000Y-66700000D01*
X74950000Y-66500000D02*
X75050000Y-66500000D01*
X75000000Y-66400000D02*
X75000000Y-66600000D01*
X75650000Y-65850000D02*
X75650000Y-67550000D01*
X74350000Y-67550000D02*
X75650000Y-67550000D01*
X74350000Y-65850000D02*
X74350000Y-67550000D01*
X74350000Y-65850000D02*
X75650000Y-65850000D01*
G04 #@! TO.C,5*
X76700000Y-65650000D02*
X76700000Y-65750000D01*
X76500000Y-65050000D02*
X76500000Y-64950000D01*
X76400000Y-65000000D02*
X76600000Y-65000000D01*
X75850000Y-64350000D02*
X77550000Y-64350000D01*
X77550000Y-65650000D02*
X77550000Y-64350000D01*
X75850000Y-65650000D02*
X77550000Y-65650000D01*
X75850000Y-65650000D02*
X75850000Y-64350000D01*
G04 #@! TO.C,1*
X75650000Y-63300000D02*
X75750000Y-63300000D01*
X75050000Y-63500000D02*
X74950000Y-63500000D01*
X75000000Y-63600000D02*
X75000000Y-63400000D01*
X74350000Y-64150000D02*
X74350000Y-62450000D01*
X75650000Y-62450000D02*
X74350000Y-62450000D01*
X75650000Y-64150000D02*
X75650000Y-62450000D01*
X75650000Y-64150000D02*
X74350000Y-64150000D01*
G04 #@! TO.C,7'*
X73518198Y-62598959D02*
X73588909Y-62528249D01*
X73235355Y-63164645D02*
X73164645Y-63235355D01*
X73270711Y-63270711D02*
X73129289Y-63129289D01*
X73200000Y-64119239D02*
X71997918Y-62917157D01*
X72917157Y-61997918D02*
X71997918Y-62917157D01*
X74119239Y-63200000D02*
X72917157Y-61997918D01*
X74119239Y-63200000D02*
X73200000Y-64119239D01*
G04 #@! TO.C,3*
X77401041Y-63518198D02*
X77471751Y-63588909D01*
X76835355Y-63235355D02*
X76764645Y-63164645D01*
X76729289Y-63270711D02*
X76870711Y-63129289D01*
X75880761Y-63200000D02*
X77082843Y-61997918D01*
X78002082Y-62917157D02*
X77082843Y-61997918D01*
X76800000Y-64119239D02*
X78002082Y-62917157D01*
X76800000Y-64119239D02*
X75880761Y-63200000D01*
G04 #@! TO.C,3'*
X72598959Y-66481802D02*
X72528249Y-66411091D01*
X73164645Y-66764645D02*
X73235355Y-66835355D01*
X73270711Y-66729289D02*
X73129289Y-66870711D01*
X74119239Y-66800000D02*
X72917157Y-68002082D01*
X71997918Y-67082843D02*
X72917157Y-68002082D01*
X73200000Y-65880761D02*
X71997918Y-67082843D01*
X73200000Y-65880761D02*
X74119239Y-66800000D01*
G04 #@! TO.C,7*
X76481802Y-67401041D02*
X76411091Y-67471751D01*
X76764645Y-66835355D02*
X76835355Y-66764645D01*
X76729289Y-66729289D02*
X76870711Y-66870711D01*
X76800000Y-65880761D02*
X78002082Y-67082843D01*
X77082843Y-68002082D02*
X78002082Y-67082843D01*
X75880761Y-66800000D02*
X77082843Y-68002082D01*
X75880761Y-66800000D02*
X76800000Y-65880761D01*
G04 #@! TO.C,2*
X76650000Y-61300000D02*
X76750000Y-61300000D01*
X76050000Y-61500000D02*
X75950000Y-61500000D01*
X76000000Y-61600000D02*
X76000000Y-61400000D01*
X75350000Y-62150000D02*
X75350000Y-60450000D01*
X76650000Y-60450000D02*
X75350000Y-60450000D01*
X76650000Y-62150000D02*
X76650000Y-60450000D01*
X76650000Y-62150000D02*
X75350000Y-62150000D01*
G04 #@! TO.C,6'*
X71300000Y-63350000D02*
X71300000Y-63250000D01*
X71500000Y-63950000D02*
X71500000Y-64050000D01*
X71600000Y-64000000D02*
X71400000Y-64000000D01*
X72150000Y-64650000D02*
X70450000Y-64650000D01*
X70450000Y-63350000D02*
X70450000Y-64650000D01*
X72150000Y-63350000D02*
X70450000Y-63350000D01*
X72150000Y-63350000D02*
X72150000Y-64650000D01*
G04 #@! TO.C,2'*
X73350000Y-68700000D02*
X73250000Y-68700000D01*
X73950000Y-68500000D02*
X74050000Y-68500000D01*
X74000000Y-68400000D02*
X74000000Y-68600000D01*
X74650000Y-67850000D02*
X74650000Y-69550000D01*
X73350000Y-69550000D02*
X74650000Y-69550000D01*
X73350000Y-67850000D02*
X73350000Y-69550000D01*
X73350000Y-67850000D02*
X74650000Y-67850000D01*
G04 #@! TO.C,6*
X78700000Y-66650000D02*
X78700000Y-66750000D01*
X78500000Y-66050000D02*
X78500000Y-65950000D01*
X78400000Y-66000000D02*
X78600000Y-66000000D01*
X77850000Y-65350000D02*
X79550000Y-65350000D01*
X79550000Y-66650000D02*
X79550000Y-65350000D01*
X77850000Y-66650000D02*
X79550000Y-66650000D01*
X77850000Y-66650000D02*
X77850000Y-65350000D01*
G04 #@! TO.C,8'*
X74650000Y-61300000D02*
X74750000Y-61300000D01*
X74050000Y-61500000D02*
X73950000Y-61500000D01*
X74000000Y-61600000D02*
X74000000Y-61400000D01*
X73350000Y-62150000D02*
X73350000Y-60450000D01*
X74650000Y-60450000D02*
X73350000Y-60450000D01*
X74650000Y-62150000D02*
X74650000Y-60450000D01*
X74650000Y-62150000D02*
X73350000Y-62150000D01*
G04 #@! TO.C,4*
X78700000Y-64650000D02*
X78700000Y-64750000D01*
X78500000Y-64050000D02*
X78500000Y-63950000D01*
X78400000Y-64000000D02*
X78600000Y-64000000D01*
X77850000Y-63350000D02*
X79550000Y-63350000D01*
X79550000Y-64650000D02*
X79550000Y-63350000D01*
X77850000Y-64650000D02*
X79550000Y-64650000D01*
X77850000Y-64650000D02*
X77850000Y-63350000D01*
G04 #@! TO.C,8*
X75350000Y-68700000D02*
X75250000Y-68700000D01*
X75950000Y-68500000D02*
X76050000Y-68500000D01*
X76000000Y-68400000D02*
X76000000Y-68600000D01*
X76650000Y-67850000D02*
X76650000Y-69550000D01*
X75350000Y-69550000D02*
X76650000Y-69550000D01*
X75350000Y-67850000D02*
X75350000Y-69550000D01*
X75350000Y-67850000D02*
X76650000Y-67850000D01*
G04 #@! TO.C,4'*
X71300000Y-65350000D02*
X71300000Y-65250000D01*
X71500000Y-65950000D02*
X71500000Y-66050000D01*
X71600000Y-66000000D02*
X71400000Y-66000000D01*
X72150000Y-66650000D02*
X70450000Y-66650000D01*
X70450000Y-65350000D02*
X70450000Y-66650000D01*
X72150000Y-65350000D02*
X70450000Y-65350000D01*
X72150000Y-65350000D02*
X72150000Y-66650000D01*
D13*
G04 #@! TO.C,J1*
X98600000Y-52300000D02*
X98600000Y-77700000D01*
X98600000Y-77700000D02*
X91400000Y-77700000D01*
X91400000Y-77700000D02*
X91400000Y-52300000D01*
X91400000Y-52300000D02*
X98600000Y-52300000D01*
G04 #@! TO.C,J2*
X51400000Y-77700000D02*
X51400000Y-52300000D01*
X51400000Y-52300000D02*
X58600000Y-52300000D01*
X58600000Y-52300000D02*
X58600000Y-77700000D01*
X58600000Y-77700000D02*
X51400000Y-77700000D01*
D12*
G04 #@! TO.C,R0*
X81800000Y-75420000D02*
X83000000Y-75420000D01*
X83000000Y-77180000D02*
X81800000Y-77180000D01*
G04 #@! TO.C,R1*
X81800000Y-77320000D02*
X83000000Y-77320000D01*
X83000000Y-79080000D02*
X81800000Y-79080000D01*
G04 #@! TO.C,R100*
X85700000Y-75280000D02*
X84500000Y-75280000D01*
X84500000Y-73520000D02*
X85700000Y-73520000D01*
G04 #@! TO.C,C1*
D13*
X77633333Y-75157142D02*
X77585714Y-75204761D01*
X77442857Y-75252380D01*
X77347619Y-75252380D01*
X77204761Y-75204761D01*
X77109523Y-75109523D01*
X77061904Y-75014285D01*
X77014285Y-74823809D01*
X77014285Y-74680952D01*
X77061904Y-74490476D01*
X77109523Y-74395238D01*
X77204761Y-74300000D01*
X77347619Y-74252380D01*
X77442857Y-74252380D01*
X77585714Y-74300000D01*
X77633333Y-74347619D01*
X78585714Y-75252380D02*
X78014285Y-75252380D01*
X78300000Y-75252380D02*
X78300000Y-74252380D01*
X78204761Y-74395238D01*
X78109523Y-74490476D01*
X78014285Y-74538095D01*
G04 #@! TO.C,D0*
X85261904Y-78352380D02*
X85261904Y-77352380D01*
X85500000Y-77352380D01*
X85642857Y-77400000D01*
X85738095Y-77495238D01*
X85785714Y-77590476D01*
X85833333Y-77780952D01*
X85833333Y-77923809D01*
X85785714Y-78114285D01*
X85738095Y-78209523D01*
X85642857Y-78304761D01*
X85500000Y-78352380D01*
X85261904Y-78352380D01*
X86452380Y-77352380D02*
X86547619Y-77352380D01*
X86642857Y-77400000D01*
X86690476Y-77447619D01*
X86738095Y-77542857D01*
X86785714Y-77733333D01*
X86785714Y-77971428D01*
X86738095Y-78161904D01*
X86690476Y-78257142D01*
X86642857Y-78304761D01*
X86547619Y-78352380D01*
X86452380Y-78352380D01*
X86357142Y-78304761D01*
X86309523Y-78257142D01*
X86261904Y-78161904D01*
X86214285Y-77971428D01*
X86214285Y-77733333D01*
X86261904Y-77542857D01*
X86309523Y-77447619D01*
X86357142Y-77400000D01*
X86452380Y-77352380D01*
G04 #@! TO.C,5'*
X69250000Y-64452380D02*
X68773809Y-64452380D01*
X68726190Y-64928571D01*
X68773809Y-64880952D01*
X68869047Y-64833333D01*
X69107142Y-64833333D01*
X69202380Y-64880952D01*
X69250000Y-64928571D01*
X69297619Y-65023809D01*
X69297619Y-65261904D01*
X69250000Y-65357142D01*
X69202380Y-65404761D01*
X69107142Y-65452380D01*
X68869047Y-65452380D01*
X68773809Y-65404761D01*
X68726190Y-65357142D01*
X69773809Y-64452380D02*
X69678571Y-64642857D01*
G04 #@! TO.C,1'*
X75047619Y-71202380D02*
X74476190Y-71202380D01*
X74761904Y-71202380D02*
X74761904Y-70202380D01*
X74666666Y-70345238D01*
X74571428Y-70440476D01*
X74476190Y-70488095D01*
X75523809Y-70202380D02*
X75428571Y-70392857D01*
G04 #@! TO.C,5*
X80988095Y-64452380D02*
X80511904Y-64452380D01*
X80464285Y-64928571D01*
X80511904Y-64880952D01*
X80607142Y-64833333D01*
X80845238Y-64833333D01*
X80940476Y-64880952D01*
X80988095Y-64928571D01*
X81035714Y-65023809D01*
X81035714Y-65261904D01*
X80988095Y-65357142D01*
X80940476Y-65404761D01*
X80845238Y-65452380D01*
X80607142Y-65452380D01*
X80511904Y-65404761D01*
X80464285Y-65357142D01*
G04 #@! TO.C,1*
X75285714Y-59702380D02*
X74714285Y-59702380D01*
X75000000Y-59702380D02*
X75000000Y-58702380D01*
X74904761Y-58845238D01*
X74809523Y-58940476D01*
X74714285Y-58988095D01*
G04 #@! TO.C,7'*
X70208713Y-61016835D02*
X70680118Y-60545431D01*
X71084179Y-61555583D01*
X70983164Y-60242385D02*
X71050507Y-60444416D01*
G04 #@! TO.C,3*
X79151522Y-60377072D02*
X79589255Y-60814805D01*
X79084179Y-60848477D01*
X79185194Y-60949492D01*
X79218866Y-61050507D01*
X79218866Y-61117851D01*
X79185194Y-61218866D01*
X79016835Y-61387225D01*
X78915820Y-61420896D01*
X78848477Y-61420896D01*
X78747461Y-61387225D01*
X78545431Y-61185194D01*
X78511759Y-61084179D01*
X78511759Y-61016835D01*
G04 #@! TO.C,3'*
X70883164Y-68308713D02*
X71320896Y-68746446D01*
X70815820Y-68780118D01*
X70916835Y-68881133D01*
X70950507Y-68982148D01*
X70950507Y-69049492D01*
X70916835Y-69150507D01*
X70748477Y-69318866D01*
X70647461Y-69352538D01*
X70580118Y-69352538D01*
X70479103Y-69318866D01*
X70277072Y-69116835D01*
X70243400Y-69015820D01*
X70243400Y-68948477D01*
X71657614Y-69083164D02*
X71455583Y-69150507D01*
G04 #@! TO.C,7*
X78377072Y-68848477D02*
X78848477Y-68377072D01*
X79252538Y-69387225D01*
G04 #@! TO.C,2*
X75714285Y-57547619D02*
X75761904Y-57500000D01*
X75857142Y-57452380D01*
X76095238Y-57452380D01*
X76190476Y-57500000D01*
X76238095Y-57547619D01*
X76285714Y-57642857D01*
X76285714Y-57738095D01*
X76238095Y-57880952D01*
X75666666Y-58452380D01*
X76285714Y-58452380D01*
G04 #@! TO.C,6'*
X67952380Y-63452380D02*
X67761904Y-63452380D01*
X67666666Y-63500000D01*
X67619047Y-63547619D01*
X67523809Y-63690476D01*
X67476190Y-63880952D01*
X67476190Y-64261904D01*
X67523809Y-64357142D01*
X67571428Y-64404761D01*
X67666666Y-64452380D01*
X67857142Y-64452380D01*
X67952380Y-64404761D01*
X68000000Y-64357142D01*
X68047619Y-64261904D01*
X68047619Y-64023809D01*
X68000000Y-63928571D01*
X67952380Y-63880952D01*
X67857142Y-63833333D01*
X67666666Y-63833333D01*
X67571428Y-63880952D01*
X67523809Y-63928571D01*
X67476190Y-64023809D01*
X68523809Y-63452380D02*
X68428571Y-63642857D01*
G04 #@! TO.C,2'*
X73476190Y-71547619D02*
X73523809Y-71500000D01*
X73619047Y-71452380D01*
X73857142Y-71452380D01*
X73952380Y-71500000D01*
X74000000Y-71547619D01*
X74047619Y-71642857D01*
X74047619Y-71738095D01*
X74000000Y-71880952D01*
X73428571Y-72452380D01*
X74047619Y-72452380D01*
X74523809Y-71452380D02*
X74428571Y-71642857D01*
G04 #@! TO.C,6*
X82190476Y-65452380D02*
X82000000Y-65452380D01*
X81904761Y-65500000D01*
X81857142Y-65547619D01*
X81761904Y-65690476D01*
X81714285Y-65880952D01*
X81714285Y-66261904D01*
X81761904Y-66357142D01*
X81809523Y-66404761D01*
X81904761Y-66452380D01*
X82095238Y-66452380D01*
X82190476Y-66404761D01*
X82238095Y-66357142D01*
X82285714Y-66261904D01*
X82285714Y-66023809D01*
X82238095Y-65928571D01*
X82190476Y-65880952D01*
X82095238Y-65833333D01*
X81904761Y-65833333D01*
X81809523Y-65880952D01*
X81761904Y-65928571D01*
X81714285Y-66023809D01*
G04 #@! TO.C,8'*
X72166666Y-58880952D02*
X72071428Y-58833333D01*
X72023809Y-58785714D01*
X71976190Y-58690476D01*
X71976190Y-58642857D01*
X72023809Y-58547619D01*
X72071428Y-58500000D01*
X72166666Y-58452380D01*
X72357142Y-58452380D01*
X72452380Y-58500000D01*
X72500000Y-58547619D01*
X72547619Y-58642857D01*
X72547619Y-58690476D01*
X72500000Y-58785714D01*
X72452380Y-58833333D01*
X72357142Y-58880952D01*
X72166666Y-58880952D01*
X72071428Y-58928571D01*
X72023809Y-58976190D01*
X71976190Y-59071428D01*
X71976190Y-59261904D01*
X72023809Y-59357142D01*
X72071428Y-59404761D01*
X72166666Y-59452380D01*
X72357142Y-59452380D01*
X72452380Y-59404761D01*
X72500000Y-59357142D01*
X72547619Y-59261904D01*
X72547619Y-59071428D01*
X72500000Y-58976190D01*
X72452380Y-58928571D01*
X72357142Y-58880952D01*
X73023809Y-58452380D02*
X72928571Y-58642857D01*
G04 #@! TO.C,4*
X82190476Y-63785714D02*
X82190476Y-64452380D01*
X81952380Y-63404761D02*
X81714285Y-64119047D01*
X82333333Y-64119047D01*
G04 #@! TO.C,8*
X75904761Y-71880952D02*
X75809523Y-71833333D01*
X75761904Y-71785714D01*
X75714285Y-71690476D01*
X75714285Y-71642857D01*
X75761904Y-71547619D01*
X75809523Y-71500000D01*
X75904761Y-71452380D01*
X76095238Y-71452380D01*
X76190476Y-71500000D01*
X76238095Y-71547619D01*
X76285714Y-71642857D01*
X76285714Y-71690476D01*
X76238095Y-71785714D01*
X76190476Y-71833333D01*
X76095238Y-71880952D01*
X75904761Y-71880952D01*
X75809523Y-71928571D01*
X75761904Y-71976190D01*
X75714285Y-72071428D01*
X75714285Y-72261904D01*
X75761904Y-72357142D01*
X75809523Y-72404761D01*
X75904761Y-72452380D01*
X76095238Y-72452380D01*
X76190476Y-72404761D01*
X76238095Y-72357142D01*
X76285714Y-72261904D01*
X76285714Y-72071428D01*
X76238095Y-71976190D01*
X76190476Y-71928571D01*
X76095238Y-71880952D01*
G04 #@! TO.C,4'*
X67952380Y-65785714D02*
X67952380Y-66452380D01*
X67714285Y-65404761D02*
X67476190Y-66119047D01*
X68095238Y-66119047D01*
X68523809Y-65452380D02*
X68428571Y-65642857D01*
G04 #@! TO.C,J1*
X94666666Y-50482380D02*
X94666666Y-51196666D01*
X94619047Y-51339523D01*
X94523809Y-51434761D01*
X94380952Y-51482380D01*
X94285714Y-51482380D01*
X95666666Y-51482380D02*
X95095238Y-51482380D01*
X95380952Y-51482380D02*
X95380952Y-50482380D01*
X95285714Y-50625238D01*
X95190476Y-50720476D01*
X95095238Y-50768095D01*
D11*
X91081523Y-79120761D02*
X91224380Y-79168380D01*
X91462476Y-79168380D01*
X91557714Y-79120761D01*
X91605333Y-79073142D01*
X91652952Y-78977904D01*
X91652952Y-78882666D01*
X91605333Y-78787428D01*
X91557714Y-78739809D01*
X91462476Y-78692190D01*
X91272000Y-78644571D01*
X91176761Y-78596952D01*
X91129142Y-78549333D01*
X91081523Y-78454095D01*
X91081523Y-78358857D01*
X91129142Y-78263619D01*
X91176761Y-78216000D01*
X91272000Y-78168380D01*
X91510095Y-78168380D01*
X91652952Y-78216000D01*
X92652952Y-79073142D02*
X92605333Y-79120761D01*
X92462476Y-79168380D01*
X92367238Y-79168380D01*
X92224380Y-79120761D01*
X92129142Y-79025523D01*
X92081523Y-78930285D01*
X92033904Y-78739809D01*
X92033904Y-78596952D01*
X92081523Y-78406476D01*
X92129142Y-78311238D01*
X92224380Y-78216000D01*
X92367238Y-78168380D01*
X92462476Y-78168380D01*
X92605333Y-78216000D01*
X92652952Y-78263619D01*
X93557714Y-79168380D02*
X93081523Y-79168380D01*
X93081523Y-78168380D01*
X88462095Y-73390000D02*
X88366857Y-73342380D01*
X88224000Y-73342380D01*
X88081142Y-73390000D01*
X87985904Y-73485238D01*
X87938285Y-73580476D01*
X87890666Y-73770952D01*
X87890666Y-73913809D01*
X87938285Y-74104285D01*
X87985904Y-74199523D01*
X88081142Y-74294761D01*
X88224000Y-74342380D01*
X88319238Y-74342380D01*
X88462095Y-74294761D01*
X88509714Y-74247142D01*
X88509714Y-73913809D01*
X88319238Y-73913809D01*
X88938285Y-74342380D02*
X88938285Y-73342380D01*
X89509714Y-74342380D01*
X89509714Y-73342380D01*
X89985904Y-74342380D02*
X89985904Y-73342380D01*
X90224000Y-73342380D01*
X90366857Y-73390000D01*
X90462095Y-73485238D01*
X90509714Y-73580476D01*
X90557333Y-73770952D01*
X90557333Y-73913809D01*
X90509714Y-74104285D01*
X90462095Y-74199523D01*
X90366857Y-74294761D01*
X90224000Y-74342380D01*
X89985904Y-74342380D01*
X99598380Y-74651904D02*
X99598380Y-74032857D01*
X99979333Y-74366190D01*
X99979333Y-74223333D01*
X100026952Y-74128095D01*
X100074571Y-74080476D01*
X100169809Y-74032857D01*
X100407904Y-74032857D01*
X100503142Y-74080476D01*
X100550761Y-74128095D01*
X100598380Y-74223333D01*
X100598380Y-74509047D01*
X100550761Y-74604285D01*
X100503142Y-74651904D01*
X99598380Y-73747142D02*
X100598380Y-73413809D01*
X99598380Y-73080476D01*
X96391714Y-79120761D02*
X96534571Y-79168380D01*
X96772666Y-79168380D01*
X96867904Y-79120761D01*
X96915523Y-79073142D01*
X96963142Y-78977904D01*
X96963142Y-78882666D01*
X96915523Y-78787428D01*
X96867904Y-78739809D01*
X96772666Y-78692190D01*
X96582190Y-78644571D01*
X96486952Y-78596952D01*
X96439333Y-78549333D01*
X96391714Y-78454095D01*
X96391714Y-78358857D01*
X96439333Y-78263619D01*
X96486952Y-78216000D01*
X96582190Y-78168380D01*
X96820285Y-78168380D01*
X96963142Y-78216000D01*
X97391714Y-79168380D02*
X97391714Y-78168380D01*
X97629809Y-78168380D01*
X97772666Y-78216000D01*
X97867904Y-78311238D01*
X97915523Y-78406476D01*
X97963142Y-78596952D01*
X97963142Y-78739809D01*
X97915523Y-78930285D01*
X97867904Y-79025523D01*
X97772666Y-79120761D01*
X97629809Y-79168380D01*
X97391714Y-79168380D01*
X98344095Y-78882666D02*
X98820285Y-78882666D01*
X98248857Y-79168380D02*
X98582190Y-78168380D01*
X98915523Y-79168380D01*
X89650095Y-63182380D02*
X89173904Y-63182380D01*
X89126285Y-63658571D01*
X89173904Y-63610952D01*
X89269142Y-63563333D01*
X89507238Y-63563333D01*
X89602476Y-63610952D01*
X89650095Y-63658571D01*
X89697714Y-63753809D01*
X89697714Y-63991904D01*
X89650095Y-64087142D01*
X89602476Y-64134761D01*
X89507238Y-64182380D01*
X89269142Y-64182380D01*
X89173904Y-64134761D01*
X89126285Y-64087142D01*
X89602476Y-65722380D02*
X89412000Y-65722380D01*
X89316761Y-65770000D01*
X89269142Y-65817619D01*
X89173904Y-65960476D01*
X89126285Y-66150952D01*
X89126285Y-66531904D01*
X89173904Y-66627142D01*
X89221523Y-66674761D01*
X89316761Y-66722380D01*
X89507238Y-66722380D01*
X89602476Y-66674761D01*
X89650095Y-66627142D01*
X89697714Y-66531904D01*
X89697714Y-66293809D01*
X89650095Y-66198571D01*
X89602476Y-66150952D01*
X89507238Y-66103333D01*
X89316761Y-66103333D01*
X89221523Y-66150952D01*
X89173904Y-66198571D01*
X89126285Y-66293809D01*
X89316761Y-71230952D02*
X89221523Y-71183333D01*
X89173904Y-71135714D01*
X89126285Y-71040476D01*
X89126285Y-70992857D01*
X89173904Y-70897619D01*
X89221523Y-70850000D01*
X89316761Y-70802380D01*
X89507238Y-70802380D01*
X89602476Y-70850000D01*
X89650095Y-70897619D01*
X89697714Y-70992857D01*
X89697714Y-71040476D01*
X89650095Y-71135714D01*
X89602476Y-71183333D01*
X89507238Y-71230952D01*
X89316761Y-71230952D01*
X89221523Y-71278571D01*
X89173904Y-71326190D01*
X89126285Y-71421428D01*
X89126285Y-71611904D01*
X89173904Y-71707142D01*
X89221523Y-71754761D01*
X89316761Y-71802380D01*
X89507238Y-71802380D01*
X89602476Y-71754761D01*
X89650095Y-71707142D01*
X89697714Y-71611904D01*
X89697714Y-71421428D01*
X89650095Y-71326190D01*
X89602476Y-71278571D01*
X89507238Y-71230952D01*
X89078666Y-68262380D02*
X89745333Y-68262380D01*
X89316761Y-69262380D01*
X89078666Y-58102380D02*
X89697714Y-58102380D01*
X89364380Y-58483333D01*
X89507238Y-58483333D01*
X89602476Y-58530952D01*
X89650095Y-58578571D01*
X89697714Y-58673809D01*
X89697714Y-58911904D01*
X89650095Y-59007142D01*
X89602476Y-59054761D01*
X89507238Y-59102380D01*
X89221523Y-59102380D01*
X89126285Y-59054761D01*
X89078666Y-59007142D01*
X89602476Y-60975714D02*
X89602476Y-61642380D01*
X89364380Y-60594761D02*
X89126285Y-61309047D01*
X89745333Y-61309047D01*
X89126285Y-55657619D02*
X89173904Y-55610000D01*
X89269142Y-55562380D01*
X89507238Y-55562380D01*
X89602476Y-55610000D01*
X89650095Y-55657619D01*
X89697714Y-55752857D01*
X89697714Y-55848095D01*
X89650095Y-55990952D01*
X89078666Y-56562380D01*
X89697714Y-56562380D01*
X89697714Y-54022380D02*
X89126285Y-54022380D01*
X89412000Y-54022380D02*
X89412000Y-53022380D01*
X89316761Y-53165238D01*
X89221523Y-53260476D01*
X89126285Y-53308095D01*
G04 #@! TO.C,J2*
D13*
X54666666Y-78422380D02*
X54666666Y-79136666D01*
X54619047Y-79279523D01*
X54523809Y-79374761D01*
X54380952Y-79422380D01*
X54285714Y-79422380D01*
X55095238Y-78517619D02*
X55142857Y-78470000D01*
X55238095Y-78422380D01*
X55476190Y-78422380D01*
X55571428Y-78470000D01*
X55619047Y-78517619D01*
X55666666Y-78612857D01*
X55666666Y-78708095D01*
X55619047Y-78850952D01*
X55047619Y-79422380D01*
X55666666Y-79422380D01*
D11*
X56283523Y-51688761D02*
X56426380Y-51736380D01*
X56664476Y-51736380D01*
X56759714Y-51688761D01*
X56807333Y-51641142D01*
X56854952Y-51545904D01*
X56854952Y-51450666D01*
X56807333Y-51355428D01*
X56759714Y-51307809D01*
X56664476Y-51260190D01*
X56474000Y-51212571D01*
X56378761Y-51164952D01*
X56331142Y-51117333D01*
X56283523Y-51022095D01*
X56283523Y-50926857D01*
X56331142Y-50831619D01*
X56378761Y-50784000D01*
X56474000Y-50736380D01*
X56712095Y-50736380D01*
X56854952Y-50784000D01*
X57854952Y-51641142D02*
X57807333Y-51688761D01*
X57664476Y-51736380D01*
X57569238Y-51736380D01*
X57426380Y-51688761D01*
X57331142Y-51593523D01*
X57283523Y-51498285D01*
X57235904Y-51307809D01*
X57235904Y-51164952D01*
X57283523Y-50974476D01*
X57331142Y-50879238D01*
X57426380Y-50784000D01*
X57569238Y-50736380D01*
X57664476Y-50736380D01*
X57807333Y-50784000D01*
X57854952Y-50831619D01*
X58759714Y-51736380D02*
X58283523Y-51736380D01*
X58283523Y-50736380D01*
X60238095Y-55600000D02*
X60142857Y-55552380D01*
X60000000Y-55552380D01*
X59857142Y-55600000D01*
X59761904Y-55695238D01*
X59714285Y-55790476D01*
X59666666Y-55980952D01*
X59666666Y-56123809D01*
X59714285Y-56314285D01*
X59761904Y-56409523D01*
X59857142Y-56504761D01*
X60000000Y-56552380D01*
X60095238Y-56552380D01*
X60238095Y-56504761D01*
X60285714Y-56457142D01*
X60285714Y-56123809D01*
X60095238Y-56123809D01*
X60714285Y-56552380D02*
X60714285Y-55552380D01*
X61285714Y-56552380D01*
X61285714Y-55552380D01*
X61761904Y-56552380D02*
X61761904Y-55552380D01*
X62000000Y-55552380D01*
X62142857Y-55600000D01*
X62238095Y-55695238D01*
X62285714Y-55790476D01*
X62333333Y-55980952D01*
X62333333Y-56123809D01*
X62285714Y-56314285D01*
X62238095Y-56409523D01*
X62142857Y-56504761D01*
X62000000Y-56552380D01*
X61761904Y-56552380D01*
X49452380Y-56861904D02*
X49452380Y-56242857D01*
X49833333Y-56576190D01*
X49833333Y-56433333D01*
X49880952Y-56338095D01*
X49928571Y-56290476D01*
X50023809Y-56242857D01*
X50261904Y-56242857D01*
X50357142Y-56290476D01*
X50404761Y-56338095D01*
X50452380Y-56433333D01*
X50452380Y-56719047D01*
X50404761Y-56814285D01*
X50357142Y-56861904D01*
X49452380Y-55957142D02*
X50452380Y-55623809D01*
X49452380Y-55290476D01*
X51433714Y-51688761D02*
X51576571Y-51736380D01*
X51814666Y-51736380D01*
X51909904Y-51688761D01*
X51957523Y-51641142D01*
X52005142Y-51545904D01*
X52005142Y-51450666D01*
X51957523Y-51355428D01*
X51909904Y-51307809D01*
X51814666Y-51260190D01*
X51624190Y-51212571D01*
X51528952Y-51164952D01*
X51481333Y-51117333D01*
X51433714Y-51022095D01*
X51433714Y-50926857D01*
X51481333Y-50831619D01*
X51528952Y-50784000D01*
X51624190Y-50736380D01*
X51862285Y-50736380D01*
X52005142Y-50784000D01*
X52433714Y-51736380D02*
X52433714Y-50736380D01*
X52671809Y-50736380D01*
X52814666Y-50784000D01*
X52909904Y-50879238D01*
X52957523Y-50974476D01*
X53005142Y-51164952D01*
X53005142Y-51307809D01*
X52957523Y-51498285D01*
X52909904Y-51593523D01*
X52814666Y-51688761D01*
X52671809Y-51736380D01*
X52433714Y-51736380D01*
X53386095Y-51450666D02*
X53862285Y-51450666D01*
X53290857Y-51736380D02*
X53624190Y-50736380D01*
X53957523Y-51736380D01*
X61030000Y-65722380D02*
X60553809Y-65722380D01*
X60506190Y-66198571D01*
X60553809Y-66150952D01*
X60649047Y-66103333D01*
X60887142Y-66103333D01*
X60982380Y-66150952D01*
X61030000Y-66198571D01*
X61077619Y-66293809D01*
X61077619Y-66531904D01*
X61030000Y-66627142D01*
X60982380Y-66674761D01*
X60887142Y-66722380D01*
X60649047Y-66722380D01*
X60553809Y-66674761D01*
X60506190Y-66627142D01*
X61553809Y-65722380D02*
X61458571Y-65912857D01*
X60982380Y-63182380D02*
X60791904Y-63182380D01*
X60696666Y-63230000D01*
X60649047Y-63277619D01*
X60553809Y-63420476D01*
X60506190Y-63610952D01*
X60506190Y-63991904D01*
X60553809Y-64087142D01*
X60601428Y-64134761D01*
X60696666Y-64182380D01*
X60887142Y-64182380D01*
X60982380Y-64134761D01*
X61030000Y-64087142D01*
X61077619Y-63991904D01*
X61077619Y-63753809D01*
X61030000Y-63658571D01*
X60982380Y-63610952D01*
X60887142Y-63563333D01*
X60696666Y-63563333D01*
X60601428Y-63610952D01*
X60553809Y-63658571D01*
X60506190Y-63753809D01*
X61553809Y-63182380D02*
X61458571Y-63372857D01*
X60696666Y-58530952D02*
X60601428Y-58483333D01*
X60553809Y-58435714D01*
X60506190Y-58340476D01*
X60506190Y-58292857D01*
X60553809Y-58197619D01*
X60601428Y-58150000D01*
X60696666Y-58102380D01*
X60887142Y-58102380D01*
X60982380Y-58150000D01*
X61030000Y-58197619D01*
X61077619Y-58292857D01*
X61077619Y-58340476D01*
X61030000Y-58435714D01*
X60982380Y-58483333D01*
X60887142Y-58530952D01*
X60696666Y-58530952D01*
X60601428Y-58578571D01*
X60553809Y-58626190D01*
X60506190Y-58721428D01*
X60506190Y-58911904D01*
X60553809Y-59007142D01*
X60601428Y-59054761D01*
X60696666Y-59102380D01*
X60887142Y-59102380D01*
X60982380Y-59054761D01*
X61030000Y-59007142D01*
X61077619Y-58911904D01*
X61077619Y-58721428D01*
X61030000Y-58626190D01*
X60982380Y-58578571D01*
X60887142Y-58530952D01*
X61553809Y-58102380D02*
X61458571Y-58292857D01*
X60458571Y-60642380D02*
X61125238Y-60642380D01*
X60696666Y-61642380D01*
X61553809Y-60642380D02*
X61458571Y-60832857D01*
X60458571Y-70802380D02*
X61077619Y-70802380D01*
X60744285Y-71183333D01*
X60887142Y-71183333D01*
X60982380Y-71230952D01*
X61030000Y-71278571D01*
X61077619Y-71373809D01*
X61077619Y-71611904D01*
X61030000Y-71707142D01*
X60982380Y-71754761D01*
X60887142Y-71802380D01*
X60601428Y-71802380D01*
X60506190Y-71754761D01*
X60458571Y-71707142D01*
X61553809Y-70802380D02*
X61458571Y-70992857D01*
X60982380Y-68595714D02*
X60982380Y-69262380D01*
X60744285Y-68214761D02*
X60506190Y-68929047D01*
X61125238Y-68929047D01*
X61553809Y-68262380D02*
X61458571Y-68452857D01*
X60506190Y-73437619D02*
X60553809Y-73390000D01*
X60649047Y-73342380D01*
X60887142Y-73342380D01*
X60982380Y-73390000D01*
X61030000Y-73437619D01*
X61077619Y-73532857D01*
X61077619Y-73628095D01*
X61030000Y-73770952D01*
X60458571Y-74342380D01*
X61077619Y-74342380D01*
X61553809Y-73342380D02*
X61458571Y-73532857D01*
X61077619Y-76882380D02*
X60506190Y-76882380D01*
X60791904Y-76882380D02*
X60791904Y-75882380D01*
X60696666Y-76025238D01*
X60601428Y-76120476D01*
X60506190Y-76168095D01*
X61553809Y-75882380D02*
X61458571Y-76072857D01*
G04 #@! TO.C,R0*
D13*
X82233333Y-75252380D02*
X81900000Y-74776190D01*
X81661904Y-75252380D02*
X81661904Y-74252380D01*
X82042857Y-74252380D01*
X82138095Y-74300000D01*
X82185714Y-74347619D01*
X82233333Y-74442857D01*
X82233333Y-74585714D01*
X82185714Y-74680952D01*
X82138095Y-74728571D01*
X82042857Y-74776190D01*
X81661904Y-74776190D01*
X82852380Y-74252380D02*
X82947619Y-74252380D01*
X83042857Y-74300000D01*
X83090476Y-74347619D01*
X83138095Y-74442857D01*
X83185714Y-74633333D01*
X83185714Y-74871428D01*
X83138095Y-75061904D01*
X83090476Y-75157142D01*
X83042857Y-75204761D01*
X82947619Y-75252380D01*
X82852380Y-75252380D01*
X82757142Y-75204761D01*
X82709523Y-75157142D01*
X82661904Y-75061904D01*
X82614285Y-74871428D01*
X82614285Y-74633333D01*
X82661904Y-74442857D01*
X82709523Y-74347619D01*
X82757142Y-74300000D01*
X82852380Y-74252380D01*
G04 #@! TO.C,R1*
X84733333Y-79752380D02*
X84400000Y-79276190D01*
X84161904Y-79752380D02*
X84161904Y-78752380D01*
X84542857Y-78752380D01*
X84638095Y-78800000D01*
X84685714Y-78847619D01*
X84733333Y-78942857D01*
X84733333Y-79085714D01*
X84685714Y-79180952D01*
X84638095Y-79228571D01*
X84542857Y-79276190D01*
X84161904Y-79276190D01*
X85685714Y-79752380D02*
X85114285Y-79752380D01*
X85400000Y-79752380D02*
X85400000Y-78752380D01*
X85304761Y-78895238D01*
X85209523Y-78990476D01*
X85114285Y-79038095D01*
G04 #@! TO.C,U1*
X73838095Y-76302380D02*
X73838095Y-77111904D01*
X73885714Y-77207142D01*
X73933333Y-77254761D01*
X74028571Y-77302380D01*
X74219047Y-77302380D01*
X74314285Y-77254761D01*
X74361904Y-77207142D01*
X74409523Y-77111904D01*
X74409523Y-76302380D01*
X75409523Y-77302380D02*
X74838095Y-77302380D01*
X75123809Y-77302380D02*
X75123809Y-76302380D01*
X75028571Y-76445238D01*
X74933333Y-76540476D01*
X74838095Y-76588095D01*
G04 #@! TO.C,Q1*
X67845431Y-70719881D02*
X67811759Y-70618866D01*
X67811759Y-70484179D01*
X67811759Y-70282148D01*
X67778087Y-70181133D01*
X67710744Y-70113790D01*
X67576057Y-70315820D02*
X67542385Y-70214805D01*
X67542385Y-70080118D01*
X67643400Y-69911759D01*
X67879103Y-69676057D01*
X68047461Y-69575042D01*
X68182148Y-69575042D01*
X68283164Y-69608713D01*
X68417851Y-69743400D01*
X68451522Y-69844416D01*
X68451522Y-69979103D01*
X68350507Y-70147461D01*
X68114805Y-70383164D01*
X67946446Y-70484179D01*
X67811759Y-70484179D01*
X67710744Y-70450507D01*
X67576057Y-70315820D01*
X68552538Y-71292301D02*
X68148477Y-70888240D01*
X68350507Y-71090270D02*
X69057614Y-70383164D01*
X68889255Y-70416835D01*
X68754568Y-70416835D01*
X68653553Y-70383164D01*
G04 #@! TO.C,Q2*
X72179761Y-79547619D02*
X72084523Y-79500000D01*
X71989285Y-79404761D01*
X71846428Y-79261904D01*
X71751190Y-79214285D01*
X71655952Y-79214285D01*
X71703571Y-79452380D02*
X71608333Y-79404761D01*
X71513095Y-79309523D01*
X71465476Y-79119047D01*
X71465476Y-78785714D01*
X71513095Y-78595238D01*
X71608333Y-78500000D01*
X71703571Y-78452380D01*
X71894047Y-78452380D01*
X71989285Y-78500000D01*
X72084523Y-78595238D01*
X72132142Y-78785714D01*
X72132142Y-79119047D01*
X72084523Y-79309523D01*
X71989285Y-79404761D01*
X71894047Y-79452380D01*
X71703571Y-79452380D01*
X72513095Y-78547619D02*
X72560714Y-78500000D01*
X72655952Y-78452380D01*
X72894047Y-78452380D01*
X72989285Y-78500000D01*
X73036904Y-78547619D01*
X73084523Y-78642857D01*
X73084523Y-78738095D01*
X73036904Y-78880952D01*
X72465476Y-79452380D01*
X73084523Y-79452380D01*
G04 #@! TO.C,Q3*
X71704761Y-56547619D02*
X71609523Y-56500000D01*
X71514285Y-56404761D01*
X71371428Y-56261904D01*
X71276190Y-56214285D01*
X71180952Y-56214285D01*
X71228571Y-56452380D02*
X71133333Y-56404761D01*
X71038095Y-56309523D01*
X70990476Y-56119047D01*
X70990476Y-55785714D01*
X71038095Y-55595238D01*
X71133333Y-55500000D01*
X71228571Y-55452380D01*
X71419047Y-55452380D01*
X71514285Y-55500000D01*
X71609523Y-55595238D01*
X71657142Y-55785714D01*
X71657142Y-56119047D01*
X71609523Y-56309523D01*
X71514285Y-56404761D01*
X71419047Y-56452380D01*
X71228571Y-56452380D01*
X71990476Y-55452380D02*
X72609523Y-55452380D01*
X72276190Y-55833333D01*
X72419047Y-55833333D01*
X72514285Y-55880952D01*
X72561904Y-55928571D01*
X72609523Y-56023809D01*
X72609523Y-56261904D01*
X72561904Y-56357142D01*
X72514285Y-56404761D01*
X72419047Y-56452380D01*
X72133333Y-56452380D01*
X72038095Y-56404761D01*
X71990476Y-56357142D01*
G04 #@! TO.C,R100*
X83980952Y-73252380D02*
X83647619Y-72776190D01*
X83409523Y-73252380D02*
X83409523Y-72252380D01*
X83790476Y-72252380D01*
X83885714Y-72300000D01*
X83933333Y-72347619D01*
X83980952Y-72442857D01*
X83980952Y-72585714D01*
X83933333Y-72680952D01*
X83885714Y-72728571D01*
X83790476Y-72776190D01*
X83409523Y-72776190D01*
X84933333Y-73252380D02*
X84361904Y-73252380D01*
X84647619Y-73252380D02*
X84647619Y-72252380D01*
X84552380Y-72395238D01*
X84457142Y-72490476D01*
X84361904Y-72538095D01*
X85552380Y-72252380D02*
X85647619Y-72252380D01*
X85742857Y-72300000D01*
X85790476Y-72347619D01*
X85838095Y-72442857D01*
X85885714Y-72633333D01*
X85885714Y-72871428D01*
X85838095Y-73061904D01*
X85790476Y-73157142D01*
X85742857Y-73204761D01*
X85647619Y-73252380D01*
X85552380Y-73252380D01*
X85457142Y-73204761D01*
X85409523Y-73157142D01*
X85361904Y-73061904D01*
X85314285Y-72871428D01*
X85314285Y-72633333D01*
X85361904Y-72442857D01*
X85409523Y-72347619D01*
X85457142Y-72300000D01*
X85552380Y-72252380D01*
X86504761Y-72252380D02*
X86600000Y-72252380D01*
X86695238Y-72300000D01*
X86742857Y-72347619D01*
X86790476Y-72442857D01*
X86838095Y-72633333D01*
X86838095Y-72871428D01*
X86790476Y-73061904D01*
X86742857Y-73157142D01*
X86695238Y-73204761D01*
X86600000Y-73252380D01*
X86504761Y-73252380D01*
X86409523Y-73204761D01*
X86361904Y-73157142D01*
X86314285Y-73061904D01*
X86266666Y-72871428D01*
X86266666Y-72633333D01*
X86314285Y-72442857D01*
X86361904Y-72347619D01*
X86409523Y-72300000D01*
X86504761Y-72252380D01*
G04 #@! TD*
M02*
