EESchema Schematic File Version 4
LIBS:Peltier_IMS-cache
LIBS:LED_IMS_16-cache
EELAYER 26 0
EELAYER END
$Descr A4 11693 8268
encoding utf-8
Sheet 1 1
Title ""
Date ""
Rev ""
Comp ""
Comment1 ""
Comment2 ""
Comment3 ""
Comment4 ""
$EndDescr
Wire Wire Line
	9985 1425 9950 1425
Text GLabel 9985 1425 2    60   Input ~ 0
GND
Wire Wire Line
	9615 1425 9650 1425
Text GLabel 9615 1425 0    60   Input ~ 0
GND
$Comp
L Device:R R200
U 1 1 5BC918F8
P 9800 1425
F 0 "R200" V 9700 1425 50  0000 C CNN
F 1 "0" V 9800 1425 50  0000 C CNN
F 2 "Resistors_SMD:R_0805" V 9730 1425 50  0001 C CNN
F 3 "~" H 9800 1425 50  0001 C CNN
	1    9800 1425
	0    1    1    0   
$EndComp
Text GLabel 9400 2450 2    39   Input ~ 0
En_2
$Comp
L Device:R R101
U 1 1 5BC6D723
P 9690 3655
F 0 "R101" V 9590 3655 50  0000 C CNN
F 1 "0" V 9690 3655 50  0000 C CNN
F 2 "Resistors_SMD:R_0805" V 9620 3655 50  0001 C CNN
F 3 "~" H 9690 3655 50  0001 C CNN
	1    9690 3655
	0    1    1    0   
$EndComp
Wire Wire Line
	9840 3755 9890 3755
Wire Wire Line
	9490 3755 9540 3755
$Comp
L Device:R R111
U 1 1 5BC7B6E9
P 9690 3755
F 0 "R111" V 9770 3755 50  0000 C CNN
F 1 "0" V 9690 3755 50  0000 C CNN
F 2 "Resistors_SMD:R_0805" V 9620 3755 50  0001 C CNN
F 3 "~" H 9690 3755 50  0001 C CNN
	1    9690 3755
	0    1    1    0   
$EndComp
Text GLabel 9890 3755 2    50   Input ~ 0
V_2
Wire Wire Line
	2975 5975 5885 5975
Wire Wire Line
	5885 1525 6060 1525
Wire Wire Line
	5885 5975 5885 1525
Wire Wire Line
	3325 5925 5720 5925
Wire Wire Line
	5720 1425 5720 5925
Wire Wire Line
	6005 1425 5720 1425
Wire Wire Line
	6060 1550 6060 1525
Wire Wire Line
	6560 1550 6060 1550
Wire Wire Line
	6560 1525 6560 1550
Wire Wire Line
	6560 1445 6560 1425
Wire Wire Line
	6005 1445 6560 1445
Wire Wire Line
	6005 1425 6005 1445
Connection ~ 6005 1425
Wire Wire Line
	6060 1425 6005 1425
Text Label 5885 1525 0    50   ~ 0
P-2
Text Label 5750 1425 0    50   ~ 0
P+2
Wire Wire Line
	1675 5075 1825 5075
Wire Wire Line
	2575 5675 2385 5675
Text GLabel 2385 5675 0    60   Input ~ 0
PGND
NoConn ~ 1530 5175
Wire Wire Line
	1825 5175 1730 5175
Wire Wire Line
	930  3485 930  4375
Wire Wire Line
	4250 3485 930  3485
Wire Wire Line
	4250 4075 4250 3485
$Comp
L Device:R_Small Rr11
U 1 1 5BC16F83
P 1630 5175
F 0 "Rr11" V 1630 5005 50  0000 C CNN
F 1 "0" V 1630 5175 50  0000 C CNN
F 2 "Resistors_SMD:R_0603" H 1630 5175 50  0001 C CNN
F 3 "~" H 1630 5175 50  0001 C CNN
	1    1630 5175
	0    1    1    0   
$EndComp
Text Notes 3250 3625 0    39   ~ 0
U_TEC max = 4.Ref.R1/(R1+R2)
Text Notes 1710 5050 0    39   ~ 0
1MHz
Wire Wire Line
	3725 4175 3725 4075
Wire Wire Line
	3725 4075 4250 4075
Connection ~ 3725 4075
Wire Wire Line
	3725 3975 3725 4075
Text Label 4250 4075 0    50   ~ 0
Ref2
Wire Wire Line
	3325 4075 3725 4075
Text GLabel 1275 4175 0    39   Input ~ 0
V_2
Wire Wire Line
	1525 4075 1825 4075
Wire Wire Line
	2975 5525 4125 5525
Wire Wire Line
	3325 5675 3325 5925
Wire Wire Line
	725  5275 725  5525
Wire Wire Line
	1675 4425 1675 4575
Wire Wire Line
	3475 4425 3825 4425
Wire Wire Line
	3475 4425 3475 4575
Wire Wire Line
	1775 4675 1825 4675
Wire Wire Line
	1775 4675 1775 4875
Wire Wire Line
	3375 4675 3375 4875
Wire Wire Line
	3375 4675 3475 4675
Wire Wire Line
	1675 4925 3475 4925
Wire Wire Line
	3475 4925 3575 4925
Wire Wire Line
	1275 4175 1825 4175
Wire Wire Line
	3675 3775 3825 3775
Text GLabel 3825 3775 2    39   Input ~ 0
GND
Wire Wire Line
	3675 3975 3725 3975
Wire Wire Line
	3375 3975 3325 3975
Wire Wire Line
	3325 3775 3375 3775
Wire Wire Line
	3325 3975 3325 3775
$Comp
L Device:R Ra11
U 1 1 5BC16F48
P 3525 3775
F 0 "Ra11" V 3425 3775 50  0000 C CNN
F 1 "100k" V 3525 3775 50  0000 C CNN
F 2 "Resistors_SMD:R_0805" V 3455 3775 50  0001 C CNN
F 3 "" H 3525 3775 50  0001 C CNN
	1    3525 3775
	0    1    1    0   
$EndComp
$Comp
L Device:R Ra12
U 1 1 5BC16F42
P 3525 3975
F 0 "Ra12" V 3425 3975 50  0000 C CNN
F 1 "50k" V 3525 3975 50  0000 C CNN
F 2 "Resistors_SMD:R_0805" V 3455 3975 50  0001 C CNN
F 3 "" H 3525 3975 50  0001 C CNN
	1    3525 3975
	0    1    1    0   
$EndComp
Wire Wire Line
	1625 4275 1625 4375
Wire Wire Line
	1825 4275 1625 4275
Wire Wire Line
	930  4375 1525 4375
Wire Wire Line
	1525 4375 1625 4375
Connection ~ 1525 4375
$Comp
L Device:C C14
U 1 1 5BC16F3A
P 1525 4225
F 0 "C14" H 1550 4325 50  0000 L CNN
F 1 "1uF" H 1375 4125 50  0000 L CNN
F 2 "Capacitors_SMD:C_0603" H 1563 4075 50  0001 C CNN
F 3 "" H 1525 4225 50  0001 C CNN
	1    1525 4225
	1    0    0    -1  
$EndComp
Connection ~ 1525 4075
Wire Wire Line
	1525 4025 1525 4075
Wire Wire Line
	1525 3725 1775 3725
Wire Wire Line
	1275 3725 1525 3725
Connection ~ 1525 3725
$Comp
L Device:C C13
U 1 1 5BC16F32
P 1525 3875
F 0 "C13" H 1550 3975 50  0000 L CNN
F 1 "1uF" H 1375 3775 50  0000 L CNN
F 2 "Capacitors_SMD:C_0603" H 1563 3725 50  0001 C CNN
F 3 "" H 1525 3875 50  0001 C CNN
	1    1525 3875
	1    0    0    -1  
$EndComp
Wire Wire Line
	3725 4175 3325 4175
Wire Wire Line
	2975 5525 2975 5975
Wire Wire Line
	4525 5525 4525 5675
Wire Wire Line
	4525 5325 4525 5525
Connection ~ 4525 5525
Wire Wire Line
	4425 5525 4525 5525
$Comp
L Device:C C18
U 1 1 5BC16F26
P 4275 5525
F 0 "C18" H 4300 5625 50  0000 L CNN
F 1 "10uF" V 4225 5275 50  0000 L CNN
F 2 "Capacitors_SMD:C_0603" H 4313 5375 50  0001 C CNN
F 3 "" H 4275 5525 50  0001 C CNN
	1    4275 5525
	0    1    1    0   
$EndComp
Connection ~ 2975 5525
Wire Wire Line
	725  5525 2975 5525
Wire Wire Line
	4525 5675 3825 5675
Wire Wire Line
	3325 5675 3525 5675
Connection ~ 3325 5675
Wire Wire Line
	3325 5275 3325 5675
$Comp
L Device:R Rsense11
U 1 1 5BC16F1A
P 3675 5675
F 0 "Rsense11" V 3755 5675 50  0000 C CNN
F 1 "50m" V 3675 5675 50  0000 C CNN
F 2 "Resistors_SMD:R_0805" V 3605 5675 50  0001 C CNN
F 3 "" H 3675 5675 50  0001 C CNN
	1    3675 5675
	0    -1   -1   0   
$EndComp
Wire Wire Line
	1775 3975 1825 3975
Wire Wire Line
	1775 3725 1775 3975
Text GLabel 1275 3725 0    60   Input ~ 0
PVDD
Wire Wire Line
	3425 5325 4525 5325
Wire Wire Line
	3425 5175 3425 5325
Wire Wire Line
	3325 5175 3425 5175
Wire Wire Line
	3475 5225 4025 5225
Text GLabel 4025 5225 2    60   Input ~ 0
PVDD
Wire Wire Line
	3325 5075 4025 5075
Text GLabel 4025 5075 2    39   Input ~ 0
En_2
Wire Wire Line
	3725 4275 3825 4275
Wire Wire Line
	3325 4275 3425 4275
Text GLabel 3825 4275 2    39   Input ~ 0
GND
$Comp
L Device:C C15
U 1 1 5BC16F05
P 3575 4275
F 0 "C15" V 3530 4340 50  0000 L CNN
F 1 "0.01uF" V 3525 3975 50  0000 L CNN
F 2 "Capacitors_SMD:C_0603" H 3613 4125 50  0001 C CNN
F 3 "" H 3575 4275 50  0001 C CNN
	1    3575 4275
	0    1    1    0   
$EndComp
Wire Wire Line
	1275 4075 1525 4075
Text GLabel 1275 4075 0    39   Input ~ 0
GND
Connection ~ 4525 5325
Wire Wire Line
	4525 4625 4525 5325
Wire Wire Line
	725  5275 1825 5275
Connection ~ 725  5275
Wire Wire Line
	725  4625 725  5275
Wire Wire Line
	3825 4675 3825 4625
Wire Wire Line
	3775 4675 3825 4675
Wire Wire Line
	3925 4925 4025 4925
Wire Wire Line
	3875 4925 3925 4925
Connection ~ 3925 4925
Wire Wire Line
	3925 4625 4525 4625
Wire Wire Line
	3825 4625 3925 4625
Connection ~ 3925 4625
$Comp
L Device:C C17
U 1 1 5BC16EF8
P 3925 4775
F 0 "C17" H 3950 4875 50  0000 L CNN
F 1 "1uF" H 4025 4775 50  0000 L CNN
F 2 "Capacitors_SMD:C_0603" H 3963 4625 50  0001 C CNN
F 3 "" H 3925 4775 50  0001 C CNN
	1    3925 4775
	1    0    0    -1  
$EndComp
Wire Wire Line
	1375 4625 1375 4675
Wire Wire Line
	1175 4925 1225 4925
Wire Wire Line
	1075 4925 1175 4925
Connection ~ 1175 4925
Wire Wire Line
	1175 4625 1375 4625
Wire Wire Line
	725  4625 1175 4625
Connection ~ 1175 4625
$Comp
L Device:C C11
U 1 1 5BC16EF1
P 1175 4775
F 0 "C11" H 1200 4875 50  0000 L CNN
F 1 "1uF" H 925 4775 50  0000 L CNN
F 2 "Capacitors_SMD:C_1206" H 1213 4625 50  0001 C CNN
F 3 "" H 1175 4775 50  0001 C CNN
	1    1175 4775
	1    0    0    -1  
$EndComp
$Comp
L Device:L L11
U 1 1 5BC16EEB
P 1525 4675
F 0 "L11" V 1475 4675 50  0000 C CNN
F 1 "3.3uH" V 1600 4675 50  0000 C CNN
F 2 "footprint:L_Bourns_3.5x3.2mm" H 1525 4675 50  0001 C CNN
F 3 "" H 1525 4675 50  0001 C CNN
	1    1525 4675
	0    1    1    0   
$EndComp
$Comp
L Device:L L12
U 1 1 5BC16EE5
P 3625 4675
F 0 "L12" V 3575 4675 50  0000 C CNN
F 1 "3.3uH" V 3700 4675 50  0000 C CNN
F 2 "footprint:L_Bourns_3.5x3.2mm" H 3625 4675 50  0001 C CNN
F 3 "" H 3625 4675 50  0001 C CNN
	1    3625 4675
	0    1    1    0   
$EndComp
Connection ~ 3475 4425
Wire Wire Line
	1675 4425 3475 4425
Wire Wire Line
	3475 4575 3325 4575
Wire Wire Line
	3475 4375 3475 4425
Wire Wire Line
	3325 4375 3475 4375
Wire Wire Line
	1675 4375 1825 4375
Connection ~ 1675 4425
Wire Wire Line
	1675 4375 1675 4425
Wire Wire Line
	1675 4575 1825 4575
Wire Wire Line
	1825 4475 1775 4475
Wire Wire Line
	3325 4475 3375 4475
Wire Wire Line
	3375 4875 3325 4875
Connection ~ 3375 4675
Wire Wire Line
	3375 4475 3375 4675
Wire Wire Line
	3325 4675 3375 4675
Connection ~ 1775 4675
Wire Wire Line
	1675 4675 1775 4675
Wire Wire Line
	1775 4475 1775 4675
Wire Wire Line
	1775 4875 1825 4875
Wire Wire Line
	3475 4775 3475 4925
Connection ~ 3475 4925
Connection ~ 1675 4925
Wire Wire Line
	1525 4925 1675 4925
Wire Wire Line
	3475 4975 3475 5225
Wire Wire Line
	3475 4925 3475 4975
Connection ~ 3475 4975
Wire Wire Line
	3475 4975 3325 4975
Wire Wire Line
	3325 4775 3475 4775
Wire Wire Line
	1675 5075 1675 4975
Wire Wire Line
	1675 4925 1675 4975
Connection ~ 1675 4975
Wire Wire Line
	1675 4975 1825 4975
Wire Wire Line
	1675 4775 1675 4925
Wire Wire Line
	1825 4775 1675 4775
Text GLabel 1075 4925 0    60   Input ~ 0
PGND
Text GLabel 4025 4925 2    60   Input ~ 0
PGND
$Comp
L Device:C C12
U 1 1 5BC16EC2
P 1375 4925
F 0 "C12" H 1400 5025 50  0000 L CNN
F 1 "1uF" H 1400 4825 50  0000 L CNN
F 2 "Capacitors_SMD:C_0603" H 1413 4775 50  0001 C CNN
F 3 "" H 1375 4925 50  0001 C CNN
	1    1375 4925
	0    1    1    0   
$EndComp
$Comp
L Device:C C16
U 1 1 5BC16EBC
P 3725 4925
F 0 "C16" H 3750 5025 50  0000 L CNN
F 1 "1uF" H 3750 4825 50  0000 L CNN
F 2 "Capacitors_SMD:C_0603" H 3763 4775 50  0001 C CNN
F 3 "" H 3725 4925 50  0001 C CNN
	1    3725 4925
	0    1    1    0   
$EndComp
Text GLabel 3825 4425 2    60   Input ~ 0
PGND
Connection ~ 3325 3975
$Comp
L max1968:MAX1968 U11
U 1 1 5BC16EB5
P 2575 4625
F 0 "U11" H 2945 3820 50  0000 C CNN
F 1 "MAX1968" H 2575 5425 50  0000 C CNB
F 2 "Housings_SSOP:TSSOP-28-1EP_4.4x9.7mm_Pitch0.65mm" H 2275 3875 50  0001 C CNN
F 3 "DOCUMENTATION" H 2425 3825 50  0001 C CNN
	1    2575 4625
	1    0    0    -1  
$EndComp
Wire Wire Line
	1685 2225 1835 2225
Wire Wire Line
	2585 2825 2395 2825
Text GLabel 2395 2825 0    60   Input ~ 0
PGND
Text Label 5665 1325 0    50   ~ 0
P-1
Text Label 5670 1225 0    50   ~ 0
P+1
$Comp
L Analog_DAC:MCP4728 U0
U 1 1 5BDDDC8F
P 8890 3755
F 0 "U0" H 9345 3400 50  0000 C CNN
F 1 "MCP4728" H 9200 4005 50  0000 C CNN
F 2 "Housings_SSOP:MSOP-10_3x3mm_Pitch0.5mm" H 8890 3155 50  0001 C CNN
F 3 "http://ww1.microchip.com/downloads/en/DeviceDoc/22187E.pdf" H 8890 4005 50  0001 C CNN
	1    8890 3755
	1    0    0    -1  
$EndComp
$Comp
L Device:R R100
U 1 1 5BDB3DCC
P 8645 1510
F 0 "R100" V 8560 1515 50  0000 C CNN
F 1 "0" V 8640 1515 50  0000 C CNN
F 2 "Resistors_SMD:R_0805" V 8575 1510 50  0001 C CNN
F 3 "~" H 8645 1510 50  0001 C CNN
	1    8645 1510
	0    1    1    0   
$EndComp
Text GLabel 8495 1510 0    60   Input ~ 0
GND
Text GLabel 8795 1510 2    60   Input ~ 0
PGND
Wire Wire Line
	7435 935  7435 1065
Wire Wire Line
	7220 935  7435 935 
Wire Wire Line
	7435 835  7435 765 
Wire Wire Line
	7220 835  7435 835 
$Comp
L Connector:Conn_01x02_Male J0
U 1 1 5BDA87DB
P 7020 835
F 0 "J0" H 7126 1013 50  0000 C CNN
F 1 "Power" H 7126 922 50  0000 C CNN
F 2 "footprint:Bornier_SMD" H 7020 835 50  0001 C CNN
F 3 "~" H 7020 835 50  0001 C CNN
	1    7020 835 
	1    0    0    -1  
$EndComp
Wire Wire Line
	7435 1065 7815 1065
Connection ~ 7815 1065
Wire Wire Line
	7435 765  7815 765 
Connection ~ 7815 765 
$Comp
L Device:CP1 Cc0
U 1 1 5BD9DA29
P 7815 915
F 0 "Cc0" H 7580 1015 50  0000 L CNN
F 1 "100u" H 7540 915 50  0000 L CNN
F 2 "Capacitors_SMD:CP_Elec_4x5.8" H 7815 915 50  0001 C CNN
F 3 "~" H 7815 915 50  0001 C CNN
	1    7815 915 
	1    0    0    -1  
$EndComp
Connection ~ 8605 1065
$Comp
L Device:C Cc2
U 1 1 5BD7557F
P 8605 915
F 0 "Cc2" H 8630 1015 50  0000 L CNN
F 1 "1u" H 8415 915 50  0000 L CNN
F 2 "Capacitors_SMD:C_0603" H 8643 765 50  0001 C CNN
F 3 "" H 8605 915 50  0001 C CNN
	1    8605 915 
	1    0    0    -1  
$EndComp
Connection ~ 8605 765 
Wire Wire Line
	8605 765  8810 765 
Wire Wire Line
	8240 1065 7815 1065
Wire Wire Line
	8605 1065 8240 1065
Connection ~ 8240 1065
Wire Wire Line
	7815 765  8240 765 
Wire Wire Line
	8240 765  8605 765 
Connection ~ 8240 765 
$Comp
L Device:C Cc1
U 1 1 5BD84249
P 8240 915
F 0 "Cc1" H 8265 1015 50  0000 L CNN
F 1 "22u" H 8005 915 50  0000 L CNN
F 2 "Capacitors_SMD:C_0805" H 8278 765 50  0001 C CNN
F 3 "" H 8240 915 50  0001 C CNN
	1    8240 915 
	1    0    0    -1  
$EndComp
Wire Wire Line
	8580 2550 8205 2550
Connection ~ 8580 2550
Wire Wire Line
	8580 2250 8180 2250
Wire Wire Line
	8580 2250 8715 2250
Connection ~ 8580 2250
$Comp
L Device:C Cc3
U 1 1 5BD61B78
P 8580 2400
F 0 "Cc3" H 8420 2490 50  0000 L CNN
F 1 "1uF" H 8345 2345 50  0000 L CNN
F 2 "Capacitors_SMD:C_0603" H 8618 2250 50  0001 C CNN
F 3 "" H 8580 2400 50  0001 C CNN
	1    8580 2400
	1    0    0    -1  
$EndComp
NoConn ~ 8290 3955
Text GLabel 9400 2550 2    39   Input ~ 0
En_1
NoConn ~ 1540 2325
Wire Wire Line
	1835 2325 1740 2325
Wire Wire Line
	940  635  940  1525
Wire Wire Line
	4260 635  940  635 
Wire Wire Line
	4260 1225 4260 635 
$Comp
L Device:R_Small Rr1
U 1 1 5BD0EC38
P 1640 2325
F 0 "Rr1" V 1640 2155 50  0000 C CNN
F 1 "0" V 1640 2325 50  0000 C CNN
F 2 "Resistors_SMD:R_0603" H 1640 2325 50  0001 C CNN
F 3 "~" H 1640 2325 50  0001 C CNN
	1    1640 2325
	0    1    1    0   
$EndComp
Text GLabel 9400 2250 2    39   Input ~ 0
LDAC
Wire Wire Line
	8290 3855 8215 3855
Text GLabel 8215 3855 0    39   Input ~ 0
LDAC
Text Notes 3260 775  0    39   ~ 0
U_TEC max = 4.Ref.R1/(R1+R2)
Text Notes 1720 2200 0    39   ~ 0
1MHz
Wire Wire Line
	3735 1325 3735 1225
Wire Wire Line
	3735 1225 4260 1225
Connection ~ 3735 1225
Wire Wire Line
	3735 1125 3735 1225
Text Label 4260 1225 0    50   ~ 0
Ref1=1.50V
Wire Wire Line
	3335 1225 3735 1225
NoConn ~ 9490 3955
NoConn ~ 9490 3855
Wire Wire Line
	6010 1325 5585 1325
Wire Wire Line
	6560 1350 6560 1325
Wire Wire Line
	6010 1350 6560 1350
Wire Wire Line
	6010 1325 6010 1350
Wire Wire Line
	5585 3125 2985 3125
Wire Wire Line
	5585 1325 5585 3125
Connection ~ 6010 1325
Wire Wire Line
	6060 1325 6010 1325
Wire Wire Line
	6010 1225 5535 1225
Wire Wire Line
	6560 1250 6560 1225
Wire Wire Line
	6010 1250 6560 1250
Wire Wire Line
	6010 1225 6010 1250
Wire Wire Line
	5535 1225 5535 3075
Connection ~ 6010 1225
Wire Wire Line
	6060 1225 6010 1225
Connection ~ 6060 1525
$Comp
L Connector_Generic:Conn_02x04_Odd_Even J2
U 1 1 5BC77ADA
P 6260 1325
F 0 "J2" H 6310 1642 50  0000 C CNN
F 1 "Conn_02x04_Odd_Even" H 6310 1551 50  0000 C CNN
F 2 "Pin_Headers:Pin_Header_Straight_2x04_Pitch2.54mm_SMD" H 6260 1325 50  0001 C CNN
F 3 "~" H 6260 1325 50  0001 C CNN
	1    6260 1325
	1    0    0    -1  
$EndComp
Wire Wire Line
	8765 3155 8790 3155
Text GLabel 8765 3155 0    39   Input ~ 0
GND
Wire Wire Line
	8790 3455 8890 3455
$Comp
L Device:C C0
U 1 1 5BC73EB0
P 8790 3305
F 0 "C0" H 8905 3351 50  0000 L CNN
F 1 "100n" H 8490 3315 50  0000 L CNN
F 2 "Capacitors_SMD:C_0603" H 8828 3155 50  0001 C CNN
F 3 "~" H 8790 3305 50  0001 C CNN
	1    8790 3305
	1    0    0    -1  
$EndComp
Wire Wire Line
	9840 3655 9890 3655
Wire Wire Line
	9490 3655 9540 3655
Text GLabel 9890 3655 2    50   Input ~ 0
V_1
Connection ~ 8790 3455
Wire Wire Line
	8690 3455 8790 3455
Wire Wire Line
	8290 3755 8215 3755
Wire Wire Line
	8215 3655 8290 3655
Wire Wire Line
	8890 4255 8890 4155
Wire Wire Line
	8815 4255 8890 4255
Text GLabel 1285 1325 0    39   Input ~ 0
V_1
$Comp
L Connector_Generic:Conn_02x04_Odd_Even J1
U 1 1 5BBF749E
P 9100 2350
F 0 "J1" H 9150 2667 50  0000 C CNN
F 1 "Conn_02x04" H 9155 2550 50  0000 C CNN
F 2 "Pin_Headers:Pin_Header_Straight_2x04_Pitch2.54mm_SMD" H 9100 2350 50  0001 C CNN
F 3 "~" H 9100 2350 50  0001 C CNN
	1    9100 2350
	1    0    0    -1  
$EndComp
Wire Wire Line
	1535 1225 1835 1225
Wire Wire Line
	2985 2675 4135 2675
Wire Wire Line
	3335 2825 3335 3075
Wire Wire Line
	735  2425 735  2675
Wire Wire Line
	1685 1575 1685 1725
Wire Wire Line
	3485 1575 3835 1575
Wire Wire Line
	3485 1575 3485 1725
Wire Wire Line
	1785 1825 1835 1825
Wire Wire Line
	1785 1825 1785 2025
Wire Wire Line
	3385 1825 3385 2025
Wire Wire Line
	3385 1825 3485 1825
Wire Wire Line
	1685 2075 3485 2075
Wire Wire Line
	3485 2075 3585 2075
Wire Wire Line
	1285 1325 1835 1325
Wire Wire Line
	3335 3075 5535 3075
Text GLabel 8735 560  0    60   Input ~ 0
PVDD
Text GLabel 8770 1235 0    60   Input ~ 0
PGND
Wire Wire Line
	3685 925  3835 925 
Text GLabel 3835 925  2    39   Input ~ 0
GND
Wire Wire Line
	3685 1125 3735 1125
Wire Wire Line
	3385 1125 3335 1125
Wire Wire Line
	3335 925  3385 925 
Wire Wire Line
	3335 1125 3335 925 
$Comp
L Device:R Ra1
U 1 1 5952D189
P 3535 925
F 0 "Ra1" V 3435 925 50  0000 C CNN
F 1 "100k" V 3535 925 50  0000 C CNN
F 2 "Resistors_SMD:R_0805" V 3465 925 50  0001 C CNN
F 3 "" H 3535 925 50  0001 C CNN
	1    3535 925 
	0    1    1    0   
$EndComp
$Comp
L Device:R Ra2
U 1 1 5952D0F6
P 3535 1125
F 0 "Ra2" V 3435 1125 50  0000 C CNN
F 1 "50k" V 3535 1125 50  0000 C CNN
F 2 "Resistors_SMD:R_0805" V 3465 1125 50  0001 C CNN
F 3 "" H 3535 1125 50  0001 C CNN
	1    3535 1125
	0    1    1    0   
$EndComp
Wire Wire Line
	1635 1425 1635 1525
Wire Wire Line
	1835 1425 1635 1425
Wire Wire Line
	940  1525 1535 1525
Wire Wire Line
	1535 1525 1635 1525
Connection ~ 1535 1525
$Comp
L Device:C C4
U 1 1 5952C782
P 1535 1375
F 0 "C4" H 1560 1475 50  0000 L CNN
F 1 "1uF" H 1385 1275 50  0000 L CNN
F 2 "Capacitors_SMD:C_0603" H 1573 1225 50  0001 C CNN
F 3 "" H 1535 1375 50  0001 C CNN
	1    1535 1375
	1    0    0    -1  
$EndComp
Connection ~ 1535 1225
Wire Wire Line
	1535 1175 1535 1225
Wire Wire Line
	1535 875  1785 875 
Wire Wire Line
	1285 875  1535 875 
Connection ~ 1535 875 
$Comp
L Device:C C3
U 1 1 5952C137
P 1535 1025
F 0 "C3" H 1560 1125 50  0000 L CNN
F 1 "1uF" H 1385 925 50  0000 L CNN
F 2 "Capacitors_SMD:C_0603" H 1573 875 50  0001 C CNN
F 3 "" H 1535 1025 50  0001 C CNN
	1    1535 1025
	1    0    0    -1  
$EndComp
Wire Wire Line
	3735 1325 3335 1325
Wire Wire Line
	2985 2675 2985 3125
Wire Wire Line
	4535 2675 4535 2825
Wire Wire Line
	4535 2475 4535 2675
Connection ~ 4535 2675
Wire Wire Line
	4435 2675 4535 2675
$Comp
L Device:C C8
U 1 1 5952AFBD
P 4285 2675
F 0 "C8" H 4310 2775 50  0000 L CNN
F 1 "10uF" V 4235 2425 50  0000 L CNN
F 2 "Capacitors_SMD:C_0603" H 4323 2525 50  0001 C CNN
F 3 "" H 4285 2675 50  0001 C CNN
	1    4285 2675
	0    1    1    0   
$EndComp
Connection ~ 2985 2675
Wire Wire Line
	735  2675 2985 2675
Wire Wire Line
	4535 2825 3835 2825
Wire Wire Line
	3335 2825 3535 2825
Connection ~ 3335 2825
Wire Wire Line
	3335 2425 3335 2825
$Comp
L Device:R Rsense1
U 1 1 5952ACB2
P 3685 2825
F 0 "Rsense1" V 3765 2825 50  0000 C CNN
F 1 "50m" V 3685 2825 50  0000 C CNN
F 2 "Resistors_SMD:R_0805" V 3615 2825 50  0001 C CNN
F 3 "" H 3685 2825 50  0001 C CNN
	1    3685 2825
	0    -1   -1   0   
$EndComp
Wire Wire Line
	1785 1125 1835 1125
Wire Wire Line
	1785 875  1785 1125
Text GLabel 1285 875  0    60   Input ~ 0
PVDD
Wire Wire Line
	3435 2475 4535 2475
Wire Wire Line
	3435 2325 3435 2475
Wire Wire Line
	3335 2325 3435 2325
Wire Wire Line
	3485 2375 4035 2375
Text GLabel 4035 2375 2    60   Input ~ 0
PVDD
Text GLabel 8180 2250 0    60   Input ~ 0
V3
Text GLabel 8205 2550 0    60   Input ~ 0
GND
Text GLabel 8900 2250 0    39   Input ~ 0
SCL
Text GLabel 8900 2350 0    39   Input ~ 0
SDA
Text GLabel 8215 3655 0    39   Input ~ 0
SCL
Text GLabel 8215 3755 0    39   Input ~ 0
SDA
Text GLabel 8690 3455 0    39   Input ~ 0
V3
Text GLabel 8815 4255 0    39   Input ~ 0
GND
Wire Wire Line
	3335 2225 4035 2225
Text GLabel 4035 2225 2    39   Input ~ 0
En_1
Wire Wire Line
	3735 1425 3835 1425
Wire Wire Line
	3335 1425 3435 1425
Text GLabel 3835 1425 2    39   Input ~ 0
GND
$Comp
L Device:C C5
U 1 1 59526427
P 3585 1425
F 0 "C5" H 3610 1525 50  0000 L CNN
F 1 "0.01uF" V 3535 1125 50  0000 L CNN
F 2 "Capacitors_SMD:C_0603" H 3623 1275 50  0001 C CNN
F 3 "" H 3585 1425 50  0001 C CNN
	1    3585 1425
	0    1    1    0   
$EndComp
Wire Wire Line
	1285 1225 1535 1225
Text GLabel 1285 1225 0    39   Input ~ 0
GND
Connection ~ 4535 2475
Wire Wire Line
	4535 1775 4535 2475
Wire Wire Line
	735  2425 1835 2425
Connection ~ 735  2425
Wire Wire Line
	735  1775 735  2425
Wire Wire Line
	3835 1825 3835 1775
Wire Wire Line
	3785 1825 3835 1825
Wire Wire Line
	3935 2075 4035 2075
Wire Wire Line
	3885 2075 3935 2075
Connection ~ 3935 2075
Wire Wire Line
	3935 1775 4535 1775
Wire Wire Line
	3835 1775 3935 1775
Connection ~ 3935 1775
$Comp
L Device:C C7
U 1 1 59525EC7
P 3935 1925
F 0 "C7" H 3960 2025 50  0000 L CNN
F 1 "1uF" H 4035 1925 50  0000 L CNN
F 2 "Capacitors_SMD:C_1206" H 3973 1775 50  0001 C CNN
F 3 "" H 3935 1925 50  0001 C CNN
	1    3935 1925
	1    0    0    -1  
$EndComp
Wire Wire Line
	1385 1775 1385 1825
Wire Wire Line
	1185 2075 1235 2075
Wire Wire Line
	1085 2075 1185 2075
Connection ~ 1185 2075
Wire Wire Line
	1185 1775 1385 1775
Wire Wire Line
	735  1775 1185 1775
Connection ~ 1185 1775
$Comp
L Device:C C1
U 1 1 59525C4A
P 1185 1925
F 0 "C1" H 1210 2025 50  0000 L CNN
F 1 "1uF" H 935 1925 50  0000 L CNN
F 2 "Capacitors_SMD:C_0603" H 1223 1775 50  0001 C CNN
F 3 "" H 1185 1925 50  0001 C CNN
	1    1185 1925
	1    0    0    -1  
$EndComp
$Comp
L Device:L L1
U 1 1 59525789
P 1535 1825
F 0 "L1" V 1485 1825 50  0000 C CNN
F 1 "3.3uH" V 1610 1825 50  0000 C CNN
F 2 "footprint:L_Bourns_3.5x3.2mm" H 1535 1825 50  0001 C CNN
F 3 "" H 1535 1825 50  0001 C CNN
	1    1535 1825
	0    1    1    0   
$EndComp
$Comp
L Device:L L2
U 1 1 59525520
P 3635 1825
F 0 "L2" V 3585 1825 50  0000 C CNN
F 1 "3.3uH" V 3710 1825 50  0000 C CNN
F 2 "footprint:L_Bourns_3.5x3.2mm" H 3635 1825 50  0001 C CNN
F 3 "" H 3635 1825 50  0001 C CNN
	1    3635 1825
	0    1    1    0   
$EndComp
Connection ~ 3485 1575
Wire Wire Line
	1685 1575 3485 1575
Wire Wire Line
	3485 1725 3335 1725
Wire Wire Line
	3485 1525 3485 1575
Wire Wire Line
	3335 1525 3485 1525
Wire Wire Line
	1685 1525 1835 1525
Connection ~ 1685 1575
Wire Wire Line
	1685 1525 1685 1575
Wire Wire Line
	1685 1725 1835 1725
Wire Wire Line
	1835 1625 1785 1625
Wire Wire Line
	3335 1625 3385 1625
Wire Wire Line
	3385 2025 3335 2025
Connection ~ 3385 1825
Wire Wire Line
	3385 1625 3385 1825
Wire Wire Line
	3335 1825 3385 1825
Connection ~ 1785 1825
Wire Wire Line
	1685 1825 1785 1825
Wire Wire Line
	1785 1625 1785 1825
Wire Wire Line
	1785 2025 1835 2025
Wire Wire Line
	3485 1925 3485 2075
Connection ~ 3485 2075
Connection ~ 1685 2075
Wire Wire Line
	1535 2075 1685 2075
Wire Wire Line
	3485 2125 3485 2375
Wire Wire Line
	3485 2075 3485 2125
Connection ~ 3485 2125
Wire Wire Line
	3485 2125 3335 2125
Wire Wire Line
	3335 1925 3485 1925
Wire Wire Line
	1685 2225 1685 2125
Wire Wire Line
	1685 2075 1685 2125
Connection ~ 1685 2125
Wire Wire Line
	1685 2125 1835 2125
Wire Wire Line
	1685 1925 1685 2075
Wire Wire Line
	1835 1925 1685 1925
Text GLabel 1085 2075 0    60   Input ~ 0
PGND
Text GLabel 4035 2075 2    60   Input ~ 0
PGND
$Comp
L Device:C C2
U 1 1 59524EE0
P 1385 2075
F 0 "C2" H 1410 2175 50  0000 L CNN
F 1 "1uF" H 1410 1975 50  0000 L CNN
F 2 "Capacitors_SMD:C_0603" H 1423 1925 50  0001 C CNN
F 3 "" H 1385 2075 50  0001 C CNN
	1    1385 2075
	0    1    1    0   
$EndComp
$Comp
L Device:C C6
U 1 1 59524D8D
P 3735 2075
F 0 "C6" H 3760 2175 50  0000 L CNN
F 1 "1uF" H 3760 1975 50  0000 L CNN
F 2 "Capacitors_SMD:C_0603" H 3773 1925 50  0001 C CNN
F 3 "" H 3735 2075 50  0001 C CNN
	1    3735 2075
	0    1    1    0   
$EndComp
Text GLabel 3835 1575 2    60   Input ~ 0
PGND
Connection ~ 3335 1125
$Comp
L max1968:MAX1968 U1
U 1 1 59524177
P 2585 1775
F 0 "U1" H 2985 975 50  0000 C CNN
F 1 "MAX1968" H 2585 2575 50  0000 C CNB
F 2 "Housings_SSOP:TSSOP-28-1EP_4.4x9.7mm_Pitch0.65mm" H 2285 1025 50  0001 C CNN
F 3 "DOCUMENTATION" H 2435 975 50  0001 C CNN
	1    2585 1775
	1    0    0    -1  
$EndComp
$Comp
L Device:R Rd0
U 1 1 5BC518B7
P 8990 1085
F 0 "Rd0" V 9070 1085 50  0000 C CNN
F 1 "1k" V 8990 1085 50  0000 C CNN
F 2 "Resistors_SMD:R_0805" V 8920 1085 50  0001 C CNN
F 3 "" H 8990 1085 50  0001 C CNN
	1    8990 1085
	1    0    0    -1  
$EndComp
$Comp
L Device:LED D0
U 1 1 5BC518BE
P 8990 710
F 0 "D0" H 8990 610 50  0000 C CNN
F 1 "LED" H 8990 835 50  0000 C CNN
F 2 "LEDs:LED_0805" H 8990 710 50  0001 C CNN
F 3 "" H 8990 710 50  0001 C CNN
	1    8990 710 
	0    -1   -1   0   
$EndComp
Wire Wire Line
	8990 935  8990 860 
$Comp
L transistors:MMBT3904 Q2
U 1 1 5BC518E5
P 7875 5540
F 0 "Q2" H 8075 5615 50  0000 L CNN
F 1 "MMBT3904" H 8075 5540 50  0000 L CNN
F 2 "footprint:SOT523" H 8075 5465 50  0001 L CIN
F 3 "" H 7875 5540 50  0001 L CNN
	1    7875 5540
	1    0    0    -1  
$EndComp
$Comp
L transistors:MMBT3904 Q3
U 1 1 5BC518EC
P 9175 5540
F 0 "Q3" H 9375 5615 50  0000 L CNN
F 1 "MMBT3904" H 9375 5540 50  0000 L CNN
F 2 "footprint:SOT523" H 9375 5465 50  0001 L CIN
F 3 "" H 9175 5540 50  0001 L CNN
	1    9175 5540
	-1   0    0    1   
$EndComp
Wire Wire Line
	7675 5340 7975 5340
Wire Wire Line
	7675 5340 7675 5540
Wire Wire Line
	9000 5740 9075 5740
Wire Wire Line
	9375 5740 9375 5540
Wire Wire Line
	8575 5340 8575 5040
Wire Wire Line
	8575 5040 9075 5040
Connection ~ 7975 5340
Wire Wire Line
	7975 5740 8050 5740
Wire Wire Line
	8050 5740 8050 5390
Wire Wire Line
	8050 5390 8625 5390
Wire Wire Line
	8625 5390 8625 5140
Wire Wire Line
	8625 5140 9000 5140
Wire Wire Line
	9075 5340 9075 5040
Connection ~ 9075 5040
Wire Wire Line
	9000 5740 9000 5140
Connection ~ 9000 5140
Connection ~ 9075 5740
Wire Wire Line
	7975 5340 8575 5340
Wire Wire Line
	9075 5040 9425 5040
Wire Wire Line
	9000 5140 9425 5140
Wire Wire Line
	9075 5740 9375 5740
Wire Wire Line
	8735 560  8810 560 
Wire Wire Line
	8810 765  8810 560 
Connection ~ 8810 560 
Wire Wire Line
	8810 560  8990 560 
Wire Wire Line
	8990 1235 8850 1235
Wire Wire Line
	8850 1065 8850 1235
Wire Wire Line
	8605 1065 8850 1065
Connection ~ 8850 1235
Wire Wire Line
	8850 1235 8770 1235
NoConn ~ 9400 2350
$Comp
L Device:R_Small Rr3
U 1 1 5BE9ADD1
P 9525 5140
F 0 "Rr3" V 9525 4970 50  0000 C CNN
F 1 "0" V 9525 5140 50  0000 C CNN
F 2 "Resistors_SMD:R_0603" H 9525 5140 50  0001 C CNN
F 3 "~" H 9525 5140 50  0001 C CNN
	1    9525 5140
	0    -1   -1   0   
$EndComp
$Comp
L Device:R_Small Rr2
U 1 1 5BEB25AF
P 9525 5040
F 0 "Rr2" V 9525 4870 50  0000 C CNN
F 1 "0" V 9525 5040 50  0000 C CNN
F 2 "Resistors_SMD:R_0603" H 9525 5040 50  0001 C CNN
F 3 "~" H 9525 5040 50  0001 C CNN
	1    9525 5040
	0    -1   -1   0   
$EndComp
Wire Wire Line
	8715 2250 8715 2450
Wire Wire Line
	8715 2450 8900 2450
Wire Wire Line
	8580 2550 8900 2550
$EndSCHEMATC
